{
    "flags": {},
    "imageData": null,
    "imageHeight": 4210,
    "imagePath": "00-三角塔-汇总_0.png",
    "imageWidth": 4210,
    "shapes": [
        {
            "flags": {},
            "group_id": null,
            "label": "d1",
            "points": [
                [
                    365,
                    2445
                ],
                [
                    452,
                    2587
                ]
            ],
            "shape_type": "rectangle"
        },
        {
            "flags": {},
            "group_id": null,
            "label": "v1",
            "points": [
                [
                    685,
                    2520
                ],
                [
                    879,
                    2595
                ]
            ],
            "shape_type": "rectangle"
        },
        {
            "flags": {},
            "group_id": null,
            "label": "d1",
            "points": [
                [
                    1065,
                    2446
                ],
                [
                    1154,
                    2587
                ]
            ],
            "shape_type": "rectangle"
        },
        {
            "flags": {},
            "group_id": null,
            "label": "k1",
            "points": [
                [
                    865,
                    2057
                ],
                [
                    919,
                    2081
                ]
            ],
            "shape_type": "rectangle"
        },
        {
            "flags": {},
            "group_id": null,
            "label": "vt3",
            "points": [
                [
                    559,
                    1351
                ],
                [
                    1108,
                    1940
                ]
            ],
            "shape_type": "rectangle"
        },
        {
            "flags": {},
            "group_id": null,
            "label": "n1",
            "points": [
                [
                    1469,
                    1366
                ],
                [
                    2631,
                    1980
                ]
            ],
            "shape_type": "rectangle"
        },
        {
            "flags": {},
            "group_id": null,
            "label": "j1",
            "points": [
                [
                    2045,
                    1429
                ],
                [
                    2071,
                    1464
                ]
            ],
            "shape_type": "rectangle"
        },
        {
            "flags": {},
            "group_id": null,
            "label": "j1",
            "points": [
                [
                    1474,
                    1657
                ],
                [
                    1814,
                    1703
                ]
            ],
            "shape_type": "rectangle"
        },
        {
            "flags": {},
            "group_id": null,
            "label": "wz3",
            "points": [
                [
                    1689,
                    1908
                ],
                [
                    2197,
                    1961
                ]
            ],
            "shape_type": "rectangle"
        },
        {
            "flags": {},
            "group_id": null,
            "label": "j1",
            "points": [
                [
                    2291,
                    1934
                ],
                [
                    2631,
                    1979
                ]
            ],
            "shape_type": "rectangle"
        },
        {
            "flags": {},
            "group_id": null,
            "label": "j1",
            "points": [
                [
                    2264,
                    1493
                ],
                [
                    2579,
                    1538
                ]
            ],
            "shape_type": "rectangle"
        },
        {
            "flags": {},
            "group_id": null,
            "label": "wz3",
            "points": [
                [
                    1713,
                    2097
                ],
                [
                    1843,
                    2142
                ]
            ],
            "shape_type": "rectangle"
        },
        {
            "flags": {},
            "group_id": null,
            "label": "wz3",
            "points": [
                [
                    1390,
                    2276
                ],
                [
                    1519,
                    2321
                ]
            ],
            "shape_type": "rectangle"
        },
        {
            "flags": {},
            "group_id": null,
            "label": "wz3",
            "points": [
                [
                    1395,
                    2595
                ],
                [
                    1524,
                    2640
                ]
            ],
            "shape_type": "rectangle"
        },
        {
            "flags": {},
            "group_id": null,
            "label": "wz3",
            "points": [
                [
                    1816,
                    2706
                ],
                [
                    1946,
                    2751
                ]
            ],
            "shape_type": "rectangle"
        },
        {
            "flags": {},
            "group_id": null,
            "label": "wz3",
            "points": [
                [
                    2010,
                    2618
                ],
                [
                    2140,
                    2663
                ]
            ],
            "shape_type": "rectangle"
        },
        {
            "flags": {},
            "group_id": null,
            "label": "wz3",
            "points": [
                [
                    2029,
                    2246
                ],
                [
                    2159,
                    2291
                ]
            ],
            "shape_type": "rectangle"
        },
        {
            "flags": {},
            "group_id": null,
            "label": "va1",
            "points": [
                [
                    1535,
                    2565
                ],
                [
                    1566,
                    2604
                ]
            ],
            "shape_type": "rectangle"
        },
        {
            "flags": {},
            "group_id": null,
            "label": "va1",
            "points": [
                [
                    1775,
                    2704
                ],
                [
                    1810,
                    2738
                ]
            ],
            "shape_type": "rectangle"
        },
        {
            "flags": {},
            "group_id": null,
            "label": "va1",
            "points": [
                [
                    2000,
                    2573
                ],
                [
                    2035,
                    2608
                ]
            ],
            "shape_type": "rectangle"
        },
        {
            "flags": {},
            "group_id": null,
            "label": "va1",
            "points": [
                [
                    1996,
                    2297
                ],
                [
                    2034,
                    2329
                ]
            ],
            "shape_type": "rectangle"
        },
        {
            "flags": {},
            "group_id": null,
            "label": "va1",
            "points": [
                [
                    1769,
                    2167
                ],
                [
                    1807,
                    2200
                ]
            ],
            "shape_type": "rectangle"
        },
        {
            "flags": {},
            "group_id": null,
            "label": "va1",
            "points": [
                [
                    1535,
                    2305
                ],
                [
                    1567,
                    2343
                ]
            ],
            "shape_type": "rectangle"
        },
        {
            "flags": {},
            "group_id": null,
            "label": "vp1-2",
            "points": [
                [
                    1608,
                    2277
                ],
                [
                    1960,
                    2628
                ]
            ],
            "shape_type": "rectangle"
        },
        {
            "flags": {},
            "group_id": null,
            "label": "v1",
            "points": [
                [
                    1706,
                    2760
                ],
                [
                    1867,
                    2821
                ]
            ],
            "shape_type": "rectangle"
        },
        {
            "flags": {},
            "group_id": null,
            "label": "wz3",
            "points": [
                [
                    2623,
                    2093
                ],
                [
                    2807,
                    2165
                ]
            ],
            "shape_type": "rectangle"
        },
        {
            "flags": {},
            "group_id": null,
            "label": "wz3",
            "points": [
                [
                    2241,
                    2592
                ],
                [
                    2442,
                    2669
                ]
            ],
            "shape_type": "rectangle"
        },
        {
            "flags": {},
            "group_id": null,
            "label": "v1",
            "points": [
                [
                    2610,
                    2759
                ],
                [
                    2771,
                    2821
                ]
            ],
            "shape_type": "rectangle"
        },
        {
            "flags": {},
            "group_id": null,
            "label": "wz3",
            "points": [
                [
                    2931,
                    2625
                ],
                [
                    3116,
                    2697
                ]
            ],
            "shape_type": "rectangle"
        },
        {
            "flags": {},
            "group_id": null,
            "label": "va1",
            "points": [
                [
                    2446,
                    2566
                ],
                [
                    2478,
                    2603
                ]
            ],
            "shape_type": "rectangle"
        },
        {
            "flags": {},
            "group_id": null,
            "label": "va1",
            "points": [
                [
                    2911,
                    2574
                ],
                [
                    2946,
                    2609
                ]
            ],
            "shape_type": "rectangle"
        },
        {
            "flags": {},
            "group_id": null,
            "label": "va1",
            "points": [
                [
                    2680,
                    2167
                ],
                [
                    2718,
                    2200
                ]
            ],
            "shape_type": "rectangle"
        },
        {
            "flags": {},
            "group_id": null,
            "label": "vp1-2",
            "points": [
                [
                    2517,
                    2276
                ],
                [
                    2871,
                    2629
                ]
            ],
            "shape_type": "rectangle"
        },
        {
            "flags": {},
            "group_id": null,
            "label": "wz3",
            "points": [
                [
                    3084,
                    1885
                ],
                [
                    3269,
                    1920
                ]
            ],
            "shape_type": "rectangle"
        },
        {
            "flags": {},
            "group_id": null,
            "label": "wz3",
            "points": [
                [
                    3104,
                    1602
                ],
                [
                    3233,
                    1647
                ]
            ],
            "shape_type": "rectangle"
        },
        {
            "flags": {},
            "group_id": null,
            "label": "d1",
            "points": [
                [
                    3316,
                    1452
                ],
                [
                    3404,
                    1607
                ]
            ],
            "shape_type": "rectangle"
        },
        {
            "flags": {},
            "group_id": null,
            "label": "wz4",
            "points": [
                [
                    684,
                    2228
                ],
                [
                    812,
                    2272
                ]
            ],
            "shape_type": "rectangle"
        },
        {
            "flags": {},
            "group_id": null,
            "label": "d1",
            "points": [
                [
                    3314,
                    1716
                ],
                [
                    3402,
                    1857
                ]
            ],
            "shape_type": "rectangle"
        },
        {
            "flags": {},
            "group_id": null,
            "label": "d1",
            "points": [
                [
                    3726,
                    1451
                ],
                [
                    3813,
                    1606
                ]
            ],
            "shape_type": "rectangle"
        },
        {
            "flags": {},
            "group_id": null,
            "label": "d1",
            "points": [
                [
                    3743,
                    1715
                ],
                [
                    3830,
                    1856
                ]
            ],
            "shape_type": "rectangle"
        },
        {
            "flags": {},
            "group_id": null,
            "label": "a1-1",
            "points": [
                [
                    3368,
                    1583
                ],
                [
                    3392,
                    1674
                ]
            ],
            "shape_type": "rectangle"
        },
        {
            "flags": {},
            "group_id": null,
            "label": "a1-1",
            "points": [
                [
                    3430,
                    1584
                ],
                [
                    3454,
                    1674
                ]
            ],
            "shape_type": "rectangle"
        },
        {
            "flags": {},
            "group_id": null,
            "label": "a1-4",
            "points": [
                [
                    3562,
                    1583
                ],
                [
                    3586,
                    1675
                ]
            ],
            "shape_type": "rectangle"
        },
        {
            "flags": {},
            "group_id": null,
            "label": "a1-3",
            "points": [
                [
                    3649,
                    1583
                ],
                [
                    3674,
                    1676
                ]
            ],
            "shape_type": "rectangle"
        },
        {
            "flags": {},
            "group_id": null,
            "label": "a1-4",
            "points": [
                [
                    3703,
                    1583
                ],
                [
                    3727,
                    1676
                ]
            ],
            "shape_type": "rectangle"
        },
        {
            "flags": {},
            "group_id": null,
            "label": "a1-3",
            "points": [
                [
                    3746,
                    1583
                ],
                [
                    3770,
                    1676
                ]
            ],
            "shape_type": "rectangle"
        },
        {
            "flags": {},
            "group_id": null,
            "label": "a1-1",
            "points": [
                [
                    3368,
                    1825
                ],
                [
                    3393,
                    1915
                ]
            ],
            "shape_type": "rectangle"
        },
        {
            "flags": {},
            "group_id": null,
            "label": "a1-4",
            "points": [
                [
                    3562,
                    1824
                ],
                [
                    3586,
                    1916
                ]
            ],
            "shape_type": "rectangle"
        },
        {
            "flags": {},
            "group_id": null,
            "label": "a1-3",
            "points": [
                [
                    3745,
                    1824
                ],
                [
                    3769,
                    1915
                ]
            ],
            "shape_type": "rectangle"
        },
        {
            "flags": {},
            "group_id": null,
            "label": "c1",
            "points": [
                [
                    3572,
                    1359
                ],
                [
                    3576,
                    1510
                ]
            ],
            "shape_type": "rectangle"
        },
        {
            "flags": {},
            "group_id": null,
            "label": "h1",
            "points": [
                [
                    3943,
                    1447
                ],
                [
                    4078,
                    1513
                ]
            ],
            "shape_type": "rectangle"
        },
        {
            "flags": {},
            "group_id": null,
            "label": "h1",
            "points": [
                [
                    3943,
                    1604
                ],
                [
                    4078,
                    1670
                ]
            ],
            "shape_type": "rectangle"
        },
        {
            "flags": {},
            "group_id": null,
            "label": "h1",
            "points": [
                [
                    3945,
                    1839
                ],
                [
                    4079,
                    1903
                ]
            ],
            "shape_type": "rectangle"
        },
        {
            "flags": {},
            "group_id": null,
            "label": "h1",
            "points": [
                [
                    3842,
                    3224
                ],
                [
                    3977,
                    3291
                ]
            ],
            "shape_type": "rectangle"
        },
        {
            "flags": {},
            "group_id": null,
            "label": "v1",
            "points": [
                [
                    3487,
                    3384
                ],
                [
                    3699,
                    3456
                ]
            ],
            "shape_type": "rectangle"
        },
        {
            "flags": {},
            "group_id": null,
            "label": "wz4",
            "points": [
                [
                    3512,
                    3166
                ],
                [
                    3640,
                    3212
                ]
            ],
            "shape_type": "rectangle"
        },
        {
            "flags": {},
            "group_id": null,
            "label": "t3-m",
            "points": [
                [
                    3349,
                    1358
                ],
                [
                    3797,
                    3291
                ]
            ],
            "shape_type": "rectangle"
        },
        {
            "flags": {},
            "group_id": null,
            "label": "p1-1",
            "points": [
                [
                    3390,
                    1555
                ],
                [
                    3759,
                    1708
                ]
            ],
            "shape_type": "rectangle"
        },
        {
            "flags": {},
            "group_id": null,
            "label": "p1-1",
            "points": [
                [
                    3390,
                    1795
                ],
                [
                    3759,
                    1948
                ]
            ],
            "shape_type": "rectangle"
        },
        {
            "flags": {},
            "group_id": null,
            "label": "btl",
            "points": [
                [
                    2347,
                    3836
                ],
                [
                    4165,
                    4146
                ]
            ],
            "shape_type": "rectangle"
        },
        {
            "flags": {},
            "group_id": null,
            "label": "sm",
            "points": [
                [
                    2004,
                    3094
                ],
                [
                    3280,
                    3686
                ]
            ],
            "shape_type": "rectangle"
        },
        {
            "flags": {},
            "group_id": null,
            "label": "tl",
            "points": [
                [
                    566,
                    4057
                ],
                [
                    1443,
                    4113
                ]
            ],
            "shape_type": "rectangle"
        },
        {
            "flags": {},
            "group_id": null,
            "label": "mask",
            "lineType": [
                "LLLLLLLLLLLLLLLLLLLLL"
            ],
            "points": [
                [
                    1118,
                    1345
                ],
                [
                    1106,
                    1955
                ],
                [
                    1034,
                    1955
                ],
                [
                    1037,
                    2421
                ],
                [
                    1153,
                    2437
                ],
                [
                    1165,
                    2586
                ],
                [
                    1131,
                    2603
                ],
                [
                    348,
                    2605
                ],
                [
                    373,
                    2429
                ],
                [
                    474,
                    2417
                ],
                [
                    475,
                    2044
                ],
                [
                    862,
                    2045
                ],
                [
                    859,
                    1867
                ],
                [
                    662,
                    1807
                ],
                [
                    601,
                    1705
                ],
                [
                    532,
                    1691
                ],
                [
                    559,
                    1571
                ],
                [
                    686,
                    1462
                ],
                [
                    833,
                    1394
                ],
                [
                    974,
                    1338
                ],
                [
                    1118,
                    1345
                ]
            ],
            "shape_type": "polygon"
        },
        {
            "flags": {},
            "group_id": null,
            "label": "mask",
            "lineType": [
                "LLLLLLL"
            ],
            "points": [
                [
                    336,
                    2804
                ],
                [
                    1926,
                    2804
                ],
                [
                    1926,
                    4031
                ],
                [
                    336,
                    4031
                ]
            ],
            "shape_type": "polygon"
        },
        {
            "flags": {},
            "group_id": null,
            "label": "mask",
            "lineType": [
                "LLLLLLLLLLLL"
            ],
            "points": [
                [
                    556,
                    4047
                ],
                [
                    1453,
                    4047
                ],
                [
                    1453,
                    4123
                ],
                [
                    556,
                    4123
                ]
            ],
            "shape_type": "polygon"
        },
        {
            "flags": {},
            "group_id": null,
            "label": "mask",
            "lineType": [
                "LLLLLLLLLLLLLLLLLL"
            ],
            "points": [
                [
                    1994,
                    3084
                ],
                [
                    3290,
                    3084
                ],
                [
                    3290,
                    3696
                ],
                [
                    1994,
                    3696
                ]
            ],
            "shape_type": "polygon"
        },
        {
            "flags": {},
            "group_id": null,
            "label": "mask",
            "lineType": [
                "LLLLLLLLLLLLLLLLL"
            ],
            "points": [
                [
                    1459,
                    1356
                ],
                [
                    2641,
                    1356
                ],
                [
                    2641,
                    1990
                ],
                [
                    1459,
                    1990
                ]
            ],
            "shape_type": "polygon"
        },
        {
            "flags": {},
            "group_id": null,
            "label": "mask",
            "lineType": [
                "LLLLLLLLLLLLLLL"
            ],
            "points": [
                [
                    1708,
                    2084
                ],
                [
                    1841,
                    2086
                ],
                [
                    2160,
                    2236
                ],
                [
                    2169,
                    2282
                ],
                [
                    2151,
                    2647
                ],
                [
                    2138,
                    2674
                ],
                [
                    1945,
                    2760
                ],
                [
                    1868,
                    2827
                ],
                [
                    1687,
                    2830
                ],
                [
                    1521,
                    2652
                ],
                [
                    1386,
                    2648
                ],
                [
                    1386,
                    2597
                ],
                [
                    1379,
                    2311
                ],
                [
                    1392,
                    2274
                ],
                [
                    1708,
                    2084
                ]
            ],
            "shape_type": "polygon"
        },
        {
            "flags": {},
            "group_id": null,
            "label": "mask",
            "lineType": [
                "LLLLLLLLLLL"
            ],
            "points": [
                [
                    2619,
                    2086
                ],
                [
                    2815,
                    2089
                ],
                [
                    2945,
                    2324
                ],
                [
                    3125,
                    2630
                ],
                [
                    3103,
                    2703
                ],
                [
                    2769,
                    2834
                ],
                [
                    2606,
                    2829
                ],
                [
                    2227,
                    2671
                ],
                [
                    2253,
                    2582
                ],
                [
                    2458,
                    2289
                ],
                [
                    2619,
                    2086
                ]
            ],
            "shape_type": "polygon"
        },
        {
            "flags": {},
            "group_id": null,
            "label": "mask",
            "lineType": [
                "LLLLLLLLLLLLLLLLLLLLLLLLLLLL"
            ],
            "points": [
                [
                    3570,
                    1345
                ],
                [
                    4077,
                    1449
                ],
                [
                    4096,
                    1905
                ],
                [
                    3957,
                    1916
                ],
                [
                    3754,
                    1959
                ],
                [
                    3703,
                    1965
                ],
                [
                    3740,
                    3001
                ],
                [
                    3790,
                    3042
                ],
                [
                    3802,
                    3116
                ],
                [
                    3809,
                    3228
                ],
                [
                    3887,
                    3219
                ],
                [
                    3985,
                    3224
                ],
                [
                    3985,
                    3280
                ],
                [
                    3893,
                    3304
                ],
                [
                    3707,
                    3302
                ],
                [
                    3706,
                    3466
                ],
                [
                    3471,
                    3465
                ],
                [
                    3469,
                    3302
                ],
                [
                    3343,
                    3298
                ],
                [
                    3343,
                    3250
                ],
                [
                    3415,
                    3004
                ],
                [
                    3481,
                    1962
                ],
                [
                    3083,
                    1941
                ],
                [
                    3075,
                    1905
                ],
                [
                    3098,
                    1597
                ],
                [
                    3318,
                    1465
                ],
                [
                    3336,
                    1446
                ],
                [
                    3570,
                    1345
                ]
            ],
            "shape_type": "polygon"
        },
        {
            "flags": {},
            "group_id": null,
            "label": "mask",
            "lineType": [
                "LLLLL"
            ],
            "points": [
                [
                    2337,
                    3826
                ],
                [
                    4175,
                    3826
                ],
                [
                    4175,
                    4156
                ],
                [
                    2337,
                    4156
                ]
            ],
            "shape_type": "polygon"
        },
        {
            "flags": {},
            "group_id": null,
            "label": "wztl",
            "points": [
                [
                    737,
                    4058
                ],
                [
                    856,
                    4101
                ]
            ],
            "shape_type": "rectangle"
        },
        {
            "flags": {},
            "group_id": null,
            "label": "wztl",
            "points": [
                [
                    972,
                    4062
                ],
                [
                    1092,
                    4112
                ]
            ],
            "shape_type": "rectangle"
        },
        {
            "flags": {},
            "group_id": null,
            "label": "xtl",
            "points": [
                [
                    900,
                    4068
                ],
                [
                    952,
                    4111
                ]
            ],
            "shape_type": "rectangle"
        },
        {
            "flags": {},
            "group_id": null,
            "label": "xtl",
            "points": [
                [
                    1128,
                    4068
                ],
                [
                    1181,
                    4111
                ]
            ],
            "shape_type": "rectangle"
        },
        {
            "flags": {},
            "group_id": null,
            "label": "wztl",
            "points": [
                [
                    1221,
                    4070
                ],
                [
                    1339,
                    4112
                ]
            ],
            "shape_type": "rectangle"
        },
        {
            "flags": {},
            "group_id": null,
            "label": "xtl",
            "points": [
                [
                    1390,
                    4071
                ],
                [
                    1443,
                    4112
                ]
            ],
            "shape_type": "rectangle"
        },
        {
            "flags": {},
            "group_id": null,
            "label": "wlb",
            "points": [
                [
                    346,
                    2814
                ],
                [
                    1916,
                    4021
                ]
            ],
            "shape_type": "rectangle"
        },
        {
            "flags": {},
            "group_id": null,
            "label": "Ns",
            "points": [
                [
                    2116,
                    1727
                ]
            ],
            "shape_type": "point"
        },
        {
            "flags": {},
            "group_id": null,
            "label": "Ne",
            "points": [
                [
                    2115,
                    1514
                ]
            ],
            "shape_type": "point"
        }
    ],
    "version": "4.5.7"
}