{
    "flags": {},
    "imageData": null,
    "imageHeight": 4210,
    "imagePath": "00-四角塔-汇总_29.png",
    "imageWidth": 4210,
    "shapes": [
        {
            "flags": {},
            "group_id": null,
            "label": "d1",
            "points": [
                [
                    529,
                    1551
                ],
                [
                    605,
                    1635
                ]
            ],
            "shape_type": "rectangle"
        },
        {
            "flags": {},
            "group_id": null,
            "label": "x2",
            "points": [
                [
                    666,
                    1513
                ],
                [
                    1283,
                    1576
                ]
            ],
            "shape_type": "rectangle"
        },
        {
            "flags": {},
            "group_id": null,
            "label": "d1",
            "points": [
                [
                    1369,
                    1551
                ],
                [
                    1445,
                    1635
                ]
            ],
            "shape_type": "rectangle"
        },
        {
            "flags": {},
            "group_id": null,
            "label": "x2",
            "points": [
                [
                    1321,
                    1618
                ],
                [
                    1393,
                    2235
                ]
            ],
            "shape_type": "rectangle"
        },
        {
            "flags": {},
            "group_id": null,
            "label": "wz4",
            "points": [
                [
                    928,
                    1934
                ],
                [
                    1027,
                    2038
                ]
            ],
            "shape_type": "rectangle"
        },
        {
            "flags": {},
            "group_id": null,
            "label": "k1",
            "points": [
                [
                    968,
                    1776
                ],
                [
                    1012,
                    1800
                ]
            ],
            "shape_type": "rectangle"
        },
        {
            "flags": {},
            "group_id": null,
            "label": "v1",
            "points": [
                [
                    831,
                    2334
                ],
                [
                    1167,
                    2429
                ]
            ],
            "shape_type": "rectangle"
        },
        {
            "flags": {},
            "group_id": null,
            "label": "vt4",
            "points": [
                [
                    631,
                    1582
                ],
                [
                    1318,
                    2270
                ]
            ],
            "shape_type": "rectangle"
        },
        {
            "flags": {},
            "group_id": null,
            "label": "wz3",
            "points": [
                [
                    1601,
                    2231
                ],
                [
                    1684,
                    2253
                ]
            ],
            "shape_type": "rectangle"
        },
        {
            "flags": {},
            "group_id": null,
            "label": "va1",
            "points": [
                [
                    1694,
                    2231
                ],
                [
                    1727,
                    2267
                ]
            ],
            "shape_type": "rectangle"
        },
        {
            "flags": {},
            "group_id": null,
            "label": "va1",
            "points": [
                [
                    1818,
                    2027
                ],
                [
                    1852,
                    2064
                ]
            ],
            "shape_type": "rectangle"
        },
        {
            "flags": {},
            "group_id": null,
            "label": "wz3",
            "points": [
                [
                    1682,
                    1986
                ],
                [
                    1833,
                    2044
                ]
            ],
            "shape_type": "rectangle"
        },
        {
            "flags": {},
            "group_id": null,
            "label": "va1",
            "points": [
                [
                    2071,
                    2030
                ],
                [
                    2105,
                    2067
                ]
            ],
            "shape_type": "rectangle"
        },
        {
            "flags": {},
            "group_id": null,
            "label": "wz3",
            "points": [
                [
                    2098,
                    1991
                ],
                [
                    2181,
                    2013
                ]
            ],
            "shape_type": "rectangle"
        },
        {
            "flags": {},
            "group_id": null,
            "label": "va1",
            "points": [
                [
                    2188,
                    2238
                ],
                [
                    2221,
                    2275
                ]
            ],
            "shape_type": "rectangle"
        },
        {
            "flags": {},
            "group_id": null,
            "label": "wz3",
            "points": [
                [
                    2228,
                    2216
                ],
                [
                    2375,
                    2275
                ]
            ],
            "shape_type": "rectangle"
        },
        {
            "flags": {},
            "group_id": null,
            "label": "va1",
            "points": [
                [
                    2057,
                    2463
                ],
                [
                    2094,
                    2492
                ]
            ],
            "shape_type": "rectangle"
        },
        {
            "flags": {},
            "group_id": null,
            "label": "wz3",
            "points": [
                [
                    2120,
                    2453
                ],
                [
                    2203,
                    2476
                ]
            ],
            "shape_type": "rectangle"
        },
        {
            "flags": {},
            "group_id": null,
            "label": "va1",
            "points": [
                [
                    1816,
                    2460
                ],
                [
                    1854,
                    2490
                ]
            ],
            "shape_type": "rectangle"
        },
        {
            "flags": {},
            "group_id": null,
            "label": "wz3",
            "points": [
                [
                    1664,
                    2438
                ],
                [
                    1810,
                    2499
                ]
            ],
            "shape_type": "rectangle"
        },
        {
            "flags": {},
            "group_id": null,
            "label": "vp1-3",
            "points": [
                [
                    1773,
                    2076
                ],
                [
                    2144,
                    2446
                ]
            ],
            "shape_type": "rectangle"
        },
        {
            "flags": {},
            "group_id": null,
            "label": "v1",
            "points": [
                [
                    1864,
                    2554
                ],
                [
                    2064,
                    2636
                ]
            ],
            "shape_type": "rectangle"
        },
        {
            "flags": {},
            "group_id": null,
            "label": "wz3",
            "points": [
                [
                    2501,
                    2253
                ],
                [
                    2580,
                    2275
                ]
            ],
            "shape_type": "rectangle"
        },
        {
            "flags": {},
            "group_id": null,
            "label": "va1",
            "points": [
                [
                    2565,
                    2281
                ],
                [
                    2599,
                    2318
                ]
            ],
            "shape_type": "rectangle"
        },
        {
            "flags": {},
            "group_id": null,
            "label": "va1",
            "points": [
                [
                    2691,
                    2078
                ],
                [
                    2725,
                    2115
                ]
            ],
            "shape_type": "rectangle"
        },
        {
            "flags": {},
            "group_id": null,
            "label": "wz3",
            "points": [
                [
                    2654,
                    2028
                ],
                [
                    2690,
                    2051
                ]
            ],
            "shape_type": "rectangle"
        },
        {
            "flags": {},
            "group_id": null,
            "label": "va1",
            "points": [
                [
                    2945,
                    2079
                ],
                [
                    2979,
                    2117
                ]
            ],
            "shape_type": "rectangle"
        },
        {
            "flags": {},
            "group_id": null,
            "label": "wz3",
            "points": [
                [
                    2976,
                    2029
                ],
                [
                    3055,
                    2051
                ]
            ],
            "shape_type": "rectangle"
        },
        {
            "flags": {},
            "group_id": null,
            "label": "wz3",
            "points": [
                [
                    3066,
                    2263
                ],
                [
                    3102,
                    2285
                ]
            ],
            "shape_type": "rectangle"
        },
        {
            "flags": {},
            "group_id": null,
            "label": "va1",
            "points": [
                [
                    3061,
                    2288
                ],
                [
                    3094,
                    2325
                ]
            ],
            "shape_type": "rectangle"
        },
        {
            "flags": {},
            "group_id": null,
            "label": "wz3",
            "points": [
                [
                    2989,
                    2481
                ],
                [
                    3067,
                    2502
                ]
            ],
            "shape_type": "rectangle"
        },
        {
            "flags": {},
            "group_id": null,
            "label": "va1",
            "points": [
                [
                    2930,
                    2511
                ],
                [
                    2967,
                    2542
                ]
            ],
            "shape_type": "rectangle"
        },
        {
            "flags": {},
            "group_id": null,
            "label": "v1",
            "points": [
                [
                    2731,
                    2554
                ],
                [
                    2930,
                    2636
                ]
            ],
            "shape_type": "rectangle"
        },
        {
            "flags": {},
            "group_id": null,
            "label": "va1",
            "points": [
                [
                    2689,
                    2510
                ],
                [
                    2727,
                    2539
                ]
            ],
            "shape_type": "rectangle"
        },
        {
            "flags": {},
            "group_id": null,
            "label": "wz3",
            "points": [
                [
                    2612,
                    2503
                ],
                [
                    2648,
                    2525
                ]
            ],
            "shape_type": "rectangle"
        },
        {
            "flags": {},
            "group_id": null,
            "label": "vp1-3",
            "points": [
                [
                    2646,
                    2127
                ],
                [
                    3016,
                    2497
                ]
            ],
            "shape_type": "rectangle"
        },
        {
            "flags": {},
            "group_id": null,
            "label": "j1",
            "points": [
                [
                    2460,
                    1783
                ],
                [
                    2488,
                    1822
                ]
            ],
            "shape_type": "rectangle"
        },
        {
            "flags": {},
            "group_id": null,
            "label": "j1",
            "points": [
                [
                    2683,
                    1362
                ],
                [
                    2973,
                    1401
                ]
            ],
            "shape_type": "rectangle"
        },
        {
            "flags": {},
            "group_id": null,
            "label": "j1",
            "points": [
                [
                    1880,
                    1358
                ],
                [
                    2159,
                    1397
                ]
            ],
            "shape_type": "rectangle"
        },
        {
            "flags": {},
            "group_id": null,
            "label": "n1",
            "points": [
                [
                    1880,
                    1358
                ],
                [
                    2974,
                    1877
                ]
            ],
            "shape_type": "rectangle"
        },
        {
            "flags": {},
            "group_id": null,
            "label": "wz3",
            "points": [
                [
                    2296,
                    1954
                ],
                [
                    2557,
                    1998
                ]
            ],
            "shape_type": "rectangle"
        },
        {
            "flags": {},
            "group_id": null,
            "label": "wz3",
            "points": [
                [
                    3209,
                    1565
                ],
                [
                    3326,
                    1593
                ]
            ],
            "shape_type": "rectangle"
        },
        {
            "flags": {},
            "group_id": null,
            "label": "wz3",
            "points": [
                [
                    3220,
                    1612
                ],
                [
                    3303,
                    1634
                ]
            ],
            "shape_type": "rectangle"
        },
        {
            "flags": {},
            "group_id": null,
            "label": "wz3",
            "points": [
                [
                    3244,
                    1804
                ],
                [
                    3323,
                    1826
                ]
            ],
            "shape_type": "rectangle"
        },
        {
            "flags": {},
            "group_id": null,
            "label": "wz3",
            "points": [
                [
                    3260,
                    1846
                ],
                [
                    3296,
                    1868
                ]
            ],
            "shape_type": "rectangle"
        },
        {
            "flags": {},
            "group_id": null,
            "label": "c1",
            "points": [
                [
                    3617,
                    1344
                ],
                [
                    3623,
                    1542
                ]
            ],
            "shape_type": "rectangle"
        },
        {
            "flags": {},
            "group_id": null,
            "label": "a1-1",
            "points": [
                [
                    3361,
                    1555
                ],
                [
                    3385,
                    1645
                ]
            ],
            "shape_type": "rectangle"
        },
        {
            "flags": {},
            "group_id": null,
            "label": "g1",
            "points": [
                [
                    3384,
                    1526
                ],
                [
                    3389,
                    1674
                ]
            ],
            "shape_type": "rectangle"
        },
        {
            "flags": {},
            "group_id": null,
            "label": "a1-1",
            "points": [
                [
                    3438,
                    1554
                ],
                [
                    3462,
                    1644
                ]
            ],
            "shape_type": "rectangle"
        },
        {
            "flags": {},
            "group_id": null,
            "label": "a1-2",
            "points": [
                [
                    3679,
                    1559
                ],
                [
                    3706,
                    1649
                ]
            ],
            "shape_type": "rectangle"
        },
        {
            "flags": {},
            "group_id": null,
            "label": "a1-2",
            "points": [
                [
                    3752,
                    1554
                ],
                [
                    3776,
                    1644
                ]
            ],
            "shape_type": "rectangle"
        },
        {
            "flags": {},
            "group_id": null,
            "label": "g1",
            "points": [
                [
                    3461,
                    1525
                ],
                [
                    3466,
                    1674
                ]
            ],
            "shape_type": "rectangle"
        },
        {
            "flags": {},
            "group_id": null,
            "label": "g1",
            "points": [
                [
                    3674,
                    1528
                ],
                [
                    3683,
                    1676
                ]
            ],
            "shape_type": "rectangle"
        },
        {
            "flags": {},
            "group_id": null,
            "label": "g1",
            "points": [
                [
                    3748,
                    1525
                ],
                [
                    3753,
                    1674
                ]
            ],
            "shape_type": "rectangle"
        },
        {
            "flags": {},
            "group_id": null,
            "label": "a1-1",
            "points": [
                [
                    3358,
                    1793
                ],
                [
                    3382,
                    1883
                ]
            ],
            "shape_type": "rectangle"
        },
        {
            "flags": {},
            "group_id": null,
            "label": "a1-1",
            "points": [
                [
                    3424,
                    1792
                ],
                [
                    3448,
                    1882
                ]
            ],
            "shape_type": "rectangle"
        },
        {
            "flags": {},
            "group_id": null,
            "label": "a1-2",
            "points": [
                [
                    3689,
                    1792
                ],
                [
                    3712,
                    1882
                ]
            ],
            "shape_type": "rectangle"
        },
        {
            "flags": {},
            "group_id": null,
            "label": "a1-2",
            "points": [
                [
                    3750,
                    1792
                ],
                [
                    3773,
                    1882
                ]
            ],
            "shape_type": "rectangle"
        },
        {
            "flags": {},
            "group_id": null,
            "label": "g1",
            "points": [
                [
                    3685,
                    1764
                ],
                [
                    3689,
                    1912
                ]
            ],
            "shape_type": "rectangle"
        },
        {
            "flags": {},
            "group_id": null,
            "label": "g1",
            "points": [
                [
                    3746,
                    1763
                ],
                [
                    3751,
                    1911
                ]
            ],
            "shape_type": "rectangle"
        },
        {
            "flags": {},
            "group_id": null,
            "label": "g1",
            "points": [
                [
                    3447,
                    1764
                ],
                [
                    3452,
                    1912
                ]
            ],
            "shape_type": "rectangle"
        },
        {
            "flags": {},
            "group_id": null,
            "label": "g1",
            "points": [
                [
                    3381,
                    1765
                ],
                [
                    3386,
                    1913
                ]
            ],
            "shape_type": "rectangle"
        },
        {
            "flags": {},
            "group_id": null,
            "label": "p1-1",
            "points": [
                [
                    3381,
                    1762
                ],
                [
                    3754,
                    1917
                ]
            ],
            "shape_type": "rectangle"
        },
        {
            "flags": {},
            "group_id": null,
            "label": "p1-1",
            "points": [
                [
                    3384,
                    1524
                ],
                [
                    3754,
                    1678
                ]
            ],
            "shape_type": "rectangle"
        },
        {
            "flags": {},
            "group_id": null,
            "label": "h1",
            "points": [
                [
                    3906,
                    1612
                ],
                [
                    4040,
                    1676
                ]
            ],
            "shape_type": "rectangle"
        },
        {
            "flags": {},
            "group_id": null,
            "label": "h1",
            "points": [
                [
                    3906,
                    1843
                ],
                [
                    4040,
                    1908
                ]
            ],
            "shape_type": "rectangle"
        },
        {
            "flags": {},
            "group_id": null,
            "label": "h1",
            "points": [
                [
                    3918,
                    3149
                ],
                [
                    4053,
                    3214
                ]
            ],
            "shape_type": "rectangle"
        },
        {
            "flags": {},
            "group_id": null,
            "label": "wz4",
            "points": [
                [
                    3508,
                    3068
                ],
                [
                    3637,
                    3113
                ]
            ],
            "shape_type": "rectangle"
        },
        {
            "flags": {},
            "group_id": null,
            "label": "k1",
            "points": [
                [
                    3481,
                    3010
                ],
                [
                    3506,
                    3043
                ]
            ],
            "shape_type": "rectangle"
        },
        {
            "flags": {},
            "group_id": null,
            "label": "v1",
            "points": [
                [
                    3432,
                    3249
                ],
                [
                    3767,
                    3324
                ]
            ],
            "shape_type": "rectangle"
        },
        {
            "flags": {},
            "group_id": null,
            "label": "t3-l",
            "points": [
                [
                    3251,
                    1343
                ],
                [
                    3903,
                    3214
                ]
            ],
            "shape_type": "rectangle"
        },
        {
            "flags": {},
            "group_id": null,
            "label": "sm",
            "points": [
                [
                    2051,
                    3119
                ],
                [
                    3751,
                    3701
                ]
            ],
            "shape_type": "rectangle"
        },
        {
            "flags": {},
            "group_id": null,
            "label": "btl",
            "points": [
                [
                    2348,
                    3836
                ],
                [
                    4163,
                    4146
                ]
            ],
            "shape_type": "rectangle"
        },
        {
            "flags": {},
            "group_id": null,
            "label": "tl",
            "points": [
                [
                    470,
                    3999
                ],
                [
                    1349,
                    4055
                ]
            ],
            "shape_type": "rectangle"
        },
        {
            "flags": {},
            "group_id": null,
            "label": "mask",
            "lineType": [
                "LLLLLLLLLL"
            ],
            "points": [
                [
                    527,
                    1509
                ],
                [
                    1257,
                    1496
                ],
                [
                    1449,
                    1534
                ],
                [
                    1462,
                    1593
                ],
                [
                    1412,
                    2238
                ],
                [
                    1182,
                    2441
                ],
                [
                    822,
                    2446
                ],
                [
                    617,
                    2273
                ],
                [
                    520,
                    1608
                ],
                [
                    527,
                    1509
                ]
            ],
            "shape_type": "polygon"
        },
        {
            "flags": {},
            "group_id": null,
            "label": "mask",
            "lineType": [
                "LLLLLLLLLLL"
            ],
            "points": [
                [
                    1687,
                    1974
                ],
                [
                    2117,
                    1978
                ],
                [
                    2187,
                    1986
                ],
                [
                    2385,
                    2224
                ],
                [
                    2382,
                    2262
                ],
                [
                    2212,
                    2487
                ],
                [
                    2060,
                    2646
                ],
                [
                    1849,
                    2639
                ],
                [
                    1659,
                    2470
                ],
                [
                    1592,
                    2228
                ],
                [
                    1687,
                    1974
                ]
            ],
            "shape_type": "polygon"
        },
        {
            "flags": {},
            "group_id": null,
            "label": "mask",
            "lineType": [
                "LLLLLLLL"
            ],
            "points": [
                [
                    1870,
                    1348
                ],
                [
                    2984,
                    1348
                ],
                [
                    2984,
                    1887
                ],
                [
                    1870,
                    1887
                ]
            ],
            "shape_type": "polygon"
        },
        {
            "flags": {},
            "group_id": null,
            "label": "mask",
            "lineType": [
                "LLLLLLLLL"
            ],
            "points": [
                [
                    2651,
                    2006
                ],
                [
                    2495,
                    2261
                ],
                [
                    2591,
                    2521
                ],
                [
                    2731,
                    2656
                ],
                [
                    2948,
                    2646
                ],
                [
                    3086,
                    2499
                ],
                [
                    3113,
                    2278
                ],
                [
                    3055,
                    2013
                ],
                [
                    2651,
                    2006
                ]
            ],
            "shape_type": "polygon"
        },
        {
            "flags": {},
            "group_id": null,
            "label": "mask",
            "lineType": [
                "LLLLLLL"
            ],
            "points": [
                [
                    347,
                    2619
                ],
                [
                    1938,
                    2619
                ],
                [
                    1938,
                    3926
                ],
                [
                    347,
                    3926
                ]
            ],
            "shape_type": "polygon"
        },
        {
            "flags": {},
            "group_id": null,
            "label": "mask",
            "lineType": [
                "LLLLLLL"
            ],
            "points": [
                [
                    460,
                    3989
                ],
                [
                    1359,
                    3989
                ],
                [
                    1359,
                    4065
                ],
                [
                    460,
                    4065
                ]
            ],
            "shape_type": "polygon"
        },
        {
            "flags": {},
            "group_id": null,
            "label": "mask",
            "lineType": [
                "LLLLLLLLLLLLLLLLL"
            ],
            "points": [
                [
                    2041,
                    3109
                ],
                [
                    3761,
                    3109
                ],
                [
                    3761,
                    3711
                ],
                [
                    2041,
                    3711
                ]
            ],
            "shape_type": "polygon"
        },
        {
            "flags": {},
            "group_id": null,
            "label": "mask",
            "lineType": [
                "LLLLLLLLLLLLLLLLLLLLLLLLLLLLL"
            ],
            "points": [
                [
                    3423,
                    3325
                ],
                [
                    3769,
                    3329
                ],
                [
                    4023,
                    3249
                ],
                [
                    4058,
                    3215
                ],
                [
                    4058,
                    3171
                ],
                [
                    4048,
                    3147
                ],
                [
                    3884,
                    3141
                ],
                [
                    3852,
                    2960
                ],
                [
                    3850,
                    2927
                ],
                [
                    3811,
                    2917
                ],
                [
                    3703,
                    2594
                ],
                [
                    3652,
                    1929
                ],
                [
                    4012,
                    1924
                ],
                [
                    4062,
                    1894
                ],
                [
                    4062,
                    1619
                ],
                [
                    3627,
                    1319
                ],
                [
                    3599,
                    1324
                ],
                [
                    3194,
                    1551
                ],
                [
                    3189,
                    1614
                ],
                [
                    3242,
                    1881
                ],
                [
                    3282,
                    1929
                ],
                [
                    3452,
                    1929
                ],
                [
                    3402,
                    2609
                ],
                [
                    3252,
                    2996
                ],
                [
                    3229,
                    3191
                ],
                [
                    3076,
                    3207
                ],
                [
                    3060,
                    3237
                ],
                [
                    3060,
                    3258
                ],
                [
                    3423,
                    3325
                ]
            ],
            "shape_type": "polygon"
        },
        {
            "flags": {},
            "group_id": null,
            "label": "mask",
            "lineType": [
                "LLLLLL"
            ],
            "points": [
                [
                    2338,
                    3826
                ],
                [
                    4173,
                    3826
                ],
                [
                    4173,
                    4156
                ],
                [
                    2338,
                    4156
                ]
            ],
            "shape_type": "polygon"
        },
        {
            "flags": {},
            "group_id": null,
            "label": "wlb",
            "points": [
                [
                    357,
                    2629
                ],
                [
                    1928,
                    3916
                ]
            ],
            "shape_type": "rectangle"
        },
        {
            "flags": {},
            "group_id": null,
            "label": "wztl",
            "points": [
                [
                    642,
                    4000
                ],
                [
                    762,
                    4043
                ]
            ],
            "shape_type": "rectangle"
        },
        {
            "flags": {},
            "group_id": null,
            "label": "wztl",
            "points": [
                [
                    879,
                    4007
                ],
                [
                    996,
                    4049
                ]
            ],
            "shape_type": "rectangle"
        },
        {
            "flags": {},
            "group_id": null,
            "label": "wztl",
            "points": [
                [
                    1127,
                    4012
                ],
                [
                    1245,
                    4052
                ]
            ],
            "shape_type": "rectangle"
        },
        {
            "flags": {},
            "group_id": null,
            "label": "xtl",
            "points": [
                [
                    1295,
                    4011
                ],
                [
                    1349,
                    4055
                ]
            ],
            "shape_type": "rectangle"
        },
        {
            "flags": {},
            "group_id": null,
            "label": "xtl",
            "points": [
                [
                    1032,
                    4010
                ],
                [
                    1087,
                    4053
                ]
            ],
            "shape_type": "rectangle"
        },
        {
            "flags": {},
            "group_id": null,
            "label": "xtl",
            "points": [
                [
                    805,
                    4010
                ],
                [
                    857,
                    4053
                ]
            ],
            "shape_type": "rectangle"
        },
        {
            "flags": {},
            "group_id": null,
            "label": "Ns",
            "points": [
                [
                    2419,
                    1521
                ]
            ],
            "shape_type": "point"
        },
        {
            "flags": {},
            "group_id": null,
            "label": "Ne",
            "points": [
                [
                    2418,
                    1734
                ]
            ],
            "shape_type": "point"
        }
    ],
    "version": "4.5.7"
}