{
    "flags": {},
    "imageData": null,
    "imageHeight": 4210,
    "imagePath": "00-四角塔-汇总_22.png",
    "imageWidth": 4210,
    "shapes": [
        {
            "flags": {},
            "group_id": null,
            "label": "d1",
            "points": [
                [
                    369,
                    2053
                ],
                [
                    443,
                    2172
                ]
            ],
            "shape_type": "rectangle"
        },
        {
            "flags": {},
            "group_id": null,
            "label": "v1",
            "points": [
                [
                    1257,
                    1951
                ],
                [
                    1420,
                    2015
                ]
            ],
            "shape_type": "rectangle"
        },
        {
            "flags": {},
            "group_id": null,
            "label": "d1",
            "points": [
                [
                    1788,
                    1872
                ],
                [
                    1862,
                    1991
                ]
            ],
            "shape_type": "rectangle"
        },
        {
            "flags": {},
            "group_id": null,
            "label": "k1",
            "points": [
                [
                    1560,
                    1751
                ],
                [
                    1606,
                    1773
                ]
            ],
            "shape_type": "rectangle"
        },
        {
            "flags": {},
            "group_id": null,
            "label": "wz4",
            "points": [
                [
                    1435,
                    1597
                ],
                [
                    1626,
                    1639
                ]
            ],
            "shape_type": "rectangle"
        },
        {
            "flags": {},
            "group_id": null,
            "label": "vt4",
            "points": [
                [
                    496,
                    1507
                ],
                [
                    1074,
                    2085
                ]
            ],
            "shape_type": "rectangle"
        },
        {
            "flags": {},
            "group_id": null,
            "label": "x2",
            "points": [
                [
                    1060,
                    1385
                ],
                [
                    1186,
                    1434
                ]
            ],
            "shape_type": "rectangle"
        },
        {
            "flags": {},
            "group_id": null,
            "label": "wz3",
            "points": [
                [
                    939,
                    2214
                ],
                [
                    1118,
                    2308
                ]
            ],
            "shape_type": "rectangle"
        },
        {
            "flags": {},
            "group_id": null,
            "label": "va1",
            "points": [
                [
                    857,
                    2224
                ],
                [
                    908,
                    2274
                ]
            ],
            "shape_type": "rectangle"
        },
        {
            "flags": {},
            "group_id": null,
            "label": "wz3",
            "points": [
                [
                    330,
                    2575
                ],
                [
                    523,
                    2668
                ]
            ],
            "shape_type": "rectangle"
        },
        {
            "flags": {},
            "group_id": null,
            "label": "va1",
            "points": [
                [
                    545,
                    2530
                ],
                [
                    593,
                    2583
                ]
            ],
            "shape_type": "rectangle"
        },
        {
            "flags": {},
            "group_id": null,
            "label": "v1",
            "points": [
                [
                    501,
                    2660
                ],
                [
                    730,
                    2716
                ]
            ],
            "shape_type": "rectangle"
        },
        {
            "flags": {},
            "group_id": null,
            "label": "wz3",
            "points": [
                [
                    823,
                    2582
                ],
                [
                    1012,
                    2676
                ]
            ],
            "shape_type": "rectangle"
        },
        {
            "flags": {},
            "group_id": null,
            "label": "va1",
            "points": [
                [
                    853,
                    2535
                ],
                [
                    905,
                    2586
                ]
            ],
            "shape_type": "rectangle"
        },
        {
            "flags": {},
            "group_id": null,
            "label": "wz3",
            "points": [
                [
                    1068,
                    2557
                ],
                [
                    1210,
                    2619
                ]
            ],
            "shape_type": "rectangle"
        },
        {
            "flags": {},
            "group_id": null,
            "label": "van",
            "points": [
                [
                    1196,
                    2530
                ],
                [
                    1244,
                    2585
                ]
            ],
            "shape_type": "rectangle"
        },
        {
            "flags": {},
            "group_id": null,
            "label": "v1",
            "points": [
                [
                    1252,
                    2595
                ],
                [
                    1480,
                    2662
                ]
            ],
            "shape_type": "rectangle"
        },
        {
            "flags": {},
            "group_id": null,
            "label": "wz3",
            "points": [
                [
                    1509,
                    2576
                ],
                [
                    1647,
                    2638
                ]
            ],
            "shape_type": "rectangle"
        },
        {
            "flags": {},
            "group_id": null,
            "label": "van",
            "points": [
                [
                    1500,
                    2540
                ],
                [
                    1551,
                    2591
                ]
            ],
            "shape_type": "rectangle"
        },
        {
            "flags": {},
            "group_id": null,
            "label": "van",
            "points": [
                [
                    1506,
                    2231
                ],
                [
                    1557,
                    2280
                ]
            ],
            "shape_type": "rectangle"
        },
        {
            "flags": {},
            "group_id": null,
            "label": "wz3",
            "points": [
                [
                    1476,
                    2162
                ],
                [
                    1594,
                    2225
                ]
            ],
            "shape_type": "rectangle"
        },
        {
            "flags": {},
            "group_id": null,
            "label": "wz3",
            "points": [
                [
                    1746,
                    2536
                ],
                [
                    1887,
                    2599
                ]
            ],
            "shape_type": "rectangle"
        },
        {
            "flags": {},
            "group_id": null,
            "label": "van",
            "points": [
                [
                    1873,
                    2510
                ],
                [
                    1922,
                    2564
                ]
            ],
            "shape_type": "rectangle"
        },
        {
            "flags": {},
            "group_id": null,
            "label": "van",
            "points": [
                [
                    2177,
                    2520
                ],
                [
                    2229,
                    2570
                ]
            ],
            "shape_type": "rectangle"
        },
        {
            "flags": {},
            "group_id": null,
            "label": "wz3",
            "points": [
                [
                    2187,
                    2556
                ],
                [
                    2324,
                    2618
                ]
            ],
            "shape_type": "rectangle"
        },
        {
            "flags": {},
            "group_id": null,
            "label": "v1",
            "points": [
                [
                    1932,
                    2598
                ],
                [
                    2161,
                    2664
                ]
            ],
            "shape_type": "rectangle"
        },
        {
            "flags": {},
            "group_id": null,
            "label": "van",
            "points": [
                [
                    2184,
                    2211
                ],
                [
                    2235,
                    2260
                ]
            ],
            "shape_type": "rectangle"
        },
        {
            "flags": {},
            "group_id": null,
            "label": "wz3",
            "points": [
                [
                    2154,
                    2142
                ],
                [
                    2271,
                    2205
                ]
            ],
            "shape_type": "rectangle"
        },
        {
            "flags": {},
            "group_id": null,
            "label": "vp2-3",
            "points": [
                [
                    610,
                    2287
                ],
                [
                    843,
                    2521
                ]
            ],
            "shape_type": "rectangle"
        },
        {
            "flags": {},
            "group_id": null,
            "label": "vp2-3",
            "points": [
                [
                    1258,
                    2294
                ],
                [
                    1492,
                    2528
                ]
            ],
            "shape_type": "rectangle"
        },
        {
            "flags": {},
            "group_id": null,
            "label": "vp2-3",
            "points": [
                [
                    1935,
                    2273
                ],
                [
                    2170,
                    2508
                ]
            ],
            "shape_type": "rectangle"
        },
        {
            "flags": {},
            "group_id": null,
            "label": "wz3",
            "points": [
                [
                    2306,
                    1858
                ],
                [
                    2465,
                    1905
                ]
            ],
            "shape_type": "rectangle"
        },
        {
            "flags": {},
            "group_id": null,
            "label": "j1",
            "points": [
                [
                    2235,
                    1663
                ],
                [
                    2349,
                    1748
                ]
            ],
            "shape_type": "rectangle"
        },
        {
            "flags": {},
            "group_id": null,
            "label": "j1",
            "points": [
                [
                    2641,
                    1772
                ],
                [
                    2749,
                    1855
                ]
            ],
            "shape_type": "rectangle"
        },
        {
            "flags": {},
            "group_id": null,
            "label": "j1",
            "points": [
                [
                    2653,
                    1536
                ],
                [
                    2744,
                    1616
                ]
            ],
            "shape_type": "rectangle"
        },
        {
            "flags": {},
            "group_id": null,
            "label": "j1",
            "points": [
                [
                    2464,
                    1441
                ],
                [
                    2496,
                    1485
                ]
            ],
            "shape_type": "rectangle"
        },
        {
            "flags": {},
            "group_id": null,
            "label": "n1",
            "points": [
                [
                    2234,
                    1438
                ],
                [
                    2749,
                    1856
                ]
            ],
            "shape_type": "rectangle"
        },
        {
            "flags": {},
            "group_id": null,
            "label": "wz3",
            "points": [
                [
                    2850,
                    1821
                ],
                [
                    3047,
                    1850
                ]
            ],
            "shape_type": "rectangle"
        },
        {
            "flags": {},
            "group_id": null,
            "label": "wz3",
            "points": [
                [
                    2916,
                    1902
                ],
                [
                    3026,
                    1923
                ]
            ],
            "shape_type": "rectangle"
        },
        {
            "flags": {},
            "group_id": null,
            "label": "wz3",
            "points": [
                [
                    2924,
                    2040
                ],
                [
                    2972,
                    2069
                ]
            ],
            "shape_type": "rectangle"
        },
        {
            "flags": {},
            "group_id": null,
            "label": "wz3",
            "points": [
                [
                    2924,
                    2227
                ],
                [
                    2975,
                    2257
                ]
            ],
            "shape_type": "rectangle"
        },
        {
            "flags": {},
            "group_id": null,
            "label": "wz1",
            "points": [
                [
                    3021,
                    1761
                ],
                [
                    3035,
                    1787
                ]
            ],
            "shape_type": "rectangle"
        },
        {
            "flags": {},
            "group_id": null,
            "label": "wz1",
            "points": [
                [
                    3059,
                    1762
                ],
                [
                    3078,
                    1789
                ]
            ],
            "shape_type": "rectangle"
        },
        {
            "flags": {},
            "group_id": null,
            "label": "wz1",
            "points": [
                [
                    3287,
                    1784
                ],
                [
                    3306,
                    1809
                ]
            ],
            "shape_type": "rectangle"
        },
        {
            "flags": {},
            "group_id": null,
            "label": "a1-1",
            "points": [
                [
                    3056,
                    1833
                ],
                [
                    3081,
                    1930
                ]
            ],
            "shape_type": "rectangle"
        },
        {
            "flags": {},
            "group_id": null,
            "label": "a1-2",
            "points": [
                [
                    3256,
                    1836
                ],
                [
                    3282,
                    1933
                ]
            ],
            "shape_type": "rectangle"
        },
        {
            "flags": {},
            "group_id": null,
            "label": "a1-2",
            "points": [
                [
                    3267,
                    2010
                ],
                [
                    3292,
                    2106
                ]
            ],
            "shape_type": "rectangle"
        },
        {
            "flags": {},
            "group_id": null,
            "label": "a1-1",
            "points": [
                [
                    3043,
                    2010
                ],
                [
                    3068,
                    2106
                ]
            ],
            "shape_type": "rectangle"
        },
        {
            "flags": {},
            "group_id": null,
            "label": "a1-1",
            "points": [
                [
                    3035,
                    2180
                ],
                [
                    3060,
                    2276
                ]
            ],
            "shape_type": "rectangle"
        },
        {
            "flags": {},
            "group_id": null,
            "label": "a1-2",
            "points": [
                [
                    3277,
                    2180
                ],
                [
                    3301,
                    2276
                ]
            ],
            "shape_type": "rectangle"
        },
        {
            "flags": {},
            "group_id": null,
            "label": "g1",
            "points": [
                [
                    3058,
                    2161
                ],
                [
                    3063,
                    2318
                ]
            ],
            "shape_type": "rectangle"
        },
        {
            "flags": {},
            "group_id": null,
            "label": "g1",
            "points": [
                [
                    3273,
                    2161
                ],
                [
                    3278,
                    2319
                ]
            ],
            "shape_type": "rectangle"
        },
        {
            "flags": {},
            "group_id": null,
            "label": "g1",
            "points": [
                [
                    3263,
                    1991
                ],
                [
                    3268,
                    2149
                ]
            ],
            "shape_type": "rectangle"
        },
        {
            "flags": {},
            "group_id": null,
            "label": "g1",
            "points": [
                [
                    3067,
                    1991
                ],
                [
                    3071,
                    2149
                ]
            ],
            "shape_type": "rectangle"
        },
        {
            "flags": {},
            "group_id": null,
            "label": "g1",
            "points": [
                [
                    3081,
                    1817
                ],
                [
                    3085,
                    1974
                ]
            ],
            "shape_type": "rectangle"
        },
        {
            "flags": {},
            "group_id": null,
            "label": "g1",
            "points": [
                [
                    3252,
                    1820
                ],
                [
                    3257,
                    1977
                ]
            ],
            "shape_type": "rectangle"
        },
        {
            "flags": {},
            "group_id": null,
            "label": "c1",
            "points": [
                [
                    3170,
                    1503
                ],
                [
                    3176,
                    1636
                ]
            ],
            "shape_type": "rectangle"
        },
        {
            "flags": {},
            "group_id": null,
            "label": "p1-1",
            "points": [
                [
                    3081,
                    1817
                ],
                [
                    3257,
                    1977
                ]
            ],
            "shape_type": "rectangle"
        },
        {
            "flags": {},
            "group_id": null,
            "label": "p1-1",
            "points": [
                [
                    3066,
                    1990
                ],
                [
                    3269,
                    2150
                ]
            ],
            "shape_type": "rectangle"
        },
        {
            "flags": {},
            "group_id": null,
            "label": "p1-1",
            "points": [
                [
                    3058,
                    2161
                ],
                [
                    3279,
                    2319
                ]
            ],
            "shape_type": "rectangle"
        },
        {
            "flags": {},
            "group_id": null,
            "label": "wz3",
            "points": [
                [
                    3274,
                    1964
                ],
                [
                    3313,
                    1994
                ]
            ],
            "shape_type": "rectangle"
        },
        {
            "flags": {},
            "group_id": null,
            "label": "wz3",
            "points": [
                [
                    3313,
                    1962
                ],
                [
                    3351,
                    1992
                ]
            ],
            "shape_type": "rectangle"
        },
        {
            "flags": {},
            "group_id": null,
            "label": "wz1",
            "points": [
                [
                    3329,
                    2382
                ],
                [
                    3348,
                    2409
                ]
            ],
            "shape_type": "rectangle"
        },
        {
            "flags": {},
            "group_id": null,
            "label": "wz1",
            "points": [
                [
                    3359,
                    2382
                ],
                [
                    3380,
                    2408
                ]
            ],
            "shape_type": "rectangle"
        },
        {
            "flags": {},
            "group_id": null,
            "label": "wz1",
            "points": [
                [
                    3391,
                    2382
                ],
                [
                    3411,
                    2408
                ]
            ],
            "shape_type": "rectangle"
        },
        {
            "flags": {},
            "group_id": null,
            "label": "wz1",
            "points": [
                [
                    2645,
                    2746
                ],
                [
                    2920,
                    2802
                ]
            ],
            "shape_type": "rectangle"
        },
        {
            "flags": {},
            "group_id": null,
            "label": "h1",
            "points": [
                [
                    3423,
                    1712
                ],
                [
                    3538,
                    1767
                ]
            ],
            "shape_type": "rectangle"
        },
        {
            "flags": {},
            "group_id": null,
            "label": "h1",
            "points": [
                [
                    3424,
                    1905
                ],
                [
                    3537,
                    1960
                ]
            ],
            "shape_type": "rectangle"
        },
        {
            "flags": {},
            "group_id": null,
            "label": "h1",
            "points": [
                [
                    3424,
                    2089
                ],
                [
                    3537,
                    2145
                ]
            ],
            "shape_type": "rectangle"
        },
        {
            "flags": {},
            "group_id": null,
            "label": "h1",
            "points": [
                [
                    3424,
                    2260
                ],
                [
                    3537,
                    2315
                ]
            ],
            "shape_type": "rectangle"
        },
        {
            "flags": {},
            "group_id": null,
            "label": "wz1",
            "points": [
                [
                    3686,
                    2797
                ],
                [
                    3712,
                    2832
                ]
            ],
            "shape_type": "rectangle"
        },
        {
            "flags": {},
            "group_id": null,
            "label": "k1",
            "points": [
                [
                    3823,
                    2935
                ],
                [
                    3853,
                    2968
                ]
            ],
            "shape_type": "rectangle"
        },
        {
            "flags": {},
            "group_id": null,
            "label": "wz4",
            "points": [
                [
                    3718,
                    2979
                ],
                [
                    3802,
                    3064
                ]
            ],
            "shape_type": "rectangle"
        },
        {
            "flags": {},
            "group_id": null,
            "label": "h1",
            "points": [
                [
                    4038,
                    3049
                ],
                [
                    4151,
                    3111
                ]
            ],
            "shape_type": "rectangle"
        },
        {
            "flags": {},
            "group_id": null,
            "label": "v1",
            "points": [
                [
                    3364,
                    3216
                ],
                [
                    3528,
                    3278
                ]
            ],
            "shape_type": "rectangle"
        },
        {
            "flags": {},
            "group_id": null,
            "label": "t3-r",
            "points": [
                [
                    2884,
                    1499
                ],
                [
                    3471,
                    3111
                ]
            ],
            "shape_type": "rectangle"
        },
        {
            "flags": {},
            "group_id": null,
            "label": "sm",
            "points": [
                [
                    2080,
                    3013
                ],
                [
                    3544,
                    3733
                ]
            ],
            "shape_type": "rectangle"
        },
        {
            "flags": {},
            "group_id": null,
            "label": "btl",
            "points": [
                [
                    2348,
                    3836
                ],
                [
                    4164,
                    4146
                ]
            ],
            "shape_type": "rectangle"
        },
        {
            "flags": {},
            "group_id": null,
            "label": "tl",
            "points": [
                [
                    544,
                    4029
                ],
                [
                    1422,
                    4086
                ]
            ],
            "shape_type": "rectangle"
        },
        {
            "flags": {},
            "group_id": null,
            "label": "mask",
            "lineType": [
                "LLLLLLLLLLLLLLLLL"
            ],
            "points": [
                [
                    1871,
                    2002
                ],
                [
                    1430,
                    2030
                ],
                [
                    1083,
                    2096
                ],
                [
                    428,
                    2174
                ],
                [
                    386,
                    2177
                ],
                [
                    361,
                    2161
                ],
                [
                    373,
                    2052
                ],
                [
                    495,
                    1487
                ],
                [
                    1035,
                    1470
                ],
                [
                    1044,
                    1410
                ],
                [
                    1070,
                    1379
                ],
                [
                    1171,
                    1384
                ],
                [
                    1201,
                    1411
                ],
                [
                    1764,
                    1454
                ],
                [
                    1788,
                    1470
                ],
                [
                    1869,
                    1873
                ],
                [
                    1871,
                    2002
                ]
            ],
            "shape_type": "polygon"
        },
        {
            "flags": {},
            "group_id": null,
            "label": "mask",
            "lineType": [
                "LLLLLLLLLLLLLLLL"
            ],
            "points": [
                [
                    1136,
                    2198
                ],
                [
                    858,
                    2196
                ],
                [
                    618,
                    2271
                ],
                [
                    516,
                    2529
                ],
                [
                    369,
                    2568
                ],
                [
                    324,
                    2586
                ],
                [
                    308,
                    2649
                ],
                [
                    308,
                    2681
                ],
                [
                    496,
                    2728
                ],
                [
                    679,
                    2738
                ],
                [
                    806,
                    2743
                ],
                [
                    1028,
                    2683
                ],
                [
                    1045,
                    2569
                ],
                [
                    1106,
                    2324
                ],
                [
                    1126,
                    2304
                ],
                [
                    1136,
                    2198
                ]
            ],
            "shape_type": "polygon"
        },
        {
            "flags": {},
            "group_id": null,
            "label": "mask",
            "lineType": [
                "LLLLLLLLLLL"
            ],
            "points": [
                [
                    1535,
                    2143
                ],
                [
                    1490,
                    2153
                ],
                [
                    1263,
                    2291
                ],
                [
                    1085,
                    2544
                ],
                [
                    1055,
                    2626
                ],
                [
                    1235,
                    2679
                ],
                [
                    1516,
                    2683
                ],
                [
                    1656,
                    2653
                ],
                [
                    1668,
                    2611
                ],
                [
                    1623,
                    2199
                ],
                [
                    1535,
                    2143
                ]
            ],
            "shape_type": "polygon"
        },
        {
            "flags": {},
            "group_id": null,
            "label": "mask",
            "lineType": [
                "LLLLLLLLLLL"
            ],
            "points": [
                [
                    2208,
                    2121
                ],
                [
                    1943,
                    2261
                ],
                [
                    1769,
                    2534
                ],
                [
                    1731,
                    2576
                ],
                [
                    1731,
                    2618
                ],
                [
                    1926,
                    2683
                ],
                [
                    2178,
                    2679
                ],
                [
                    2328,
                    2631
                ],
                [
                    2355,
                    2578
                ],
                [
                    2285,
                    2159
                ],
                [
                    2208,
                    2121
                ]
            ],
            "shape_type": "polygon"
        },
        {
            "flags": {},
            "group_id": null,
            "label": "mask",
            "lineType": [
                "LLLLLLLLLLLL"
            ],
            "points": [
                [
                    2224,
                    1428
                ],
                [
                    2759,
                    1428
                ],
                [
                    2759,
                    1866
                ],
                [
                    2224,
                    1866
                ]
            ],
            "shape_type": "polygon"
        },
        {
            "flags": {},
            "group_id": null,
            "label": "mask",
            "lineType": [
                "LLLLLLLLLLLLLLLLLLLLLLLLLLLLLLLLLLLLLLLLLLLLLLLLLLLLLLLLLLL"
            ],
            "points": [
                [
                    3171,
                    1483
                ],
                [
                    3125,
                    1703
                ],
                [
                    2995,
                    1756
                ],
                [
                    2840,
                    1804
                ],
                [
                    2843,
                    1864
                ],
                [
                    2891,
                    1914
                ],
                [
                    2906,
                    2263
                ],
                [
                    2988,
                    2323
                ],
                [
                    3058,
                    2369
                ],
                [
                    3023,
                    2664
                ],
                [
                    2958,
                    2728
                ],
                [
                    2891,
                    2733
                ],
                [
                    2696,
                    2738
                ],
                [
                    2648,
                    2754
                ],
                [
                    2631,
                    2786
                ],
                [
                    2626,
                    2856
                ],
                [
                    2875,
                    2848
                ],
                [
                    2953,
                    2843
                ],
                [
                    2916,
                    2988
                ],
                [
                    2876,
                    3041
                ],
                [
                    2828,
                    3076
                ],
                [
                    2778,
                    3089
                ],
                [
                    2758,
                    3093
                ],
                [
                    2758,
                    3119
                ],
                [
                    2807,
                    3141
                ],
                [
                    3360,
                    3147
                ],
                [
                    3362,
                    3283
                ],
                [
                    3537,
                    3283
                ],
                [
                    3533,
                    3143
                ],
                [
                    4098,
                    3148
                ],
                [
                    4133,
                    3112
                ],
                [
                    4158,
                    3093
                ],
                [
                    4153,
                    3055
                ],
                [
                    4141,
                    3041
                ],
                [
                    4059,
                    3041
                ],
                [
                    3921,
                    3025
                ],
                [
                    3907,
                    2874
                ],
                [
                    3735,
                    2856
                ],
                [
                    3727,
                    2819
                ],
                [
                    3715,
                    2793
                ],
                [
                    3693,
                    2787
                ],
                [
                    3678,
                    2790
                ],
                [
                    3651,
                    2805
                ],
                [
                    3620,
                    2858
                ],
                [
                    3601,
                    2906
                ],
                [
                    3562,
                    2919
                ],
                [
                    3474,
                    2928
                ],
                [
                    3422,
                    2919
                ],
                [
                    3313,
                    2623
                ],
                [
                    3288,
                    2452
                ],
                [
                    3334,
                    2433
                ],
                [
                    3410,
                    2433
                ],
                [
                    3438,
                    2420
                ],
                [
                    3501,
                    2328
                ],
                [
                    3556,
                    2295
                ],
                [
                    3553,
                    1711
                ],
                [
                    3417,
                    1708
                ],
                [
                    3243,
                    1714
                ],
                [
                    3171,
                    1483
                ]
            ],
            "shape_type": "polygon"
        },
        {
            "flags": {},
            "group_id": null,
            "label": "mask",
            "lineType": [
                "LLLLLLLLLLLLLLL"
            ],
            "points": [
                [
                    2070,
                    3003
                ],
                [
                    3554,
                    3003
                ],
                [
                    3554,
                    3743
                ],
                [
                    2070,
                    3743
                ]
            ],
            "shape_type": "polygon"
        },
        {
            "flags": {},
            "group_id": null,
            "label": "mask",
            "lineType": [
                "LLLLL"
            ],
            "points": [
                [
                    2338,
                    3826
                ],
                [
                    4174,
                    3826
                ],
                [
                    4174,
                    4156
                ],
                [
                    2338,
                    4156
                ]
            ],
            "shape_type": "polygon"
        },
        {
            "flags": {},
            "group_id": null,
            "label": "mask",
            "lineType": [
                "LLLLLL"
            ],
            "points": [
                [
                    534,
                    4019
                ],
                [
                    1432,
                    4019
                ],
                [
                    1432,
                    4096
                ],
                [
                    534,
                    4096
                ]
            ],
            "shape_type": "polygon"
        },
        {
            "flags": {},
            "group_id": null,
            "label": "mask",
            "lineType": [
                "LLLLLLL"
            ],
            "points": [
                [
                    361,
                    2758
                ],
                [
                    1948,
                    2758
                ],
                [
                    1948,
                    3982
                ],
                [
                    361,
                    3982
                ]
            ],
            "shape_type": "polygon"
        },
        {
            "flags": {},
            "group_id": null,
            "label": "wlb",
            "points": [
                [
                    371,
                    2768
                ],
                [
                    1938,
                    3972
                ]
            ],
            "shape_type": "rectangle"
        },
        {
            "flags": {},
            "group_id": null,
            "label": "wztl",
            "points": [
                [
                    716,
                    4031
                ],
                [
                    837,
                    4072
                ]
            ],
            "shape_type": "rectangle"
        },
        {
            "flags": {},
            "group_id": null,
            "label": "xtl",
            "points": [
                [
                    880,
                    4041
                ],
                [
                    932,
                    4084
                ]
            ],
            "shape_type": "rectangle"
        },
        {
            "flags": {},
            "group_id": null,
            "label": "wztl",
            "points": [
                [
                    952,
                    4037
                ],
                [
                    1071,
                    4077
                ]
            ],
            "shape_type": "rectangle"
        },
        {
            "flags": {},
            "group_id": null,
            "label": "xtl",
            "points": [
                [
                    1108,
                    4040
                ],
                [
                    1160,
                    4083
                ]
            ],
            "shape_type": "rectangle"
        },
        {
            "flags": {},
            "group_id": null,
            "label": "wztl",
            "points": [
                [
                    1198,
                    4042
                ],
                [
                    1319,
                    4082
                ]
            ],
            "shape_type": "rectangle"
        },
        {
            "flags": {},
            "group_id": null,
            "label": "xtl",
            "points": [
                [
                    1369,
                    4043
                ],
                [
                    1422,
                    4085
                ]
            ],
            "shape_type": "rectangle"
        },
        {
            "flags": {},
            "group_id": null,
            "label": "Ns",
            "points": [
                [
                    2517,
                    1685
                ]
            ],
            "shape_type": "point"
        },
        {
            "flags": {},
            "group_id": null,
            "label": "Ne",
            "points": [
                [
                    2516,
                    1505
                ]
            ],
            "shape_type": "point"
        }
    ],
    "version": "4.5.7"
}