{
    "flags": {},
    "imageData": null,
    "imageHeight": 4210,
    "imagePath": "00-四角塔-汇总_32.png",
    "imageWidth": 4210,
    "shapes": [
        {
            "flags": {},
            "group_id": null,
            "label": "d1",
            "points": [
                [
                    445,
                    2020
                ],
                [
                    532,
                    2176
                ]
            ],
            "shape_type": "rectangle"
        },
        {
            "flags": {},
            "group_id": null,
            "label": "v1",
            "points": [
                [
                    850,
                    2143
                ],
                [
                    1075,
                    2228
                ]
            ],
            "shape_type": "rectangle"
        },
        {
            "flags": {},
            "group_id": null,
            "label": "d1",
            "points": [
                [
                    1335,
                    2020
                ],
                [
                    1423,
                    2176
                ]
            ],
            "shape_type": "rectangle"
        },
        {
            "flags": {},
            "group_id": null,
            "label": "wz3",
            "points": [
                [
                    750,
                    1672
                ],
                [
                    794,
                    1712
                ]
            ],
            "shape_type": "rectangle"
        },
        {
            "flags": {},
            "group_id": null,
            "label": "wz3",
            "points": [
                [
                    751,
                    1744
                ],
                [
                    795,
                    1785
                ]
            ],
            "shape_type": "rectangle"
        },
        {
            "flags": {},
            "group_id": null,
            "label": "wz3",
            "points": [
                [
                    751,
                    1816
                ],
                [
                    795,
                    1857
                ]
            ],
            "shape_type": "rectangle"
        },
        {
            "flags": {},
            "group_id": null,
            "label": "b1",
            "points": [
                [
                    700,
                    1661
                ],
                [
                    841,
                    1870
                ]
            ],
            "shape_type": "rectangle"
        },
        {
            "flags": {},
            "group_id": null,
            "label": "vt4",
            "points": [
                [
                    900,
                    1523
                ],
                [
                    1315,
                    2037
                ]
            ],
            "shape_type": "rectangle"
        },
        {
            "flags": {},
            "group_id": null,
            "label": "j1",
            "points": [
                [
                    1496,
                    1650
                ],
                [
                    1608,
                    1730
                ]
            ],
            "shape_type": "rectangle"
        },
        {
            "flags": {},
            "group_id": null,
            "label": "j1",
            "points": [
                [
                    1778,
                    1802
                ],
                [
                    1884,
                    1893
                ]
            ],
            "shape_type": "rectangle"
        },
        {
            "flags": {},
            "group_id": null,
            "label": "j1",
            "points": [
                [
                    1895,
                    1619
                ],
                [
                    1982,
                    1700
                ]
            ],
            "shape_type": "rectangle"
        },
        {
            "flags": {},
            "group_id": null,
            "label": "j1",
            "points": [
                [
                    1779,
                    1409
                ],
                [
                    1803,
                    1442
                ]
            ],
            "shape_type": "rectangle"
        },
        {
            "flags": {},
            "group_id": null,
            "label": "n1",
            "points": [
                [
                    1495,
                    1396
                ],
                [
                    1984,
                    1894
                ]
            ],
            "shape_type": "rectangle"
        },
        {
            "flags": {},
            "group_id": null,
            "label": "wz3",
            "points": [
                [
                    1586,
                    2025
                ],
                [
                    1942,
                    2103
                ]
            ],
            "shape_type": "rectangle"
        },
        {
            "flags": {},
            "group_id": null,
            "label": "sm",
            "points": [
                [
                    356,
                    2338
                ],
                [
                    1719,
                    3070
                ]
            ],
            "shape_type": "rectangle"
        },
        {
            "flags": {},
            "group_id": null,
            "label": "wz3",
            "points": [
                [
                    2187,
                    1771
                ],
                [
                    2328,
                    1837
                ]
            ],
            "shape_type": "rectangle"
        },
        {
            "flags": {},
            "group_id": null,
            "label": "va1",
            "points": [
                [
                    2339,
                    1728
                ],
                [
                    2378,
                    1773
                ]
            ],
            "shape_type": "rectangle"
        },
        {
            "flags": {},
            "group_id": null,
            "label": "va1",
            "points": [
                [
                    2619,
                    1466
                ],
                [
                    2659,
                    1510
                ]
            ],
            "shape_type": "rectangle"
        },
        {
            "flags": {},
            "group_id": null,
            "label": "wz3",
            "points": [
                [
                    2623,
                    1388
                ],
                [
                    2761,
                    1453
                ]
            ],
            "shape_type": "rectangle"
        },
        {
            "flags": {},
            "group_id": null,
            "label": "va1",
            "points": [
                [
                    2607,
                    1746
                ],
                [
                    2650,
                    1781
                ]
            ],
            "shape_type": "rectangle"
        },
        {
            "flags": {},
            "group_id": null,
            "label": "wz3",
            "points": [
                [
                    2665,
                    1769
                ],
                [
                    2802,
                    1830
                ]
            ],
            "shape_type": "rectangle"
        },
        {
            "flags": {},
            "group_id": null,
            "label": "vp2-3",
            "points": [
                [
                    2401,
                    1528
                ],
                [
                    2595,
                    1723
                ]
            ],
            "shape_type": "rectangle"
        },
        {
            "flags": {},
            "group_id": null,
            "label": "v1",
            "points": [
                [
                    2352,
                    1904
                ],
                [
                    2580,
                    1971
                ]
            ],
            "shape_type": "rectangle"
        },
        {
            "flags": {},
            "group_id": null,
            "label": "wz3",
            "points": [
                [
                    2426,
                    2172
                ],
                [
                    2548,
                    2217
                ]
            ],
            "shape_type": "rectangle"
        },
        {
            "flags": {},
            "group_id": null,
            "label": "va1",
            "points": [
                [
                    2399,
                    2245
                ],
                [
                    2438,
                    2285
                ]
            ],
            "shape_type": "rectangle"
        },
        {
            "flags": {},
            "group_id": null,
            "label": "va1",
            "points": [
                [
                    2397,
                    2455
                ],
                [
                    2438,
                    2494
                ]
            ],
            "shape_type": "rectangle"
        },
        {
            "flags": {},
            "group_id": null,
            "label": "wz3",
            "points": [
                [
                    2468,
                    2468
                ],
                [
                    2590,
                    2513
                ]
            ],
            "shape_type": "rectangle"
        },
        {
            "flags": {},
            "group_id": null,
            "label": "va1",
            "points": [
                [
                    2193,
                    2441
                ],
                [
                    2229,
                    2483
                ]
            ],
            "shape_type": "rectangle"
        },
        {
            "flags": {},
            "group_id": null,
            "label": "wz3",
            "points": [
                [
                    2097,
                    2497
                ],
                [
                    2218,
                    2543
                ]
            ],
            "shape_type": "rectangle"
        },
        {
            "flags": {},
            "group_id": null,
            "label": "vp2-3",
            "points": [
                [
                    2217,
                    2273
                ],
                [
                    2411,
                    2467
                ]
            ],
            "shape_type": "rectangle"
        },
        {
            "flags": {},
            "group_id": null,
            "label": "v1",
            "points": [
                [
                    2217,
                    2585
                ],
                [
                    2446,
                    2652
                ]
            ],
            "shape_type": "rectangle"
        },
        {
            "flags": {},
            "group_id": null,
            "label": "wz3",
            "points": [
                [
                    2198,
                    2963
                ],
                [
                    2327,
                    3008
                ]
            ],
            "shape_type": "rectangle"
        },
        {
            "flags": {},
            "group_id": null,
            "label": "va1",
            "points": [
                [
                    2170,
                    3036
                ],
                [
                    2209,
                    3076
                ]
            ],
            "shape_type": "rectangle"
        },
        {
            "flags": {},
            "group_id": null,
            "label": "va1",
            "points": [
                [
                    2169,
                    3245
                ],
                [
                    2209,
                    3284
                ]
            ],
            "shape_type": "rectangle"
        },
        {
            "flags": {},
            "group_id": null,
            "label": "wz3",
            "points": [
                [
                    2239,
                    3259
                ],
                [
                    2369,
                    3304
                ]
            ],
            "shape_type": "rectangle"
        },
        {
            "flags": {},
            "group_id": null,
            "label": "wz3",
            "points": [
                [
                    1868,
                    3288
                ],
                [
                    1998,
                    3332
                ]
            ],
            "shape_type": "rectangle"
        },
        {
            "flags": {},
            "group_id": null,
            "label": "va1",
            "points": [
                [
                    1964,
                    3231
                ],
                [
                    2000,
                    3273
                ]
            ],
            "shape_type": "rectangle"
        },
        {
            "flags": {},
            "group_id": null,
            "label": "vp2-3",
            "points": [
                [
                    1988,
                    3063
                ],
                [
                    2182,
                    3257
                ]
            ],
            "shape_type": "rectangle"
        },
        {
            "flags": {},
            "group_id": null,
            "label": "v1",
            "points": [
                [
                    1988,
                    3375
                ],
                [
                    2217,
                    3442
                ]
            ],
            "shape_type": "rectangle"
        },
        {
            "flags": {},
            "group_id": null,
            "label": "wz3",
            "points": [
                [
                    2990,
                    1759
                ],
                [
                    3110,
                    1805
                ]
            ],
            "shape_type": "rectangle"
        },
        {
            "flags": {},
            "group_id": null,
            "label": "wz3",
            "points": [
                [
                    2969,
                    2124
                ],
                [
                    3090,
                    2168
                ]
            ],
            "shape_type": "rectangle"
        },
        {
            "flags": {},
            "group_id": null,
            "label": "wz3",
            "points": [
                [
                    3062,
                    2203
                ],
                [
                    3198,
                    2229
                ]
            ],
            "shape_type": "rectangle"
        },
        {
            "flags": {},
            "group_id": null,
            "label": "wz3",
            "points": [
                [
                    2970,
                    2296
                ],
                [
                    3093,
                    2341
                ]
            ],
            "shape_type": "rectangle"
        },
        {
            "flags": {},
            "group_id": null,
            "label": "wz3",
            "points": [
                [
                    3289,
                    1720
                ],
                [
                    3327,
                    1745
                ]
            ],
            "shape_type": "rectangle"
        },
        {
            "flags": {},
            "group_id": null,
            "label": "wz3",
            "points": [
                [
                    3440,
                    1714
                ],
                [
                    3477,
                    1739
                ]
            ],
            "shape_type": "rectangle"
        },
        {
            "flags": {},
            "group_id": null,
            "label": "wz3",
            "points": [
                [
                    3485,
                    1714
                ],
                [
                    3518,
                    1738
                ]
            ],
            "shape_type": "rectangle"
        },
        {
            "flags": {},
            "group_id": null,
            "label": "a1-1",
            "points": [
                [
                    3332,
                    1761
                ],
                [
                    3352,
                    1831
                ]
            ],
            "shape_type": "rectangle"
        },
        {
            "flags": {},
            "group_id": null,
            "label": "g1",
            "points": [
                [
                    3350,
                    1749
                ],
                [
                    3355,
                    1863
                ]
            ],
            "shape_type": "rectangle"
        },
        {
            "flags": {},
            "group_id": null,
            "label": "g1",
            "points": [
                [
                    3407,
                    1748
                ],
                [
                    3410,
                    1862
                ]
            ],
            "shape_type": "rectangle"
        },
        {
            "flags": {},
            "group_id": null,
            "label": "g1",
            "points": [
                [
                    3467,
                    1748
                ],
                [
                    3471,
                    1862
                ]
            ],
            "shape_type": "rectangle"
        },
        {
            "flags": {},
            "group_id": null,
            "label": "a1-3",
            "points": [
                [
                    3399,
                    1759
                ],
                [
                    3418,
                    1828
                ]
            ],
            "shape_type": "rectangle"
        },
        {
            "flags": {},
            "group_id": null,
            "label": "a1-2",
            "points": [
                [
                    3471,
                    1760
                ],
                [
                    3489,
                    1830
                ]
            ],
            "shape_type": "rectangle"
        },
        {
            "flags": {},
            "group_id": null,
            "label": "a1-1",
            "points": [
                [
                    3308,
                    2079
                ],
                [
                    3332,
                    2192
                ]
            ],
            "shape_type": "rectangle"
        },
        {
            "flags": {},
            "group_id": null,
            "label": "a1-3",
            "points": [
                [
                    3404,
                    2099
                ],
                [
                    3428,
                    2190
                ]
            ],
            "shape_type": "rectangle"
        },
        {
            "flags": {},
            "group_id": null,
            "label": "a1-2",
            "points": [
                [
                    3481,
                    2081
                ],
                [
                    3506,
                    2194
                ]
            ],
            "shape_type": "rectangle"
        },
        {
            "flags": {},
            "group_id": null,
            "label": "g1",
            "points": [
                [
                    3414,
                    2084
                ],
                [
                    3419,
                    2226
                ]
            ],
            "shape_type": "rectangle"
        },
        {
            "flags": {},
            "group_id": null,
            "label": "g1",
            "points": [
                [
                    3477,
                    2060
                ],
                [
                    3482,
                    2202
                ]
            ],
            "shape_type": "rectangle"
        },
        {
            "flags": {},
            "group_id": null,
            "label": "g1",
            "points": [
                [
                    3337,
                    2058
                ],
                [
                    3343,
                    2201
                ]
            ],
            "shape_type": "rectangle"
        },
        {
            "flags": {},
            "group_id": null,
            "label": "a1-1",
            "points": [
                [
                    3291,
                    2315
                ],
                [
                    3314,
                    2428
                ]
            ],
            "shape_type": "rectangle"
        },
        {
            "flags": {},
            "group_id": null,
            "label": "a1-3",
            "points": [
                [
                    3405,
                    2312
                ],
                [
                    3428,
                    2403
                ]
            ],
            "shape_type": "rectangle"
        },
        {
            "flags": {},
            "group_id": null,
            "label": "a1-2",
            "points": [
                [
                    3495,
                    2317
                ],
                [
                    3520,
                    2431
                ]
            ],
            "shape_type": "rectangle"
        },
        {
            "flags": {},
            "group_id": null,
            "label": "g1",
            "points": [
                [
                    3484,
                    2298
                ],
                [
                    3495,
                    2439
                ]
            ],
            "shape_type": "rectangle"
        },
        {
            "flags": {},
            "group_id": null,
            "label": "g1",
            "points": [
                [
                    3414,
                    2297
                ],
                [
                    3419,
                    2439
                ]
            ],
            "shape_type": "rectangle"
        },
        {
            "flags": {},
            "group_id": null,
            "label": "g1",
            "points": [
                [
                    3313,
                    2295
                ],
                [
                    3324,
                    2437
                ]
            ],
            "shape_type": "rectangle"
        },
        {
            "flags": {},
            "group_id": null,
            "label": "p1-2",
            "points": [
                [
                    3313,
                    2297
                ],
                [
                    3496,
                    2440
                ]
            ],
            "shape_type": "rectangle"
        },
        {
            "flags": {},
            "group_id": null,
            "label": "p1-2",
            "points": [
                [
                    3337,
                    2057
                ],
                [
                    3482,
                    2227
                ]
            ],
            "shape_type": "rectangle"
        },
        {
            "flags": {},
            "group_id": null,
            "label": "p1-2",
            "points": [
                [
                    3350,
                    1747
                ],
                [
                    3471,
                    1863
                ]
            ],
            "shape_type": "rectangle"
        },
        {
            "flags": {},
            "group_id": null,
            "label": "d1",
            "points": [
                [
                    3200,
                    1736
                ],
                [
                    3263,
                    1836
                ]
            ],
            "shape_type": "rectangle"
        },
        {
            "flags": {},
            "group_id": null,
            "label": "d1",
            "points": [
                [
                    3550,
                    1736
                ],
                [
                    3613,
                    1836
                ]
            ],
            "shape_type": "rectangle"
        },
        {
            "flags": {},
            "group_id": null,
            "label": "d1",
            "points": [
                [
                    3205,
                    2026
                ],
                [
                    3268,
                    2127
                ]
            ],
            "shape_type": "rectangle"
        },
        {
            "flags": {},
            "group_id": null,
            "label": "d1",
            "points": [
                [
                    3205,
                    2236
                ],
                [
                    3268,
                    2337
                ]
            ],
            "shape_type": "rectangle"
        },
        {
            "flags": {},
            "group_id": null,
            "label": "d1",
            "points": [
                [
                    3553,
                    2027
                ],
                [
                    3616,
                    2127
                ]
            ],
            "shape_type": "rectangle"
        },
        {
            "flags": {},
            "group_id": null,
            "label": "d1",
            "points": [
                [
                    3553,
                    2237
                ],
                [
                    3616,
                    2337
                ]
            ],
            "shape_type": "rectangle"
        },
        {
            "flags": {},
            "group_id": null,
            "label": "wz1",
            "points": [
                [
                    2767,
                    2848
                ],
                [
                    3093,
                    2913
                ]
            ],
            "shape_type": "rectangle"
        },
        {
            "flags": {},
            "group_id": null,
            "label": "wz3",
            "points": [
                [
                    2842,
                    3396
                ],
                [
                    2962,
                    3430
                ]
            ],
            "shape_type": "rectangle"
        },
        {
            "flags": {},
            "group_id": null,
            "label": "b1",
            "points": [
                [
                    2827,
                    3266
                ],
                [
                    2977,
                    3538
                ]
            ],
            "shape_type": "rectangle"
        },
        {
            "flags": {},
            "group_id": null,
            "label": "t3-l",
            "points": [
                [
                    3068,
                    1664
                ],
                [
                    3767,
                    3539
                ]
            ],
            "shape_type": "rectangle"
        },
        {
            "flags": {},
            "group_id": null,
            "label": "h1",
            "points": [
                [
                    3814,
                    1621
                ],
                [
                    3948,
                    1685
                ]
            ],
            "shape_type": "rectangle"
        },
        {
            "flags": {},
            "group_id": null,
            "label": "h1",
            "points": [
                [
                    3813,
                    1774
                ],
                [
                    3948,
                    1839
                ]
            ],
            "shape_type": "rectangle"
        },
        {
            "flags": {},
            "group_id": null,
            "label": "h1",
            "points": [
                [
                    3814,
                    2156
                ],
                [
                    3948,
                    2220
                ]
            ],
            "shape_type": "rectangle"
        },
        {
            "flags": {},
            "group_id": null,
            "label": "h1",
            "points": [
                [
                    3813,
                    2371
                ],
                [
                    3947,
                    2435
                ]
            ],
            "shape_type": "rectangle"
        },
        {
            "flags": {},
            "group_id": null,
            "label": "h1",
            "points": [
                [
                    3862,
                    3466
                ],
                [
                    4024,
                    3539
                ]
            ],
            "shape_type": "rectangle"
        },
        {
            "flags": {},
            "group_id": null,
            "label": "v1",
            "points": [
                [
                    3126,
                    3666
                ],
                [
                    3324,
                    3741
                ]
            ],
            "shape_type": "rectangle"
        },
        {
            "flags": {},
            "group_id": null,
            "label": "btl",
            "points": [
                [
                    2348,
                    3836
                ],
                [
                    4164,
                    4146
                ]
            ],
            "shape_type": "rectangle"
        },
        {
            "flags": {},
            "group_id": null,
            "label": "mask",
            "lineType": [
                "LLLLLLLLLLLLL"
            ],
            "points": [
                [
                    664,
                    1593
                ],
                [
                    799,
                    1518
                ],
                [
                    987,
                    1481
                ],
                [
                    1197,
                    1473
                ],
                [
                    1364,
                    1533
                ],
                [
                    1431,
                    2231
                ],
                [
                    1301,
                    2270
                ],
                [
                    894,
                    2308
                ],
                [
                    744,
                    2265
                ],
                [
                    419,
                    2208
                ],
                [
                    392,
                    2045
                ],
                [
                    547,
                    1911
                ],
                [
                    664,
                    1593
                ]
            ],
            "shape_type": "polygon"
        },
        {
            "flags": {},
            "group_id": null,
            "label": "mask",
            "lineType": [
                "LLLLLLLLLLLLLLLL"
            ],
            "points": [
                [
                    1485,
                    1386
                ],
                [
                    1994,
                    1386
                ],
                [
                    1994,
                    1904
                ],
                [
                    1485,
                    1904
                ]
            ],
            "shape_type": "polygon"
        },
        {
            "flags": {},
            "group_id": null,
            "label": "mask",
            "lineType": [
                "LLLLLLLLLLLLLL"
            ],
            "points": [
                [
                    2152,
                    1726
                ],
                [
                    2292,
                    1736
                ],
                [
                    2431,
                    1468
                ],
                [
                    2516,
                    1441
                ],
                [
                    2552,
                    1403
                ],
                [
                    2631,
                    1346
                ],
                [
                    2804,
                    1353
                ],
                [
                    2842,
                    1461
                ],
                [
                    2877,
                    1748
                ],
                [
                    2829,
                    1943
                ],
                [
                    2612,
                    2031
                ],
                [
                    2391,
                    2035
                ],
                [
                    2142,
                    1971
                ],
                [
                    2152,
                    1726
                ]
            ],
            "shape_type": "polygon"
        },
        {
            "flags": {},
            "group_id": null,
            "label": "mask",
            "lineType": [
                "LLLLLLLLLLLL"
            ],
            "points": [
                [
                    346,
                    2328
                ],
                [
                    1729,
                    2328
                ],
                [
                    1729,
                    3080
                ],
                [
                    346,
                    3080
                ]
            ],
            "shape_type": "polygon"
        },
        {
            "flags": {},
            "group_id": null,
            "label": "mask",
            "lineType": [
                "LLLLLLLLLL"
            ],
            "points": [
                [
                    334,
                    3129
                ],
                [
                    1748,
                    3129
                ],
                [
                    1748,
                    4108
                ],
                [
                    334,
                    4108
                ]
            ],
            "shape_type": "polygon"
        },
        {
            "flags": {},
            "group_id": null,
            "label": "mask",
            "lineType": [
                "LLLLLLLLLLLL"
            ],
            "points": [
                [
                    1839,
                    3240
                ],
                [
                    1876,
                    3120
                ],
                [
                    2191,
                    2900
                ],
                [
                    2369,
                    2927
                ],
                [
                    2404,
                    3077
                ],
                [
                    2436,
                    3222
                ],
                [
                    2431,
                    3342
                ],
                [
                    2359,
                    3435
                ],
                [
                    2069,
                    3492
                ],
                [
                    1934,
                    3467
                ],
                [
                    1841,
                    3392
                ],
                [
                    1839,
                    3240
                ]
            ],
            "shape_type": "polygon"
        },
        {
            "flags": {},
            "group_id": null,
            "label": "mask",
            "lineType": [
                "LLLLLLLLLLL"
            ],
            "points": [
                [
                    2161,
                    2247
                ],
                [
                    2319,
                    2175
                ],
                [
                    2401,
                    2132
                ],
                [
                    2566,
                    2152
                ],
                [
                    2671,
                    2497
                ],
                [
                    2616,
                    2607
                ],
                [
                    2499,
                    2715
                ],
                [
                    2261,
                    2715
                ],
                [
                    2069,
                    2657
                ],
                [
                    2049,
                    2452
                ],
                [
                    2161,
                    2247
                ]
            ],
            "shape_type": "polygon"
        },
        {
            "flags": {},
            "group_id": null,
            "label": "mask",
            "lineType": [
                "LLLLLLLLLLLLLLLLLLLLL"
            ],
            "points": [
                [
                    2959,
                    1847
                ],
                [
                    2986,
                    1662
                ],
                [
                    3214,
                    1595
                ],
                [
                    3386,
                    1590
                ],
                [
                    3834,
                    1555
                ],
                [
                    4029,
                    1635
                ],
                [
                    4044,
                    2500
                ],
                [
                    3939,
                    2735
                ],
                [
                    3829,
                    3150
                ],
                [
                    4024,
                    3320
                ],
                [
                    4096,
                    3505
                ],
                [
                    3794,
                    3727
                ],
                [
                    3439,
                    3802
                ],
                [
                    3036,
                    3767
                ],
                [
                    2639,
                    3675
                ],
                [
                    2464,
                    3590
                ],
                [
                    2526,
                    3432
                ],
                [
                    2689,
                    2897
                ],
                [
                    2859,
                    2572
                ],
                [
                    2879,
                    2327
                ],
                [
                    2959,
                    1847
                ]
            ],
            "shape_type": "polygon"
        },
        {
            "flags": {},
            "group_id": null,
            "label": "mask",
            "lineType": [
                "LLLLLL"
            ],
            "points": [
                [
                    2338,
                    3826
                ],
                [
                    4174,
                    3826
                ],
                [
                    4174,
                    4156
                ],
                [
                    2338,
                    4156
                ]
            ],
            "shape_type": "polygon"
        },
        {
            "flags": {},
            "group_id": null,
            "label": "wlb",
            "points": [
                [
                    344,
                    3139
                ],
                [
                    1738,
                    4098
                ]
            ],
            "shape_type": "rectangle"
        },
        {
            "flags": {},
            "group_id": null,
            "label": "Ns",
            "points": [
                [
                    1758,
                    1685
                ]
            ],
            "shape_type": "point"
        },
        {
            "flags": {},
            "group_id": null,
            "label": "Ne",
            "points": [
                [
                    1757,
                    1504
                ]
            ],
            "shape_type": "point"
        }
    ],
    "version": "4.5.7"
}