{
    "flags": {},
    "imageData": null,
    "imageHeight": 4210,
    "imagePath": "20160829-增城区-广州增城麻车村东-L-张武雄（10米围杆+一体化机柜，联通自建，加局端：增城麻车）.png",
    "imageWidth": 4210,
    "shapes": [
        {
            "flags": {},
            "group_id": null,
            "label": "n1",
            "points": [
                [
                    633,
                    1468
                ],
                [
                    820,
                    1606
                ]
            ],
            "shape_type": "rectangle"
        },
        {
            "flags": {},
            "group_id": null,
            "label": "va1",
            "points": [
                [
                    1463,
                    1476
                ],
                [
                    1530,
                    1518
                ]
            ],
            "shape_type": "rectangle"
        },
        {
            "flags": {},
            "group_id": null,
            "label": "va1",
            "points": [
                [
                    1330,
                    1552
                ],
                [
                    1374,
                    1620
                ]
            ],
            "shape_type": "rectangle"
        },
        {
            "flags": {},
            "group_id": null,
            "label": "va1",
            "points": [
                [
                    1596,
                    1549
                ],
                [
                    1663,
                    1595
                ]
            ],
            "shape_type": "rectangle"
        },
        {
            "flags": {},
            "group_id": null,
            "label": "va1",
            "points": [
                [
                    1331,
                    1708
                ],
                [
                    1376,
                    1775
                ]
            ],
            "shape_type": "rectangle"
        },
        {
            "flags": {},
            "group_id": null,
            "label": "va1",
            "points": [
                [
                    1461,
                    1806
                ],
                [
                    1528,
                    1853
                ]
            ],
            "shape_type": "rectangle"
        },
        {
            "flags": {},
            "group_id": null,
            "label": "va1",
            "points": [
                [
                    1624,
                    1707
                ],
                [
                    1666,
                    1775
                ]
            ],
            "shape_type": "rectangle"
        },
        {
            "flags": {},
            "group_id": null,
            "label": "vt1",
            "points": [
                [
                    1450,
                    1614
                ],
                [
                    1547,
                    1713
                ]
            ],
            "shape_type": "rectangle"
        },
        {
            "flags": {},
            "group_id": null,
            "label": "x1",
            "points": [
                [
                    881,
                    2020
                ],
                [
                    1905,
                    2089
                ]
            ],
            "shape_type": "rectangle"
        },
        {
            "flags": {},
            "group_id": null,
            "label": "x1",
            "points": [
                [
                    870,
                    2259
                ],
                [
                    940,
                    3026
                ]
            ],
            "shape_type": "rectangle"
        },
        {
            "flags": {},
            "group_id": null,
            "label": "x1",
            "points": [
                [
                    1563,
                    2257
                ],
                [
                    1632,
                    3028
                ]
            ],
            "shape_type": "rectangle"
        },
        {
            "flags": {},
            "group_id": null,
            "label": "vb1",
            "points": [
                [
                    801,
                    2285
                ],
                [
                    1692,
                    2996
                ]
            ],
            "shape_type": "rectangle"
        },
        {
            "flags": {},
            "group_id": null,
            "label": "d1",
            "points": [
                [
                    843,
                    3000
                ],
                [
                    948,
                    3092
                ]
            ],
            "shape_type": "rectangle"
        },
        {
            "flags": {},
            "group_id": null,
            "label": "d1",
            "points": [
                [
                    1720,
                    3005
                ],
                [
                    1821,
                    3095
                ]
            ],
            "shape_type": "rectangle"
        },
        {
            "flags": {},
            "group_id": null,
            "label": "v1",
            "points": [
                [
                    1211,
                    3072
                ],
                [
                    1455,
                    3138
                ]
            ],
            "shape_type": "rectangle"
        },
        {
            "flags": {},
            "group_id": null,
            "label": "c1",
            "points": [
                [
                    3404,
                    1409
                ],
                [
                    3410,
                    1526
                ]
            ],
            "shape_type": "rectangle"
        },
        {
            "flags": {},
            "group_id": null,
            "label": "a1-1",
            "points": [
                [
                    3229,
                    1547
                ],
                [
                    3262,
                    1668
                ]
            ],
            "shape_type": "rectangle"
        },
        {
            "flags": {},
            "group_id": null,
            "label": "a1-2",
            "points": [
                [
                    3551,
                    1547
                ],
                [
                    3585,
                    1667
                ]
            ],
            "shape_type": "rectangle"
        },
        {
            "flags": {},
            "group_id": null,
            "label": "a1-1",
            "points": [
                [
                    3229,
                    1742
                ],
                [
                    3262,
                    1862
                ]
            ],
            "shape_type": "rectangle"
        },
        {
            "flags": {},
            "group_id": null,
            "label": "a1-2",
            "points": [
                [
                    3553,
                    1742
                ],
                [
                    3586,
                    1862
                ]
            ],
            "shape_type": "rectangle"
        },
        {
            "flags": {},
            "group_id": null,
            "label": "a1-4",
            "points": [
                [
                    3396,
                    1551
                ],
                [
                    3418,
                    1668
                ]
            ],
            "shape_type": "rectangle"
        },
        {
            "flags": {},
            "group_id": null,
            "label": "a1-4",
            "points": [
                [
                    3396,
                    1746
                ],
                [
                    3418,
                    1862
                ]
            ],
            "shape_type": "rectangle"
        },
        {
            "flags": {},
            "group_id": null,
            "label": "a1-1",
            "points": [
                [
                    3325,
                    1922
                ],
                [
                    3358,
                    2042
                ]
            ],
            "shape_type": "rectangle"
        },
        {
            "flags": {},
            "group_id": null,
            "label": "a1-2",
            "points": [
                [
                    3452,
                    1922
                ],
                [
                    3486,
                    2043
                ]
            ],
            "shape_type": "rectangle"
        },
        {
            "flags": {},
            "group_id": null,
            "label": "a1-4",
            "points": [
                [
                    3390,
                    1919
                ],
                [
                    3412,
                    2033
                ]
            ],
            "shape_type": "rectangle"
        },
        {
            "flags": {},
            "group_id": null,
            "label": "p1-1",
            "points": [
                [
                    3228,
                    1544
                ],
                [
                    3586,
                    1684
                ]
            ],
            "shape_type": "rectangle"
        },
        {
            "flags": {},
            "group_id": null,
            "label": "p1-1",
            "points": [
                [
                    3229,
                    1738
                ],
                [
                    3586,
                    1879
                ]
            ],
            "shape_type": "rectangle"
        },
        {
            "flags": {},
            "group_id": null,
            "label": "g1",
            "points": [
                [
                    3264,
                    1544
                ],
                [
                    3273,
                    1684
                ]
            ],
            "shape_type": "rectangle"
        },
        {
            "flags": {},
            "group_id": null,
            "label": "g1",
            "points": [
                [
                    3542,
                    1545
                ],
                [
                    3549,
                    1684
                ]
            ],
            "shape_type": "rectangle"
        },
        {
            "flags": {},
            "group_id": null,
            "label": "g1",
            "points": [
                [
                    3264,
                    1737
                ],
                [
                    3273,
                    1879
                ]
            ],
            "shape_type": "rectangle"
        },
        {
            "flags": {},
            "group_id": null,
            "label": "g1",
            "points": [
                [
                    3541,
                    1738
                ],
                [
                    3550,
                    1879
                ]
            ],
            "shape_type": "rectangle"
        },
        {
            "flags": {},
            "group_id": null,
            "label": "g1",
            "points": [
                [
                    3360,
                    1918
                ],
                [
                    3369,
                    2059
                ]
            ],
            "shape_type": "rectangle"
        },
        {
            "flags": {},
            "group_id": null,
            "label": "g1",
            "points": [
                [
                    3441,
                    1917
                ],
                [
                    3450,
                    2059
                ]
            ],
            "shape_type": "rectangle"
        },
        {
            "flags": {},
            "group_id": null,
            "label": "x1",
            "points": [
                [
                    3325,
                    2218
                ],
                [
                    3493,
                    2287
                ]
            ],
            "shape_type": "rectangle"
        },
        {
            "flags": {},
            "group_id": null,
            "label": "t1",
            "points": [
                [
                    3356,
                    1408
                ],
                [
                    3454,
                    2843
                ]
            ],
            "shape_type": "rectangle"
        },
        {
            "flags": {},
            "group_id": null,
            "label": "h1",
            "points": [
                [
                    3607,
                    1476
                ],
                [
                    3765,
                    1540
                ]
            ],
            "shape_type": "rectangle"
        },
        {
            "flags": {},
            "group_id": null,
            "label": "h1",
            "points": [
                [
                    3607,
                    1734
                ],
                [
                    3764,
                    1800
                ]
            ],
            "shape_type": "rectangle"
        },
        {
            "flags": {},
            "group_id": null,
            "label": "a3",
            "points": [
                [
                    3177,
                    2583
                ],
                [
                    3208,
                    2657
                ]
            ],
            "shape_type": "rectangle"
        },
        {
            "flags": {},
            "group_id": null,
            "label": "a3",
            "points": [
                [
                    3128,
                    2584
                ],
                [
                    3156,
                    2655
                ]
            ],
            "shape_type": "rectangle"
        },
        {
            "flags": {},
            "group_id": null,
            "label": "a3",
            "points": [
                [
                    3075,
                    2583
                ],
                [
                    3104,
                    2656
                ]
            ],
            "shape_type": "rectangle"
        },
        {
            "flags": {},
            "group_id": null,
            "label": "x1",
            "points": [
                [
                    2927,
                    2617
                ],
                [
                    2996,
                    2844
                ]
            ],
            "shape_type": "rectangle"
        },
        {
            "flags": {},
            "group_id": null,
            "label": "x1",
            "points": [
                [
                    3442,
                    2621
                ],
                [
                    3510,
                    2846
                ]
            ],
            "shape_type": "rectangle"
        },
        {
            "flags": {},
            "group_id": null,
            "label": "b1",
            "points": [
                [
                    3024,
                    2673
                ],
                [
                    3415,
                    2846
                ]
            ],
            "shape_type": "rectangle"
        },
        {
            "flags": {},
            "group_id": null,
            "label": "v1",
            "points": [
                [
                    3095,
                    2908
                ],
                [
                    3338,
                    2980
                ]
            ],
            "shape_type": "rectangle"
        },
        {
            "flags": {},
            "group_id": null,
            "label": "p1-1",
            "points": [
                [
                    3324,
                    1918
                ],
                [
                    3487,
                    2059
                ]
            ],
            "shape_type": "rectangle"
        },
        {
            "flags": {},
            "group_id": null,
            "label": "va4",
            "points": [
                [
                    1113,
                    2289
                ],
                [
                    1137,
                    2313
                ]
            ],
            "shape_type": "rectangle"
        },
        {
            "flags": {},
            "group_id": null,
            "label": "va4",
            "points": [
                [
                    1187,
                    2290
                ],
                [
                    1213,
                    2313
                ]
            ],
            "shape_type": "rectangle"
        },
        {
            "flags": {},
            "group_id": null,
            "label": "twentythere",
            "points": [
                [
                    1227,
                    2288
                ]
            ],
            "shape_type": "point"
        },
        {
            "flags": {},
            "group_id": null,
            "label": "twentytwo",
            "points": [
                [
                    1276,
                    2306
                ]
            ],
            "shape_type": "point"
        },
        {
            "flags": {},
            "group_id": null,
            "label": "twentythere",
            "points": [
                [
                    1287,
                    2288
                ]
            ],
            "shape_type": "point"
        },
        {
            "flags": {},
            "group_id": null,
            "label": "twentytwo",
            "points": [
                [
                    1333,
                    2306
                ]
            ],
            "shape_type": "point"
        },
        {
            "flags": {},
            "group_id": null,
            "label": "one",
            "points": [
                [
                    1079,
                    2288
                ]
            ],
            "shape_type": "point"
        },
        {
            "flags": {},
            "group_id": null,
            "label": "two",
            "points": [
                [
                    1080,
                    1669
                ]
            ],
            "shape_type": "point"
        },
        {
            "flags": {},
            "group_id": null,
            "label": "three",
            "points": [
                [
                    1235,
                    2207
                ]
            ],
            "shape_type": "point"
        },
        {
            "flags": {},
            "group_id": null,
            "label": "four",
            "points": [
                [
                    1736,
                    2208
                ]
            ],
            "shape_type": "point"
        },
        {
            "flags": {},
            "group_id": null,
            "label": "thirteen",
            "points": [
                [
                    3045,
                    2676
                ]
            ],
            "shape_type": "point"
        },
        {
            "flags": {},
            "group_id": null,
            "label": "thirteen",
            "points": [
                [
                    3413,
                    2674
                ]
            ],
            "shape_type": "point"
        },
        {
            "flags": {},
            "group_id": null,
            "label": "fourteen",
            "points": [
                [
                    3414,
                    2843
                ]
            ],
            "shape_type": "point"
        },
        {
            "flags": {},
            "group_id": null,
            "label": "fourteen",
            "points": [
                [
                    3045,
                    2842
                ]
            ],
            "shape_type": "point"
        },
        {
            "flags": {},
            "group_id": null,
            "label": "fourteen",
            "points": [
                [
                    3026,
                    2844
                ]
            ],
            "shape_type": "point"
        },
        {
            "flags": {},
            "group_id": null,
            "label": "fourteen",
            "points": [
                [
                    3394,
                    2843
                ]
            ],
            "shape_type": "point"
        },
        {
            "flags": {},
            "group_id": null,
            "label": "thirteen",
            "points": [
                [
                    3393,
                    2675
                ]
            ],
            "shape_type": "point"
        },
        {
            "flags": {},
            "group_id": null,
            "label": "thirteen",
            "points": [
                [
                    3025,
                    2674
                ]
            ],
            "shape_type": "point"
        },
        {
            "flags": {},
            "group_id": null,
            "label": "ten",
            "points": [
                [
                    1110,
                    2975
                ]
            ],
            "shape_type": "point"
        },
        {
            "flags": {},
            "group_id": null,
            "label": "nine",
            "points": [
                [
                    1132,
                    2975
                ]
            ],
            "shape_type": "point"
        },
        {
            "flags": {},
            "group_id": null,
            "label": "ten",
            "points": [
                [
                    1480,
                    2973
                ]
            ],
            "shape_type": "point"
        },
        {
            "flags": {},
            "group_id": null,
            "label": "nine",
            "points": [
                [
                    1499,
                    2974
                ]
            ],
            "shape_type": "point"
        },
        {
            "flags": {},
            "group_id": null,
            "label": "eight",
            "points": [
                [
                    1110,
                    2308
                ]
            ],
            "shape_type": "point"
        },
        {
            "flags": {},
            "group_id": null,
            "label": "seven",
            "points": [
                [
                    1132,
                    2308
                ]
            ],
            "shape_type": "point"
        },
        {
            "flags": {},
            "group_id": null,
            "label": "thirteen",
            "points": [
                [
                    1277,
                    2288
                ]
            ],
            "shape_type": "point"
        },
        {
            "flags": {},
            "group_id": null,
            "label": "thirteen",
            "points": [
                [
                    1333,
                    2289
                ]
            ],
            "shape_type": "point"
        },
        {
            "flags": {},
            "group_id": null,
            "label": "fourteen",
            "points": [
                [
                    1286,
                    2308
                ]
            ],
            "shape_type": "point"
        },
        {
            "flags": {},
            "group_id": null,
            "label": "fourteen",
            "points": [
                [
                    1227,
                    2308
                ]
            ],
            "shape_type": "point"
        },
        {
            "flags": {},
            "group_id": null,
            "label": "eight",
            "points": [
                [
                    1479,
                    2307
                ]
            ],
            "shape_type": "point"
        },
        {
            "flags": {},
            "group_id": null,
            "label": "seven",
            "points": [
                [
                    1499,
                    2307
                ]
            ],
            "shape_type": "point"
        },
        {
            "flags": {},
            "group_id": null,
            "label": "j1",
            "points": [
                [
                    634,
                    1469
                ],
                [
                    669,
                    1513
                ]
            ],
            "shape_type": "rectangle"
        },
        {
            "flags": {},
            "group_id": null,
            "label": "j1",
            "points": [
                [
                    643,
                    1526
                ],
                [
                    685,
                    1597
                ]
            ],
            "shape_type": "rectangle"
        },
        {
            "flags": {},
            "group_id": null,
            "label": "wz2",
            "points": [
                [
                    1052,
                    1932
                ],
                [
                    1077,
                    2022
                ]
            ],
            "shape_type": "rectangle"
        },
        {
            "flags": {},
            "group_id": null,
            "label": "x2",
            "points": [
                [
                    1052,
                    1656
                ],
                [
                    1089,
                    2300
                ]
            ],
            "shape_type": "rectangle"
        },
        {
            "flags": {},
            "group_id": null,
            "label": "wz2",
            "points": [
                [
                    1439,
                    2176
                ],
                [
                    1531,
                    2205
                ]
            ],
            "shape_type": "rectangle"
        },
        {
            "flags": {},
            "group_id": null,
            "label": "x2",
            "points": [
                [
                    1225,
                    2177
                ],
                [
                    1748,
                    2224
                ]
            ],
            "shape_type": "rectangle"
        },
        {
            "flags": {},
            "group_id": null,
            "label": "k1",
            "points": [
                [
                    1277,
                    2287
                ],
                [
                    1335,
                    2308
                ]
            ],
            "shape_type": "rectangle"
        },
        {
            "flags": {},
            "group_id": null,
            "label": "k1",
            "points": [
                [
                    1226,
                    2287
                ],
                [
                    1277,
                    2309
                ]
            ],
            "shape_type": "rectangle"
        },
        {
            "flags": {},
            "group_id": null,
            "label": "wz4",
            "points": [
                [
                    1214,
                    2626
                ],
                [
                    1349,
                    2679
                ]
            ],
            "shape_type": "rectangle"
        },
        {
            "flags": {},
            "group_id": null,
            "label": "sm",
            "points": [
                [
                    200,
                    3461
                ],
                [
                    2006,
                    4043
                ]
            ],
            "shape_type": "rectangle"
        },
        {
            "flags": {},
            "group_id": null,
            "label": "btl",
            "points": [
                [
                    2324,
                    3821
                ],
                [
                    4070,
                    4111
                ]
            ],
            "shape_type": "rectangle"
        },
        {
            "flags": {},
            "group_id": null,
            "label": "wz4",
            "points": [
                [
                    3132,
                    2737
                ],
                [
                    3268,
                    2788
                ]
            ],
            "shape_type": "rectangle"
        },
        {
            "flags": {},
            "group_id": null,
            "label": "mask",
            "lineType": [
                "LLLLLLLLLLLL"
            ],
            "points": [
                [
                    623,
                    1458
                ],
                [
                    830,
                    1458
                ],
                [
                    830,
                    1616
                ],
                [
                    623,
                    1616
                ]
            ],
            "shape_type": "polygon"
        },
        {
            "flags": {},
            "group_id": null,
            "label": "mask",
            "lineType": [
                "LLLLLLLLLLLLLLLLLL"
            ],
            "points": [
                [
                    623,
                    1458
                ],
                [
                    830,
                    1458
                ],
                [
                    830,
                    1616
                ],
                [
                    623,
                    1616
                ]
            ],
            "shape_type": "polygon"
        },
        {
            "flags": {},
            "group_id": null,
            "label": "mask",
            "lineType": [
                "LLLLLLLLLLLLLLLL"
            ],
            "points": [
                [
                    2799,
                    2047
                ],
                [
                    2733,
                    1915
                ],
                [
                    2733,
                    1763
                ],
                [
                    2771,
                    1559
                ],
                [
                    3307,
                    1395
                ],
                [
                    3511,
                    1391
                ],
                [
                    3721,
                    1393
                ],
                [
                    3809,
                    1429
                ],
                [
                    3831,
                    1975
                ],
                [
                    3679,
                    2635
                ],
                [
                    3659,
                    2921
                ],
                [
                    3573,
                    3023
                ],
                [
                    2989,
                    3023
                ],
                [
                    2777,
                    2905
                ],
                [
                    2729,
                    2735
                ],
                [
                    2799,
                    2047
                ]
            ],
            "shape_type": "polygon"
        },
        {
            "flags": {},
            "group_id": null,
            "label": "mask",
            "lineType": [
                "LLLLLLLL"
            ],
            "points": [
                [
                    2363,
                    3049
                ],
                [
                    3985,
                    3049
                ],
                [
                    3985,
                    3758
                ],
                [
                    2363,
                    3758
                ]
            ],
            "shape_type": "polygon"
        },
        {
            "flags": {},
            "group_id": null,
            "label": "mask",
            "lineType": [
                "LLLLL"
            ],
            "points": [
                [
                    2314,
                    3811
                ],
                [
                    4080,
                    3811
                ],
                [
                    4080,
                    4121
                ],
                [
                    2314,
                    4121
                ]
            ],
            "shape_type": "polygon"
        },
        {
            "flags": {},
            "group_id": null,
            "label": "mask",
            "lineType": [
                "LLLLLL"
            ],
            "points": [
                [
                    190,
                    3451
                ],
                [
                    2016,
                    3451
                ],
                [
                    2016,
                    4053
                ],
                [
                    190,
                    4053
                ]
            ],
            "shape_type": "polygon"
        },
        {
            "flags": {},
            "group_id": null,
            "label": "Ns",
            "points": [
                [
                    816,
                    1602
                ]
            ],
            "shape_type": "point"
        },
        {
            "flags": {},
            "group_id": null,
            "label": "Ne",
            "points": [
                [
                    700,
                    1536
                ]
            ],
            "shape_type": "point"
        },
        {
            "flags": {},
            "group_id": null,
            "label": "wlb",
            "points": [
                [
                    2373,
                    3059
                ],
                [
                    3975,
                    3748
                ]
            ],
            "shape_type": "rectangle"
        },
        {
            "flags": {},
            "group_id": null,
            "label": "wz1",
            "points": [
                [
                    1191,
                    2206
                ],
                [
                    1408,
                    2258
                ]
            ],
            "shape_type": "rectangle"
        },
        {
            "flags": {},
            "group_id": null,
            "label": "wz1",
            "points": [
                [
                    1189,
                    2370
                ],
                [
                    1405,
                    2418
                ]
            ],
            "shape_type": "rectangle"
        },
        {
            "flags": {},
            "group_id": null,
            "label": "wz1",
            "points": [
                [
                    3205,
                    2492
                ],
                [
                    3424,
                    2546
                ]
            ],
            "shape_type": "rectangle"
        },
        {
            "flags": {},
            "group_id": null,
            "label": "wz1",
            "points": [
                [
                    2818,
                    2490
                ],
                [
                    3037,
                    2545
                ]
            ],
            "shape_type": "rectangle"
        },
        {
            "flags": {},
            "group_id": null,
            "label": "wz3",
            "points": [
                [
                    2871,
                    1962
                ],
                [
                    3148,
                    2024
                ]
            ],
            "shape_type": "rectangle"
        },
        {
            "flags": {},
            "group_id": null,
            "label": "wz3",
            "points": [
                [
                    2832,
                    1779
                ],
                [
                    3231,
                    1840
                ]
            ],
            "shape_type": "rectangle"
        },
        {
            "flags": {},
            "group_id": null,
            "label": "wz3",
            "points": [
                [
                    2851,
                    1588
                ],
                [
                    3213,
                    1644
                ]
            ],
            "shape_type": "rectangle"
        }
    ],
    "version": "4.5.7"
}