{
    "flags": {},
    "imageData": null,
    "imageHeight": 4210,
    "imagePath": "LX0546-千佛山东（国动公司）5G无线基站天馈线安装示意图.png",
    "imageWidth": 4210,
    "shapes": [
        {
            "flags": {},
            "group_id": null,
            "label": "s1",
            "points": [
                [
                    837,
                    1917
                ],
                [
                    1379,
                    4011
                ]
            ],
            "shape_type": "rectangle"
        },
        {
            "flags": {},
            "group_id": null,
            "label": "a1-1",
            "points": [
                [
                    1027,
                    2062
                ],
                [
                    1046,
                    2158
                ]
            ],
            "shape_type": "rectangle"
        },
        {
            "flags": {},
            "group_id": null,
            "label": "g1",
            "points": [
                [
                    1048,
                    2064
                ],
                [
                    1053,
                    2172
                ]
            ],
            "shape_type": "rectangle"
        },
        {
            "flags": {},
            "group_id": null,
            "label": "a1-4",
            "points": [
                [
                    1099,
                    2064
                ],
                [
                    1115,
                    2162
                ]
            ],
            "shape_type": "rectangle"
        },
        {
            "flags": {},
            "group_id": null,
            "label": "g1",
            "points": [
                [
                    1161,
                    2064
                ],
                [
                    1166,
                    2173
                ]
            ],
            "shape_type": "rectangle"
        },
        {
            "flags": {},
            "group_id": null,
            "label": "a1-2",
            "points": [
                [
                    1169,
                    2060
                ],
                [
                    1189,
                    2156
                ]
            ],
            "shape_type": "rectangle"
        },
        {
            "flags": {},
            "group_id": null,
            "label": "p1-1",
            "points": [
                [
                    1027,
                    2061
                ],
                [
                    1189,
                    2173
                ]
            ],
            "shape_type": "rectangle"
        },
        {
            "flags": {},
            "group_id": null,
            "label": "a1-1",
            "points": [
                [
                    1023,
                    2275
                ],
                [
                    1044,
                    2371
                ]
            ],
            "shape_type": "rectangle"
        },
        {
            "flags": {},
            "group_id": null,
            "label": "g1",
            "points": [
                [
                    1046,
                    2269
                ],
                [
                    1050,
                    2380
                ]
            ],
            "shape_type": "rectangle"
        },
        {
            "flags": {},
            "group_id": null,
            "label": "a1-4",
            "points": [
                [
                    1096,
                    2277
                ],
                [
                    1112,
                    2374
                ]
            ],
            "shape_type": "rectangle"
        },
        {
            "flags": {},
            "group_id": null,
            "label": "g1",
            "points": [
                [
                    1152,
                    2270
                ],
                [
                    1156,
                    2378
                ]
            ],
            "shape_type": "rectangle"
        },
        {
            "flags": {},
            "group_id": null,
            "label": "a1-2",
            "points": [
                [
                    1159,
                    2275
                ],
                [
                    1178,
                    2367
                ]
            ],
            "shape_type": "rectangle"
        },
        {
            "flags": {},
            "group_id": null,
            "label": "p1-1",
            "points": [
                [
                    1024,
                    2270
                ],
                [
                    1178,
                    2379
                ]
            ],
            "shape_type": "rectangle"
        },
        {
            "flags": {},
            "group_id": null,
            "label": "a1-1",
            "points": [
                [
                    1025,
                    2461
                ],
                [
                    1046,
                    2557
                ]
            ],
            "shape_type": "rectangle"
        },
        {
            "flags": {},
            "group_id": null,
            "label": "g1",
            "points": [
                [
                    1048,
                    2460
                ],
                [
                    1053,
                    2570
                ]
            ],
            "shape_type": "rectangle"
        },
        {
            "flags": {},
            "group_id": null,
            "label": "a1-4",
            "points": [
                [
                    1097,
                    2463
                ],
                [
                    1113,
                    2561
                ]
            ],
            "shape_type": "rectangle"
        },
        {
            "flags": {},
            "group_id": null,
            "label": "g1",
            "points": [
                [
                    1162,
                    2461
                ],
                [
                    1167,
                    2570
                ]
            ],
            "shape_type": "rectangle"
        },
        {
            "flags": {},
            "group_id": null,
            "label": "a1-2",
            "points": [
                [
                    1169,
                    2460
                ],
                [
                    1188,
                    2556
                ]
            ],
            "shape_type": "rectangle"
        },
        {
            "flags": {},
            "group_id": null,
            "label": "p1-1",
            "points": [
                [
                    1026,
                    2461
                ],
                [
                    1188,
                    2570
                ]
            ],
            "shape_type": "rectangle"
        },
        {
            "flags": {},
            "group_id": null,
            "label": "a1-1",
            "points": [
                [
                    1032,
                    2685
                ],
                [
                    1051,
                    2781
                ]
            ],
            "shape_type": "rectangle"
        },
        {
            "flags": {},
            "group_id": null,
            "label": "g1",
            "points": [
                [
                    1053,
                    2684
                ],
                [
                    1058,
                    2793
                ]
            ],
            "shape_type": "rectangle"
        },
        {
            "flags": {},
            "group_id": null,
            "label": "g1",
            "points": [
                [
                    1167,
                    2684
                ],
                [
                    1171,
                    2793
                ]
            ],
            "shape_type": "rectangle"
        },
        {
            "flags": {},
            "group_id": null,
            "label": "a1-2",
            "points": [
                [
                    1174,
                    2683
                ],
                [
                    1192,
                    2779
                ]
            ],
            "shape_type": "rectangle"
        },
        {
            "flags": {},
            "group_id": null,
            "label": "p1-1",
            "points": [
                [
                    1032,
                    2684
                ],
                [
                    1192,
                    2793
                ]
            ],
            "shape_type": "rectangle"
        },
        {
            "flags": {},
            "group_id": null,
            "label": "a1-1",
            "points": [
                [
                    1035,
                    2945
                ],
                [
                    1055,
                    3041
                ]
            ],
            "shape_type": "rectangle"
        },
        {
            "flags": {},
            "group_id": null,
            "label": "g1",
            "points": [
                [
                    1058,
                    2947
                ],
                [
                    1062,
                    3058
                ]
            ],
            "shape_type": "rectangle"
        },
        {
            "flags": {},
            "group_id": null,
            "label": "a1-1",
            "points": [
                [
                    1092,
                    2945
                ],
                [
                    1112,
                    3042
                ]
            ],
            "shape_type": "rectangle"
        },
        {
            "flags": {},
            "group_id": null,
            "label": "g1",
            "points": [
                [
                    1114,
                    2946
                ],
                [
                    1119,
                    3054
                ]
            ],
            "shape_type": "rectangle"
        },
        {
            "flags": {},
            "group_id": null,
            "label": "g1",
            "points": [
                [
                    1171,
                    2947
                ],
                [
                    1175,
                    3056
                ]
            ],
            "shape_type": "rectangle"
        },
        {
            "flags": {},
            "group_id": null,
            "label": "a1-2",
            "points": [
                [
                    1178,
                    2945
                ],
                [
                    1197,
                    3039
                ]
            ],
            "shape_type": "rectangle"
        },
        {
            "flags": {},
            "group_id": null,
            "label": "p1-2",
            "points": [
                [
                    1035,
                    2944
                ],
                [
                    1198,
                    3056
                ]
            ],
            "shape_type": "rectangle"
        },
        {
            "flags": {},
            "group_id": null,
            "label": "b1",
            "points": [
                [
                    1178,
                    3931
                ],
                [
                    1232,
                    4011
                ]
            ],
            "shape_type": "rectangle"
        },
        {
            "flags": {},
            "group_id": null,
            "label": "seven",
            "points": [
                [
                    1178,
                    3931
                ]
            ],
            "shape_type": "point"
        },
        {
            "flags": {},
            "group_id": null,
            "label": "eight",
            "points": [
                [
                    1232,
                    3931
                ]
            ],
            "shape_type": "point"
        },
        {
            "flags": {},
            "group_id": null,
            "label": "eleven",
            "points": [
                [
                    1232,
                    3955
                ]
            ],
            "shape_type": "point"
        },
        {
            "flags": {},
            "group_id": null,
            "label": "fourteen",
            "points": [
                [
                    1178,
                    4011
                ]
            ],
            "shape_type": "point"
        },
        {
            "flags": {},
            "group_id": null,
            "label": "fourteen",
            "points": [
                [
                    1232,
                    4011
                ]
            ],
            "shape_type": "point"
        },
        {
            "flags": {},
            "group_id": null,
            "label": "fourteen",
            "points": [
                [
                    1287,
                    4010
                ]
            ],
            "shape_type": "point"
        },
        {
            "flags": {},
            "group_id": null,
            "label": "v1",
            "points": [
                [
                    1021,
                    4093
                ],
                [
                    1171,
                    4135
                ]
            ],
            "shape_type": "rectangle"
        },
        {
            "flags": {},
            "group_id": null,
            "label": "h1",
            "points": [
                [
                    523,
                    3932
                ],
                [
                    719,
                    4010
                ]
            ],
            "shape_type": "rectangle"
        },
        {
            "flags": {},
            "group_id": null,
            "label": "h1",
            "points": [
                [
                    525,
                    2939
                ],
                [
                    693,
                    3018
                ]
            ],
            "shape_type": "rectangle"
        },
        {
            "flags": {},
            "group_id": null,
            "label": "h1",
            "points": [
                [
                    524,
                    2688
                ],
                [
                    690,
                    2768
                ]
            ],
            "shape_type": "rectangle"
        },
        {
            "flags": {},
            "group_id": null,
            "label": "h1",
            "points": [
                [
                    523,
                    2503
                ],
                [
                    692,
                    2583
                ]
            ],
            "shape_type": "rectangle"
        },
        {
            "flags": {},
            "group_id": null,
            "label": "h1",
            "points": [
                [
                    523,
                    2306
                ],
                [
                    705,
                    2386
                ]
            ],
            "shape_type": "rectangle"
        },
        {
            "flags": {},
            "group_id": null,
            "label": "h1",
            "points": [
                [
                    524,
                    2085
                ],
                [
                    702,
                    2165
                ]
            ],
            "shape_type": "rectangle"
        },
        {
            "flags": {},
            "group_id": null,
            "label": "h1",
            "points": [
                [
                    523,
                    1895
                ],
                [
                    702,
                    1974
                ]
            ],
            "shape_type": "rectangle"
        },
        {
            "flags": {},
            "group_id": null,
            "label": "vt1",
            "points": [
                [
                    1700,
                    2052
                ],
                [
                    1803,
                    2153
                ]
            ],
            "shape_type": "rectangle"
        },
        {
            "flags": {},
            "group_id": null,
            "label": "v1",
            "points": [
                [
                    1644,
                    2300
                ],
                [
                    1892,
                    2365
                ]
            ],
            "shape_type": "rectangle"
        },
        {
            "flags": {},
            "group_id": null,
            "label": "d1",
            "points": [
                [
                    1421,
                    2288
                ],
                [
                    1504,
                    2385
                ]
            ],
            "shape_type": "rectangle"
        },
        {
            "flags": {},
            "group_id": null,
            "label": "d1",
            "points": [
                [
                    2035,
                    2274
                ],
                [
                    2118,
                    2369
                ]
            ],
            "shape_type": "rectangle"
        },
        {
            "flags": {},
            "group_id": null,
            "label": "v1",
            "points": [
                [
                    3553,
                    1975
                ],
                [
                    3821,
                    2045
                ]
            ],
            "shape_type": "rectangle"
        },
        {
            "flags": {},
            "group_id": null,
            "label": "n1",
            "points": [
                [
                    3259,
                    1528
                ],
                [
                    4068,
                    1939
                ]
            ],
            "shape_type": "rectangle"
        },
        {
            "flags": {},
            "group_id": null,
            "label": "vp2-1",
            "points": [
                [
                    1726,
                    3033
                ],
                [
                    1879,
                    3186
                ]
            ],
            "shape_type": "rectangle"
        },
        {
            "flags": {},
            "group_id": null,
            "label": "van",
            "points": [
                [
                    1770,
                    2928
                ],
                [
                    1837,
                    2965
                ]
            ],
            "shape_type": "rectangle"
        },
        {
            "flags": {},
            "group_id": null,
            "label": "van",
            "points": [
                [
                    1636,
                    3174
                ],
                [
                    1703,
                    3219
                ]
            ],
            "shape_type": "rectangle"
        },
        {
            "flags": {},
            "group_id": null,
            "label": "van",
            "points": [
                [
                    1918,
                    3157
                ],
                [
                    1967,
                    3216
                ]
            ],
            "shape_type": "rectangle"
        },
        {
            "flags": {},
            "group_id": null,
            "label": "v1",
            "points": [
                [
                    1579,
                    3277
                ],
                [
                    2017,
                    3344
                ]
            ],
            "shape_type": "rectangle"
        },
        {
            "flags": {},
            "group_id": null,
            "label": "b1",
            "points": [
                [
                    1232,
                    3955
                ],
                [
                    1287,
                    4010
                ]
            ],
            "shape_type": "rectangle"
        },
        {
            "flags": {},
            "group_id": null,
            "label": "eight",
            "points": [
                [
                    1287,
                    3955
                ]
            ],
            "shape_type": "point"
        },
        {
            "flags": {},
            "group_id": null,
            "label": "c1",
            "points": [
                [
                    1106,
                    1893
                ],
                [
                    1110,
                    1998
                ]
            ],
            "shape_type": "rectangle"
        },
        {
            "flags": {},
            "group_id": null,
            "label": "wz4",
            "points": [
                [
                    1714,
                    3360
                ],
                [
                    1871,
                    3409
                ]
            ],
            "shape_type": "rectangle"
        },
        {
            "flags": {},
            "group_id": null,
            "label": "btl",
            "points": [
                [
                    2343,
                    3837
                ],
                [
                    4103,
                    4134
                ]
            ],
            "shape_type": "rectangle"
        },
        {
            "flags": {},
            "group_id": null,
            "label": "sm",
            "points": [
                [
                    2240,
                    3054
                ],
                [
                    3920,
                    3414
                ]
            ],
            "shape_type": "rectangle"
        },
        {
            "flags": {},
            "group_id": null,
            "label": "tl",
            "points": [
                [
                    2285,
                    1528
                ],
                [
                    3210,
                    1929
                ]
            ],
            "shape_type": "rectangle"
        },
        {
            "flags": {},
            "group_id": null,
            "label": "j1",
            "points": [
                [
                    3649,
                    1529
                ],
                [
                    3685,
                    1572
                ]
            ],
            "shape_type": "rectangle"
        },
        {
            "flags": {},
            "group_id": null,
            "label": "j1",
            "points": [
                [
                    3727,
                    1580
                ],
                [
                    3935,
                    1642
                ]
            ],
            "shape_type": "rectangle"
        },
        {
            "flags": {},
            "group_id": null,
            "label": "j1",
            "points": [
                [
                    3784,
                    1763
                ],
                [
                    4065,
                    1825
                ]
            ],
            "shape_type": "rectangle"
        },
        {
            "flags": {},
            "group_id": null,
            "label": "j1",
            "points": [
                [
                    3260,
                    1879
                ],
                [
                    3545,
                    1938
                ]
            ],
            "shape_type": "rectangle"
        },
        {
            "flags": {},
            "group_id": null,
            "label": "mask",
            "lineType": [
                "LLLLLLL"
            ],
            "points": [
                [
                    2275,
                    1518
                ],
                [
                    3220,
                    1518
                ],
                [
                    3220,
                    1939
                ],
                [
                    2275,
                    1939
                ]
            ],
            "shape_type": "polygon"
        },
        {
            "flags": {},
            "group_id": null,
            "label": "mask",
            "lineType": [
                "LLLLLLLLLLLLLLLLLLLLL"
            ],
            "points": [
                [
                    3249,
                    1518
                ],
                [
                    4078,
                    1518
                ],
                [
                    4078,
                    1949
                ],
                [
                    3249,
                    1949
                ]
            ],
            "shape_type": "polygon"
        },
        {
            "flags": {},
            "group_id": null,
            "label": "mask",
            "lineType": [
                "LLLLLL"
            ],
            "points": [
                [
                    2208,
                    2218
                ],
                [
                    3927,
                    2218
                ],
                [
                    3927,
                    2920
                ],
                [
                    2208,
                    2920
                ]
            ],
            "shape_type": "polygon"
        },
        {
            "flags": {},
            "group_id": null,
            "label": "mask",
            "lineType": [
                "LLLLLLLLLLLLLL"
            ],
            "points": [
                [
                    2230,
                    3044
                ],
                [
                    3930,
                    3044
                ],
                [
                    3930,
                    3424
                ],
                [
                    2230,
                    3424
                ]
            ],
            "shape_type": "polygon"
        },
        {
            "flags": {},
            "group_id": null,
            "label": "mask",
            "lineType": [
                "LLLLL"
            ],
            "points": [
                [
                    2333,
                    3827
                ],
                [
                    4113,
                    3827
                ],
                [
                    4113,
                    4144
                ],
                [
                    2333,
                    4144
                ]
            ],
            "shape_type": "polygon"
        },
        {
            "flags": {},
            "group_id": null,
            "label": "mask",
            "lineType": [
                "LLLLLLLLLLLLLLLLLLLLLLLLLLLLLLLLLLLLLLLLLL"
            ],
            "points": [
                [
                    481,
                    3983
                ],
                [
                    504,
                    4049
                ],
                [
                    588,
                    4086
                ],
                [
                    716,
                    4103
                ],
                [
                    1022,
                    4134
                ],
                [
                    1173,
                    4132
                ],
                [
                    1220,
                    4097
                ],
                [
                    1248,
                    4078
                ],
                [
                    1524,
                    4080
                ],
                [
                    1744,
                    4068
                ],
                [
                    1711,
                    4004
                ],
                [
                    1640,
                    3976
                ],
                [
                    1356,
                    3944
                ],
                [
                    1238,
                    3873
                ],
                [
                    1224,
                    3809
                ],
                [
                    1219,
                    3398
                ],
                [
                    1300,
                    3219
                ],
                [
                    1396,
                    3216
                ],
                [
                    1394,
                    3159
                ],
                [
                    1421,
                    3099
                ],
                [
                    1476,
                    3068
                ],
                [
                    1485,
                    3039
                ],
                [
                    1481,
                    2997
                ],
                [
                    1461,
                    2961
                ],
                [
                    1427,
                    2735
                ],
                [
                    1401,
                    2650
                ],
                [
                    1369,
                    2439
                ],
                [
                    1312,
                    2127
                ],
                [
                    1246,
                    1973
                ],
                [
                    1197,
                    1919
                ],
                [
                    1119,
                    1892
                ],
                [
                    1002,
                    1878
                ],
                [
                    903,
                    1879
                ],
                [
                    498,
                    1868
                ],
                [
                    455,
                    2774
                ],
                [
                    466,
                    3094
                ],
                [
                    605,
                    3107
                ],
                [
                    1043,
                    3203
                ],
                [
                    1023,
                    3668
                ],
                [
                    996,
                    3885
                ],
                [
                    487,
                    3928
                ],
                [
                    481,
                    3983
                ]
            ],
            "shape_type": "polygon"
        },
        {
            "flags": {},
            "group_id": null,
            "label": "mask",
            "lineType": [
                "LLLLLLLLLLLLLLLLLLLLLLLLLLL"
            ],
            "points": [
                [
                    1489,
                    3303
                ],
                [
                    1468,
                    3250
                ],
                [
                    1464,
                    3198
                ],
                [
                    1485,
                    3145
                ],
                [
                    1568,
                    3120
                ],
                [
                    1711,
                    3001
                ],
                [
                    1728,
                    2950
                ],
                [
                    1762,
                    2904
                ],
                [
                    1891,
                    2815
                ],
                [
                    1985,
                    2836
                ],
                [
                    2016,
                    2851
                ],
                [
                    2048,
                    2881
                ],
                [
                    2070,
                    2936
                ],
                [
                    2075,
                    2959
                ],
                [
                    2085,
                    3023
                ],
                [
                    2112,
                    3125
                ],
                [
                    2151,
                    3199
                ],
                [
                    2172,
                    3225
                ],
                [
                    2199,
                    3241
                ],
                [
                    2202,
                    3299
                ],
                [
                    2075,
                    3313
                ],
                [
                    2037,
                    3351
                ],
                [
                    2011,
                    3390
                ],
                [
                    1818,
                    3424
                ],
                [
                    1664,
                    3423
                ],
                [
                    1537,
                    3373
                ],
                [
                    1489,
                    3303
                ]
            ],
            "shape_type": "polygon"
        },
        {
            "flags": {},
            "group_id": null,
            "label": "mask",
            "lineType": [
                "LLLLLLLLLLLLLLLLLLLL"
            ],
            "points": [
                [
                    1409,
                    2393
                ],
                [
                    1528,
                    2404
                ],
                [
                    1697,
                    2404
                ],
                [
                    1830,
                    2408
                ],
                [
                    2086,
                    2399
                ],
                [
                    2143,
                    2374
                ],
                [
                    2130,
                    2296
                ],
                [
                    2123,
                    2258
                ],
                [
                    2056,
                    2234
                ],
                [
                    1983,
                    2212
                ],
                [
                    1949,
                    2192
                ],
                [
                    1846,
                    2035
                ],
                [
                    1770,
                    1976
                ],
                [
                    1747,
                    1988
                ],
                [
                    1657,
                    2140
                ],
                [
                    1638,
                    2266
                ],
                [
                    1617,
                    2288
                ],
                [
                    1554,
                    2274
                ],
                [
                    1404,
                    2283
                ],
                [
                    1409,
                    2393
                ]
            ],
            "shape_type": "polygon"
        },
        {
            "flags": {},
            "group_id": null,
            "label": "wlb",
            "points": [
                [
                    2218,
                    2228
                ],
                [
                    3917,
                    2910
                ]
            ],
            "shape_type": "rectangle"
        },
        {
            "flags": {},
            "group_id": null,
            "label": "Ns",
            "points": [
                [
                    3666,
                    1756
                ]
            ],
            "shape_type": "point"
        },
        {
            "flags": {},
            "group_id": null,
            "label": "Ne",
            "points": [
                [
                    3667,
                    1623
                ]
            ],
            "shape_type": "point"
        },
        {
            "flags": {},
            "group_id": null,
            "label": "xtl",
            "points": [
                [
                    2402,
                    1545
                ],
                [
                    2471,
                    1584
                ]
            ],
            "shape_type": "rectangle"
        },
        {
            "flags": {},
            "group_id": null,
            "label": "wztl",
            "points": [
                [
                    2496,
                    1535
                ],
                [
                    2775,
                    1585
                ]
            ],
            "shape_type": "rectangle"
        },
        {
            "flags": {},
            "group_id": null,
            "label": "xtl",
            "points": [
                [
                    2891,
                    1553
                ],
                [
                    2951,
                    1578
                ]
            ],
            "shape_type": "rectangle"
        },
        {
            "flags": {},
            "group_id": null,
            "label": "wztl",
            "points": [
                [
                    2985,
                    1530
                ],
                [
                    3169,
                    1578
                ]
            ],
            "shape_type": "rectangle"
        },
        {
            "flags": {},
            "group_id": null,
            "label": "wztl",
            "points": [
                [
                    2983,
                    1591
                ],
                [
                    3167,
                    1642
                ]
            ],
            "shape_type": "rectangle"
        },
        {
            "flags": {},
            "group_id": null,
            "label": "xtl",
            "points": [
                [
                    2890,
                    1613
                ],
                [
                    2952,
                    1641
                ]
            ],
            "shape_type": "rectangle"
        },
        {
            "flags": {},
            "group_id": null,
            "label": "wztl",
            "points": [
                [
                    2497,
                    1596
                ],
                [
                    2791,
                    1648
                ]
            ],
            "shape_type": "rectangle"
        },
        {
            "flags": {},
            "group_id": null,
            "label": "xtl",
            "points": [
                [
                    2402,
                    1613
                ],
                [
                    2469,
                    1653
                ]
            ],
            "shape_type": "rectangle"
        },
        {
            "flags": {},
            "group_id": null,
            "label": "xtl",
            "points": [
                [
                    2402,
                    1681
                ],
                [
                    2470,
                    1720
                ]
            ],
            "shape_type": "rectangle"
        },
        {
            "flags": {},
            "group_id": null,
            "label": "wztl",
            "points": [
                [
                    2494,
                    1663
                ],
                [
                    2743,
                    1713
                ]
            ],
            "shape_type": "rectangle"
        },
        {
            "flags": {},
            "group_id": null,
            "label": "xtl",
            "points": [
                [
                    2891,
                    1694
                ],
                [
                    2951,
                    1701
                ]
            ],
            "shape_type": "rectangle"
        },
        {
            "flags": {},
            "group_id": null,
            "label": "wztl",
            "points": [
                [
                    2984,
                    1660
                ],
                [
                    3156,
                    1710
                ]
            ],
            "shape_type": "rectangle"
        },
        {
            "flags": {},
            "group_id": null,
            "label": "wztl",
            "points": [
                [
                    2982,
                    1734
                ],
                [
                    3207,
                    1783
                ]
            ],
            "shape_type": "rectangle"
        },
        {
            "flags": {},
            "group_id": null,
            "label": "xtl",
            "points": [
                [
                    2882,
                    1742
                ],
                [
                    2939,
                    1785
                ]
            ],
            "shape_type": "rectangle"
        },
        {
            "flags": {},
            "group_id": null,
            "label": "wztl",
            "points": [
                [
                    2499,
                    1729
                ],
                [
                    2751,
                    1779
                ]
            ],
            "shape_type": "rectangle"
        },
        {
            "flags": {},
            "group_id": null,
            "label": "xtl",
            "points": [
                [
                    2402,
                    1749
                ],
                [
                    2470,
                    1789
                ]
            ],
            "shape_type": "rectangle"
        },
        {
            "flags": {},
            "group_id": null,
            "label": "xtl",
            "points": [
                [
                    2402,
                    1818
                ],
                [
                    2470,
                    1857
                ]
            ],
            "shape_type": "rectangle"
        },
        {
            "flags": {},
            "group_id": null,
            "label": "wztl",
            "points": [
                [
                    2510,
                    1799
                ],
                [
                    2658,
                    1851
                ]
            ],
            "shape_type": "rectangle"
        },
        {
            "flags": {},
            "group_id": null,
            "label": "wztl",
            "points": [
                [
                    2512,
                    1877
                ],
                [
                    2733,
                    1926
                ]
            ],
            "shape_type": "rectangle"
        },
        {
            "flags": {},
            "group_id": null,
            "label": "xtl",
            "points": [
                [
                    2401,
                    1885
                ],
                [
                    2470,
                    1925
                ]
            ],
            "shape_type": "rectangle"
        },
        {
            "flags": {},
            "group_id": null,
            "label": "xtl",
            "points": [
                [
                    2881,
                    1877
                ],
                [
                    2948,
                    1922
                ]
            ],
            "shape_type": "rectangle"
        },
        {
            "flags": {},
            "group_id": null,
            "label": "wztl",
            "points": [
                [
                    2982,
                    1878
                ],
                [
                    3207,
                    1927
                ]
            ],
            "shape_type": "rectangle"
        },
        {
            "flags": {},
            "group_id": null,
            "label": "wztl",
            "points": [
                [
                    2982,
                    1802
                ],
                [
                    3208,
                    1851
                ]
            ],
            "shape_type": "rectangle"
        },
        {
            "flags": {},
            "group_id": null,
            "label": "xtl",
            "points": [
                [
                    2883,
                    1808
                ],
                [
                    2948,
                    1850
                ]
            ],
            "shape_type": "rectangle"
        },
        {
            "flags": {},
            "group_id": null,
            "label": "wz1",
            "points": [
                [
                    776,
                    2397
                ],
                [
                    880,
                    2447
                ]
            ],
            "shape_type": "rectangle"
        },
        {
            "flags": {},
            "group_id": null,
            "label": "wz1",
            "points": [
                [
                    722,
                    2617
                ],
                [
                    825,
                    2666
                ]
            ],
            "shape_type": "rectangle"
        },
        {
            "flags": {},
            "group_id": null,
            "label": "wz1",
            "points": [
                [
                    838,
                    3014
                ],
                [
                    1029,
                    3110
                ]
            ],
            "shape_type": "rectangle"
        },
        {
            "flags": {},
            "group_id": null,
            "label": "wz1",
            "points": [
                [
                    1192,
                    3096
                ],
                [
                    1382,
                    3187
                ]
            ],
            "shape_type": "rectangle"
        },
        {
            "flags": {},
            "group_id": null,
            "label": "wz1",
            "points": [
                [
                    1278,
                    2946
                ],
                [
                    1470,
                    3040
                ]
            ],
            "shape_type": "rectangle"
        },
        {
            "flags": {},
            "group_id": null,
            "label": "wz3",
            "points": [
                [
                    1487,
                    3160
                ],
                [
                    1681,
                    3255
                ]
            ],
            "shape_type": "rectangle"
        },
        {
            "flags": {},
            "group_id": null,
            "label": "wz3",
            "points": [
                [
                    1864,
                    2842
                ],
                [
                    2057,
                    2937
                ]
            ],
            "shape_type": "rectangle"
        },
        {
            "flags": {},
            "group_id": null,
            "label": "wz3",
            "points": [
                [
                    1997,
                    3177
                ],
                [
                    2188,
                    3273
                ]
            ],
            "shape_type": "rectangle"
        }
    ],
    "version": "4.5.7"
}