{
    "flags": {},
    "imageData": null,
    "imageHeight": 4210,
    "imagePath": "NJ0607-兴隆二村回迁房1（共享宏远）5G无线基站天馈线安装示意图.png",
    "imageWidth": 4210,
    "shapes": [
        {
            "flags": {},
            "group_id": null,
            "label": "vtn",
            "points": [
                [
                    1186,
                    1723
                ],
                [
                    1356,
                    1861
                ]
            ],
            "shape_type": "rectangle"
        },
        {
            "flags": {},
            "group_id": null,
            "label": "vb1",
            "points": [
                [
                    1364,
                    1779
                ],
                [
                    1432,
                    1813
                ]
            ],
            "shape_type": "rectangle"
        },
        {
            "flags": {},
            "group_id": null,
            "label": "d1",
            "points": [
                [
                    1439,
                    1918
                ],
                [
                    1500,
                    2019
                ]
            ],
            "shape_type": "rectangle"
        },
        {
            "flags": {},
            "group_id": null,
            "label": "v1",
            "points": [
                [
                    1179,
                    1964
                ],
                [
                    1367,
                    2018
                ]
            ],
            "shape_type": "rectangle"
        },
        {
            "flags": {},
            "group_id": null,
            "label": "d1",
            "points": [
                [
                    1026,
                    1927
                ],
                [
                    1085,
                    2028
                ]
            ],
            "shape_type": "rectangle"
        },
        {
            "flags": {},
            "group_id": null,
            "label": "va1",
            "points": [
                [
                    807,
                    2337
                ],
                [
                    872,
                    2386
                ]
            ],
            "shape_type": "rectangle"
        },
        {
            "flags": {},
            "group_id": null,
            "label": "va1",
            "points": [
                [
                    906,
                    2501
                ],
                [
                    949,
                    2568
                ]
            ],
            "shape_type": "rectangle"
        },
        {
            "flags": {},
            "group_id": null,
            "label": "va1",
            "points": [
                [
                    715,
                    2522
                ],
                [
                    782,
                    2569
                ]
            ],
            "shape_type": "rectangle"
        },
        {
            "flags": {},
            "group_id": null,
            "label": "vp2-1",
            "points": [
                [
                    816,
                    2465
                ],
                [
                    842,
                    2492
                ]
            ],
            "shape_type": "rectangle"
        },
        {
            "flags": {},
            "group_id": null,
            "label": "v1",
            "points": [
                [
                    711,
                    2690
                ],
                [
                    1004,
                    2770
                ]
            ],
            "shape_type": "rectangle"
        },
        {
            "flags": {},
            "group_id": null,
            "label": "v1",
            "points": [
                [
                    1112,
                    3901
                ],
                [
                    1311,
                    3977
                ]
            ],
            "shape_type": "rectangle"
        },
        {
            "flags": {},
            "group_id": null,
            "label": "b1",
            "points": [
                [
                    1529,
                    3279
                ],
                [
                    1543,
                    3296
                ]
            ],
            "shape_type": "rectangle"
        },
        {
            "flags": {},
            "group_id": null,
            "label": "c1",
            "points": [
                [
                    1542,
                    3013
                ],
                [
                    1544,
                    3034
                ]
            ],
            "shape_type": "rectangle"
        },
        {
            "flags": {},
            "group_id": null,
            "label": "a1-1",
            "points": [
                [
                    1505,
                    3039
                ],
                [
                    1518,
                    3084
                ]
            ],
            "shape_type": "rectangle"
        },
        {
            "flags": {},
            "group_id": null,
            "label": "g1",
            "points": [
                [
                    1519,
                    3041
                ],
                [
                    1521,
                    3080
                ]
            ],
            "shape_type": "rectangle"
        },
        {
            "flags": {},
            "group_id": null,
            "label": "a1-1",
            "points": [
                [
                    1528,
                    3038
                ],
                [
                    1540,
                    3085
                ]
            ],
            "shape_type": "rectangle"
        },
        {
            "flags": {},
            "group_id": null,
            "label": "g1",
            "points": [
                [
                    1570,
                    3042
                ],
                [
                    1572,
                    3081
                ]
            ],
            "shape_type": "rectangle"
        },
        {
            "flags": {},
            "group_id": null,
            "label": "a1-2",
            "points": [
                [
                    1574,
                    3037
                ],
                [
                    1585,
                    3083
                ]
            ],
            "shape_type": "rectangle"
        },
        {
            "flags": {},
            "group_id": null,
            "label": "g1",
            "points": [
                [
                    1570,
                    3089
                ],
                [
                    1572,
                    3127
                ]
            ],
            "shape_type": "rectangle"
        },
        {
            "flags": {},
            "group_id": null,
            "label": "a1-2",
            "points": [
                [
                    1574,
                    3084
                ],
                [
                    1586,
                    3131
                ]
            ],
            "shape_type": "rectangle"
        },
        {
            "flags": {},
            "group_id": null,
            "label": "a1-1",
            "points": [
                [
                    1529,
                    3086
                ],
                [
                    1541,
                    3132
                ]
            ],
            "shape_type": "rectangle"
        },
        {
            "flags": {},
            "group_id": null,
            "label": "a1-1",
            "points": [
                [
                    1506,
                    3087
                ],
                [
                    1518,
                    3133
                ]
            ],
            "shape_type": "rectangle"
        },
        {
            "flags": {},
            "group_id": null,
            "label": "g1",
            "points": [
                [
                    1519,
                    3088
                ],
                [
                    1521,
                    3126
                ]
            ],
            "shape_type": "rectangle"
        },
        {
            "flags": {},
            "group_id": null,
            "label": "p1-2",
            "points": [
                [
                    1505,
                    3085
                ],
                [
                    1586,
                    3135
                ]
            ],
            "shape_type": "rectangle"
        },
        {
            "flags": {},
            "group_id": null,
            "label": "tn",
            "points": [
                [
                    1520,
                    3012
                ],
                [
                    1572,
                    3336
                ]
            ],
            "shape_type": "rectangle"
        },
        {
            "flags": {},
            "group_id": null,
            "label": "h1",
            "points": [
                [
                    1929,
                    3024
                ],
                [
                    2157,
                    3117
                ]
            ],
            "shape_type": "rectangle"
        },
        {
            "flags": {},
            "group_id": null,
            "label": "h1",
            "points": [
                [
                    1933,
                    3209
                ],
                [
                    2162,
                    3302
                ]
            ],
            "shape_type": "rectangle"
        },
        {
            "flags": {},
            "group_id": null,
            "label": "n1",
            "points": [
                [
                    3299,
                    1499
                ],
                [
                    3779,
                    1959
                ]
            ],
            "shape_type": "rectangle"
        },
        {
            "flags": {},
            "group_id": null,
            "label": "seven",
            "points": [
                [
                    1364,
                    1778
                ]
            ],
            "shape_type": "point"
        },
        {
            "flags": {},
            "group_id": null,
            "label": "nine",
            "points": [
                [
                    1364,
                    1813
                ]
            ],
            "shape_type": "point"
        },
        {
            "flags": {},
            "group_id": null,
            "label": "eight",
            "points": [
                [
                    1432,
                    1779
                ]
            ],
            "shape_type": "point"
        },
        {
            "flags": {},
            "group_id": null,
            "label": "ten",
            "points": [
                [
                    1432,
                    1813
                ]
            ],
            "shape_type": "point"
        },
        {
            "flags": {},
            "group_id": null,
            "label": "nine",
            "points": [
                [
                    1529,
                    3296
                ]
            ],
            "shape_type": "point"
        },
        {
            "flags": {},
            "group_id": null,
            "label": "eight",
            "points": [
                [
                    1543,
                    3278
                ]
            ],
            "shape_type": "point"
        },
        {
            "flags": {},
            "group_id": null,
            "label": "ten",
            "points": [
                [
                    1543,
                    3295
                ]
            ],
            "shape_type": "point"
        },
        {
            "flags": {},
            "group_id": null,
            "label": "seven",
            "points": [
                [
                    1529,
                    3279
                ]
            ],
            "shape_type": "point"
        },
        {
            "flags": {},
            "group_id": null,
            "label": "g1",
            "points": [
                [
                    1542,
                    3034
                ],
                [
                    1545,
                    3135
                ]
            ],
            "shape_type": "rectangle"
        },
        {
            "flags": {},
            "group_id": null,
            "label": "wz4",
            "points": [
                [
                    602,
                    2788
                ],
                [
                    1147,
                    2841
                ]
            ],
            "shape_type": "rectangle"
        },
        {
            "flags": {},
            "group_id": null,
            "label": "wz4",
            "points": [
                [
                    1075,
                    3632
                ],
                [
                    1205,
                    3727
                ]
            ],
            "shape_type": "rectangle"
        },
        {
            "flags": {},
            "group_id": null,
            "label": "p1-2",
            "points": [
                [
                    1505,
                    3036
                ],
                [
                    1587,
                    3085
                ]
            ],
            "shape_type": "rectangle"
        },
        {
            "flags": {},
            "group_id": null,
            "label": "btl",
            "points": [
                [
                    2326,
                    3770
                ],
                [
                    4041,
                    4058
                ]
            ],
            "shape_type": "rectangle"
        },
        {
            "flags": {},
            "group_id": null,
            "label": "sm",
            "points": [
                [
                    2361,
                    3295
                ],
                [
                    3639,
                    3656
                ]
            ],
            "shape_type": "rectangle"
        },
        {
            "flags": {},
            "group_id": null,
            "label": "tl",
            "points": [
                [
                    2224,
                    1465
                ],
                [
                    3122,
                    2001
                ]
            ],
            "shape_type": "rectangle"
        },
        {
            "flags": {},
            "group_id": null,
            "label": "j1",
            "points": [
                [
                    3446,
                    1500
                ],
                [
                    3480,
                    1541
                ]
            ],
            "shape_type": "rectangle"
        },
        {
            "flags": {},
            "group_id": null,
            "label": "j1",
            "points": [
                [
                    3544,
                    1563
                ],
                [
                    3779,
                    1625
                ]
            ],
            "shape_type": "rectangle"
        },
        {
            "flags": {},
            "group_id": null,
            "label": "j1",
            "points": [
                [
                    3480,
                    1776
                ],
                [
                    3756,
                    1836
                ]
            ],
            "shape_type": "rectangle"
        },
        {
            "flags": {},
            "group_id": null,
            "label": "j1",
            "points": [
                [
                    3300,
                    1902
                ],
                [
                    3571,
                    1959
                ]
            ],
            "shape_type": "rectangle"
        },
        {
            "flags": {},
            "group_id": null,
            "label": "mask",
            "lineType": [
                "LLLLLLLLLLLLLLL"
            ],
            "points": [
                [
                    2214,
                    1455
                ],
                [
                    3132,
                    1455
                ],
                [
                    3132,
                    2011
                ],
                [
                    2214,
                    2011
                ]
            ],
            "shape_type": "polygon"
        },
        {
            "flags": {},
            "group_id": null,
            "label": "mask",
            "lineType": [
                "LLLLLLLLLLLLLLLLL"
            ],
            "points": [
                [
                    3289,
                    1489
                ],
                [
                    3789,
                    1489
                ],
                [
                    3789,
                    1969
                ],
                [
                    3289,
                    1969
                ]
            ],
            "shape_type": "polygon"
        },
        {
            "flags": {},
            "group_id": null,
            "label": "mask",
            "lineType": [
                "LLLLL"
            ],
            "points": [
                [
                    2256,
                    2239
                ],
                [
                    3992,
                    2239
                ],
                [
                    3992,
                    3004
                ],
                [
                    2256,
                    3004
                ]
            ],
            "shape_type": "polygon"
        },
        {
            "flags": {},
            "group_id": null,
            "label": "mask",
            "lineType": [
                "LLLLLLLLLLLLL"
            ],
            "points": [
                [
                    2351,
                    3285
                ],
                [
                    3649,
                    3285
                ],
                [
                    3649,
                    3666
                ],
                [
                    2351,
                    3666
                ]
            ],
            "shape_type": "polygon"
        },
        {
            "flags": {},
            "group_id": null,
            "label": "mask",
            "lineType": [
                "LLLLL"
            ],
            "points": [
                [
                    2316,
                    3760
                ],
                [
                    4051,
                    3760
                ],
                [
                    4051,
                    4068
                ],
                [
                    2316,
                    4068
                ]
            ],
            "shape_type": "polygon"
        },
        {
            "flags": {},
            "group_id": null,
            "label": "mask",
            "lineType": [
                "LLLLLLLLLLLLLLLLLLLLLLLL"
            ],
            "points": [
                [
                    439,
                    3779
                ],
                [
                    460,
                    3887
                ],
                [
                    605,
                    3932
                ],
                [
                    1203,
                    4007
                ],
                [
                    1275,
                    4004
                ],
                [
                    1399,
                    3990
                ],
                [
                    1468,
                    3939
                ],
                [
                    1858,
                    3920
                ],
                [
                    2033,
                    3903
                ],
                [
                    2063,
                    3878
                ],
                [
                    2069,
                    3829
                ],
                [
                    1891,
                    3725
                ],
                [
                    1793,
                    3387
                ],
                [
                    2199,
                    3263
                ],
                [
                    2199,
                    3177
                ],
                [
                    2203,
                    3048
                ],
                [
                    2006,
                    2979
                ],
                [
                    1798,
                    2935
                ],
                [
                    1614,
                    2917
                ],
                [
                    1303,
                    2883
                ],
                [
                    1068,
                    2897
                ],
                [
                    746,
                    3170
                ],
                [
                    679,
                    3419
                ],
                [
                    439,
                    3779
                ]
            ],
            "shape_type": "polygon"
        },
        {
            "flags": {},
            "group_id": null,
            "label": "mask",
            "lineType": [
                "LLLLLLLLLLLLLLL"
            ],
            "points": [
                [
                    558,
                    2872
                ],
                [
                    778,
                    2868
                ],
                [
                    1109,
                    2849
                ],
                [
                    1190,
                    2855
                ],
                [
                    1228,
                    2715
                ],
                [
                    1246,
                    2602
                ],
                [
                    1158,
                    2325
                ],
                [
                    1100,
                    2273
                ],
                [
                    988,
                    2264
                ],
                [
                    830,
                    2277
                ],
                [
                    768,
                    2295
                ],
                [
                    726,
                    2427
                ],
                [
                    523,
                    2529
                ],
                [
                    520,
                    2570
                ],
                [
                    558,
                    2872
                ]
            ],
            "shape_type": "polygon"
        },
        {
            "flags": {},
            "group_id": null,
            "label": "mask",
            "lineType": [
                "LLLLLLLLLLLLLLL"
            ],
            "points": [
                [
                    968,
                    2040
                ],
                [
                    1157,
                    2060
                ],
                [
                    1382,
                    2065
                ],
                [
                    1525,
                    2045
                ],
                [
                    1554,
                    1903
                ],
                [
                    1515,
                    1810
                ],
                [
                    1479,
                    1767
                ],
                [
                    1409,
                    1735
                ],
                [
                    1312,
                    1688
                ],
                [
                    1266,
                    1697
                ],
                [
                    1119,
                    1851
                ],
                [
                    1075,
                    1870
                ],
                [
                    1030,
                    1886
                ],
                [
                    990,
                    1905
                ],
                [
                    968,
                    2040
                ]
            ],
            "shape_type": "polygon"
        },
        {
            "flags": {},
            "group_id": null,
            "label": "wlb",
            "points": [
                [
                    2266,
                    2249
                ],
                [
                    3982,
                    2994
                ]
            ],
            "shape_type": "rectangle"
        },
        {
            "flags": {},
            "group_id": null,
            "label": "Ns",
            "points": [
                [
                    3419,
                    1735
                ]
            ],
            "shape_type": "point"
        },
        {
            "flags": {},
            "group_id": null,
            "label": "Ne",
            "points": [
                [
                    3419,
                    1603
                ]
            ],
            "shape_type": "point"
        },
        {
            "flags": {},
            "group_id": null,
            "label": "wztl",
            "points": [
                [
                    2900,
                    1807
                ],
                [
                    3118,
                    1856
                ]
            ],
            "shape_type": "rectangle"
        },
        {
            "flags": {},
            "group_id": null,
            "label": "wztl",
            "points": [
                [
                    2900,
                    1733
                ],
                [
                    3119,
                    1782
                ]
            ],
            "shape_type": "rectangle"
        },
        {
            "flags": {},
            "group_id": null,
            "label": "wztl",
            "points": [
                [
                    2899,
                    1667
                ],
                [
                    3118,
                    1715
                ]
            ],
            "shape_type": "rectangle"
        },
        {
            "flags": {},
            "group_id": null,
            "label": "wztl",
            "points": [
                [
                    2903,
                    1595
                ],
                [
                    3069,
                    1645
                ]
            ],
            "shape_type": "rectangle"
        },
        {
            "flags": {},
            "group_id": null,
            "label": "wztl",
            "points": [
                [
                    2902,
                    1528
                ],
                [
                    3081,
                    1577
                ]
            ],
            "shape_type": "rectangle"
        },
        {
            "flags": {},
            "group_id": null,
            "label": "wztl",
            "points": [
                [
                    2901,
                    1467
                ],
                [
                    3081,
                    1515
                ]
            ],
            "shape_type": "rectangle"
        },
        {
            "flags": {},
            "group_id": null,
            "label": "xtl",
            "points": [
                [
                    2813,
                    1492
                ],
                [
                    2871,
                    1516
                ]
            ],
            "shape_type": "rectangle"
        },
        {
            "flags": {},
            "group_id": null,
            "label": "xtl",
            "points": [
                [
                    2812,
                    1550
                ],
                [
                    2871,
                    1576
                ]
            ],
            "shape_type": "rectangle"
        },
        {
            "flags": {},
            "group_id": null,
            "label": "xtl",
            "points": [
                [
                    2812,
                    1628
                ],
                [
                    2871,
                    1635
                ]
            ],
            "shape_type": "rectangle"
        },
        {
            "flags": {},
            "group_id": null,
            "label": "xtl",
            "points": [
                [
                    2805,
                    1677
                ],
                [
                    2858,
                    1717
                ]
            ],
            "shape_type": "rectangle"
        },
        {
            "flags": {},
            "group_id": null,
            "label": "xtl",
            "points": [
                [
                    2804,
                    1742
                ],
                [
                    2867,
                    1782
                ]
            ],
            "shape_type": "rectangle"
        },
        {
            "flags": {},
            "group_id": null,
            "label": "xtl",
            "points": [
                [
                    2803,
                    1809
                ],
                [
                    2867,
                    1848
                ]
            ],
            "shape_type": "rectangle"
        },
        {
            "flags": {},
            "group_id": null,
            "label": "wztl",
            "points": [
                [
                    2442,
                    1953
                ],
                [
                    2549,
                    2001
                ]
            ],
            "shape_type": "rectangle"
        },
        {
            "flags": {},
            "group_id": null,
            "label": "wztl",
            "points": [
                [
                    2443,
                    1891
                ],
                [
                    2511,
                    1939
                ]
            ],
            "shape_type": "rectangle"
        },
        {
            "flags": {},
            "group_id": null,
            "label": "wztl",
            "points": [
                [
                    2444,
                    1806
                ],
                [
                    2578,
                    1854
                ]
            ],
            "shape_type": "rectangle"
        },
        {
            "flags": {},
            "group_id": null,
            "label": "wztl",
            "points": [
                [
                    2439,
                    1732
                ],
                [
                    2651,
                    1781
                ]
            ],
            "shape_type": "rectangle"
        },
        {
            "flags": {},
            "group_id": null,
            "label": "wztl",
            "points": [
                [
                    2429,
                    1663
                ],
                [
                    2590,
                    1712
                ]
            ],
            "shape_type": "rectangle"
        },
        {
            "flags": {},
            "group_id": null,
            "label": "wztl",
            "points": [
                [
                    2430,
                    1599
                ],
                [
                    2677,
                    1647
                ]
            ],
            "shape_type": "rectangle"
        },
        {
            "flags": {},
            "group_id": null,
            "label": "wztl",
            "points": [
                [
                    2429,
                    1535
                ],
                [
                    2713,
                    1584
                ]
            ],
            "shape_type": "rectangle"
        },
        {
            "flags": {},
            "group_id": null,
            "label": "wztl",
            "points": [
                [
                    2429,
                    1474
                ],
                [
                    2698,
                    1524
                ]
            ],
            "shape_type": "rectangle"
        },
        {
            "flags": {},
            "group_id": null,
            "label": "xtl",
            "points": [
                [
                    2337,
                    1484
                ],
                [
                    2402,
                    1521
                ]
            ],
            "shape_type": "rectangle"
        },
        {
            "flags": {},
            "group_id": null,
            "label": "xtl",
            "points": [
                [
                    2338,
                    1550
                ],
                [
                    2403,
                    1588
                ]
            ],
            "shape_type": "rectangle"
        },
        {
            "flags": {},
            "group_id": null,
            "label": "xtl",
            "points": [
                [
                    2337,
                    1616
                ],
                [
                    2402,
                    1655
                ]
            ],
            "shape_type": "rectangle"
        },
        {
            "flags": {},
            "group_id": null,
            "label": "xtl",
            "points": [
                [
                    2337,
                    1686
                ],
                [
                    2402,
                    1724
                ]
            ],
            "shape_type": "rectangle"
        },
        {
            "flags": {},
            "group_id": null,
            "label": "xtl",
            "points": [
                [
                    2337,
                    1749
                ],
                [
                    2402,
                    1787
                ]
            ],
            "shape_type": "rectangle"
        },
        {
            "flags": {},
            "group_id": null,
            "label": "xtl",
            "points": [
                [
                    2337,
                    1815
                ],
                [
                    2403,
                    1854
                ]
            ],
            "shape_type": "rectangle"
        },
        {
            "flags": {},
            "group_id": null,
            "label": "xtl",
            "points": [
                [
                    2331,
                    1919
                ],
                [
                    2406,
                    1926
                ]
            ],
            "shape_type": "rectangle"
        },
        {
            "flags": {},
            "group_id": null,
            "label": "xtl",
            "points": [
                [
                    2331,
                    1979
                ],
                [
                    2406,
                    1985
                ]
            ],
            "shape_type": "rectangle"
        },
        {
            "flags": {},
            "group_id": null,
            "label": "wz3",
            "points": [
                [
                    891,
                    2301
                ],
                [
                    1088,
                    2385
                ]
            ],
            "shape_type": "rectangle"
        },
        {
            "flags": {},
            "group_id": null,
            "label": "wz3",
            "points": [
                [
                    968,
                    2528
                ],
                [
                    1166,
                    2616
                ]
            ],
            "shape_type": "rectangle"
        },
        {
            "flags": {},
            "group_id": null,
            "label": "wz3",
            "points": [
                [
                    556,
                    2523
                ],
                [
                    753,
                    2613
                ]
            ],
            "shape_type": "rectangle"
        },
        {
            "flags": {},
            "group_id": null,
            "label": "wz1",
            "points": [
                [
                    1584,
                    3120
                ],
                [
                    1780,
                    3182
                ]
            ],
            "shape_type": "rectangle"
        }
    ],
    "version": "4.5.7"
}