{
    "flags": {},
    "imageData": null,
    "imageHeight": 4210,
    "imagePath": "TQ0748-腊山河东路山东高速畅和苑（鸿远公司）5G无线基站天馈线安装示意图.png",
    "imageWidth": 4210,
    "shapes": [
        {
            "flags": {},
            "group_id": null,
            "label": "h1",
            "points": [
                [
                    706,
                    2386
                ],
                [
                    938,
                    2464
                ]
            ],
            "shape_type": "rectangle"
        },
        {
            "flags": {},
            "group_id": null,
            "label": "h1",
            "points": [
                [
                    707,
                    2538
                ],
                [
                    938,
                    2618
                ]
            ],
            "shape_type": "rectangle"
        },
        {
            "flags": {},
            "group_id": null,
            "label": "h1",
            "points": [
                [
                    707,
                    2723
                ],
                [
                    938,
                    2801
                ]
            ],
            "shape_type": "rectangle"
        },
        {
            "flags": {},
            "group_id": null,
            "label": "h1",
            "points": [
                [
                    707,
                    2880
                ],
                [
                    939,
                    2957
                ]
            ],
            "shape_type": "rectangle"
        },
        {
            "flags": {},
            "group_id": null,
            "label": "v1",
            "points": [
                [
                    990,
                    3906
                ],
                [
                    1181,
                    3980
                ]
            ],
            "shape_type": "rectangle"
        },
        {
            "flags": {},
            "group_id": null,
            "label": "seven",
            "points": [
                [
                    880,
                    3679
                ]
            ],
            "shape_type": "point"
        },
        {
            "flags": {},
            "group_id": null,
            "label": "eight",
            "points": [
                [
                    917,
                    3679
                ]
            ],
            "shape_type": "point"
        },
        {
            "flags": {},
            "group_id": null,
            "label": "fourteen",
            "points": [
                [
                    880,
                    3842
                ]
            ],
            "shape_type": "point"
        },
        {
            "flags": {},
            "group_id": null,
            "label": "fourteen",
            "points": [
                [
                    918,
                    3842
                ]
            ],
            "shape_type": "point"
        },
        {
            "flags": {},
            "group_id": null,
            "label": "eleven",
            "points": [
                [
                    880,
                    3760
                ]
            ],
            "shape_type": "point"
        },
        {
            "flags": {},
            "group_id": null,
            "label": "twelve",
            "points": [
                [
                    918,
                    3760
                ]
            ],
            "shape_type": "point"
        },
        {
            "flags": {},
            "group_id": null,
            "label": "b1",
            "points": [
                [
                    880,
                    3761
                ],
                [
                    919,
                    3842
                ]
            ],
            "shape_type": "rectangle"
        },
        {
            "flags": {},
            "group_id": null,
            "label": "x1",
            "points": [
                [
                    1089,
                    3120
                ],
                [
                    1192,
                    3185
                ]
            ],
            "shape_type": "rectangle"
        },
        {
            "flags": {},
            "group_id": null,
            "label": "c1",
            "points": [
                [
                    1140,
                    2374
                ],
                [
                    1142,
                    2464
                ]
            ],
            "shape_type": "rectangle"
        },
        {
            "flags": {},
            "group_id": null,
            "label": "a1-1",
            "points": [
                [
                    1043,
                    2486
                ],
                [
                    1073,
                    2602
                ]
            ],
            "shape_type": "rectangle"
        },
        {
            "flags": {},
            "group_id": null,
            "label": "g1",
            "points": [
                [
                    1077,
                    2482
                ],
                [
                    1083,
                    2619
                ]
            ],
            "shape_type": "rectangle"
        },
        {
            "flags": {},
            "group_id": null,
            "label": "g1",
            "points": [
                [
                    1196,
                    2483
                ],
                [
                    1202,
                    2618
                ]
            ],
            "shape_type": "rectangle"
        },
        {
            "flags": {},
            "group_id": null,
            "label": "a1-2",
            "points": [
                [
                    1206,
                    2486
                ],
                [
                    1236,
                    2602
                ]
            ],
            "shape_type": "rectangle"
        },
        {
            "flags": {},
            "group_id": null,
            "label": "p1-1",
            "points": [
                [
                    1043,
                    2483
                ],
                [
                    1237,
                    2619
                ]
            ],
            "shape_type": "rectangle"
        },
        {
            "flags": {},
            "group_id": null,
            "label": "a1-1",
            "points": [
                [
                    1044,
                    2669
                ],
                [
                    1074,
                    2785
                ]
            ],
            "shape_type": "rectangle"
        },
        {
            "flags": {},
            "group_id": null,
            "label": "g1",
            "points": [
                [
                    1078,
                    2665
                ],
                [
                    1084,
                    2800
                ]
            ],
            "shape_type": "rectangle"
        },
        {
            "flags": {},
            "group_id": null,
            "label": "g1",
            "points": [
                [
                    1196,
                    2664
                ],
                [
                    1201,
                    2800
                ]
            ],
            "shape_type": "rectangle"
        },
        {
            "flags": {},
            "group_id": null,
            "label": "a1-2",
            "points": [
                [
                    1206,
                    2669
                ],
                [
                    1237,
                    2785
                ]
            ],
            "shape_type": "rectangle"
        },
        {
            "flags": {},
            "group_id": null,
            "label": "p1-1",
            "points": [
                [
                    1044,
                    2665
                ],
                [
                    1236,
                    2800
                ]
            ],
            "shape_type": "rectangle"
        },
        {
            "flags": {},
            "group_id": null,
            "label": "a1-1",
            "points": [
                [
                    1043,
                    2839
                ],
                [
                    1074,
                    2956
                ]
            ],
            "shape_type": "rectangle"
        },
        {
            "flags": {},
            "group_id": null,
            "label": "g1",
            "points": [
                [
                    1078,
                    2836
                ],
                [
                    1084,
                    2972
                ]
            ],
            "shape_type": "rectangle"
        },
        {
            "flags": {},
            "group_id": null,
            "label": "g1",
            "points": [
                [
                    1195,
                    2835
                ],
                [
                    1202,
                    2972
                ]
            ],
            "shape_type": "rectangle"
        },
        {
            "flags": {},
            "group_id": null,
            "label": "a1-2",
            "points": [
                [
                    1206,
                    2840
                ],
                [
                    1237,
                    2956
                ]
            ],
            "shape_type": "rectangle"
        },
        {
            "flags": {},
            "group_id": null,
            "label": "p1-1",
            "points": [
                [
                    1043,
                    2835
                ],
                [
                    1237,
                    2973
                ]
            ],
            "shape_type": "rectangle"
        },
        {
            "flags": {},
            "group_id": null,
            "label": "v1",
            "points": [
                [
                    1509,
                    3619
                ],
                [
                    1827,
                    3692
                ]
            ],
            "shape_type": "rectangle"
        },
        {
            "flags": {},
            "group_id": null,
            "label": "va1",
            "points": [
                [
                    1512,
                    3310
                ],
                [
                    1556,
                    3372
                ]
            ],
            "shape_type": "rectangle"
        },
        {
            "flags": {},
            "group_id": null,
            "label": "va1",
            "points": [
                [
                    1842,
                    3311
                ],
                [
                    1887,
                    3371
                ]
            ],
            "shape_type": "rectangle"
        },
        {
            "flags": {},
            "group_id": null,
            "label": "va1",
            "points": [
                [
                    1667,
                    3040
                ],
                [
                    1732,
                    3077
                ]
            ],
            "shape_type": "rectangle"
        },
        {
            "flags": {},
            "group_id": null,
            "label": "v1",
            "points": [
                [
                    1622,
                    2679
                ],
                [
                    1939,
                    2750
                ]
            ],
            "shape_type": "rectangle"
        },
        {
            "flags": {},
            "group_id": null,
            "label": "d1",
            "points": [
                [
                    1106,
                    1881
                ],
                [
                    1183,
                    2006
                ]
            ],
            "shape_type": "rectangle"
        },
        {
            "flags": {},
            "group_id": null,
            "label": "v1",
            "points": [
                [
                    851,
                    1971
                ],
                [
                    1088,
                    2038
                ]
            ],
            "shape_type": "rectangle"
        },
        {
            "flags": {},
            "group_id": null,
            "label": "d1",
            "points": [
                [
                    742,
                    1882
                ],
                [
                    818,
                    2008
                ]
            ],
            "shape_type": "rectangle"
        },
        {
            "flags": {},
            "group_id": null,
            "label": "eleven",
            "points": [
                [
                    729,
                    1706
                ]
            ],
            "shape_type": "point"
        },
        {
            "flags": {},
            "group_id": null,
            "label": "thirteen",
            "points": [
                [
                    777,
                    1706
                ]
            ],
            "shape_type": "point"
        },
        {
            "flags": {},
            "group_id": null,
            "label": "nine",
            "points": [
                [
                    729,
                    1772
                ]
            ],
            "shape_type": "point"
        },
        {
            "flags": {},
            "group_id": null,
            "label": "ten",
            "points": [
                [
                    777,
                    1772
                ]
            ],
            "shape_type": "point"
        },
        {
            "flags": {},
            "group_id": null,
            "label": "seven",
            "points": [
                [
                    728,
                    1671
                ]
            ],
            "shape_type": "point"
        },
        {
            "flags": {},
            "group_id": null,
            "label": "eight",
            "points": [
                [
                    762,
                    1670
                ]
            ],
            "shape_type": "point"
        },
        {
            "flags": {},
            "group_id": null,
            "label": "fourteen",
            "points": [
                [
                    761,
                    1705
                ]
            ],
            "shape_type": "point"
        },
        {
            "flags": {},
            "group_id": null,
            "label": "vb1",
            "points": [
                [
                    727,
                    1670
                ],
                [
                    777,
                    1773
                ]
            ],
            "shape_type": "rectangle"
        },
        {
            "flags": {},
            "group_id": null,
            "label": "v1",
            "points": [
                [
                    3531,
                    1942
                ],
                [
                    3784,
                    2011
                ]
            ],
            "shape_type": "rectangle"
        },
        {
            "flags": {},
            "group_id": null,
            "label": "n1",
            "points": [
                [
                    3308,
                    1497
                ],
                [
                    3953,
                    1889
                ]
            ],
            "shape_type": "rectangle"
        },
        {
            "flags": {},
            "group_id": null,
            "label": "t1",
            "points": [
                [
                    1088,
                    2373
                ],
                [
                    1183,
                    3842
                ]
            ],
            "shape_type": "rectangle"
        },
        {
            "flags": {},
            "group_id": null,
            "label": "vp1-1",
            "points": [
                [
                    1604,
                    3154
                ],
                [
                    1794,
                    3343
                ]
            ],
            "shape_type": "rectangle"
        },
        {
            "flags": {},
            "group_id": null,
            "label": "vp1-1",
            "points": [
                [
                    1675,
                    2384
                ],
                [
                    1866,
                    2574
                ]
            ],
            "shape_type": "rectangle"
        },
        {
            "flags": {},
            "group_id": null,
            "label": "vt1",
            "points": [
                [
                    921,
                    1652
                ],
                [
                    1112,
                    1841
                ]
            ],
            "shape_type": "rectangle"
        },
        {
            "flags": {},
            "group_id": null,
            "label": "va1",
            "points": [
                [
                    1737,
                    2271
                ],
                [
                    1804,
                    2307
                ]
            ],
            "shape_type": "rectangle"
        },
        {
            "flags": {},
            "group_id": null,
            "label": "va1",
            "points": [
                [
                    1913,
                    2539
                ],
                [
                    1963,
                    2606
                ]
            ],
            "shape_type": "rectangle"
        },
        {
            "flags": {},
            "group_id": null,
            "label": "va1",
            "points": [
                [
                    1578,
                    2540
                ],
                [
                    1627,
                    2606
                ]
            ],
            "shape_type": "rectangle"
        },
        {
            "flags": {},
            "group_id": null,
            "label": "b1",
            "points": [
                [
                    879,
                    3678
                ],
                [
                    919,
                    3761
                ]
            ],
            "shape_type": "rectangle"
        },
        {
            "flags": {},
            "group_id": null,
            "label": "tl",
            "points": [
                [
                    2264,
                    1522
                ],
                [
                    3170,
                    2164
                ]
            ],
            "shape_type": "rectangle"
        },
        {
            "flags": {},
            "group_id": null,
            "label": "j1",
            "points": [
                [
                    3627,
                    1498
                ],
                [
                    3665,
                    1540
                ]
            ],
            "shape_type": "rectangle"
        },
        {
            "flags": {},
            "group_id": null,
            "label": "j1",
            "points": [
                [
                    3672,
                    1557
                ],
                [
                    3878,
                    1622
                ]
            ],
            "shape_type": "rectangle"
        },
        {
            "flags": {},
            "group_id": null,
            "label": "j1",
            "points": [
                [
                    3676,
                    1816
                ],
                [
                    3953,
                    1876
                ]
            ],
            "shape_type": "rectangle"
        },
        {
            "flags": {},
            "group_id": null,
            "label": "j1",
            "points": [
                [
                    3308,
                    1829
                ],
                [
                    3590,
                    1887
                ]
            ],
            "shape_type": "rectangle"
        },
        {
            "flags": {},
            "group_id": null,
            "label": "sm",
            "points": [
                [
                    2293,
                    3250
                ],
                [
                    3913,
                    3601
                ]
            ],
            "shape_type": "rectangle"
        },
        {
            "flags": {},
            "group_id": null,
            "label": "btl",
            "points": [
                [
                    2327,
                    3772
                ],
                [
                    4039,
                    4057
                ]
            ],
            "shape_type": "rectangle"
        },
        {
            "flags": {},
            "group_id": null,
            "label": "mask",
            "lineType": [
                "LLLLLLLLLLLLLLLLLLL"
            ],
            "points": [
                [
                    2254,
                    1512
                ],
                [
                    3180,
                    1512
                ],
                [
                    3180,
                    2174
                ],
                [
                    2254,
                    2174
                ]
            ],
            "shape_type": "polygon"
        },
        {
            "flags": {},
            "group_id": null,
            "label": "mask",
            "lineType": [
                "LLLLLLLLLLLLLLLLLLLLLLL"
            ],
            "points": [
                [
                    3298,
                    1487
                ],
                [
                    3963,
                    1487
                ],
                [
                    3963,
                    1899
                ],
                [
                    3298,
                    1899
                ]
            ],
            "shape_type": "polygon"
        },
        {
            "flags": {},
            "group_id": null,
            "label": "mask",
            "lineType": [
                "LLLLLL"
            ],
            "points": [
                [
                    2202,
                    2389
                ],
                [
                    3938,
                    2389
                ],
                [
                    3938,
                    3085
                ],
                [
                    2202,
                    3085
                ]
            ],
            "shape_type": "polygon"
        },
        {
            "flags": {},
            "group_id": null,
            "label": "mask",
            "lineType": [
                "LLLLLLLLLL"
            ],
            "points": [
                [
                    2283,
                    3240
                ],
                [
                    3923,
                    3240
                ],
                [
                    3923,
                    3611
                ],
                [
                    2283,
                    3611
                ]
            ],
            "shape_type": "polygon"
        },
        {
            "flags": {},
            "group_id": null,
            "label": "mask",
            "lineType": [
                "LLLLL"
            ],
            "points": [
                [
                    2317,
                    3762
                ],
                [
                    4049,
                    3762
                ],
                [
                    4049,
                    4067
                ],
                [
                    2317,
                    4067
                ]
            ],
            "shape_type": "polygon"
        },
        {
            "flags": {},
            "group_id": null,
            "label": "mask",
            "lineType": [
                "LLLLLLLLLLLLLLLLLLLLLLLLLLLLLLLLLLLLLLLLLLLLLLLLL"
            ],
            "points": [
                [
                    448,
                    3823
                ],
                [
                    472,
                    3935
                ],
                [
                    639,
                    3967
                ],
                [
                    977,
                    4021
                ],
                [
                    1180,
                    4003
                ],
                [
                    1255,
                    3990
                ],
                [
                    1322,
                    3944
                ],
                [
                    1585,
                    3926
                ],
                [
                    1688,
                    3915
                ],
                [
                    1725,
                    3861
                ],
                [
                    1690,
                    3813
                ],
                [
                    1540,
                    3787
                ],
                [
                    1350,
                    3767
                ],
                [
                    1261,
                    3656
                ],
                [
                    1245,
                    3536
                ],
                [
                    1239,
                    3401
                ],
                [
                    1225,
                    3226
                ],
                [
                    1233,
                    3127
                ],
                [
                    1247,
                    3044
                ],
                [
                    1376,
                    3037
                ],
                [
                    1456,
                    3053
                ],
                [
                    1513,
                    3009
                ],
                [
                    1522,
                    2966
                ],
                [
                    1519,
                    2936
                ],
                [
                    1461,
                    2922
                ],
                [
                    1337,
                    2906
                ],
                [
                    1280,
                    2897
                ],
                [
                    1261,
                    2739
                ],
                [
                    1263,
                    2666
                ],
                [
                    1274,
                    2483
                ],
                [
                    1604,
                    2462
                ],
                [
                    1607,
                    2386
                ],
                [
                    1558,
                    2359
                ],
                [
                    1439,
                    2352
                ],
                [
                    1313,
                    2346
                ],
                [
                    1256,
                    2331
                ],
                [
                    1067,
                    2322
                ],
                [
                    893,
                    2366
                ],
                [
                    790,
                    2374
                ],
                [
                    693,
                    2376
                ],
                [
                    662,
                    2412
                ],
                [
                    670,
                    2482
                ],
                [
                    657,
                    2571
                ],
                [
                    673,
                    2792
                ],
                [
                    667,
                    2992
                ],
                [
                    998,
                    2986
                ],
                [
                    1000,
                    3610
                ],
                [
                    622,
                    3670
                ],
                [
                    448,
                    3823
                ]
            ],
            "shape_type": "polygon"
        },
        {
            "flags": {},
            "group_id": null,
            "label": "mask",
            "lineType": [
                "LLLLLLLLLLLLLLLLLLLLLLLLLLLL"
            ],
            "points": [
                [
                    1418,
                    3709
                ],
                [
                    1623,
                    3727
                ],
                [
                    1833,
                    3717
                ],
                [
                    2004,
                    3598
                ],
                [
                    2109,
                    3415
                ],
                [
                    2099,
                    3336
                ],
                [
                    2032,
                    3269
                ],
                [
                    1824,
                    3099
                ],
                [
                    1812,
                    3022
                ],
                [
                    1790,
                    2973
                ],
                [
                    1755,
                    2936
                ],
                [
                    1650,
                    2945
                ],
                [
                    1592,
                    2948
                ],
                [
                    1604,
                    3004
                ],
                [
                    1617,
                    3095
                ],
                [
                    1594,
                    3145
                ],
                [
                    1533,
                    3282
                ],
                [
                    1445,
                    3300
                ],
                [
                    1379,
                    3299
                ],
                [
                    1286,
                    3320
                ],
                [
                    1262,
                    3350
                ],
                [
                    1269,
                    3400
                ],
                [
                    1284,
                    3434
                ],
                [
                    1367,
                    3454
                ],
                [
                    1411,
                    3454
                ],
                [
                    1450,
                    3537
                ],
                [
                    1420,
                    3588
                ],
                [
                    1418,
                    3709
                ]
            ],
            "shape_type": "polygon"
        },
        {
            "flags": {},
            "group_id": null,
            "label": "mask",
            "lineType": [
                "LLLLLLLLLLLLLLLLLLLLLLLLLLLLLLLL"
            ],
            "points": [
                [
                    1549,
                    2823
                ],
                [
                    1707,
                    2842
                ],
                [
                    1922,
                    2840
                ],
                [
                    1993,
                    2828
                ],
                [
                    1991,
                    2655
                ],
                [
                    2131,
                    2672
                ],
                [
                    2171,
                    2640
                ],
                [
                    2192,
                    2596
                ],
                [
                    2194,
                    2574
                ],
                [
                    2176,
                    2551
                ],
                [
                    1863,
                    2360
                ],
                [
                    1864,
                    2283
                ],
                [
                    1889,
                    2209
                ],
                [
                    1882,
                    2187
                ],
                [
                    1704,
                    2175
                ],
                [
                    1664,
                    2177
                ],
                [
                    1654,
                    2213
                ],
                [
                    1663,
                    2252
                ],
                [
                    1697,
                    2355
                ],
                [
                    1660,
                    2445
                ],
                [
                    1632,
                    2488
                ],
                [
                    1613,
                    2500
                ],
                [
                    1565,
                    2525
                ],
                [
                    1475,
                    2543
                ],
                [
                    1412,
                    2544
                ],
                [
                    1346,
                    2552
                ],
                [
                    1336,
                    2573
                ],
                [
                    1332,
                    2605
                ],
                [
                    1334,
                    2643
                ],
                [
                    1430,
                    2662
                ],
                [
                    1522,
                    2665
                ],
                [
                    1549,
                    2823
                ]
            ],
            "shape_type": "polygon"
        },
        {
            "flags": {},
            "group_id": null,
            "label": "mask",
            "lineType": [
                "LLLLLLLLLLL"
            ],
            "points": [
                [
                    635,
                    2059
                ],
                [
                    932,
                    2082
                ],
                [
                    1202,
                    2080
                ],
                [
                    1226,
                    2035
                ],
                [
                    1235,
                    1829
                ],
                [
                    1188,
                    1624
                ],
                [
                    1109,
                    1542
                ],
                [
                    989,
                    1519
                ],
                [
                    686,
                    1582
                ],
                [
                    640,
                    1645
                ],
                [
                    635,
                    2059
                ]
            ],
            "shape_type": "polygon"
        },
        {
            "flags": {},
            "group_id": null,
            "label": "wlb",
            "points": [
                [
                    2212,
                    2399
                ],
                [
                    3928,
                    3075
                ]
            ],
            "shape_type": "rectangle"
        },
        {
            "flags": {},
            "group_id": null,
            "label": "xtl",
            "points": [
                [
                    2382,
                    1539
                ],
                [
                    2449,
                    1578
                ]
            ],
            "shape_type": "rectangle"
        },
        {
            "flags": {},
            "group_id": null,
            "label": "xtl",
            "points": [
                [
                    2382,
                    1606
                ],
                [
                    2447,
                    1644
                ]
            ],
            "shape_type": "rectangle"
        },
        {
            "flags": {},
            "group_id": null,
            "label": "xtl",
            "points": [
                [
                    2381,
                    1672
                ],
                [
                    2449,
                    1711
                ]
            ],
            "shape_type": "rectangle"
        },
        {
            "flags": {},
            "group_id": null,
            "label": "xtl",
            "points": [
                [
                    2382,
                    1738
                ],
                [
                    2449,
                    1777
                ]
            ],
            "shape_type": "rectangle"
        },
        {
            "flags": {},
            "group_id": null,
            "label": "xtl",
            "points": [
                [
                    2382,
                    1804
                ],
                [
                    2448,
                    1842
                ]
            ],
            "shape_type": "rectangle"
        },
        {
            "flags": {},
            "group_id": null,
            "label": "xtl",
            "points": [
                [
                    2382,
                    1871
                ],
                [
                    2447,
                    1909
                ]
            ],
            "shape_type": "rectangle"
        },
        {
            "flags": {},
            "group_id": null,
            "label": "xtl",
            "points": [
                [
                    2392,
                    1990
                ],
                [
                    2467,
                    1999
                ]
            ],
            "shape_type": "rectangle"
        },
        {
            "flags": {},
            "group_id": null,
            "label": "xtl",
            "points": [
                [
                    2394,
                    2062
                ],
                [
                    2467,
                    2068
                ]
            ],
            "shape_type": "rectangle"
        },
        {
            "flags": {},
            "group_id": null,
            "label": "xtl",
            "points": [
                [
                    2417,
                    2118
                ],
                [
                    2449,
                    2150
                ]
            ],
            "shape_type": "rectangle"
        },
        {
            "flags": {},
            "group_id": null,
            "label": "wztl",
            "points": [
                [
                    2504,
                    2110
                ],
                [
                    2577,
                    2159
                ]
            ],
            "shape_type": "rectangle"
        },
        {
            "flags": {},
            "group_id": null,
            "label": "wztl",
            "points": [
                [
                    2501,
                    2035
                ],
                [
                    2611,
                    2086
                ]
            ],
            "shape_type": "rectangle"
        },
        {
            "flags": {},
            "group_id": null,
            "label": "wztl",
            "points": [
                [
                    2501,
                    1963
                ],
                [
                    2610,
                    2014
                ]
            ],
            "shape_type": "rectangle"
        },
        {
            "flags": {},
            "group_id": null,
            "label": "wztl",
            "points": [
                [
                    2489,
                    1859
                ],
                [
                    2635,
                    1910
                ]
            ],
            "shape_type": "rectangle"
        },
        {
            "flags": {},
            "group_id": null,
            "label": "wztl",
            "points": [
                [
                    2484,
                    1784
                ],
                [
                    2697,
                    1837
                ]
            ],
            "shape_type": "rectangle"
        },
        {
            "flags": {},
            "group_id": null,
            "label": "wztl",
            "points": [
                [
                    2480,
                    1718
                ],
                [
                    2644,
                    1768
                ]
            ],
            "shape_type": "rectangle"
        },
        {
            "flags": {},
            "group_id": null,
            "label": "wztl",
            "points": [
                [
                    2473,
                    1654
                ],
                [
                    2722,
                    1705
                ]
            ],
            "shape_type": "rectangle"
        },
        {
            "flags": {},
            "group_id": null,
            "label": "wztl",
            "points": [
                [
                    2473,
                    1589
                ],
                [
                    2764,
                    1640
                ]
            ],
            "shape_type": "rectangle"
        },
        {
            "flags": {},
            "group_id": null,
            "label": "wztl",
            "points": [
                [
                    2475,
                    1529
                ],
                [
                    2744,
                    1582
                ]
            ],
            "shape_type": "rectangle"
        },
        {
            "flags": {},
            "group_id": null,
            "label": "xtl",
            "points": [
                [
                    2857,
                    1547
                ],
                [
                    2915,
                    1570
                ]
            ],
            "shape_type": "rectangle"
        },
        {
            "flags": {},
            "group_id": null,
            "label": "xtl",
            "points": [
                [
                    2858,
                    1605
                ],
                [
                    2917,
                    1631
                ]
            ],
            "shape_type": "rectangle"
        },
        {
            "flags": {},
            "group_id": null,
            "label": "xtl",
            "points": [
                [
                    2857,
                    1683
                ],
                [
                    2916,
                    1689
                ]
            ],
            "shape_type": "rectangle"
        },
        {
            "flags": {},
            "group_id": null,
            "label": "xtl",
            "points": [
                [
                    2847,
                    1731
                ],
                [
                    2902,
                    1771
                ]
            ],
            "shape_type": "rectangle"
        },
        {
            "flags": {},
            "group_id": null,
            "label": "xtl",
            "points": [
                [
                    2847,
                    1797
                ],
                [
                    2912,
                    1838
                ]
            ],
            "shape_type": "rectangle"
        },
        {
            "flags": {},
            "group_id": null,
            "label": "xtl",
            "points": [
                [
                    2847,
                    1863
                ],
                [
                    2913,
                    1905
                ]
            ],
            "shape_type": "rectangle"
        },
        {
            "flags": {},
            "group_id": null,
            "label": "wztl",
            "points": [
                [
                    2944,
                    1863
                ],
                [
                    3166,
                    1913
                ]
            ],
            "shape_type": "rectangle"
        },
        {
            "flags": {},
            "group_id": null,
            "label": "wztl",
            "points": [
                [
                    2946,
                    1788
                ],
                [
                    3165,
                    1839
                ]
            ],
            "shape_type": "rectangle"
        },
        {
            "flags": {},
            "group_id": null,
            "label": "wztl",
            "points": [
                [
                    2943,
                    1723
                ],
                [
                    3165,
                    1774
                ]
            ],
            "shape_type": "rectangle"
        },
        {
            "flags": {},
            "group_id": null,
            "label": "wztl",
            "points": [
                [
                    2946,
                    1651
                ],
                [
                    3114,
                    1700
                ]
            ],
            "shape_type": "rectangle"
        },
        {
            "flags": {},
            "group_id": null,
            "label": "wztl",
            "points": [
                [
                    2944,
                    1584
                ],
                [
                    3127,
                    1633
                ]
            ],
            "shape_type": "rectangle"
        },
        {
            "flags": {},
            "group_id": null,
            "label": "wztl",
            "points": [
                [
                    2944,
                    1523
                ],
                [
                    3128,
                    1572
                ]
            ],
            "shape_type": "rectangle"
        },
        {
            "flags": {},
            "group_id": null,
            "label": "Ns",
            "points": [
                [
                    3647,
                    1727
                ]
            ],
            "shape_type": "point"
        },
        {
            "flags": {},
            "group_id": null,
            "label": "Ne",
            "points": [
                [
                    3648,
                    1595
                ]
            ],
            "shape_type": "point"
        },
        {
            "flags": {},
            "group_id": null,
            "label": "wz3",
            "points": [
                [
                    1500,
                    3451
                ],
                [
                    1919,
                    3575
                ]
            ],
            "shape_type": "rectangle"
        },
        {
            "flags": {},
            "group_id": null,
            "label": "wz3",
            "points": [
                [
                    1921,
                    3338
                ],
                [
                    2069,
                    3407
                ]
            ],
            "shape_type": "rectangle"
        },
        {
            "flags": {},
            "group_id": null,
            "label": "wz3",
            "points": [
                [
                    1293,
                    3343
                ],
                [
                    1450,
                    3414
                ]
            ],
            "shape_type": "rectangle"
        },
        {
            "flags": {},
            "group_id": null,
            "label": "wz3",
            "points": [
                [
                    1637,
                    2957
                ],
                [
                    1765,
                    3028
                ]
            ],
            "shape_type": "rectangle"
        },
        {
            "flags": {},
            "group_id": null,
            "label": "wz1",
            "points": [
                [
                    1263,
                    2937
                ],
                [
                    1506,
                    3000
                ]
            ],
            "shape_type": "rectangle"
        },
        {
            "flags": {},
            "group_id": null,
            "label": "wz3",
            "points": [
                [
                    1595,
                    2759
                ],
                [
                    1963,
                    2817
                ]
            ],
            "shape_type": "rectangle"
        },
        {
            "flags": {},
            "group_id": null,
            "label": "wz3",
            "points": [
                [
                    1965,
                    2566
                ],
                [
                    2195,
                    2638
                ]
            ],
            "shape_type": "rectangle"
        },
        {
            "flags": {},
            "group_id": null,
            "label": "wz3",
            "points": [
                [
                    1343,
                    2573
                ],
                [
                    1574,
                    2643
                ]
            ],
            "shape_type": "rectangle"
        },
        {
            "flags": {},
            "group_id": null,
            "label": "wz1",
            "points": [
                [
                    1280,
                    2368
                ],
                [
                    1574,
                    2430
                ]
            ],
            "shape_type": "rectangle"
        },
        {
            "flags": {},
            "group_id": null,
            "label": "wz3",
            "points": [
                [
                    1680,
                    2187
                ],
                [
                    1870,
                    2256
                ]
            ],
            "shape_type": "rectangle"
        },
        {
            "flags": {},
            "group_id": null,
            "label": "wz3",
            "points": [
                [
                    1109,
                    2323
                ],
                [
                    1173,
                    2355
                ]
            ],
            "shape_type": "rectangle"
        }
    ],
    "version": "4.5.7"
}