{
    "flags": {},
    "imageData": null,
    "imageHeight": 4210,
    "imagePath": "ZQ0033-贺套基站（铁塔公司）5G无线基站天馈线安装示意图.png",
    "imageWidth": 4210,
    "shapes": [
        {
            "flags": {},
            "group_id": null,
            "label": "vt1",
            "points": [
                [
                    857,
                    1524
                ],
                [
                    1047,
                    1715
                ]
            ],
            "shape_type": "rectangle"
        },
        {
            "flags": {},
            "group_id": null,
            "label": "d1",
            "points": [
                [
                    1157,
                    1544
                ],
                [
                    1225,
                    1601
                ]
            ],
            "shape_type": "rectangle"
        },
        {
            "flags": {},
            "group_id": null,
            "label": "vb1",
            "points": [
                [
                    542,
                    1491
                ],
                [
                    751,
                    1811
                ]
            ],
            "shape_type": "rectangle"
        },
        {
            "flags": {},
            "group_id": null,
            "label": "v1",
            "points": [
                [
                    729,
                    1911
                ],
                [
                    895,
                    1963
                ]
            ],
            "shape_type": "rectangle"
        },
        {
            "flags": {},
            "group_id": null,
            "label": "d1",
            "points": [
                [
                    1157,
                    1855
                ],
                [
                    1223,
                    1912
                ]
            ],
            "shape_type": "rectangle"
        },
        {
            "flags": {},
            "group_id": null,
            "label": "h1",
            "points": [
                [
                    450,
                    2265
                ],
                [
                    696,
                    2368
                ]
            ],
            "shape_type": "rectangle"
        },
        {
            "flags": {},
            "group_id": null,
            "label": "h1",
            "points": [
                [
                    451,
                    2475
                ],
                [
                    696,
                    2580
                ]
            ],
            "shape_type": "rectangle"
        },
        {
            "flags": {},
            "group_id": null,
            "label": "h1",
            "points": [
                [
                    458,
                    2727
                ],
                [
                    703,
                    2829
                ]
            ],
            "shape_type": "rectangle"
        },
        {
            "flags": {},
            "group_id": null,
            "label": "h1",
            "points": [
                [
                    459,
                    2891
                ],
                [
                    704,
                    2995
                ]
            ],
            "shape_type": "rectangle"
        },
        {
            "flags": {},
            "group_id": null,
            "label": "h1",
            "points": [
                [
                    457,
                    3130
                ],
                [
                    703,
                    3234
                ]
            ],
            "shape_type": "rectangle"
        },
        {
            "flags": {},
            "group_id": null,
            "label": "h1",
            "points": [
                [
                    456,
                    3729
                ],
                [
                    684,
                    3833
                ]
            ],
            "shape_type": "rectangle"
        },
        {
            "flags": {},
            "group_id": null,
            "label": "v1",
            "points": [
                [
                    788,
                    3902
                ],
                [
                    988,
                    3980
                ]
            ],
            "shape_type": "rectangle"
        },
        {
            "flags": {},
            "group_id": null,
            "label": "b1",
            "points": [
                [
                    728,
                    3599
                ],
                [
                    1121,
                    3832
                ]
            ],
            "shape_type": "rectangle"
        },
        {
            "flags": {},
            "group_id": null,
            "label": "t1",
            "points": [
                [
                    901,
                    2217
                ],
                [
                    984,
                    3832
                ]
            ],
            "shape_type": "rectangle"
        },
        {
            "flags": {},
            "group_id": null,
            "label": "v1",
            "points": [
                [
                    1485,
                    3477
                ],
                [
                    1853,
                    3554
                ]
            ],
            "shape_type": "rectangle"
        },
        {
            "flags": {},
            "group_id": null,
            "label": "va1",
            "points": [
                [
                    1598,
                    3317
                ],
                [
                    1664,
                    3363
                ]
            ],
            "shape_type": "rectangle"
        },
        {
            "flags": {},
            "group_id": null,
            "label": "va1",
            "points": [
                [
                    1662,
                    3307
                ],
                [
                    1719,
                    3372
                ]
            ],
            "shape_type": "rectangle"
        },
        {
            "flags": {},
            "group_id": null,
            "label": "va1",
            "points": [
                [
                    1450,
                    3102
                ],
                [
                    1514,
                    3161
                ]
            ],
            "shape_type": "rectangle"
        },
        {
            "flags": {},
            "group_id": null,
            "label": "va1",
            "points": [
                [
                    1494,
                    3041
                ],
                [
                    1535,
                    3110
                ]
            ],
            "shape_type": "rectangle"
        },
        {
            "flags": {},
            "group_id": null,
            "label": "va1",
            "points": [
                [
                    1740,
                    3030
                ],
                [
                    1809,
                    3080
                ]
            ],
            "shape_type": "rectangle"
        },
        {
            "flags": {},
            "group_id": null,
            "label": "va1",
            "points": [
                [
                    1792,
                    3078
                ],
                [
                    1838,
                    3145
                ]
            ],
            "shape_type": "rectangle"
        },
        {
            "flags": {},
            "group_id": null,
            "label": "vp1-1",
            "points": [
                [
                    1555,
                    3075
                ],
                [
                    1746,
                    3265
                ]
            ],
            "shape_type": "rectangle"
        },
        {
            "flags": {},
            "group_id": null,
            "label": "n1",
            "points": [
                [
                    3331,
                    1434
                ],
                [
                    4114,
                    1874
                ]
            ],
            "shape_type": "rectangle"
        },
        {
            "flags": {},
            "group_id": null,
            "label": "v1",
            "points": [
                [
                    3531,
                    1917
                ],
                [
                    3862,
                    1989
                ]
            ],
            "shape_type": "rectangle"
        },
        {
            "flags": {},
            "group_id": null,
            "label": "c1",
            "points": [
                [
                    941,
                    2217
                ],
                [
                    946,
                    2366
                ]
            ],
            "shape_type": "rectangle"
        },
        {
            "flags": {},
            "group_id": null,
            "label": "g1",
            "points": [
                [
                    763,
                    2383
                ],
                [
                    772,
                    2585
                ]
            ],
            "shape_type": "rectangle"
        },
        {
            "flags": {},
            "group_id": null,
            "label": "g1",
            "points": [
                [
                    845,
                    2382
                ],
                [
                    854,
                    2586
                ]
            ],
            "shape_type": "rectangle"
        },
        {
            "flags": {},
            "group_id": null,
            "label": "g1",
            "points": [
                [
                    914,
                    2383
                ],
                [
                    922,
                    2586
                ]
            ],
            "shape_type": "rectangle"
        },
        {
            "flags": {},
            "group_id": null,
            "label": "g1",
            "points": [
                [
                    972,
                    2382
                ],
                [
                    980,
                    2585
                ]
            ],
            "shape_type": "rectangle"
        },
        {
            "flags": {},
            "group_id": null,
            "label": "g1",
            "points": [
                [
                    1041,
                    2382
                ],
                [
                    1050,
                    2586
                ]
            ],
            "shape_type": "rectangle"
        },
        {
            "flags": {},
            "group_id": null,
            "label": "g1",
            "points": [
                [
                    1115,
                    2383
                ],
                [
                    1124,
                    2585
                ]
            ],
            "shape_type": "rectangle"
        },
        {
            "flags": {},
            "group_id": null,
            "label": "a1-2",
            "points": [
                [
                    1128,
                    2388
                ],
                [
                    1161,
                    2514
                ]
            ],
            "shape_type": "rectangle"
        },
        {
            "flags": {},
            "group_id": null,
            "label": "a1-2",
            "points": [
                [
                    1055,
                    2390
                ],
                [
                    1088,
                    2515
                ]
            ],
            "shape_type": "rectangle"
        },
        {
            "flags": {},
            "group_id": null,
            "label": "a1-4",
            "points": [
                [
                    963,
                    2386
                ],
                [
                    990,
                    2513
                ]
            ],
            "shape_type": "rectangle"
        },
        {
            "flags": {},
            "group_id": null,
            "label": "a1-4",
            "points": [
                [
                    905,
                    2386
                ],
                [
                    931,
                    2513
                ]
            ],
            "shape_type": "rectangle"
        },
        {
            "flags": {},
            "group_id": null,
            "label": "a1-1",
            "points": [
                [
                    808,
                    2386
                ],
                [
                    841,
                    2512
                ]
            ],
            "shape_type": "rectangle"
        },
        {
            "flags": {},
            "group_id": null,
            "label": "a1-1",
            "points": [
                [
                    726,
                    2382
                ],
                [
                    759,
                    2509
                ]
            ],
            "shape_type": "rectangle"
        },
        {
            "flags": {},
            "group_id": null,
            "label": "p1-1",
            "points": [
                [
                    726,
                    2381
                ],
                [
                    1162,
                    2586
                ]
            ],
            "shape_type": "rectangle"
        },
        {
            "flags": {},
            "group_id": null,
            "label": "g1",
            "points": [
                [
                    763,
                    2631
                ],
                [
                    772,
                    2833
                ]
            ],
            "shape_type": "rectangle"
        },
        {
            "flags": {},
            "group_id": null,
            "label": "g1",
            "points": [
                [
                    845,
                    2630
                ],
                [
                    854,
                    2833
                ]
            ],
            "shape_type": "rectangle"
        },
        {
            "flags": {},
            "group_id": null,
            "label": "g1",
            "points": [
                [
                    914,
                    2630
                ],
                [
                    923,
                    2834
                ]
            ],
            "shape_type": "rectangle"
        },
        {
            "flags": {},
            "group_id": null,
            "label": "g1",
            "points": [
                [
                    972,
                    2630
                ],
                [
                    980,
                    2834
                ]
            ],
            "shape_type": "rectangle"
        },
        {
            "flags": {},
            "group_id": null,
            "label": "g1",
            "points": [
                [
                    1042,
                    2631
                ],
                [
                    1050,
                    2833
                ]
            ],
            "shape_type": "rectangle"
        },
        {
            "flags": {},
            "group_id": null,
            "label": "g1",
            "points": [
                [
                    1116,
                    2631
                ],
                [
                    1125,
                    2834
                ]
            ],
            "shape_type": "rectangle"
        },
        {
            "flags": {},
            "group_id": null,
            "label": "a1-2",
            "points": [
                [
                    1128,
                    2636
                ],
                [
                    1161,
                    2763
                ]
            ],
            "shape_type": "rectangle"
        },
        {
            "flags": {},
            "group_id": null,
            "label": "a1-2",
            "points": [
                [
                    1055,
                    2638
                ],
                [
                    1088,
                    2764
                ]
            ],
            "shape_type": "rectangle"
        },
        {
            "flags": {},
            "group_id": null,
            "label": "a1-4",
            "points": [
                [
                    963,
                    2635
                ],
                [
                    989,
                    2761
                ]
            ],
            "shape_type": "rectangle"
        },
        {
            "flags": {},
            "group_id": null,
            "label": "a1-4",
            "points": [
                [
                    905,
                    2635
                ],
                [
                    931,
                    2761
                ]
            ],
            "shape_type": "rectangle"
        },
        {
            "flags": {},
            "group_id": null,
            "label": "a1-1",
            "points": [
                [
                    807,
                    2635
                ],
                [
                    841,
                    2761
                ]
            ],
            "shape_type": "rectangle"
        },
        {
            "flags": {},
            "group_id": null,
            "label": "a1-1",
            "points": [
                [
                    727,
                    2630
                ],
                [
                    759,
                    2756
                ]
            ],
            "shape_type": "rectangle"
        },
        {
            "flags": {},
            "group_id": null,
            "label": "p1-1",
            "points": [
                [
                    726,
                    2630
                ],
                [
                    1162,
                    2834
                ]
            ],
            "shape_type": "rectangle"
        },
        {
            "flags": {},
            "group_id": null,
            "label": "g1",
            "points": [
                [
                    882,
                    2851
                ],
                [
                    891,
                    3056
                ]
            ],
            "shape_type": "rectangle"
        },
        {
            "flags": {},
            "group_id": null,
            "label": "g1",
            "points": [
                [
                    995,
                    2852
                ],
                [
                    1004,
                    3056
                ]
            ],
            "shape_type": "rectangle"
        },
        {
            "flags": {},
            "group_id": null,
            "label": "a1-1",
            "points": [
                [
                    846,
                    2858
                ],
                [
                    879,
                    2984
                ]
            ],
            "shape_type": "rectangle"
        },
        {
            "flags": {},
            "group_id": null,
            "label": "a1-2",
            "points": [
                [
                    1008,
                    2858
                ],
                [
                    1042,
                    2984
                ]
            ],
            "shape_type": "rectangle"
        },
        {
            "flags": {},
            "group_id": null,
            "label": "a1-4",
            "points": [
                [
                    941,
                    2857
                ],
                [
                    967,
                    2982
                ]
            ],
            "shape_type": "rectangle"
        },
        {
            "flags": {},
            "group_id": null,
            "label": "p1-2",
            "points": [
                [
                    846,
                    2851
                ],
                [
                    1043,
                    3056
                ]
            ],
            "shape_type": "rectangle"
        },
        {
            "flags": {},
            "group_id": null,
            "label": "g1",
            "points": [
                [
                    882,
                    3098
                ],
                [
                    891,
                    3301
                ]
            ],
            "shape_type": "rectangle"
        },
        {
            "flags": {},
            "group_id": null,
            "label": "g1",
            "points": [
                [
                    995,
                    3098
                ],
                [
                    1004,
                    3301
                ]
            ],
            "shape_type": "rectangle"
        },
        {
            "flags": {},
            "group_id": null,
            "label": "a1-2",
            "points": [
                [
                    1009,
                    3105
                ],
                [
                    1042,
                    3231
                ]
            ],
            "shape_type": "rectangle"
        },
        {
            "flags": {},
            "group_id": null,
            "label": "a1-4",
            "points": [
                [
                    940,
                    3102
                ],
                [
                    967,
                    3228
                ]
            ],
            "shape_type": "rectangle"
        },
        {
            "flags": {},
            "group_id": null,
            "label": "g1",
            "points": [
                [
                    949,
                    3098
                ],
                [
                    958,
                    3301
                ]
            ],
            "shape_type": "rectangle"
        },
        {
            "flags": {},
            "group_id": null,
            "label": "a1-1",
            "points": [
                [
                    845,
                    3105
                ],
                [
                    879,
                    3231
                ]
            ],
            "shape_type": "rectangle"
        },
        {
            "flags": {},
            "group_id": null,
            "label": "p1-2",
            "points": [
                [
                    845,
                    3097
                ],
                [
                    1043,
                    3302
                ]
            ],
            "shape_type": "rectangle"
        },
        {
            "flags": {},
            "group_id": null,
            "label": "g1",
            "points": [
                [
                    949,
                    2851
                ],
                [
                    957,
                    3056
                ]
            ],
            "shape_type": "rectangle"
        },
        {
            "flags": {},
            "group_id": null,
            "label": "x1",
            "points": [
                [
                    892,
                    3381
                ],
                [
                    999,
                    3449
                ]
            ],
            "shape_type": "rectangle"
        },
        {
            "flags": {},
            "group_id": null,
            "label": "seven",
            "points": [
                [
                    543,
                    1491
                ]
            ],
            "shape_type": "point"
        },
        {
            "flags": {},
            "group_id": null,
            "label": "seven",
            "points": [
                [
                    553,
                    1501
                ]
            ],
            "shape_type": "point"
        },
        {
            "flags": {},
            "group_id": null,
            "label": "eight",
            "points": [
                [
                    741,
                    1502
                ]
            ],
            "shape_type": "point"
        },
        {
            "flags": {},
            "group_id": null,
            "label": "eight",
            "points": [
                [
                    751,
                    1491
                ]
            ],
            "shape_type": "point"
        },
        {
            "flags": {},
            "group_id": null,
            "label": "nine",
            "points": [
                [
                    552,
                    1801
                ]
            ],
            "shape_type": "point"
        },
        {
            "flags": {},
            "group_id": null,
            "label": "nine",
            "points": [
                [
                    543,
                    1812
                ]
            ],
            "shape_type": "point"
        },
        {
            "flags": {},
            "group_id": null,
            "label": "ten",
            "points": [
                [
                    742,
                    1801
                ]
            ],
            "shape_type": "point"
        },
        {
            "flags": {},
            "group_id": null,
            "label": "ten",
            "points": [
                [
                    751,
                    1811
                ]
            ],
            "shape_type": "point"
        },
        {
            "flags": {},
            "group_id": null,
            "label": "twentytwo",
            "points": [
                [
                    742,
                    1632
                ]
            ],
            "shape_type": "point"
        },
        {
            "flags": {},
            "group_id": null,
            "label": "twentythere",
            "points": [
                [
                    751,
                    1681
                ]
            ],
            "shape_type": "point"
        },
        {
            "flags": {},
            "group_id": null,
            "label": "eleven",
            "points": [
                [
                    742,
                    1682
                ]
            ],
            "shape_type": "point"
        },
        {
            "flags": {},
            "group_id": null,
            "label": "twelve",
            "points": [
                [
                    752,
                    1632
                ]
            ],
            "shape_type": "point"
        },
        {
            "flags": {},
            "group_id": null,
            "label": "seven",
            "points": [
                [
                    728,
                    3600
                ]
            ],
            "shape_type": "point"
        },
        {
            "flags": {},
            "group_id": null,
            "label": "seven",
            "points": [
                [
                    737,
                    3611
                ]
            ],
            "shape_type": "point"
        },
        {
            "flags": {},
            "group_id": null,
            "label": "eight",
            "points": [
                [
                    1109,
                    3611
                ]
            ],
            "shape_type": "point"
        },
        {
            "flags": {},
            "group_id": null,
            "label": "eight",
            "points": [
                [
                    1119,
                    3600
                ]
            ],
            "shape_type": "point"
        },
        {
            "flags": {},
            "group_id": null,
            "label": "nine",
            "points": [
                [
                    739,
                    3822
                ]
            ],
            "shape_type": "point"
        },
        {
            "flags": {},
            "group_id": null,
            "label": "ten",
            "points": [
                [
                    1111,
                    3822
                ]
            ],
            "shape_type": "point"
        },
        {
            "flags": {},
            "group_id": null,
            "label": "fourteen",
            "points": [
                [
                    729,
                    3831
                ]
            ],
            "shape_type": "point"
        },
        {
            "flags": {},
            "group_id": null,
            "label": "fourteen",
            "points": [
                [
                    1120,
                    3832
                ]
            ],
            "shape_type": "point"
        },
        {
            "flags": {},
            "group_id": null,
            "label": "twentytwo",
            "points": [
                [
                    966,
                    3676
                ]
            ],
            "shape_type": "point"
        },
        {
            "flags": {},
            "group_id": null,
            "label": "twentythere",
            "points": [
                [
                    928,
                    3686
                ]
            ],
            "shape_type": "point"
        },
        {
            "flags": {},
            "group_id": null,
            "label": "wz4",
            "points": [
                [
                    575,
                    1634
                ],
                [
                    677,
                    1669
                ]
            ],
            "shape_type": "rectangle"
        },
        {
            "flags": {},
            "group_id": null,
            "label": "k1",
            "points": [
                [
                    742,
                    1632
                ],
                [
                    751,
                    1682
                ]
            ],
            "shape_type": "rectangle"
        },
        {
            "flags": {},
            "group_id": null,
            "label": "wz4",
            "points": [
                [
                    770,
                    3741
                ],
                [
                    872,
                    3775
                ]
            ],
            "shape_type": "rectangle"
        },
        {
            "flags": {},
            "group_id": null,
            "label": "tl",
            "points": [
                [
                    2355,
                    1379
                ],
                [
                    3297,
                    1925
                ]
            ],
            "shape_type": "rectangle"
        },
        {
            "flags": {},
            "group_id": null,
            "label": "j1",
            "points": [
                [
                    3438,
                    1437
                ],
                [
                    3726,
                    1497
                ]
            ],
            "shape_type": "rectangle"
        },
        {
            "flags": {},
            "group_id": null,
            "label": "j1",
            "points": [
                [
                    3748,
                    1437
                ],
                [
                    3785,
                    1485
                ]
            ],
            "shape_type": "rectangle"
        },
        {
            "flags": {},
            "group_id": null,
            "label": "j1",
            "points": [
                [
                    3829,
                    1811
                ],
                [
                    4113,
                    1873
                ]
            ],
            "shape_type": "rectangle"
        },
        {
            "flags": {},
            "group_id": null,
            "label": "j1",
            "points": [
                [
                    3334,
                    1810
                ],
                [
                    3626,
                    1872
                ]
            ],
            "shape_type": "rectangle"
        },
        {
            "flags": {},
            "group_id": null,
            "label": "sm",
            "points": [
                [
                    2167,
                    3261
                ],
                [
                    3908,
                    3638
                ]
            ],
            "shape_type": "rectangle"
        },
        {
            "flags": {},
            "group_id": null,
            "label": "btl",
            "points": [
                [
                    2338,
                    3823
                ],
                [
                    4135,
                    4124
                ]
            ],
            "shape_type": "rectangle"
        },
        {
            "flags": {},
            "group_id": null,
            "label": "mask",
            "lineType": [
                "LLLLLLLLLLLLLLLLLL"
            ],
            "points": [
                [
                    2345,
                    1369
                ],
                [
                    3307,
                    1369
                ],
                [
                    3307,
                    1935
                ],
                [
                    2345,
                    1935
                ]
            ],
            "shape_type": "polygon"
        },
        {
            "flags": {},
            "group_id": null,
            "label": "mask",
            "lineType": [
                "LLLLLLLLLLLLLLLLLLLLLLLLLLL"
            ],
            "points": [
                [
                    3321,
                    1424
                ],
                [
                    4124,
                    1424
                ],
                [
                    4124,
                    1884
                ],
                [
                    3321,
                    1884
                ]
            ],
            "shape_type": "polygon"
        },
        {
            "flags": {},
            "group_id": null,
            "label": "mask",
            "lineType": [
                "LLLLL"
            ],
            "points": [
                [
                    2186,
                    2183
                ],
                [
                    4013,
                    2183
                ],
                [
                    4013,
                    2983
                ],
                [
                    2186,
                    2983
                ]
            ],
            "shape_type": "polygon"
        },
        {
            "flags": {},
            "group_id": null,
            "label": "mask",
            "lineType": [
                "LLLLLLLLL"
            ],
            "points": [
                [
                    2157,
                    3251
                ],
                [
                    3918,
                    3251
                ],
                [
                    3918,
                    3648
                ],
                [
                    2157,
                    3648
                ]
            ],
            "shape_type": "polygon"
        },
        {
            "flags": {},
            "group_id": null,
            "label": "mask",
            "lineType": [
                "LLLLL"
            ],
            "points": [
                [
                    2328,
                    3813
                ],
                [
                    4145,
                    3813
                ],
                [
                    4145,
                    4134
                ],
                [
                    2328,
                    4134
                ]
            ],
            "shape_type": "polygon"
        },
        {
            "flags": {},
            "group_id": null,
            "label": "mask",
            "lineType": [
                "LLLLLLLLLLLLLLLLLLLLLLLLLLLLLLLL"
            ],
            "points": [
                [
                    396,
                    3794
                ],
                [
                    411,
                    3914
                ],
                [
                    595,
                    3953
                ],
                [
                    701,
                    4019
                ],
                [
                    878,
                    4019
                ],
                [
                    1008,
                    4013
                ],
                [
                    1038,
                    3970
                ],
                [
                    1046,
                    3923
                ],
                [
                    1456,
                    3938
                ],
                [
                    1390,
                    3817
                ],
                [
                    1196,
                    3718
                ],
                [
                    1134,
                    3342
                ],
                [
                    1110,
                    3029
                ],
                [
                    1151,
                    2897
                ],
                [
                    1188,
                    2796
                ],
                [
                    1226,
                    2692
                ],
                [
                    1459,
                    2692
                ],
                [
                    1556,
                    2667
                ],
                [
                    1558,
                    2584
                ],
                [
                    1490,
                    2554
                ],
                [
                    1322,
                    2529
                ],
                [
                    1236,
                    2516
                ],
                [
                    1213,
                    2348
                ],
                [
                    1152,
                    2224
                ],
                [
                    993,
                    2128
                ],
                [
                    836,
                    2159
                ],
                [
                    622,
                    2215
                ],
                [
                    484,
                    2219
                ],
                [
                    418,
                    2239
                ],
                [
                    418,
                    2332
                ],
                [
                    406,
                    2968
                ],
                [
                    396,
                    3794
                ]
            ],
            "shape_type": "polygon"
        },
        {
            "flags": {},
            "group_id": null,
            "label": "mask",
            "lineType": [
                "LLLLLLLLLLLLLLLLLLLL"
            ],
            "points": [
                [
                    1254,
                    3309
                ],
                [
                    1204,
                    3222
                ],
                [
                    1234,
                    3126
                ],
                [
                    1391,
                    3041
                ],
                [
                    1539,
                    2968
                ],
                [
                    1681,
                    2893
                ],
                [
                    1895,
                    2892
                ],
                [
                    1958,
                    2909
                ],
                [
                    1956,
                    3198
                ],
                [
                    1972,
                    3373
                ],
                [
                    1958,
                    3542
                ],
                [
                    1932,
                    3563
                ],
                [
                    1882,
                    3583
                ],
                [
                    1795,
                    3583
                ],
                [
                    1656,
                    3585
                ],
                [
                    1519,
                    3585
                ],
                [
                    1414,
                    3566
                ],
                [
                    1384,
                    3489
                ],
                [
                    1386,
                    3402
                ],
                [
                    1254,
                    3309
                ]
            ],
            "shape_type": "polygon"
        },
        {
            "flags": {},
            "group_id": null,
            "label": "mask",
            "lineType": [
                "LLLLLLLLLLLLL"
            ],
            "points": [
                [
                    568,
                    1980
                ],
                [
                    877,
                    1980
                ],
                [
                    1147,
                    1974
                ],
                [
                    1243,
                    1957
                ],
                [
                    1250,
                    1875
                ],
                [
                    1263,
                    1546
                ],
                [
                    1246,
                    1490
                ],
                [
                    1101,
                    1460
                ],
                [
                    963,
                    1454
                ],
                [
                    673,
                    1452
                ],
                [
                    498,
                    1459
                ],
                [
                    501,
                    1792
                ],
                [
                    568,
                    1980
                ]
            ],
            "shape_type": "polygon"
        },
        {
            "flags": {},
            "group_id": null,
            "label": "wlb",
            "points": [
                [
                    2196,
                    2193
                ],
                [
                    4003,
                    2973
                ]
            ],
            "shape_type": "rectangle"
        },
        {
            "flags": {},
            "group_id": null,
            "label": "xtl",
            "points": [
                [
                    2475,
                    1393
                ],
                [
                    2544,
                    1433
                ]
            ],
            "shape_type": "rectangle"
        },
        {
            "flags": {},
            "group_id": null,
            "label": "xtl",
            "points": [
                [
                    2475,
                    1463
                ],
                [
                    2544,
                    1503
                ]
            ],
            "shape_type": "rectangle"
        },
        {
            "flags": {},
            "group_id": null,
            "label": "xtl",
            "points": [
                [
                    2475,
                    1533
                ],
                [
                    2545,
                    1572
                ]
            ],
            "shape_type": "rectangle"
        },
        {
            "flags": {},
            "group_id": null,
            "label": "xtl",
            "points": [
                [
                    2475,
                    1602
                ],
                [
                    2545,
                    1642
                ]
            ],
            "shape_type": "rectangle"
        },
        {
            "flags": {},
            "group_id": null,
            "label": "xtl",
            "points": [
                [
                    2475,
                    1672
                ],
                [
                    2544,
                    1712
                ]
            ],
            "shape_type": "rectangle"
        },
        {
            "flags": {},
            "group_id": null,
            "label": "xtl",
            "points": [
                [
                    2475,
                    1741
                ],
                [
                    2543,
                    1781
                ]
            ],
            "shape_type": "rectangle"
        },
        {
            "flags": {},
            "group_id": null,
            "label": "xtl",
            "points": [
                [
                    2487,
                    1826
                ],
                [
                    2561,
                    1832
                ]
            ],
            "shape_type": "rectangle"
        },
        {
            "flags": {},
            "group_id": null,
            "label": "xtl",
            "points": [
                [
                    2488,
                    1901
                ],
                [
                    2564,
                    1906
                ]
            ],
            "shape_type": "rectangle"
        },
        {
            "flags": {},
            "group_id": null,
            "label": "wztl",
            "points": [
                [
                    2601,
                    1871
                ],
                [
                    2713,
                    1925
                ]
            ],
            "shape_type": "rectangle"
        },
        {
            "flags": {},
            "group_id": null,
            "label": "wztl",
            "points": [
                [
                    2599,
                    1797
                ],
                [
                    2710,
                    1849
                ]
            ],
            "shape_type": "rectangle"
        },
        {
            "flags": {},
            "group_id": null,
            "label": "wztl",
            "points": [
                [
                    2587,
                    1732
                ],
                [
                    2879,
                    1782
                ]
            ],
            "shape_type": "rectangle"
        },
        {
            "flags": {},
            "group_id": null,
            "label": "wztl",
            "points": [
                [
                    2583,
                    1651
                ],
                [
                    2805,
                    1706
                ]
            ],
            "shape_type": "rectangle"
        },
        {
            "flags": {},
            "group_id": null,
            "label": "wztl",
            "points": [
                [
                    2573,
                    1580
                ],
                [
                    2741,
                    1633
                ]
            ],
            "shape_type": "rectangle"
        },
        {
            "flags": {},
            "group_id": null,
            "label": "wztl",
            "points": [
                [
                    2573,
                    1512
                ],
                [
                    2829,
                    1564
                ]
            ],
            "shape_type": "rectangle"
        },
        {
            "flags": {},
            "group_id": null,
            "label": "wztl",
            "points": [
                [
                    2572,
                    1382
                ],
                [
                    2854,
                    1434
                ]
            ],
            "shape_type": "rectangle"
        },
        {
            "flags": {},
            "group_id": null,
            "label": "wztl",
            "points": [
                [
                    2573,
                    1446
                ],
                [
                    2871,
                    1496
                ]
            ],
            "shape_type": "rectangle"
        },
        {
            "flags": {},
            "group_id": null,
            "label": "xtl",
            "points": [
                [
                    2973,
                    1402
                ],
                [
                    3036,
                    1427
                ]
            ],
            "shape_type": "rectangle"
        },
        {
            "flags": {},
            "group_id": null,
            "label": "xtl",
            "points": [
                [
                    2973,
                    1462
                ],
                [
                    3035,
                    1490
                ]
            ],
            "shape_type": "rectangle"
        },
        {
            "flags": {},
            "group_id": null,
            "label": "xtl",
            "points": [
                [
                    2973,
                    1546
                ],
                [
                    3035,
                    1550
                ]
            ],
            "shape_type": "rectangle"
        },
        {
            "flags": {},
            "group_id": null,
            "label": "xtl",
            "points": [
                [
                    2965,
                    1595
                ],
                [
                    3021,
                    1637
                ]
            ],
            "shape_type": "rectangle"
        },
        {
            "flags": {},
            "group_id": null,
            "label": "xtl",
            "points": [
                [
                    2963,
                    1663
                ],
                [
                    3033,
                    1706
                ]
            ],
            "shape_type": "rectangle"
        },
        {
            "flags": {},
            "group_id": null,
            "label": "xtl",
            "points": [
                [
                    2964,
                    1733
                ],
                [
                    3032,
                    1776
                ]
            ],
            "shape_type": "rectangle"
        },
        {
            "flags": {},
            "group_id": null,
            "label": "wztl",
            "points": [
                [
                    3066,
                    1733
                ],
                [
                    3295,
                    1784
                ]
            ],
            "shape_type": "rectangle"
        },
        {
            "flags": {},
            "group_id": null,
            "label": "wztl",
            "points": [
                [
                    3066,
                    1654
                ],
                [
                    3296,
                    1707
                ]
            ],
            "shape_type": "rectangle"
        },
        {
            "flags": {},
            "group_id": null,
            "label": "wztl",
            "points": [
                [
                    3065,
                    1585
                ],
                [
                    3296,
                    1637
                ]
            ],
            "shape_type": "rectangle"
        },
        {
            "flags": {},
            "group_id": null,
            "label": "wztl",
            "points": [
                [
                    3068,
                    1509
                ],
                [
                    3243,
                    1562
                ]
            ],
            "shape_type": "rectangle"
        },
        {
            "flags": {},
            "group_id": null,
            "label": "wztl",
            "points": [
                [
                    3068,
                    1440
                ],
                [
                    3255,
                    1492
                ]
            ],
            "shape_type": "rectangle"
        },
        {
            "flags": {},
            "group_id": null,
            "label": "wztl",
            "points": [
                [
                    3067,
                    1376
                ],
                [
                    3257,
                    1427
                ]
            ],
            "shape_type": "rectangle"
        },
        {
            "flags": {},
            "group_id": null,
            "label": "Ns",
            "points": [
                [
                    3767,
                    1671
                ]
            ],
            "shape_type": "point"
        },
        {
            "flags": {},
            "group_id": null,
            "label": "Ne",
            "points": [
                [
                    3767,
                    1533
                ]
            ],
            "shape_type": "point"
        },
        {
            "flags": {},
            "group_id": null,
            "label": "wz3",
            "points": [
                [
                    915,
                    2166
                ],
                [
                    973,
                    2194
                ]
            ],
            "shape_type": "rectangle"
        },
        {
            "flags": {},
            "group_id": null,
            "label": "wz1",
            "points": [
                [
                    1242,
                    2583
                ],
                [
                    1517,
                    2668
                ]
            ],
            "shape_type": "rectangle"
        },
        {
            "flags": {},
            "group_id": null,
            "label": "wz3",
            "points": [
                [
                    1703,
                    2941
                ],
                [
                    1933,
                    3025
                ]
            ],
            "shape_type": "rectangle"
        },
        {
            "flags": {},
            "group_id": null,
            "label": "wz3",
            "points": [
                [
                    1743,
                    3349
                ],
                [
                    1963,
                    3440
                ]
            ],
            "shape_type": "rectangle"
        },
        {
            "flags": {},
            "group_id": null,
            "label": "wz3",
            "points": [
                [
                    1251,
                    3171
                ],
                [
                    1480,
                    3264
                ]
            ],
            "shape_type": "rectangle"
        }
    ],
    "version": "4.5.7"
}