{
    "flags": {},
    "imageData": null,
    "imageHeight": 4205,
    "imagePath": "三管塔.png",
    "imageWidth": 4205,
    "shapes": [
        {
            "flags": {},
            "group_id": null,
            "label": "d1",
            "points": [
                [
                    462,
                    1425
                ],
                [
                    607,
                    1508
                ]
            ],
            "shape_type": "rectangle"
        },
        {
            "flags": {},
            "group_id": null,
            "label": "vb1",
            "points": [
                [
                    845,
                    1505
                ],
                [
                    1006,
                    1597
                ]
            ],
            "shape_type": "rectangle"
        },
        {
            "flags": {},
            "group_id": null,
            "label": "seven",
            "points": [
                [
                    845,
                    1505
                ]
            ],
            "shape_type": "point"
        },
        {
            "flags": {},
            "group_id": null,
            "label": "eight",
            "points": [
                [
                    1005,
                    1505
                ]
            ],
            "shape_type": "point"
        },
        {
            "flags": {},
            "group_id": null,
            "label": "nine",
            "points": [
                [
                    845,
                    1595
                ]
            ],
            "shape_type": "point"
        },
        {
            "flags": {},
            "group_id": null,
            "label": "ten",
            "points": [
                [
                    1005,
                    1597
                ]
            ],
            "shape_type": "point"
        },
        {
            "flags": {},
            "group_id": null,
            "label": "seven",
            "points": [
                [
                    855,
                    1525
                ]
            ],
            "shape_type": "point"
        },
        {
            "flags": {},
            "group_id": null,
            "label": "eight",
            "points": [
                [
                    994,
                    1525
                ]
            ],
            "shape_type": "point"
        },
        {
            "flags": {},
            "group_id": null,
            "label": "nine",
            "points": [
                [
                    855,
                    1583
                ]
            ],
            "shape_type": "point"
        },
        {
            "flags": {},
            "group_id": null,
            "label": "ten",
            "points": [
                [
                    995,
                    1583
                ]
            ],
            "shape_type": "point"
        },
        {
            "flags": {},
            "group_id": null,
            "label": "thirteen",
            "points": [
                [
                    925,
                    1525
                ]
            ],
            "shape_type": "point"
        },
        {
            "flags": {},
            "group_id": null,
            "label": "fourteen",
            "points": [
                [
                    925,
                    1583
                ]
            ],
            "shape_type": "point"
        },
        {
            "flags": {},
            "group_id": null,
            "label": "vt3",
            "points": [
                [
                    709,
                    1611
                ],
                [
                    1253,
                    2198
                ]
            ],
            "shape_type": "rectangle"
        },
        {
            "flags": {},
            "group_id": null,
            "label": "d1",
            "points": [
                [
                    3757,
                    2129
                ],
                [
                    3841,
                    2269
                ]
            ],
            "shape_type": "rectangle"
        },
        {
            "flags": {},
            "group_id": null,
            "label": "h1",
            "points": [
                [
                    3829,
                    2258
                ],
                [
                    3960,
                    2322
                ]
            ],
            "shape_type": "rectangle"
        },
        {
            "flags": {},
            "group_id": null,
            "label": "h1",
            "points": [
                [
                    3826,
                    1933
                ],
                [
                    3957,
                    1996
                ]
            ],
            "shape_type": "rectangle"
        },
        {
            "flags": {},
            "group_id": null,
            "label": "d1",
            "points": [
                [
                    3719,
                    1833
                ],
                [
                    3803,
                    1970
                ]
            ],
            "shape_type": "rectangle"
        },
        {
            "flags": {},
            "group_id": null,
            "label": "h1",
            "points": [
                [
                    3827,
                    1752
                ],
                [
                    3957,
                    1813
                ]
            ],
            "shape_type": "rectangle"
        },
        {
            "flags": {},
            "group_id": null,
            "label": "d1",
            "points": [
                [
                    3063,
                    1833
                ],
                [
                    3146,
                    2006
                ]
            ],
            "shape_type": "rectangle"
        },
        {
            "flags": {},
            "group_id": null,
            "label": "d1",
            "points": [
                [
                    3062,
                    2128
                ],
                [
                    3145,
                    2267
                ]
            ],
            "shape_type": "rectangle"
        },
        {
            "flags": {},
            "group_id": null,
            "label": "v1",
            "points": [
                [
                    2261,
                    2990
                ],
                [
                    2485,
                    3055
                ]
            ],
            "shape_type": "rectangle"
        },
        {
            "flags": {},
            "group_id": null,
            "label": "v1",
            "points": [
                [
                    3110,
                    3603
                ],
                [
                    3441,
                    3697
                ]
            ],
            "shape_type": "rectangle"
        },
        {
            "flags": {},
            "group_id": null,
            "label": "h1",
            "points": [
                [
                    3829,
                    3453
                ],
                [
                    3960,
                    3519
                ]
            ],
            "shape_type": "rectangle"
        },
        {
            "flags": {},
            "group_id": null,
            "label": "b1",
            "points": [
                [
                    2980,
                    3375
                ],
                [
                    3142,
                    3520
                ]
            ],
            "shape_type": "rectangle"
        },
        {
            "flags": {},
            "group_id": null,
            "label": "seven",
            "points": [
                [
                    3041,
                    3375
                ]
            ],
            "shape_type": "point"
        },
        {
            "flags": {},
            "group_id": null,
            "label": "eight",
            "points": [
                [
                    3108,
                    3376
                ]
            ],
            "shape_type": "point"
        },
        {
            "flags": {},
            "group_id": null,
            "label": "fourteen",
            "points": [
                [
                    3042,
                    3489
                ]
            ],
            "shape_type": "point"
        },
        {
            "flags": {},
            "group_id": null,
            "label": "fourteen",
            "points": [
                [
                    3108,
                    3489
                ]
            ],
            "shape_type": "point"
        },
        {
            "flags": {},
            "group_id": null,
            "label": "v1",
            "points": [
                [
                    2200,
                    2078
                ],
                [
                    2425,
                    2142
                ]
            ],
            "shape_type": "rectangle"
        },
        {
            "flags": {},
            "group_id": null,
            "label": "n1",
            "points": [
                [
                    1439,
                    1516
                ],
                [
                    1861,
                    1960
                ]
            ],
            "shape_type": "rectangle"
        },
        {
            "flags": {},
            "group_id": null,
            "label": "vp1-2",
            "points": [
                [
                    2119,
                    1526
                ],
                [
                    2523,
                    1932
                ]
            ],
            "shape_type": "rectangle"
        },
        {
            "flags": {},
            "group_id": null,
            "label": "vp1-2",
            "points": [
                [
                    2192,
                    2434
                ],
                [
                    2596,
                    2839
                ]
            ],
            "shape_type": "rectangle"
        },
        {
            "flags": {},
            "group_id": null,
            "label": "va1",
            "points": [
                [
                    2033,
                    1545
                ],
                [
                    2073,
                    1588
                ]
            ],
            "shape_type": "rectangle"
        },
        {
            "flags": {},
            "group_id": null,
            "label": "va1",
            "points": [
                [
                    2313,
                    1408
                ],
                [
                    2352,
                    1453
                ]
            ],
            "shape_type": "rectangle"
        },
        {
            "flags": {},
            "group_id": null,
            "label": "va1",
            "points": [
                [
                    2573,
                    1560
                ],
                [
                    2611,
                    1606
                ]
            ],
            "shape_type": "rectangle"
        },
        {
            "flags": {},
            "group_id": null,
            "label": "va1",
            "points": [
                [
                    2613,
                    1712
                ],
                [
                    2649,
                    1756
                ]
            ],
            "shape_type": "rectangle"
        },
        {
            "flags": {},
            "group_id": null,
            "label": "va1",
            "points": [
                [
                    2552,
                    1871
                ],
                [
                    2595,
                    1912
                ]
            ],
            "shape_type": "rectangle"
        },
        {
            "flags": {},
            "group_id": null,
            "label": "va1",
            "points": [
                [
                    2031,
                    1866
                ],
                [
                    2075,
                    1908
                ]
            ],
            "shape_type": "rectangle"
        },
        {
            "flags": {},
            "group_id": null,
            "label": "va1",
            "points": [
                [
                    2290,
                    2019
                ],
                [
                    2332,
                    2060
                ]
            ],
            "shape_type": "rectangle"
        },
        {
            "flags": {},
            "group_id": null,
            "label": "va1",
            "points": [
                [
                    2368,
                    2304
                ],
                [
                    2408,
                    2345
                ]
            ],
            "shape_type": "rectangle"
        },
        {
            "flags": {},
            "group_id": null,
            "label": "va1",
            "points": [
                [
                    2647,
                    2467
                ],
                [
                    2685,
                    2513
                ]
            ],
            "shape_type": "rectangle"
        },
        {
            "flags": {},
            "group_id": null,
            "label": "va1",
            "points": [
                [
                    2644,
                    2768
                ],
                [
                    2682,
                    2814
                ]
            ],
            "shape_type": "rectangle"
        },
        {
            "flags": {},
            "group_id": null,
            "label": "va1",
            "points": [
                [
                    2363,
                    2927
                ],
                [
                    2407,
                    2968
                ]
            ],
            "shape_type": "rectangle"
        },
        {
            "flags": {},
            "group_id": null,
            "label": "va1",
            "points": [
                [
                    2104,
                    2773
                ],
                [
                    2148,
                    2815
                ]
            ],
            "shape_type": "rectangle"
        },
        {
            "flags": {},
            "group_id": null,
            "label": "va1",
            "points": [
                [
                    2106,
                    2453
                ],
                [
                    2147,
                    2496
                ]
            ],
            "shape_type": "rectangle"
        },
        {
            "flags": {},
            "group_id": null,
            "label": "c1",
            "points": [
                [
                    3426,
                    1631
                ],
                [
                    3428,
                    1813
                ]
            ],
            "shape_type": "rectangle"
        },
        {
            "flags": {},
            "group_id": null,
            "label": "a1-1",
            "points": [
                [
                    3153,
                    1913
                ],
                [
                    3175,
                    2001
                ]
            ],
            "shape_type": "rectangle"
        },
        {
            "flags": {},
            "group_id": null,
            "label": "a1-1",
            "points": [
                [
                    3275,
                    1913
                ],
                [
                    3298,
                    2001
                ]
            ],
            "shape_type": "rectangle"
        },
        {
            "flags": {},
            "group_id": null,
            "label": "a1-4",
            "points": [
                [
                    3417,
                    1912
                ],
                [
                    3434,
                    2001
                ]
            ],
            "shape_type": "rectangle"
        },
        {
            "flags": {},
            "group_id": null,
            "label": "a1-2",
            "points": [
                [
                    3545,
                    1911
                ],
                [
                    3566,
                    1999
                ]
            ],
            "shape_type": "rectangle"
        },
        {
            "flags": {},
            "group_id": null,
            "label": "a1-2",
            "points": [
                [
                    3679,
                    1913
                ],
                [
                    3700,
                    2002
                ]
            ],
            "shape_type": "rectangle"
        },
        {
            "flags": {},
            "group_id": null,
            "label": "g1",
            "points": [
                [
                    3672,
                    1875
                ],
                [
                    3676,
                    2024
                ]
            ],
            "shape_type": "rectangle"
        },
        {
            "flags": {},
            "group_id": null,
            "label": "g1",
            "points": [
                [
                    3541,
                    1885
                ],
                [
                    3545,
                    2031
                ]
            ],
            "shape_type": "rectangle"
        },
        {
            "flags": {},
            "group_id": null,
            "label": "g1",
            "points": [
                [
                    3424,
                    1885
                ],
                [
                    3428,
                    2031
                ]
            ],
            "shape_type": "rectangle"
        },
        {
            "flags": {},
            "group_id": null,
            "label": "g1",
            "points": [
                [
                    3300,
                    1875
                ],
                [
                    3304,
                    2024
                ]
            ],
            "shape_type": "rectangle"
        },
        {
            "flags": {},
            "group_id": null,
            "label": "g1",
            "points": [
                [
                    3177,
                    1876
                ],
                [
                    3181,
                    2024
                ]
            ],
            "shape_type": "rectangle"
        },
        {
            "flags": {},
            "group_id": null,
            "label": "p1-1",
            "points": [
                [
                    3152,
                    1873
                ],
                [
                    3703,
                    2027
                ]
            ],
            "shape_type": "rectangle"
        },
        {
            "flags": {},
            "group_id": null,
            "label": "a1-1",
            "points": [
                [
                    3144,
                    2189
                ],
                [
                    3167,
                    2276
                ]
            ],
            "shape_type": "rectangle"
        },
        {
            "flags": {},
            "group_id": null,
            "label": "a1-1",
            "points": [
                [
                    3274,
                    2189
                ],
                [
                    3296,
                    2277
                ]
            ],
            "shape_type": "rectangle"
        },
        {
            "flags": {},
            "group_id": null,
            "label": "a1-2",
            "points": [
                [
                    3554,
                    2189
                ],
                [
                    3574,
                    2277
                ]
            ],
            "shape_type": "rectangle"
        },
        {
            "flags": {},
            "group_id": null,
            "label": "a1-2",
            "points": [
                [
                    3670,
                    2189
                ],
                [
                    3691,
                    2277
                ]
            ],
            "shape_type": "rectangle"
        },
        {
            "flags": {},
            "group_id": null,
            "label": "g1",
            "points": [
                [
                    3662,
                    2152
                ],
                [
                    3668,
                    2300
                ]
            ],
            "shape_type": "rectangle"
        },
        {
            "flags": {},
            "group_id": null,
            "label": "g1",
            "points": [
                [
                    3546,
                    2152
                ],
                [
                    3551,
                    2300
                ]
            ],
            "shape_type": "rectangle"
        },
        {
            "flags": {},
            "group_id": null,
            "label": "g1",
            "points": [
                [
                    3297,
                    2151
                ],
                [
                    3302,
                    2300
                ]
            ],
            "shape_type": "rectangle"
        },
        {
            "flags": {},
            "group_id": null,
            "label": "g1",
            "points": [
                [
                    3168,
                    2152
                ],
                [
                    3173,
                    2301
                ]
            ],
            "shape_type": "rectangle"
        },
        {
            "flags": {},
            "group_id": null,
            "label": "p1-1",
            "points": [
                [
                    3145,
                    2151
                ],
                [
                    3691,
                    2302
                ]
            ],
            "shape_type": "rectangle"
        },
        {
            "flags": {},
            "group_id": null,
            "label": "x1",
            "points": [
                [
                    3290,
                    2555
                ],
                [
                    3573,
                    2585
                ]
            ],
            "shape_type": "rectangle"
        },
        {
            "flags": {},
            "group_id": null,
            "label": "t3-l",
            "points": [
                [
                    3205,
                    1631
                ],
                [
                    3647,
                    3519
                ]
            ],
            "shape_type": "rectangle"
        },
        {
            "flags": {},
            "group_id": null,
            "label": "d1",
            "points": [
                [
                    471,
                    2210
                ],
                [
                    610,
                    2295
                ]
            ],
            "shape_type": "rectangle"
        },
        {
            "flags": {},
            "group_id": null,
            "label": "v1",
            "points": [
                [
                    802,
                    2243
                ],
                [
                    992,
                    2316
                ]
            ],
            "shape_type": "rectangle"
        },
        {
            "flags": {},
            "group_id": null,
            "label": "seven",
            "points": [
                [
                    2981,
                    3490
                ]
            ],
            "shape_type": "point"
        },
        {
            "flags": {},
            "group_id": null,
            "label": "eight",
            "points": [
                [
                    3141,
                    3490
                ]
            ],
            "shape_type": "point"
        },
        {
            "flags": {},
            "group_id": null,
            "label": "fourteen",
            "points": [
                [
                    3142,
                    3520
                ]
            ],
            "shape_type": "point"
        },
        {
            "flags": {},
            "group_id": null,
            "label": "fourteen",
            "points": [
                [
                    2980,
                    3520
                ]
            ],
            "shape_type": "point"
        },
        {
            "flags": {},
            "group_id": null,
            "label": "j1",
            "points": [
                [
                    1662,
                    1522
                ],
                [
                    1684,
                    1556
                ]
            ],
            "shape_type": "rectangle"
        },
        {
            "flags": {},
            "group_id": null,
            "label": "j1",
            "points": [
                [
                    1440,
                    1596
                ],
                [
                    1546,
                    1675
                ]
            ],
            "shape_type": "rectangle"
        },
        {
            "flags": {},
            "group_id": null,
            "label": "j1",
            "points": [
                [
                    1753,
                    1729
                ],
                [
                    1861,
                    1809
                ]
            ],
            "shape_type": "rectangle"
        },
        {
            "flags": {},
            "group_id": null,
            "label": "j1",
            "points": [
                [
                    1463,
                    1837
                ],
                [
                    1570,
                    1917
                ]
            ],
            "shape_type": "rectangle"
        },
        {
            "flags": {},
            "group_id": null,
            "label": "sm",
            "points": [
                [
                    487,
                    2454
                ],
                [
                    2090,
                    3264
                ]
            ],
            "shape_type": "rectangle"
        },
        {
            "flags": {},
            "group_id": null,
            "label": "btl",
            "points": [
                [
                    2346,
                    3830
                ],
                [
                    4155,
                    4137
                ]
            ],
            "shape_type": "rectangle"
        },
        {
            "flags": {},
            "group_id": null,
            "label": "mask",
            "lineType": [
                "LLLLLLLLLLLLLLLLLLLLLLLLLLLLLLLLLLLLLLLLLLLLLLLL"
            ],
            "points": [
                [
                    2756,
                    2262
                ],
                [
                    2689,
                    2189
                ],
                [
                    2763,
                    2111
                ],
                [
                    2885,
                    1859
                ],
                [
                    3039,
                    1799
                ],
                [
                    3336,
                    1781
                ],
                [
                    3366,
                    1651
                ],
                [
                    3422,
                    1598
                ],
                [
                    3601,
                    1598
                ],
                [
                    3696,
                    1627
                ],
                [
                    3961,
                    1677
                ],
                [
                    3991,
                    1808
                ],
                [
                    3994,
                    1999
                ],
                [
                    3999,
                    2169
                ],
                [
                    3999,
                    2317
                ],
                [
                    3995,
                    2363
                ],
                [
                    3707,
                    2422
                ],
                [
                    3595,
                    2398
                ],
                [
                    3653,
                    2813
                ],
                [
                    3665,
                    3029
                ],
                [
                    3685,
                    3228
                ],
                [
                    3698,
                    3441
                ],
                [
                    3864,
                    3431
                ],
                [
                    3987,
                    3437
                ],
                [
                    3997,
                    3511
                ],
                [
                    3967,
                    3558
                ],
                [
                    3762,
                    3581
                ],
                [
                    3618,
                    3623
                ],
                [
                    3500,
                    3625
                ],
                [
                    3485,
                    3714
                ],
                [
                    3441,
                    3740
                ],
                [
                    3083,
                    3733
                ],
                [
                    3005,
                    3711
                ],
                [
                    2651,
                    3577
                ],
                [
                    2621,
                    3445
                ],
                [
                    2663,
                    3262
                ],
                [
                    2724,
                    3180
                ],
                [
                    3115,
                    3171
                ],
                [
                    3156,
                    2946
                ],
                [
                    2993,
                    2924
                ],
                [
                    2989,
                    2889
                ],
                [
                    3008,
                    2827
                ],
                [
                    3137,
                    2757
                ],
                [
                    3206,
                    2523
                ],
                [
                    3216,
                    2396
                ],
                [
                    3218,
                    2368
                ],
                [
                    2829,
                    2303
                ],
                [
                    2756,
                    2262
                ]
            ],
            "shape_type": "polygon"
        },
        {
            "flags": {},
            "group_id": null,
            "label": "mask",
            "lineType": [
                "LLLLLLLLLLLLLLLLLLLLLLL"
            ],
            "points": [
                [
                    2050,
                    2166
                ],
                [
                    2407,
                    2172
                ],
                [
                    2527,
                    2102
                ],
                [
                    2607,
                    1981
                ],
                [
                    2710,
                    1929
                ],
                [
                    2796,
                    1850
                ],
                [
                    2829,
                    1808
                ],
                [
                    2834,
                    1764
                ],
                [
                    2771,
                    1513
                ],
                [
                    2644,
                    1407
                ],
                [
                    2462,
                    1367
                ],
                [
                    2302,
                    1380
                ],
                [
                    2139,
                    1391
                ],
                [
                    2000,
                    1406
                ],
                [
                    1885,
                    1431
                ],
                [
                    1916,
                    1550
                ],
                [
                    1987,
                    1815
                ],
                [
                    1932,
                    1890
                ],
                [
                    1883,
                    1899
                ],
                [
                    1886,
                    1981
                ],
                [
                    1893,
                    2020
                ],
                [
                    1913,
                    2072
                ],
                [
                    2050,
                    2166
                ]
            ],
            "shape_type": "polygon"
        },
        {
            "flags": {},
            "group_id": null,
            "label": "mask",
            "lineType": [
                "LLLLLLLLLLLLLL"
            ],
            "points": [
                [
                    1429,
                    1506
                ],
                [
                    1871,
                    1506
                ],
                [
                    1871,
                    1970
                ],
                [
                    1429,
                    1970
                ]
            ],
            "shape_type": "polygon"
        },
        {
            "flags": {},
            "group_id": null,
            "label": "mask",
            "lineType": [
                "LLLLLLLLLLLLLLLLLLLLLLLLLLLLLLLLLLLLLLLLL"
            ],
            "points": [
                [
                    1986,
                    2475
                ],
                [
                    1883,
                    2383
                ],
                [
                    1925,
                    2327
                ],
                [
                    2095,
                    2324
                ],
                [
                    2238,
                    2324
                ],
                [
                    2299,
                    2292
                ],
                [
                    2425,
                    2289
                ],
                [
                    2525,
                    2291
                ],
                [
                    2605,
                    2320
                ],
                [
                    2684,
                    2403
                ],
                [
                    2809,
                    2442
                ],
                [
                    2863,
                    2507
                ],
                [
                    2858,
                    2551
                ],
                [
                    2768,
                    2561
                ],
                [
                    2693,
                    2597
                ],
                [
                    2697,
                    2665
                ],
                [
                    2705,
                    2741
                ],
                [
                    2721,
                    2782
                ],
                [
                    2854,
                    2795
                ],
                [
                    2982,
                    2813
                ],
                [
                    2979,
                    2855
                ],
                [
                    2966,
                    2882
                ],
                [
                    2929,
                    2911
                ],
                [
                    2881,
                    2935
                ],
                [
                    2773,
                    2927
                ],
                [
                    2659,
                    2939
                ],
                [
                    2577,
                    2945
                ],
                [
                    2505,
                    3032
                ],
                [
                    2512,
                    3068
                ],
                [
                    2348,
                    3086
                ],
                [
                    2247,
                    3083
                ],
                [
                    2205,
                    3052
                ],
                [
                    2152,
                    2964
                ],
                [
                    2080,
                    2957
                ],
                [
                    1989,
                    2930
                ],
                [
                    1923,
                    2885
                ],
                [
                    1918,
                    2837
                ],
                [
                    1930,
                    2794
                ],
                [
                    2035,
                    2766
                ],
                [
                    2127,
                    2607
                ],
                [
                    1986,
                    2475
                ]
            ],
            "shape_type": "polygon"
        },
        {
            "flags": {},
            "group_id": null,
            "label": "mask",
            "lineType": [
                "LLLLLLLLL"
            ],
            "points": [
                [
                    591,
                    3317
                ],
                [
                    2001,
                    3317
                ],
                [
                    2001,
                    4051
                ],
                [
                    591,
                    4051
                ]
            ],
            "shape_type": "polygon"
        },
        {
            "flags": {},
            "group_id": null,
            "label": "mask",
            "lineType": [
                "LLLLL"
            ],
            "points": [
                [
                    2336,
                    3820
                ],
                [
                    4165,
                    3820
                ],
                [
                    4165,
                    4147
                ],
                [
                    2336,
                    4147
                ]
            ],
            "shape_type": "polygon"
        },
        {
            "flags": {},
            "group_id": null,
            "label": "mask",
            "lineType": [
                "LLLLLLLLLLLLLLLLLLLLLLLLLLL"
            ],
            "points": [
                [
                    477,
                    2444
                ],
                [
                    2100,
                    2444
                ],
                [
                    2100,
                    3274
                ],
                [
                    477,
                    3274
                ]
            ],
            "shape_type": "polygon"
        },
        {
            "flags": {},
            "group_id": null,
            "label": "mask",
            "lineType": [
                "LLLLLLLLLLLLLLL"
            ],
            "points": [
                [
                    417,
                    2339
                ],
                [
                    729,
                    2331
                ],
                [
                    976,
                    2327
                ],
                [
                    1077,
                    2352
                ],
                [
                    1084,
                    2211
                ],
                [
                    1212,
                    2026
                ],
                [
                    1274,
                    1967
                ],
                [
                    1291,
                    1858
                ],
                [
                    1073,
                    1481
                ],
                [
                    1019,
                    1406
                ],
                [
                    783,
                    1371
                ],
                [
                    574,
                    1368
                ],
                [
                    432,
                    1391
                ],
                [
                    422,
                    1428
                ],
                [
                    417,
                    2339
                ]
            ],
            "shape_type": "polygon"
        },
        {
            "flags": {},
            "group_id": null,
            "label": "Ns",
            "points": [
                [
                    1646,
                    1804
                ]
            ],
            "shape_type": "point"
        },
        {
            "flags": {},
            "group_id": null,
            "label": "Ne",
            "points": [
                [
                    1647,
                    1624
                ]
            ],
            "shape_type": "point"
        },
        {
            "flags": {},
            "group_id": null,
            "label": "wlb",
            "points": [
                [
                    601,
                    3327
                ],
                [
                    1991,
                    4041
                ]
            ],
            "shape_type": "rectangle"
        },
        {
            "flags": {},
            "group_id": null,
            "label": "wz1",
            "points": [
                [
                    675,
                    1410
                ],
                [
                    869,
                    1456
                ]
            ],
            "shape_type": "rectangle"
        },
        {
            "flags": {},
            "group_id": null,
            "label": "wz3",
            "points": [
                [
                    1541,
                    1973
                ],
                [
                    1754,
                    2016
                ]
            ],
            "shape_type": "rectangle"
        },
        {
            "flags": {},
            "group_id": null,
            "label": "wz3",
            "points": [
                [
                    1945,
                    2352
                ],
                [
                    2247,
                    2440
                ]
            ],
            "shape_type": "rectangle"
        },
        {
            "flags": {},
            "group_id": null,
            "label": "wz3",
            "points": [
                [
                    2427,
                    2316
                ],
                [
                    2558,
                    2362
                ]
            ],
            "shape_type": "rectangle"
        },
        {
            "flags": {},
            "group_id": null,
            "label": "wz3",
            "points": [
                [
                    2698,
                    2485
                ],
                [
                    2828,
                    2527
                ]
            ],
            "shape_type": "rectangle"
        },
        {
            "flags": {},
            "group_id": null,
            "label": "wz3",
            "points": [
                [
                    2663,
                    2830
                ],
                [
                    2967,
                    2916
                ]
            ],
            "shape_type": "rectangle"
        },
        {
            "flags": {},
            "group_id": null,
            "label": "wz3",
            "points": [
                [
                    2236,
                    2884
                ],
                [
                    2366,
                    2927
                ]
            ],
            "shape_type": "rectangle"
        },
        {
            "flags": {},
            "group_id": null,
            "label": "wz3",
            "points": [
                [
                    1928,
                    2827
                ],
                [
                    2232,
                    2915
                ]
            ],
            "shape_type": "rectangle"
        },
        {
            "flags": {},
            "group_id": null,
            "label": "wz3",
            "points": [
                [
                    2163,
                    1980
                ],
                [
                    2293,
                    2023
                ]
            ],
            "shape_type": "rectangle"
        },
        {
            "flags": {},
            "group_id": null,
            "label": "wz3",
            "points": [
                [
                    1909,
                    1901
                ],
                [
                    2086,
                    1990
                ]
            ],
            "shape_type": "rectangle"
        },
        {
            "flags": {},
            "group_id": null,
            "label": "wz3",
            "points": [
                [
                    2501,
                    1919
                ],
                [
                    2632,
                    1963
                ]
            ],
            "shape_type": "rectangle"
        },
        {
            "flags": {},
            "group_id": null,
            "label": "wz3",
            "points": [
                [
                    2647,
                    1733
                ],
                [
                    2816,
                    1820
                ]
            ],
            "shape_type": "rectangle"
        },
        {
            "flags": {},
            "group_id": null,
            "label": "wz3",
            "points": [
                [
                    2624,
                    1576
                ],
                [
                    2754,
                    1620
                ]
            ],
            "shape_type": "rectangle"
        },
        {
            "flags": {},
            "group_id": null,
            "label": "wz3",
            "points": [
                [
                    2371,
                    1410
                ],
                [
                    2502,
                    1454
                ]
            ],
            "shape_type": "rectangle"
        },
        {
            "flags": {},
            "group_id": null,
            "label": "wz3",
            "points": [
                [
                    1929,
                    1445
                ],
                [
                    2102,
                    1533
                ]
            ],
            "shape_type": "rectangle"
        },
        {
            "flags": {},
            "group_id": null,
            "label": "wz1",
            "points": [
                [
                    2777,
                    3240
                ],
                [
                    3003,
                    3284
                ]
            ],
            "shape_type": "rectangle"
        },
        {
            "flags": {},
            "group_id": null,
            "label": "wz1",
            "points": [
                [
                    3003,
                    2846
                ],
                [
                    3188,
                    2891
                ]
            ],
            "shape_type": "rectangle"
        },
        {
            "flags": {},
            "group_id": null,
            "label": "wz3",
            "points": [
                [
                    2733,
                    2167
                ],
                [
                    3038,
                    2282
                ]
            ],
            "shape_type": "rectangle"
        },
        {
            "flags": {},
            "group_id": null,
            "label": "wz3",
            "points": [
                [
                    2898,
                    1874
                ],
                [
                    3028,
                    1994
                ]
            ],
            "shape_type": "rectangle"
        },
        {
            "flags": {},
            "group_id": null,
            "label": "wz1",
            "points": [
                [
                    3482,
                    1612
                ],
                [
                    3575,
                    1656
                ]
            ],
            "shape_type": "rectangle"
        },
        {
            "flags": {},
            "group_id": null,
            "label": "wz3",
            "points": [
                [
                    3263,
                    1836
                ],
                [
                    3315,
                    1867
                ]
            ],
            "shape_type": "rectangle"
        },
        {
            "flags": {},
            "group_id": null,
            "label": "wz3",
            "points": [
                [
                    3401,
                    1836
                ],
                [
                    3443,
                    1870
                ]
            ],
            "shape_type": "rectangle"
        },
        {
            "flags": {},
            "group_id": null,
            "label": "wz3",
            "points": [
                [
                    3523,
                    1836
                ],
                [
                    3573,
                    1869
                ]
            ],
            "shape_type": "rectangle"
        }
    ],
    "version": "4.5.7"
}