{
    "flags": {},
    "imageData": null,
    "imageHeight": 4210,
    "imagePath": "新郑黄帝故里游乐场R-2.png",
    "imageWidth": 4210,
    "shapes": [
        {
            "flags": {},
            "group_id": null,
            "label": "wz3",
            "points": [
                [
                    942,
                    1566
                ],
                [
                    1084,
                    1594
                ]
            ],
            "shape_type": "rectangle"
        },
        {
            "flags": {},
            "group_id": null,
            "label": "vb1",
            "points": [
                [
                    944,
                    1481
                ],
                [
                    1210,
                    1683
                ]
            ],
            "shape_type": "rectangle"
        },
        {
            "flags": {},
            "group_id": null,
            "label": "x2",
            "points": [
                [
                    933,
                    1683
                ],
                [
                    1089,
                    1744
                ]
            ],
            "shape_type": "rectangle"
        },
        {
            "flags": {},
            "group_id": null,
            "label": "x2",
            "points": [
                [
                    1065,
                    1683
                ],
                [
                    1221,
                    1741
                ]
            ],
            "shape_type": "rectangle"
        },
        {
            "flags": {},
            "group_id": null,
            "label": "x2",
            "points": [
                [
                    737,
                    1683
                ],
                [
                    957,
                    1744
                ]
            ],
            "shape_type": "rectangle"
        },
        {
            "flags": {},
            "group_id": null,
            "label": "va1",
            "points": [
                [
                    820,
                    1571
                ],
                [
                    870,
                    1624
                ]
            ],
            "shape_type": "rectangle"
        },
        {
            "flags": {},
            "group_id": null,
            "label": "va1",
            "points": [
                [
                    442,
                    1365
                ],
                [
                    493,
                    1415
                ]
            ],
            "shape_type": "rectangle"
        },
        {
            "flags": {},
            "group_id": null,
            "label": "va1",
            "points": [
                [
                    463,
                    1791
                ],
                [
                    518,
                    1838
                ]
            ],
            "shape_type": "rectangle"
        },
        {
            "flags": {},
            "group_id": null,
            "label": "vt1",
            "points": [
                [
                    456,
                    1455
                ],
                [
                    742,
                    1745
                ]
            ],
            "shape_type": "rectangle"
        },
        {
            "flags": {},
            "group_id": null,
            "label": "d1",
            "points": [
                [
                    377,
                    1867
                ],
                [
                    453,
                    1952
                ]
            ],
            "shape_type": "rectangle"
        },
        {
            "flags": {},
            "group_id": null,
            "label": "v1",
            "points": [
                [
                    589,
                    1969
                ],
                [
                    929,
                    2069
                ]
            ],
            "shape_type": "rectangle"
        },
        {
            "flags": {},
            "group_id": null,
            "label": "d1",
            "points": [
                [
                    1178,
                    1874
                ],
                [
                    1256,
                    1959
                ]
            ],
            "shape_type": "rectangle"
        },
        {
            "flags": {},
            "group_id": null,
            "label": "wz3",
            "points": [
                [
                    465,
                    2152
                ],
                [
                    656,
                    2247
                ]
            ],
            "shape_type": "rectangle"
        },
        {
            "flags": {},
            "group_id": null,
            "label": "vp1-1",
            "points": [
                [
                    684,
                    2254
                ],
                [
                    969,
                    2540
                ]
            ],
            "shape_type": "rectangle"
        },
        {
            "flags": {},
            "group_id": null,
            "label": "vp1-1",
            "points": [
                [
                    1499,
                    2260
                ],
                [
                    1784,
                    2546
                ]
            ],
            "shape_type": "rectangle"
        },
        {
            "flags": {},
            "group_id": null,
            "label": "vp1-1",
            "points": [
                [
                    2191,
                    2265
                ],
                [
                    2478,
                    2553
                ]
            ],
            "shape_type": "rectangle"
        },
        {
            "flags": {},
            "group_id": null,
            "label": "va1",
            "points": [
                [
                    669,
                    2160
                ],
                [
                    719,
                    2212
                ]
            ],
            "shape_type": "rectangle"
        },
        {
            "flags": {},
            "group_id": null,
            "label": "wz3",
            "points": [
                [
                    1030,
                    2259
                ],
                [
                    1225,
                    2355
                ]
            ],
            "shape_type": "rectangle"
        },
        {
            "flags": {},
            "group_id": null,
            "label": "va1",
            "points": [
                [
                    1045,
                    2370
                ],
                [
                    1096,
                    2422
                ]
            ],
            "shape_type": "rectangle"
        },
        {
            "flags": {},
            "group_id": null,
            "label": "v1",
            "points": [
                [
                    751,
                    2663
                ],
                [
                    890,
                    2714
                ]
            ],
            "shape_type": "rectangle"
        },
        {
            "flags": {},
            "group_id": null,
            "label": "va1",
            "points": [
                [
                    701,
                    2590
                ],
                [
                    756,
                    2636
                ]
            ],
            "shape_type": "rectangle"
        },
        {
            "flags": {},
            "group_id": null,
            "label": "wz3",
            "points": [
                [
                    428,
                    2544
                ],
                [
                    621,
                    2637
                ]
            ],
            "shape_type": "rectangle"
        },
        {
            "flags": {},
            "group_id": null,
            "label": "wz3",
            "points": [
                [
                    1506,
                    2094
                ],
                [
                    1600,
                    2127
                ]
            ],
            "shape_type": "rectangle"
        },
        {
            "flags": {},
            "group_id": null,
            "label": "va1",
            "points": [
                [
                    1484,
                    2169
                ],
                [
                    1535,
                    2219
                ]
            ],
            "shape_type": "rectangle"
        },
        {
            "flags": {},
            "group_id": null,
            "label": "wz3",
            "points": [
                [
                    1870,
                    2305
                ],
                [
                    1964,
                    2338
                ]
            ],
            "shape_type": "rectangle"
        },
        {
            "flags": {},
            "group_id": null,
            "label": "va1",
            "points": [
                [
                    1861,
                    2375
                ],
                [
                    1912,
                    2427
                ]
            ],
            "shape_type": "rectangle"
        },
        {
            "flags": {},
            "group_id": null,
            "label": "va1",
            "points": [
                [
                    1506,
                    2594
                ],
                [
                    1560,
                    2641
                ]
            ],
            "shape_type": "rectangle"
        },
        {
            "flags": {},
            "group_id": null,
            "label": "wz3",
            "points": [
                [
                    1380,
                    2616
                ],
                [
                    1474,
                    2649
                ]
            ],
            "shape_type": "rectangle"
        },
        {
            "flags": {},
            "group_id": null,
            "label": "v1",
            "points": [
                [
                    1602,
                    2668
                ],
                [
                    1741,
                    2719
                ]
            ],
            "shape_type": "rectangle"
        },
        {
            "flags": {},
            "group_id": null,
            "label": "v1",
            "points": [
                [
                    2277,
                    2671
                ],
                [
                    2416,
                    2723
                ]
            ],
            "shape_type": "rectangle"
        },
        {
            "flags": {},
            "group_id": null,
            "label": "j1",
            "points": [
                [
                    2213,
                    1549
                ],
                [
                    2228,
                    1570
                ]
            ],
            "shape_type": "rectangle"
        },
        {
            "flags": {},
            "group_id": null,
            "label": "j1",
            "points": [
                [
                    2333,
                    1656
                ],
                [
                    2510,
                    1684
                ]
            ],
            "shape_type": "rectangle"
        },
        {
            "flags": {},
            "group_id": null,
            "label": "j1",
            "points": [
                [
                    1867,
                    1594
                ],
                [
                    2058,
                    1622
                ]
            ],
            "shape_type": "rectangle"
        },
        {
            "flags": {},
            "group_id": null,
            "label": "j1",
            "points": [
                [
                    1977,
                    1860
                ],
                [
                    2168,
                    1888
                ]
            ],
            "shape_type": "rectangle"
        },
        {
            "flags": {},
            "group_id": null,
            "label": "wz3",
            "points": [
                [
                    2111,
                    1904
                ],
                [
                    2421,
                    1937
                ]
            ],
            "shape_type": "rectangle"
        },
        {
            "flags": {},
            "group_id": null,
            "label": "n1",
            "points": [
                [
                    1866,
                    1529
                ],
                [
                    2511,
                    1888
                ]
            ],
            "shape_type": "rectangle"
        },
        {
            "flags": {},
            "group_id": null,
            "label": "wz3",
            "points": [
                [
                    2981,
                    1694
                ],
                [
                    3068,
                    1727
                ]
            ],
            "shape_type": "rectangle"
        },
        {
            "flags": {},
            "group_id": null,
            "label": "wz3",
            "points": [
                [
                    2979,
                    1772
                ],
                [
                    3110,
                    1796
                ]
            ],
            "shape_type": "rectangle"
        },
        {
            "flags": {},
            "group_id": null,
            "label": "wz3",
            "points": [
                [
                    2977,
                    1879
                ],
                [
                    3070,
                    1911
                ]
            ],
            "shape_type": "rectangle"
        },
        {
            "flags": {},
            "group_id": null,
            "label": "wz1",
            "points": [
                [
                    3529,
                    1401
                ],
                [
                    3625,
                    1447
                ]
            ],
            "shape_type": "rectangle"
        },
        {
            "flags": {},
            "group_id": null,
            "label": "h1",
            "points": [
                [
                    3676,
                    1355
                ],
                [
                    3751,
                    1405
                ]
            ],
            "shape_type": "rectangle"
        },
        {
            "flags": {},
            "group_id": null,
            "label": "wz1",
            "points": [
                [
                    3517,
                    1646
                ],
                [
                    3536,
                    1672
                ]
            ],
            "shape_type": "rectangle"
        },
        {
            "flags": {},
            "group_id": null,
            "label": "d1",
            "points": [
                [
                    3590,
                    1647
                ],
                [
                    3653,
                    1749
                ]
            ],
            "shape_type": "rectangle"
        },
        {
            "flags": {},
            "group_id": null,
            "label": "d1",
            "points": [
                [
                    3192,
                    1646
                ],
                [
                    3255,
                    1749
                ]
            ],
            "shape_type": "rectangle"
        },
        {
            "flags": {},
            "group_id": null,
            "label": "d1",
            "points": [
                [
                    3195,
                    1808
                ],
                [
                    3257,
                    1910
                ]
            ],
            "shape_type": "rectangle"
        },
        {
            "flags": {},
            "group_id": null,
            "label": "d1",
            "points": [
                [
                    3194,
                    1958
                ],
                [
                    3257,
                    2060
                ]
            ],
            "shape_type": "rectangle"
        },
        {
            "flags": {},
            "group_id": null,
            "label": "d1",
            "points": [
                [
                    3593,
                    1959
                ],
                [
                    3656,
                    2060
                ]
            ],
            "shape_type": "rectangle"
        },
        {
            "flags": {},
            "group_id": null,
            "label": "d1",
            "points": [
                [
                    3594,
                    1809
                ],
                [
                    3656,
                    1911
                ]
            ],
            "shape_type": "rectangle"
        },
        {
            "flags": {},
            "group_id": null,
            "label": "wz3",
            "points": [
                [
                    3478,
                    2069
                ],
                [
                    3497,
                    2095
                ]
            ],
            "shape_type": "rectangle"
        },
        {
            "flags": {},
            "group_id": null,
            "label": "wz1",
            "points": [
                [
                    3502,
                    2483
                ],
                [
                    3521,
                    2510
                ]
            ],
            "shape_type": "rectangle"
        },
        {
            "flags": {},
            "group_id": null,
            "label": "wz1",
            "points": [
                [
                    3502,
                    2518
                ],
                [
                    3523,
                    2545
                ]
            ],
            "shape_type": "rectangle"
        },
        {
            "flags": {},
            "group_id": null,
            "label": "wz1",
            "points": [
                [
                    3506,
                    2705
                ],
                [
                    3604,
                    2750
                ]
            ],
            "shape_type": "rectangle"
        },
        {
            "flags": {},
            "group_id": null,
            "label": "wz1",
            "points": [
                [
                    3785,
                    3061
                ],
                [
                    3963,
                    3094
                ]
            ],
            "shape_type": "rectangle"
        },
        {
            "flags": {},
            "group_id": null,
            "label": "wz3",
            "points": [
                [
                    3608,
                    3226
                ],
                [
                    3628,
                    3252
                ]
            ],
            "shape_type": "rectangle"
        },
        {
            "flags": {},
            "group_id": null,
            "label": "wz3",
            "points": [
                [
                    3608,
                    3261
                ],
                [
                    3628,
                    3288
                ]
            ],
            "shape_type": "rectangle"
        },
        {
            "flags": {},
            "group_id": null,
            "label": "h1",
            "points": [
                [
                    3834,
                    3324
                ],
                [
                    3882,
                    3374
                ]
            ],
            "shape_type": "rectangle"
        },
        {
            "flags": {},
            "group_id": null,
            "label": "c1",
            "points": [
                [
                    3430,
                    1568
                ],
                [
                    3436,
                    1625
                ]
            ],
            "shape_type": "rectangle"
        },
        {
            "flags": {},
            "group_id": null,
            "label": "a1-1",
            "points": [
                [
                    3380,
                    1678
                ],
                [
                    3400,
                    1734
                ]
            ],
            "shape_type": "rectangle"
        },
        {
            "flags": {},
            "group_id": null,
            "label": "a1-4",
            "points": [
                [
                    3425,
                    1674
                ],
                [
                    3443,
                    1730
                ]
            ],
            "shape_type": "rectangle"
        },
        {
            "flags": {},
            "group_id": null,
            "label": "a1-2",
            "points": [
                [
                    3470,
                    1677
                ],
                [
                    3488,
                    1730
                ]
            ],
            "shape_type": "rectangle"
        },
        {
            "flags": {},
            "group_id": null,
            "label": "a1-2",
            "points": [
                [
                    3469,
                    1737
                ],
                [
                    3488,
                    1796
                ]
            ],
            "shape_type": "rectangle"
        },
        {
            "flags": {},
            "group_id": null,
            "label": "a1-4",
            "points": [
                [
                    3428,
                    1738
                ],
                [
                    3442,
                    1794
                ]
            ],
            "shape_type": "rectangle"
        },
        {
            "flags": {},
            "group_id": null,
            "label": "a1-1",
            "points": [
                [
                    3380,
                    1736
                ],
                [
                    3401,
                    1796
                ]
            ],
            "shape_type": "rectangle"
        },
        {
            "flags": {},
            "group_id": null,
            "label": "a1-1",
            "points": [
                [
                    3366,
                    1840
                ],
                [
                    3396,
                    1934
                ]
            ],
            "shape_type": "rectangle"
        },
        {
            "flags": {},
            "group_id": null,
            "label": "a1-2",
            "points": [
                [
                    3471,
                    1839
                ],
                [
                    3500,
                    1932
                ]
            ],
            "shape_type": "rectangle"
        },
        {
            "flags": {},
            "group_id": null,
            "label": "g1",
            "points": [
                [
                    3395,
                    1821
                ],
                [
                    3398,
                    1944
                ]
            ],
            "shape_type": "rectangle"
        },
        {
            "flags": {},
            "group_id": null,
            "label": "g1",
            "points": [
                [
                    3468,
                    1821
                ],
                [
                    3472,
                    1943
                ]
            ],
            "shape_type": "rectangle"
        },
        {
            "flags": {},
            "group_id": null,
            "label": "g1",
            "points": [
                [
                    3467,
                    1672
                ],
                [
                    3471,
                    1794
                ]
            ],
            "shape_type": "rectangle"
        },
        {
            "flags": {},
            "group_id": null,
            "label": "g1",
            "points": [
                [
                    3418,
                    1673
                ],
                [
                    3421,
                    1795
                ]
            ],
            "shape_type": "rectangle"
        },
        {
            "flags": {},
            "group_id": null,
            "label": "g1",
            "points": [
                [
                    3395,
                    1977
                ],
                [
                    3399,
                    2099
                ]
            ],
            "shape_type": "rectangle"
        },
        {
            "flags": {},
            "group_id": null,
            "label": "g1",
            "points": [
                [
                    3468,
                    1977
                ],
                [
                    3472,
                    2099
                ]
            ],
            "shape_type": "rectangle"
        },
        {
            "flags": {},
            "group_id": null,
            "label": "p1-1",
            "points": [
                [
                    3394,
                    1976
                ],
                [
                    3472,
                    2099
                ]
            ],
            "shape_type": "rectangle"
        },
        {
            "flags": {},
            "group_id": null,
            "label": "p1-1",
            "points": [
                [
                    3395,
                    1821
                ],
                [
                    3472,
                    1944
                ]
            ],
            "shape_type": "rectangle"
        },
        {
            "flags": {},
            "group_id": null,
            "label": "p1-1",
            "points": [
                [
                    3417,
                    1671
                ],
                [
                    3471,
                    1795
                ]
            ],
            "shape_type": "rectangle"
        },
        {
            "flags": {},
            "group_id": null,
            "label": "s1",
            "points": [
                [
                    3235,
                    1566
                ],
                [
                    3619,
                    3375
                ]
            ],
            "shape_type": "rectangle"
        },
        {
            "flags": {},
            "group_id": null,
            "label": "sm",
            "points": [
                [
                    1883,
                    2970
                ],
                [
                    3163,
                    3621
                ]
            ],
            "shape_type": "rectangle"
        },
        {
            "flags": {},
            "group_id": null,
            "label": "btl",
            "points": [
                [
                    2253,
                    3852
                ],
                [
                    4094,
                    4165
                ]
            ],
            "shape_type": "rectangle"
        },
        {
            "flags": {},
            "group_id": null,
            "label": "tl",
            "points": [
                [
                    543,
                    3940
                ],
                [
                    1434,
                    3997
                ]
            ],
            "shape_type": "rectangle"
        },
        {
            "flags": {},
            "group_id": null,
            "label": "b1",
            "points": [
                [
                    3559,
                    3139
                ],
                [
                    3826,
                    3375
                ]
            ],
            "shape_type": "rectangle"
        },
        {
            "flags": {},
            "group_id": null,
            "label": "mask",
            "lineType": [
                "LLLLLLLLLLLLLLLL"
            ],
            "points": [
                [
                    699,
                    2097
                ],
                [
                    902,
                    2082
                ],
                [
                    1067,
                    2090
                ],
                [
                    1227,
                    2037
                ],
                [
                    1305,
                    1987
                ],
                [
                    1302,
                    1530
                ],
                [
                    1257,
                    1420
                ],
                [
                    1132,
                    1370
                ],
                [
                    882,
                    1345
                ],
                [
                    412,
                    1325
                ],
                [
                    322,
                    1387
                ],
                [
                    255,
                    1480
                ],
                [
                    202,
                    1722
                ],
                [
                    312,
                    1997
                ],
                [
                    337,
                    2065
                ],
                [
                    699,
                    2097
                ]
            ],
            "shape_type": "polygon"
        },
        {
            "flags": {},
            "group_id": null,
            "label": "mask",
            "lineType": [
                "LLLLLLLLLL"
            ],
            "points": [
                [
                    1856,
                    1519
                ],
                [
                    2521,
                    1519
                ],
                [
                    2521,
                    1898
                ],
                [
                    1856,
                    1898
                ]
            ],
            "shape_type": "polygon"
        },
        {
            "flags": {},
            "group_id": null,
            "label": "mask",
            "lineType": [
                "LLLLLLLLLLLL"
            ],
            "points": [
                [
                    2209,
                    2167
                ],
                [
                    2347,
                    2180
                ],
                [
                    2659,
                    2435
                ],
                [
                    2657,
                    2547
                ],
                [
                    2577,
                    2717
                ],
                [
                    2454,
                    2770
                ],
                [
                    2232,
                    2777
                ],
                [
                    2162,
                    2747
                ],
                [
                    2122,
                    2690
                ],
                [
                    2087,
                    2545
                ],
                [
                    2067,
                    2382
                ],
                [
                    2209,
                    2167
                ]
            ],
            "shape_type": "polygon"
        },
        {
            "flags": {},
            "group_id": null,
            "label": "mask",
            "lineType": [
                "LLLLLLLLLLLLLL"
            ],
            "points": [
                [
                    1614,
                    2050
                ],
                [
                    1797,
                    2125
                ],
                [
                    2004,
                    2245
                ],
                [
                    2004,
                    2372
                ],
                [
                    1987,
                    2487
                ],
                [
                    1862,
                    2725
                ],
                [
                    1784,
                    2755
                ],
                [
                    1682,
                    2767
                ],
                [
                    1509,
                    2750
                ],
                [
                    1409,
                    2722
                ],
                [
                    1339,
                    2670
                ],
                [
                    1337,
                    2297
                ],
                [
                    1394,
                    2072
                ],
                [
                    1614,
                    2050
                ]
            ],
            "shape_type": "polygon"
        },
        {
            "flags": {},
            "group_id": null,
            "label": "mask",
            "lineType": [
                "LLLLLLLLLLLLLL"
            ],
            "points": [
                [
                    922,
                    2170
                ],
                [
                    1067,
                    2170
                ],
                [
                    1254,
                    2242
                ],
                [
                    1274,
                    2300
                ],
                [
                    1257,
                    2457
                ],
                [
                    1084,
                    2695
                ],
                [
                    904,
                    2732
                ],
                [
                    644,
                    2737
                ],
                [
                    439,
                    2712
                ],
                [
                    379,
                    2647
                ],
                [
                    424,
                    2165
                ],
                [
                    482,
                    2127
                ],
                [
                    582,
                    2125
                ],
                [
                    922,
                    2170
                ]
            ],
            "shape_type": "polygon"
        },
        {
            "flags": {},
            "group_id": null,
            "label": "mask",
            "lineType": [
                "LLLLLLLLLLLLLLLLL"
            ],
            "points": [
                [
                    2894,
                    1965
                ],
                [
                    2929,
                    1675
                ],
                [
                    3259,
                    1370
                ],
                [
                    3509,
                    1335
                ],
                [
                    3709,
                    1297
                ],
                [
                    3799,
                    1325
                ],
                [
                    3824,
                    2187
                ],
                [
                    3879,
                    2842
                ],
                [
                    4002,
                    2990
                ],
                [
                    4024,
                    3360
                ],
                [
                    4024,
                    3447
                ],
                [
                    3004,
                    3430
                ],
                [
                    2977,
                    3400
                ],
                [
                    2999,
                    3352
                ],
                [
                    3195,
                    3300
                ],
                [
                    3092,
                    2412
                ],
                [
                    2894,
                    1965
                ]
            ],
            "shape_type": "polygon"
        },
        {
            "flags": {},
            "group_id": null,
            "label": "mask",
            "lineType": [
                "LLLLLLLLLLLLLLLLLL"
            ],
            "points": [
                [
                    1873,
                    2960
                ],
                [
                    3173,
                    2960
                ],
                [
                    3173,
                    3631
                ],
                [
                    1873,
                    3631
                ]
            ],
            "shape_type": "polygon"
        },
        {
            "flags": {},
            "group_id": null,
            "label": "mask",
            "lineType": [
                "LLLLL"
            ],
            "points": [
                [
                    2243,
                    3842
                ],
                [
                    4104,
                    3842
                ],
                [
                    4104,
                    4175
                ],
                [
                    2243,
                    4175
                ]
            ],
            "shape_type": "polygon"
        },
        {
            "flags": {},
            "group_id": null,
            "label": "mask",
            "lineType": [
                "LLLLLLLLLLLLL"
            ],
            "points": [
                [
                    193,
                    2765
                ],
                [
                    1802,
                    2765
                ],
                [
                    1802,
                    3842
                ],
                [
                    193,
                    3842
                ]
            ],
            "shape_type": "polygon"
        },
        {
            "flags": {},
            "group_id": null,
            "label": "mask",
            "lineType": [
                "LLLLLLLL"
            ],
            "points": [
                [
                    533,
                    3930
                ],
                [
                    1444,
                    3930
                ],
                [
                    1444,
                    4007
                ],
                [
                    533,
                    4007
                ]
            ],
            "shape_type": "polygon"
        },
        {
            "flags": {},
            "group_id": null,
            "label": "wlb",
            "points": [
                [
                    203,
                    2775
                ],
                [
                    1792,
                    3832
                ]
            ],
            "shape_type": "rectangle"
        },
        {
            "flags": {},
            "group_id": null,
            "label": "wztl",
            "points": [
                [
                    718,
                    3941
                ],
                [
                    838,
                    3983
                ]
            ],
            "shape_type": "rectangle"
        },
        {
            "flags": {},
            "group_id": null,
            "label": "wztl",
            "points": [
                [
                    956,
                    3947
                ],
                [
                    1077,
                    3989
                ]
            ],
            "shape_type": "rectangle"
        },
        {
            "flags": {},
            "group_id": null,
            "label": "wztl",
            "points": [
                [
                    1209,
                    3952
                ],
                [
                    1330,
                    3994
                ]
            ],
            "shape_type": "rectangle"
        },
        {
            "flags": {},
            "group_id": null,
            "label": "xtl",
            "points": [
                [
                    884,
                    3952
                ],
                [
                    936,
                    3994
                ]
            ],
            "shape_type": "rectangle"
        },
        {
            "flags": {},
            "group_id": null,
            "label": "xtl",
            "points": [
                [
                    1113,
                    3950
                ],
                [
                    1167,
                    3994
                ]
            ],
            "shape_type": "rectangle"
        },
        {
            "flags": {},
            "group_id": null,
            "label": "xtl",
            "points": [
                [
                    1379,
                    3952
                ],
                [
                    1434,
                    3996
                ]
            ],
            "shape_type": "rectangle"
        },
        {
            "flags": {},
            "group_id": null,
            "label": "Ns",
            "points": [
                [
                    2195,
                    1716
                ]
            ],
            "shape_type": "point"
        },
        {
            "flags": {},
            "group_id": null,
            "label": "Ne",
            "points": [
                [
                    2194,
                    1589
                ]
            ],
            "shape_type": "point"
        }
    ],
    "version": "4.5.7"
}