{
    "flags": {},
    "imageData": null,
    "imageHeight": 4205,
    "imagePath": "样本4_96_41.png",
    "imageWidth": 4205,
    "shapes": [
        {
            "flags": {},
            "group_id": null,
            "label": "c1",
            "points": [
                [
                    3501,
                    1191
                ],
                [
                    3530,
                    1267
                ]
            ],
            "shape_type": "rectangle"
        },
        {
            "flags": {},
            "group_id": null,
            "label": "d1",
            "points": [
                [
                    3291,
                    1289
                ],
                [
                    3378,
                    1433
                ]
            ],
            "shape_type": "rectangle"
        },
        {
            "flags": {},
            "group_id": null,
            "label": "d1",
            "points": [
                [
                    3655,
                    1284
                ],
                [
                    3743,
                    1429
                ]
            ],
            "shape_type": "rectangle"
        },
        {
            "flags": {},
            "group_id": null,
            "label": "h1",
            "points": [
                [
                    3791,
                    1193
                ],
                [
                    3943,
                    1268
                ]
            ],
            "shape_type": "rectangle"
        },
        {
            "flags": {},
            "group_id": null,
            "label": "h1",
            "points": [
                [
                    3791,
                    1361
                ],
                [
                    3943,
                    1437
                ]
            ],
            "shape_type": "rectangle"
        },
        {
            "flags": {},
            "group_id": null,
            "label": "g1",
            "points": [
                [
                    3562,
                    1311
                ],
                [
                    3566,
                    1468
                ]
            ],
            "shape_type": "rectangle"
        },
        {
            "flags": {},
            "group_id": null,
            "label": "a1-2",
            "points": [
                [
                    3569,
                    1341
                ],
                [
                    3597,
                    1458
                ]
            ],
            "shape_type": "rectangle"
        },
        {
            "flags": {},
            "group_id": null,
            "label": "a1-1",
            "points": [
                [
                    3430,
                    1342
                ],
                [
                    3459,
                    1457
                ]
            ],
            "shape_type": "rectangle"
        },
        {
            "flags": {},
            "group_id": null,
            "label": "g1",
            "points": [
                [
                    3465,
                    1312
                ],
                [
                    3469,
                    1468
                ]
            ],
            "shape_type": "rectangle"
        },
        {
            "flags": {},
            "group_id": null,
            "label": "d1",
            "points": [
                [
                    3284,
                    1485
                ],
                [
                    3364,
                    1630
                ]
            ],
            "shape_type": "rectangle"
        },
        {
            "flags": {},
            "group_id": null,
            "label": "a1-1",
            "points": [
                [
                    3430,
                    1544
                ],
                [
                    3458,
                    1660
                ]
            ],
            "shape_type": "rectangle"
        },
        {
            "flags": {},
            "group_id": null,
            "label": "g1",
            "points": [
                [
                    3461,
                    1515
                ],
                [
                    3465,
                    1670
                ]
            ],
            "shape_type": "rectangle"
        },
        {
            "flags": {},
            "group_id": null,
            "label": "g1",
            "points": [
                [
                    3562,
                    1514
                ],
                [
                    3566,
                    1671
                ]
            ],
            "shape_type": "rectangle"
        },
        {
            "flags": {},
            "group_id": null,
            "label": "a1-2",
            "points": [
                [
                    3569,
                    1544
                ],
                [
                    3596,
                    1659
                ]
            ],
            "shape_type": "rectangle"
        },
        {
            "flags": {},
            "group_id": null,
            "label": "a1-1",
            "points": [
                [
                    3432,
                    1739
                ],
                [
                    3460,
                    1856
                ]
            ],
            "shape_type": "rectangle"
        },
        {
            "flags": {},
            "group_id": null,
            "label": "g1",
            "points": [
                [
                    3462,
                    1711
                ],
                [
                    3466,
                    1867
                ]
            ],
            "shape_type": "rectangle"
        },
        {
            "flags": {},
            "group_id": null,
            "label": "g1",
            "points": [
                [
                    3564,
                    1711
                ],
                [
                    3568,
                    1867
                ]
            ],
            "shape_type": "rectangle"
        },
        {
            "flags": {},
            "group_id": null,
            "label": "a1-2",
            "points": [
                [
                    3570,
                    1740
                ],
                [
                    3598,
                    1855
                ]
            ],
            "shape_type": "rectangle"
        },
        {
            "flags": {},
            "group_id": null,
            "label": "d1",
            "points": [
                [
                    3660,
                    1722
                ],
                [
                    3746,
                    1867
                ]
            ],
            "shape_type": "rectangle"
        },
        {
            "flags": {},
            "group_id": null,
            "label": "h1",
            "points": [
                [
                    3791,
                    1759
                ],
                [
                    3943,
                    1830
                ]
            ],
            "shape_type": "rectangle"
        },
        {
            "flags": {},
            "group_id": null,
            "label": "d1",
            "points": [
                [
                    3287,
                    1722
                ],
                [
                    3367,
                    1867
                ]
            ],
            "shape_type": "rectangle"
        },
        {
            "flags": {},
            "group_id": null,
            "label": "d1",
            "points": [
                [
                    3286,
                    1912
                ],
                [
                    3366,
                    2057
                ]
            ],
            "shape_type": "rectangle"
        },
        {
            "flags": {},
            "group_id": null,
            "label": "a1-1",
            "points": [
                [
                    3430,
                    1942
                ],
                [
                    3459,
                    2058
                ]
            ],
            "shape_type": "rectangle"
        },
        {
            "flags": {},
            "group_id": null,
            "label": "g1",
            "points": [
                [
                    3461,
                    1912
                ],
                [
                    3465,
                    2068
                ]
            ],
            "shape_type": "rectangle"
        },
        {
            "flags": {},
            "group_id": null,
            "label": "g1",
            "points": [
                [
                    3562,
                    1912
                ],
                [
                    3566,
                    2068
                ]
            ],
            "shape_type": "rectangle"
        },
        {
            "flags": {},
            "group_id": null,
            "label": "a1-2",
            "points": [
                [
                    3569,
                    1941
                ],
                [
                    3596,
                    2057
                ]
            ],
            "shape_type": "rectangle"
        },
        {
            "flags": {},
            "group_id": null,
            "label": "d1",
            "points": [
                [
                    3659,
                    1913
                ],
                [
                    3745,
                    2057
                ]
            ],
            "shape_type": "rectangle"
        },
        {
            "flags": {},
            "group_id": null,
            "label": "h1",
            "points": [
                [
                    3791,
                    1950
                ],
                [
                    3944,
                    2021
                ]
            ],
            "shape_type": "rectangle"
        },
        {
            "flags": {},
            "group_id": null,
            "label": "d1",
            "points": [
                [
                    3657,
                    2098
                ],
                [
                    3746,
                    2242
                ]
            ],
            "shape_type": "rectangle"
        },
        {
            "flags": {},
            "group_id": null,
            "label": "h1",
            "points": [
                [
                    3792,
                    2135
                ],
                [
                    3940,
                    2205
                ]
            ],
            "shape_type": "rectangle"
        },
        {
            "flags": {},
            "group_id": null,
            "label": "g1",
            "points": [
                [
                    3565,
                    2106
                ],
                [
                    3568,
                    2262
                ]
            ],
            "shape_type": "rectangle"
        },
        {
            "flags": {},
            "group_id": null,
            "label": "a1-2",
            "points": [
                [
                    3571,
                    2136
                ],
                [
                    3598,
                    2252
                ]
            ],
            "shape_type": "rectangle"
        },
        {
            "flags": {},
            "group_id": null,
            "label": "a1-1",
            "points": [
                [
                    3433,
                    2135
                ],
                [
                    3460,
                    2251
                ]
            ],
            "shape_type": "rectangle"
        },
        {
            "flags": {},
            "group_id": null,
            "label": "g1",
            "points": [
                [
                    3462,
                    2106
                ],
                [
                    3466,
                    2262
                ]
            ],
            "shape_type": "rectangle"
        },
        {
            "flags": {},
            "group_id": null,
            "label": "d1",
            "points": [
                [
                    3286,
                    2098
                ],
                [
                    3366,
                    2243
                ]
            ],
            "shape_type": "rectangle"
        },
        {
            "flags": {},
            "group_id": null,
            "label": "d1",
            "points": [
                [
                    3656,
                    1485
                ],
                [
                    3742,
                    1631
                ]
            ],
            "shape_type": "rectangle"
        },
        {
            "flags": {},
            "group_id": null,
            "label": "h1",
            "points": [
                [
                    3792,
                    1573
                ],
                [
                    3944,
                    1643
                ]
            ],
            "shape_type": "rectangle"
        },
        {
            "flags": {},
            "group_id": null,
            "label": "h1",
            "points": [
                [
                    3913,
                    3065
                ],
                [
                    4067,
                    3139
                ]
            ],
            "shape_type": "rectangle"
        },
        {
            "flags": {},
            "group_id": null,
            "label": "v1",
            "points": [
                [
                    3350,
                    3186
                ],
                [
                    3698,
                    3281
                ]
            ],
            "shape_type": "rectangle"
        },
        {
            "flags": {},
            "group_id": null,
            "label": "b1",
            "points": [
                [
                    3608,
                    2989
                ],
                [
                    3848,
                    3139
                ]
            ],
            "shape_type": "rectangle"
        },
        {
            "flags": {},
            "group_id": null,
            "label": "v1",
            "points": [
                [
                    2462,
                    2270
                ],
                [
                    2812,
                    2368
                ]
            ],
            "shape_type": "rectangle"
        },
        {
            "flags": {},
            "group_id": null,
            "label": "va1",
            "points": [
                [
                    2634,
                    2610
                ],
                [
                    2679,
                    2647
                ]
            ],
            "shape_type": "rectangle"
        },
        {
            "flags": {},
            "group_id": null,
            "label": "va1",
            "points": [
                [
                    2622,
                    2792
                ],
                [
                    2664,
                    2837
                ]
            ],
            "shape_type": "rectangle"
        },
        {
            "flags": {},
            "group_id": null,
            "label": "va1",
            "points": [
                [
                    2412,
                    2652
                ],
                [
                    2454,
                    2695
                ]
            ],
            "shape_type": "rectangle"
        },
        {
            "flags": {},
            "group_id": null,
            "label": "vp2-1",
            "points": [
                [
                    2476,
                    2623
                ],
                [
                    2651,
                    2798
                ]
            ],
            "shape_type": "rectangle"
        },
        {
            "flags": {},
            "group_id": null,
            "label": "v1",
            "points": [
                [
                    1771,
                    2623
                ],
                [
                    2120,
                    2720
                ]
            ],
            "shape_type": "rectangle"
        },
        {
            "flags": {},
            "group_id": null,
            "label": "vp1-1",
            "points": [
                [
                    1820,
                    2184
                ],
                [
                    2149,
                    2513
                ]
            ],
            "shape_type": "rectangle"
        },
        {
            "flags": {},
            "group_id": null,
            "label": "va1",
            "points": [
                [
                    2055,
                    2249
                ],
                [
                    2099,
                    2284
                ]
            ],
            "shape_type": "rectangle"
        },
        {
            "flags": {},
            "group_id": null,
            "label": "va1",
            "points": [
                [
                    1834,
                    2289
                ],
                [
                    1874,
                    2333
                ]
            ],
            "shape_type": "rectangle"
        },
        {
            "flags": {},
            "group_id": null,
            "label": "va1",
            "points": [
                [
                    2043,
                    2431
                ],
                [
                    2083,
                    2474
                ]
            ],
            "shape_type": "rectangle"
        },
        {
            "flags": {},
            "group_id": null,
            "label": "v1",
            "points": [
                [
                    2402,
                    2985
                ],
                [
                    2752,
                    3083
                ]
            ],
            "shape_type": "rectangle"
        },
        {
            "flags": {},
            "group_id": null,
            "label": "vp2-1",
            "points": [
                [
                    2511,
                    1900
                ],
                [
                    2684,
                    2074
                ]
            ],
            "shape_type": "rectangle"
        },
        {
            "flags": {},
            "group_id": null,
            "label": "va1",
            "points": [
                [
                    2669,
                    1888
                ],
                [
                    2714,
                    1923
                ]
            ],
            "shape_type": "rectangle"
        },
        {
            "flags": {},
            "group_id": null,
            "label": "va1",
            "points": [
                [
                    2447,
                    1929
                ],
                [
                    2487,
                    1972
                ]
            ],
            "shape_type": "rectangle"
        },
        {
            "flags": {},
            "group_id": null,
            "label": "va1",
            "points": [
                [
                    2656,
                    2071
                ],
                [
                    2697,
                    2113
                ]
            ],
            "shape_type": "rectangle"
        },
        {
            "flags": {},
            "group_id": null,
            "label": "n1",
            "points": [
                [
                    1630,
                    1295
                ],
                [
                    2345,
                    1736
                ]
            ],
            "shape_type": "rectangle"
        },
        {
            "flags": {},
            "group_id": null,
            "label": "d1",
            "points": [
                [
                    915,
                    1197
                ],
                [
                    1059,
                    1285
                ]
            ],
            "shape_type": "rectangle"
        },
        {
            "flags": {},
            "group_id": null,
            "label": "vb1",
            "points": [
                [
                    699,
                    1249
                ],
                [
                    794,
                    1516
                ]
            ],
            "shape_type": "rectangle"
        },
        {
            "flags": {},
            "group_id": null,
            "label": "",
            "points": [],
            "shape_type": ""
        },
        {
            "flags": {},
            "group_id": null,
            "label": "d1",
            "points": [
                [
                    914,
                    1921
                ],
                [
                    1059,
                    2009
                ]
            ],
            "shape_type": "rectangle"
        },
        {
            "flags": {},
            "group_id": null,
            "label": "v1",
            "points": [
                [
                    641,
                    2036
                ],
                [
                    843,
                    2122
                ]
            ],
            "shape_type": "rectangle"
        },
        {
            "flags": {},
            "group_id": null,
            "label": "va1",
            "points": [
                [
                    573,
                    2248
                ],
                [
                    617,
                    2285
                ]
            ],
            "shape_type": "rectangle"
        },
        {
            "flags": {},
            "group_id": null,
            "label": "va1",
            "points": [
                [
                    351,
                    2290
                ],
                [
                    392,
                    2333
                ]
            ],
            "shape_type": "rectangle"
        },
        {
            "flags": {},
            "group_id": null,
            "label": "va1",
            "points": [
                [
                    561,
                    2430
                ],
                [
                    603,
                    2474
                ]
            ],
            "shape_type": "rectangle"
        },
        {
            "flags": {},
            "group_id": null,
            "label": "vp1-1",
            "points": [
                [
                    338,
                    2184
                ],
                [
                    666,
                    2511
                ]
            ],
            "shape_type": "rectangle"
        },
        {
            "flags": {},
            "group_id": null,
            "label": "v1",
            "points": [
                [
                    327,
                    2623
                ],
                [
                    677,
                    2720
                ]
            ],
            "shape_type": "rectangle"
        },
        {
            "flags": {},
            "group_id": null,
            "label": "v1",
            "points": [
                [
                    1123,
                    2623
                ],
                [
                    1472,
                    2720
                ]
            ],
            "shape_type": "rectangle"
        },
        {
            "flags": {},
            "group_id": null,
            "label": "va1",
            "points": [
                [
                    1346,
                    2431
                ],
                [
                    1387,
                    2474
                ]
            ],
            "shape_type": "rectangle"
        },
        {
            "flags": {},
            "group_id": null,
            "label": "vp1-1",
            "points": [
                [
                    1123,
                    2183
                ],
                [
                    1450,
                    2513
                ]
            ],
            "shape_type": "rectangle"
        },
        {
            "flags": {},
            "group_id": null,
            "label": "va1",
            "points": [
                [
                    1359,
                    2249
                ],
                [
                    1403,
                    2284
                ]
            ],
            "shape_type": "rectangle"
        },
        {
            "flags": {},
            "group_id": null,
            "label": "va1",
            "points": [
                [
                    1137,
                    2290
                ],
                [
                    1177,
                    2333
                ]
            ],
            "shape_type": "rectangle"
        },
        {
            "flags": {},
            "group_id": null,
            "label": "z1",
            "points": [
                [
                    3382,
                    1277
                ],
                [
                    3644,
                    1869
                ]
            ],
            "shape_type": "rectangle"
        },
        {
            "flags": {},
            "group_id": null,
            "label": "p1-1",
            "points": [
                [
                    3433,
                    2105
                ],
                [
                    3598,
                    2252
                ]
            ],
            "shape_type": "rectangle"
        },
        {
            "flags": {},
            "group_id": null,
            "label": "p1-1",
            "points": [
                [
                    3430,
                    1912
                ],
                [
                    3597,
                    2068
                ]
            ],
            "shape_type": "rectangle"
        },
        {
            "flags": {},
            "group_id": null,
            "label": "p1-1",
            "points": [
                [
                    3432,
                    1710
                ],
                [
                    3598,
                    1867
                ]
            ],
            "shape_type": "rectangle"
        },
        {
            "flags": {},
            "group_id": null,
            "label": "p1-1",
            "points": [
                [
                    3430,
                    1514
                ],
                [
                    3597,
                    1670
                ]
            ],
            "shape_type": "rectangle"
        },
        {
            "flags": {},
            "group_id": null,
            "label": "p1-1",
            "points": [
                [
                    3430,
                    1311
                ],
                [
                    3597,
                    1469
                ]
            ],
            "shape_type": "rectangle"
        },
        {
            "flags": {},
            "group_id": null,
            "label": "",
            "points": [],
            "shape_type": ""
        },
        {
            "flags": {},
            "group_id": null,
            "label": "seven",
            "points": [
                [
                    699,
                    1250
                ]
            ],
            "shape_type": "point"
        },
        {
            "flags": {},
            "group_id": null,
            "label": "eight",
            "points": [
                [
                    794,
                    1251
                ]
            ],
            "shape_type": "point"
        },
        {
            "flags": {},
            "group_id": null,
            "label": "seven",
            "points": [
                [
                    708,
                    1269
                ]
            ],
            "shape_type": "point"
        },
        {
            "flags": {},
            "group_id": null,
            "label": "eight",
            "points": [
                [
                    782,
                    1269
                ]
            ],
            "shape_type": "point"
        },
        {
            "flags": {},
            "group_id": null,
            "label": "thirteen",
            "points": [
                [
                    722,
                    1269
                ]
            ],
            "shape_type": "point"
        },
        {
            "flags": {},
            "group_id": null,
            "label": "eleven",
            "points": [
                [
                    708,
                    1343
                ]
            ],
            "shape_type": "point"
        },
        {
            "flags": {},
            "group_id": null,
            "label": "fifteen",
            "points": [
                [
                    722,
                    1343
                ]
            ],
            "shape_type": "point"
        },
        {
            "flags": {},
            "group_id": null,
            "label": "twelve",
            "points": [
                [
                    782,
                    1343
                ]
            ],
            "shape_type": "point"
        },
        {
            "flags": {},
            "group_id": null,
            "label": "eleven",
            "points": [
                [
                    708,
                    1417
                ]
            ],
            "shape_type": "point"
        },
        {
            "flags": {},
            "group_id": null,
            "label": "twelve",
            "points": [
                [
                    782,
                    1417
                ]
            ],
            "shape_type": "point"
        },
        {
            "flags": {},
            "group_id": null,
            "label": "fifteen",
            "points": [
                [
                    722,
                    1417
                ]
            ],
            "shape_type": "point"
        },
        {
            "flags": {},
            "group_id": null,
            "label": "nine",
            "points": [
                [
                    708,
                    1491
                ]
            ],
            "shape_type": "point"
        },
        {
            "flags": {},
            "group_id": null,
            "label": "ten",
            "points": [
                [
                    782,
                    1490
                ]
            ],
            "shape_type": "point"
        },
        {
            "flags": {},
            "group_id": null,
            "label": "fourteen",
            "points": [
                [
                    722,
                    1490
                ]
            ],
            "shape_type": "point"
        },
        {
            "flags": {},
            "group_id": null,
            "label": "nine",
            "points": [
                [
                    698,
                    1515
                ]
            ],
            "shape_type": "point"
        },
        {
            "flags": {},
            "group_id": null,
            "label": "ten",
            "points": [
                [
                    794,
                    1515
                ]
            ],
            "shape_type": "point"
        },
        {
            "flags": {},
            "group_id": null,
            "label": "seven",
            "points": [
                [
                    3622,
                    2989
                ]
            ],
            "shape_type": "point"
        },
        {
            "flags": {},
            "group_id": null,
            "label": "thirteen",
            "points": [
                [
                    3691,
                    2989
                ]
            ],
            "shape_type": "point"
        },
        {
            "flags": {},
            "group_id": null,
            "label": "thirteen",
            "points": [
                [
                    3761,
                    2989
                ]
            ],
            "shape_type": "point"
        },
        {
            "flags": {},
            "group_id": null,
            "label": "eight",
            "points": [
                [
                    3831,
                    2989
                ]
            ],
            "shape_type": "point"
        },
        {
            "flags": {},
            "group_id": null,
            "label": "fourteen",
            "points": [
                [
                    3622,
                    3108
                ]
            ],
            "shape_type": "point"
        },
        {
            "flags": {},
            "group_id": null,
            "label": "fourteen",
            "points": [
                [
                    3691,
                    3108
                ]
            ],
            "shape_type": "point"
        },
        {
            "flags": {},
            "group_id": null,
            "label": "fourteen",
            "points": [
                [
                    3761,
                    3108
                ]
            ],
            "shape_type": "point"
        },
        {
            "flags": {},
            "group_id": null,
            "label": "fourteen",
            "points": [
                [
                    3831,
                    3108
                ]
            ],
            "shape_type": "point"
        },
        {
            "flags": {},
            "group_id": null,
            "label": "seven",
            "points": [
                [
                    3609,
                    3108
                ]
            ],
            "shape_type": "point"
        },
        {
            "flags": {},
            "group_id": null,
            "label": "fourteen",
            "points": [
                [
                    3609,
                    3139
                ]
            ],
            "shape_type": "point"
        },
        {
            "flags": {},
            "group_id": null,
            "label": "eight",
            "points": [
                [
                    3848,
                    3108
                ]
            ],
            "shape_type": "point"
        },
        {
            "flags": {},
            "group_id": null,
            "label": "fourteen",
            "points": [
                [
                    3848,
                    3139
                ]
            ],
            "shape_type": "point"
        },
        {
            "flags": {},
            "group_id": null,
            "label": "x1",
            "points": [
                [
                    3436,
                    2461
                ],
                [
                    3596,
                    2487
                ]
            ],
            "shape_type": "rectangle"
        },
        {
            "flags": {},
            "group_id": null,
            "label": "t9",
            "points": [
                [
                    3382,
                    1191
                ],
                [
                    3645,
                    3140
                ]
            ],
            "shape_type": "rectangle"
        },
        {
            "flags": {},
            "group_id": null,
            "label": "vt9",
            "points": [
                [
                    569,
                    1620
                ],
                [
                    898,
                    1949
                ]
            ],
            "shape_type": "rectangle"
        },
        {
            "flags": {},
            "group_id": null,
            "label": "sm",
            "points": [
                [
                    1750,
                    3005
                ],
                [
                    4055,
                    3783
                ]
            ],
            "shape_type": "rectangle"
        },
        {
            "flags": {},
            "group_id": null,
            "label": "btl",
            "points": [
                [
                    2247,
                    3844
                ],
                [
                    4154,
                    4168
                ]
            ],
            "shape_type": "rectangle"
        },
        {
            "flags": {},
            "group_id": null,
            "label": "j1",
            "points": [
                [
                    2228,
                    1600
                ],
                [
                    2344,
                    1695
                ]
            ],
            "shape_type": "rectangle"
        },
        {
            "flags": {},
            "group_id": null,
            "label": "j1",
            "points": [
                [
                    1631,
                    1637
                ],
                [
                    1750,
                    1723
                ]
            ],
            "shape_type": "rectangle"
        },
        {
            "flags": {},
            "group_id": null,
            "label": "j1",
            "points": [
                [
                    1896,
                    1367
                ],
                [
                    1940,
                    1424
                ]
            ],
            "shape_type": "rectangle"
        },
        {
            "flags": {},
            "group_id": null,
            "label": "j1",
            "points": [
                [
                    2008,
                    1371
                ],
                [
                    2078,
                    1453
                ]
            ],
            "shape_type": "rectangle"
        },
        {
            "flags": {},
            "group_id": null,
            "label": "mask",
            "lineType": [
                "LLLLLLLLLLLLLLLLL"
            ],
            "points": [
                [
                    2059,
                    2763
                ],
                [
                    2148,
                    2734
                ],
                [
                    2226,
                    2614
                ],
                [
                    2222,
                    2306
                ],
                [
                    2250,
                    2187
                ],
                [
                    2242,
                    2125
                ],
                [
                    2221,
                    2101
                ],
                [
                    2132,
                    2089
                ],
                [
                    1839,
                    2154
                ],
                [
                    1772,
                    2236
                ],
                [
                    1660,
                    2277
                ],
                [
                    1659,
                    2300
                ],
                [
                    1658,
                    2361
                ],
                [
                    1667,
                    2376
                ],
                [
                    1676,
                    2380
                ],
                [
                    1750,
                    2739
                ],
                [
                    2059,
                    2763
                ]
            ],
            "shape_type": "polygon"
        },
        {
            "flags": {},
            "group_id": null,
            "label": "mask",
            "lineType": [
                "LLLLLLLLLLLLLLLLL"
            ],
            "points": [
                [
                    1477,
                    2757
                ],
                [
                    1517,
                    2729
                ],
                [
                    1596,
                    2571
                ],
                [
                    1616,
                    2364
                ],
                [
                    1639,
                    2272
                ],
                [
                    1648,
                    2251
                ],
                [
                    1733,
                    2228
                ],
                [
                    1740,
                    2222
                ],
                [
                    1745,
                    2197
                ],
                [
                    1730,
                    2158
                ],
                [
                    1636,
                    2141
                ],
                [
                    1466,
                    2145
                ],
                [
                    1185,
                    2171
                ],
                [
                    1004,
                    2245
                ],
                [
                    774,
                    2261
                ],
                [
                    984,
                    2731
                ],
                [
                    1477,
                    2757
                ]
            ],
            "shape_type": "polygon"
        },
        {
            "flags": {},
            "group_id": null,
            "label": "mask",
            "lineType": [
                "LLLLLLLLLLLLLL"
            ],
            "points": [
                [
                    643,
                    2752
                ],
                [
                    694,
                    2742
                ],
                [
                    773,
                    2513
                ],
                [
                    753,
                    2278
                ],
                [
                    764,
                    2253
                ],
                [
                    787,
                    2244
                ],
                [
                    801,
                    2237
                ],
                [
                    808,
                    2231
                ],
                [
                    799,
                    2190
                ],
                [
                    753,
                    2166
                ],
                [
                    521,
                    2161
                ],
                [
                    174,
                    2204
                ],
                [
                    234,
                    2761
                ],
                [
                    643,
                    2752
                ]
            ],
            "shape_type": "polygon"
        },
        {
            "flags": {},
            "group_id": null,
            "label": "mask",
            "lineType": [
                "LLLLLLLLLLLLLLLLLLL"
            ],
            "points": [
                [
                    808,
                    2144
                ],
                [
                    974,
                    2115
                ],
                [
                    1064,
                    2093
                ],
                [
                    1084,
                    1965
                ],
                [
                    1061,
                    1885
                ],
                [
                    1048,
                    1850
                ],
                [
                    1013,
                    1791
                ],
                [
                    976,
                    1730
                ],
                [
                    948,
                    1694
                ],
                [
                    918,
                    1566
                ],
                [
                    1071,
                    1318
                ],
                [
                    1094,
                    1185
                ],
                [
                    712,
                    1198
                ],
                [
                    604,
                    1198
                ],
                [
                    339,
                    1226
                ],
                [
                    488,
                    1853
                ],
                [
                    488,
                    1917
                ],
                [
                    551,
                    2124
                ],
                [
                    808,
                    2144
                ]
            ],
            "shape_type": "polygon"
        },
        {
            "flags": {},
            "group_id": null,
            "label": "mask",
            "lineType": [
                "LLLLLLLLLLLLL"
            ],
            "points": [
                [
                    1620,
                    1285
                ],
                [
                    2355,
                    1285
                ],
                [
                    2355,
                    1746
                ],
                [
                    1620,
                    1746
                ]
            ],
            "shape_type": "polygon"
        },
        {
            "flags": {},
            "group_id": null,
            "label": "mask",
            "lineType": [
                "LLLLLLLLLLLL"
            ],
            "points": [
                [
                    2669,
                    2410
                ],
                [
                    2810,
                    2401
                ],
                [
                    2905,
                    1812
                ],
                [
                    2906,
                    1745
                ],
                [
                    2569,
                    1757
                ],
                [
                    2442,
                    1783
                ],
                [
                    2228,
                    1856
                ],
                [
                    2211,
                    1871
                ],
                [
                    2204,
                    1931
                ],
                [
                    2257,
                    2128
                ],
                [
                    2349,
                    2372
                ],
                [
                    2669,
                    2410
                ]
            ],
            "shape_type": "polygon"
        },
        {
            "flags": {},
            "group_id": null,
            "label": "mask",
            "lineType": [
                "LLLLLLLLLLLLLLLLLLLLLLLLLLLLLLLLLLLLLLL"
            ],
            "points": [
                [
                    3631,
                    2491
                ],
                [
                    3655,
                    2434
                ],
                [
                    3867,
                    2393
                ],
                [
                    3984,
                    2205
                ],
                [
                    3960,
                    1573
                ],
                [
                    3974,
                    1183
                ],
                [
                    3796,
                    1177
                ],
                [
                    3598,
                    1157
                ],
                [
                    3488,
                    1157
                ],
                [
                    2983,
                    1257
                ],
                [
                    2973,
                    1271
                ],
                [
                    2937,
                    1371
                ],
                [
                    2911,
                    1453
                ],
                [
                    2931,
                    1582
                ],
                [
                    2947,
                    1592
                ],
                [
                    2964,
                    1593
                ],
                [
                    3031,
                    1711
                ],
                [
                    3021,
                    2043
                ],
                [
                    3050,
                    2257
                ],
                [
                    3082,
                    2253
                ],
                [
                    3255,
                    2263
                ],
                [
                    3334,
                    2272
                ],
                [
                    3453,
                    2296
                ],
                [
                    3410,
                    2483
                ],
                [
                    3457,
                    2702
                ],
                [
                    3455,
                    2808
                ],
                [
                    3467,
                    3118
                ],
                [
                    3201,
                    3120
                ],
                [
                    3195,
                    3142
                ],
                [
                    3220,
                    3192
                ],
                [
                    3344,
                    3292
                ],
                [
                    3589,
                    3290
                ],
                [
                    3865,
                    3282
                ],
                [
                    3928,
                    3215
                ],
                [
                    4102,
                    3149
                ],
                [
                    4117,
                    2900
                ],
                [
                    4065,
                    2875
                ],
                [
                    3618,
                    2845
                ],
                [
                    3631,
                    2491
                ]
            ],
            "shape_type": "polygon"
        },
        {
            "flags": {},
            "group_id": null,
            "label": "mask",
            "lineType": [
                "LLLLLLLLLL"
            ],
            "points": [
                [
                    2647,
                    3111
                ],
                [
                    2811,
                    3075
                ],
                [
                    2953,
                    2552
                ],
                [
                    2735,
                    2496
                ],
                [
                    2257,
                    2585
                ],
                [
                    2185,
                    2681
                ],
                [
                    2184,
                    2706
                ],
                [
                    2288,
                    3049
                ],
                [
                    2367,
                    3089
                ],
                [
                    2647,
                    3111
                ]
            ],
            "shape_type": "polygon"
        },
        {
            "flags": {},
            "group_id": null,
            "label": "mask",
            "lineType": [
                "LLLLLLLLLLLLLLLLLLLLLLLLLLLLLLLLLLLLL"
            ],
            "points": [
                [
                    1740,
                    2995
                ],
                [
                    4065,
                    2995
                ],
                [
                    4065,
                    3793
                ],
                [
                    1740,
                    3793
                ]
            ],
            "shape_type": "polygon"
        },
        {
            "flags": {},
            "group_id": null,
            "label": "mask",
            "lineType": [
                "LLLLLL"
            ],
            "points": [
                [
                    2237,
                    3834
                ],
                [
                    4164,
                    3834
                ],
                [
                    4164,
                    4178
                ],
                [
                    2237,
                    4178
                ]
            ],
            "shape_type": "polygon"
        },
        {
            "flags": {},
            "group_id": null,
            "label": "mask",
            "lineType": [
                "LLLLLLLLLLL"
            ],
            "points": [
                [
                    177,
                    2991
                ],
                [
                    1641,
                    2991
                ],
                [
                    1641,
                    4010
                ],
                [
                    177,
                    4010
                ]
            ],
            "shape_type": "polygon"
        },
        {
            "flags": {},
            "group_id": null,
            "label": "Ns",
            "points": [
                [
                    1978,
                    1608
                ]
            ],
            "shape_type": "point"
        },
        {
            "flags": {},
            "group_id": null,
            "label": "Ne",
            "points": [
                [
                    1979,
                    1359
                ]
            ],
            "shape_type": "point"
        },
        {
            "flags": {},
            "group_id": null,
            "label": "wlb",
            "points": [
                [
                    187,
                    3001
                ],
                [
                    1631,
                    4000
                ]
            ],
            "shape_type": "rectangle"
        },
        {
            "flags": {},
            "group_id": null,
            "label": "wz1",
            "points": [
                [
                    3678,
                    3182
                ],
                [
                    3813,
                    3237
                ]
            ],
            "shape_type": "rectangle"
        },
        {
            "flags": {},
            "group_id": null,
            "label": "wz1",
            "points": [
                [
                    3834,
                    2909
                ],
                [
                    4074,
                    2959
                ]
            ],
            "shape_type": "rectangle"
        },
        {
            "flags": {},
            "group_id": null,
            "label": "wz1",
            "points": [
                [
                    3636,
                    2285
                ],
                [
                    3835,
                    2332
                ]
            ],
            "shape_type": "rectangle"
        },
        {
            "flags": {},
            "group_id": null,
            "label": "wz3",
            "points": [
                [
                    3045,
                    1340
                ],
                [
                    3189,
                    1391
                ]
            ],
            "shape_type": "rectangle"
        },
        {
            "flags": {},
            "group_id": null,
            "label": "wz3",
            "points": [
                [
                    2961,
                    1527
                ],
                [
                    3262,
                    1579
                ]
            ],
            "shape_type": "rectangle"
        },
        {
            "flags": {},
            "group_id": null,
            "label": "wz3",
            "points": [
                [
                    3049,
                    1783
                ],
                [
                    3186,
                    1830
                ]
            ],
            "shape_type": "rectangle"
        },
        {
            "flags": {},
            "group_id": null,
            "label": "wz3",
            "points": [
                [
                    3049,
                    1967
                ],
                [
                    3188,
                    2018
                ]
            ],
            "shape_type": "rectangle"
        },
        {
            "flags": {},
            "group_id": null,
            "label": "wz3",
            "points": [
                [
                    3051,
                    2170
                ],
                [
                    3135,
                    2223
                ]
            ],
            "shape_type": "rectangle"
        },
        {
            "flags": {},
            "group_id": null,
            "label": "wz3",
            "points": [
                [
                    2618,
                    2886
                ],
                [
                    2800,
                    2984
                ]
            ],
            "shape_type": "rectangle"
        },
        {
            "flags": {},
            "group_id": null,
            "label": "wz3",
            "points": [
                [
                    2765,
                    2545
                ],
                [
                    2904,
                    2641
                ]
            ],
            "shape_type": "rectangle"
        },
        {
            "flags": {},
            "group_id": null,
            "label": "wz3",
            "points": [
                [
                    2197,
                    2616
                ],
                [
                    2407,
                    2720
                ]
            ],
            "shape_type": "rectangle"
        },
        {
            "flags": {},
            "group_id": null,
            "label": "wz3",
            "points": [
                [
                    2061,
                    2513
                ],
                [
                    2203,
                    2562
                ]
            ],
            "shape_type": "rectangle"
        },
        {
            "flags": {},
            "group_id": null,
            "label": "wz3",
            "points": [
                [
                    2084,
                    2126
                ],
                [
                    2229,
                    2174
                ]
            ],
            "shape_type": "rectangle"
        },
        {
            "flags": {},
            "group_id": null,
            "label": "wz3",
            "points": [
                [
                    1662,
                    2288
                ],
                [
                    1807,
                    2340
                ]
            ],
            "shape_type": "rectangle"
        },
        {
            "flags": {},
            "group_id": null,
            "label": "wz3",
            "points": [
                [
                    1425,
                    2173
                ],
                [
                    1726,
                    2277
                ]
            ],
            "shape_type": "rectangle"
        },
        {
            "flags": {},
            "group_id": null,
            "label": "wz3",
            "points": [
                [
                    1277,
                    2519
                ],
                [
                    1576,
                    2620
                ]
            ],
            "shape_type": "rectangle"
        },
        {
            "flags": {},
            "group_id": null,
            "label": "wz3",
            "points": [
                [
                    807,
                    2273
                ],
                [
                    1108,
                    2376
                ]
            ],
            "shape_type": "rectangle"
        },
        {
            "flags": {},
            "group_id": null,
            "label": "wz3",
            "points": [
                [
                    615,
                    2472
                ],
                [
                    755,
                    2523
                ]
            ],
            "shape_type": "rectangle"
        },
        {
            "flags": {},
            "group_id": null,
            "label": "wz3",
            "points": [
                [
                    652,
                    2190
                ],
                [
                    796,
                    2242
                ]
            ],
            "shape_type": "rectangle"
        },
        {
            "flags": {},
            "group_id": null,
            "label": "wz3",
            "points": [
                [
                    203,
                    2261
                ],
                [
                    345,
                    2310
                ]
            ],
            "shape_type": "rectangle"
        },
        {
            "flags": {},
            "group_id": null,
            "label": "wz1",
            "points": [
                [
                    388,
                    1323
                ],
                [
                    629,
                    1382
                ]
            ],
            "shape_type": "rectangle"
        },
        {
            "flags": {},
            "group_id": null,
            "label": "wz3",
            "points": [
                [
                    2278,
                    1931
                ],
                [
                    2417,
                    1981
                ]
            ],
            "shape_type": "rectangle"
        },
        {
            "flags": {},
            "group_id": null,
            "label": "wz3",
            "points": [
                [
                    2677,
                    2149
                ],
                [
                    2817,
                    2201
                ]
            ],
            "shape_type": "rectangle"
        },
        {
            "flags": {},
            "group_id": null,
            "label": "wz3",
            "points": [
                [
                    2696,
                    1757
                ],
                [
                    2839,
                    1817
                ]
            ],
            "shape_type": "rectangle"
        },
        {
            "flags": {},
            "group_id": null,
            "label": "wz3",
            "points": [
                [
                    1882,
                    1692
                ],
                [
                    2064,
                    1770
                ]
            ],
            "shape_type": "rectangle"
        }
    ],
    "version": "4.5.7"
}