{
    "flags": {},
    "imageData": null,
    "imageHeight": 4205,
    "imagePath": "样本2_93_38.png",
    "imageWidth": 4205,
    "shapes": [
        {
            "flags": {},
            "group_id": null,
            "label": "t1",
            "points": [
                [
                    3133,
                    1453
                ],
                [
                    3190,
                    3120
                ]
            ],
            "shape_type": "rectangle"
        },
        {
            "flags": {},
            "group_id": null,
            "label": "h1",
            "points": [
                [
                    3755,
                    3049
                ],
                [
                    3906,
                    3120
                ]
            ],
            "shape_type": "rectangle"
        },
        {
            "flags": {},
            "group_id": null,
            "label": "v1",
            "points": [
                [
                    3322,
                    3254
                ],
                [
                    3653,
                    3343
                ]
            ],
            "shape_type": "rectangle"
        },
        {
            "flags": {},
            "group_id": null,
            "label": "b1",
            "points": [
                [
                    3405,
                    2878
                ],
                [
                    3587,
                    3120
                ]
            ],
            "shape_type": "rectangle"
        },
        {
            "flags": {},
            "group_id": null,
            "label": "seven",
            "points": [
                [
                    3415,
                    2878
                ]
            ],
            "shape_type": "point"
        },
        {
            "flags": {},
            "group_id": null,
            "label": "thirteen",
            "points": [
                [
                    3496,
                    2877
                ]
            ],
            "shape_type": "point"
        },
        {
            "flags": {},
            "group_id": null,
            "label": "eight",
            "points": [
                [
                    3576,
                    2878
                ]
            ],
            "shape_type": "point"
        },
        {
            "flags": {},
            "group_id": null,
            "label": "fourteen",
            "points": [
                [
                    3416,
                    3079
                ]
            ],
            "shape_type": "point"
        },
        {
            "flags": {},
            "group_id": null,
            "label": "seven",
            "points": [
                [
                    3405,
                    3079
                ]
            ],
            "shape_type": "point"
        },
        {
            "flags": {},
            "group_id": null,
            "label": "fourteen",
            "points": [
                [
                    3405,
                    3119
                ]
            ],
            "shape_type": "point"
        },
        {
            "flags": {},
            "group_id": null,
            "label": "fourteen",
            "points": [
                [
                    3496,
                    3079
                ]
            ],
            "shape_type": "point"
        },
        {
            "flags": {},
            "group_id": null,
            "label": "fourteen",
            "points": [
                [
                    3576,
                    3079
                ]
            ],
            "shape_type": "point"
        },
        {
            "flags": {},
            "group_id": null,
            "label": "eight",
            "points": [
                [
                    3586,
                    3079
                ]
            ],
            "shape_type": "point"
        },
        {
            "flags": {},
            "group_id": null,
            "label": "fourteen",
            "points": [
                [
                    3586,
                    3119
                ]
            ],
            "shape_type": "point"
        },
        {
            "flags": {},
            "group_id": null,
            "label": "c1",
            "points": [
                [
                    3161,
                    1453
                ],
                [
                    3163,
                    1504
                ]
            ],
            "shape_type": "rectangle"
        },
        {
            "flags": {},
            "group_id": null,
            "label": "p1-1",
            "points": [
                [
                    3093,
                    1549
                ],
                [
                    3231,
                    1698
                ]
            ],
            "shape_type": "rectangle"
        },
        {
            "flags": {},
            "group_id": null,
            "label": "g1",
            "points": [
                [
                    3115,
                    1549
                ],
                [
                    3118,
                    1698
                ]
            ],
            "shape_type": "rectangle"
        },
        {
            "flags": {},
            "group_id": null,
            "label": "a1-1",
            "points": [
                [
                    3092,
                    1584
                ],
                [
                    3114,
                    1671
                ]
            ],
            "shape_type": "rectangle"
        },
        {
            "flags": {},
            "group_id": null,
            "label": "a1-4",
            "points": [
                [
                    3152,
                    1579
                ],
                [
                    3173,
                    1668
                ]
            ],
            "shape_type": "rectangle"
        },
        {
            "flags": {},
            "group_id": null,
            "label": "a1-2",
            "points": [
                [
                    3211,
                    1585
                ],
                [
                    3231,
                    1672
                ]
            ],
            "shape_type": "rectangle"
        },
        {
            "flags": {},
            "group_id": null,
            "label": "g1",
            "points": [
                [
                    3160,
                    1549
                ],
                [
                    3164,
                    1694
                ]
            ],
            "shape_type": "rectangle"
        },
        {
            "flags": {},
            "group_id": null,
            "label": "g1",
            "points": [
                [
                    3206,
                    1549
                ],
                [
                    3210,
                    1698
                ]
            ],
            "shape_type": "rectangle"
        },
        {
            "flags": {},
            "group_id": null,
            "label": "p1-1",
            "points": [
                [
                    3092,
                    1725
                ],
                [
                    3231,
                    1875
                ]
            ],
            "shape_type": "rectangle"
        },
        {
            "flags": {},
            "group_id": null,
            "label": "a1-1",
            "points": [
                [
                    3093,
                    1761
                ],
                [
                    3113,
                    1848
                ]
            ],
            "shape_type": "rectangle"
        },
        {
            "flags": {},
            "group_id": null,
            "label": "a1-4",
            "points": [
                [
                    3152,
                    1756
                ],
                [
                    3173,
                    1843
                ]
            ],
            "shape_type": "rectangle"
        },
        {
            "flags": {},
            "group_id": null,
            "label": "a1-2",
            "points": [
                [
                    3210,
                    1761
                ],
                [
                    3231,
                    1848
                ]
            ],
            "shape_type": "rectangle"
        },
        {
            "flags": {},
            "group_id": null,
            "label": "g1",
            "points": [
                [
                    3159,
                    1726
                ],
                [
                    3163,
                    1870
                ]
            ],
            "shape_type": "rectangle"
        },
        {
            "flags": {},
            "group_id": null,
            "label": "g1",
            "points": [
                [
                    3206,
                    1725
                ],
                [
                    3209,
                    1874
                ]
            ],
            "shape_type": "rectangle"
        },
        {
            "flags": {},
            "group_id": null,
            "label": "g1",
            "points": [
                [
                    3115,
                    1725
                ],
                [
                    3117,
                    1874
                ]
            ],
            "shape_type": "rectangle"
        },
        {
            "flags": {},
            "group_id": null,
            "label": "p1-1",
            "points": [
                [
                    3114,
                    1910
                ],
                [
                    3210,
                    2058
                ]
            ],
            "shape_type": "rectangle"
        },
        {
            "flags": {},
            "group_id": null,
            "label": "g1",
            "points": [
                [
                    3114,
                    1910
                ],
                [
                    3118,
                    2059
                ]
            ],
            "shape_type": "rectangle"
        },
        {
            "flags": {},
            "group_id": null,
            "label": "g1",
            "points": [
                [
                    3206,
                    1910
                ],
                [
                    3209,
                    2058
                ]
            ],
            "shape_type": "rectangle"
        },
        {
            "flags": {},
            "group_id": null,
            "label": "d1",
            "points": [
                [
                    2857,
                    1871
                ],
                [
                    2940,
                    2009
                ]
            ],
            "shape_type": "rectangle"
        },
        {
            "flags": {},
            "group_id": null,
            "label": "d1",
            "points": [
                [
                    2857,
                    1684
                ],
                [
                    2940,
                    1821
                ]
            ],
            "shape_type": "rectangle"
        },
        {
            "flags": {},
            "group_id": null,
            "label": "d1",
            "points": [
                [
                    2857,
                    1444
                ],
                [
                    2941,
                    1582
                ]
            ],
            "shape_type": "rectangle"
        },
        {
            "flags": {},
            "group_id": null,
            "label": "d1",
            "points": [
                [
                    3371,
                    1444
                ],
                [
                    3455,
                    1582
                ]
            ],
            "shape_type": "rectangle"
        },
        {
            "flags": {},
            "group_id": null,
            "label": "d1",
            "points": [
                [
                    3371,
                    1684
                ],
                [
                    3454,
                    1822
                ]
            ],
            "shape_type": "rectangle"
        },
        {
            "flags": {},
            "group_id": null,
            "label": "d1",
            "points": [
                [
                    3371,
                    1871
                ],
                [
                    3454,
                    2009
                ]
            ],
            "shape_type": "rectangle"
        },
        {
            "flags": {},
            "group_id": null,
            "label": "h1",
            "points": [
                [
                    3643,
                    1965
                ],
                [
                    3786,
                    2035
                ]
            ],
            "shape_type": "rectangle"
        },
        {
            "flags": {},
            "group_id": null,
            "label": "h1",
            "points": [
                [
                    3643,
                    1778
                ],
                [
                    3787,
                    1848
                ]
            ],
            "shape_type": "rectangle"
        },
        {
            "flags": {},
            "group_id": null,
            "label": "h1",
            "points": [
                [
                    3643,
                    1599
                ],
                [
                    3787,
                    1669
                ]
            ],
            "shape_type": "rectangle"
        },
        {
            "flags": {},
            "group_id": null,
            "label": "h1",
            "points": [
                [
                    3643,
                    1413
                ],
                [
                    3785,
                    1484
                ]
            ],
            "shape_type": "rectangle"
        },
        {
            "flags": {},
            "group_id": null,
            "label": "n1",
            "points": [
                [
                    1635,
                    1418
                ],
                [
                    2188,
                    1883
                ]
            ],
            "shape_type": "rectangle"
        },
        {
            "flags": {},
            "group_id": null,
            "label": "d1",
            "points": [
                [
                    1080,
                    1829
                ],
                [
                    1163,
                    1966
                ]
            ],
            "shape_type": "rectangle"
        },
        {
            "flags": {},
            "group_id": null,
            "label": "v1",
            "points": [
                [
                    687,
                    1876
                ],
                [
                    1019,
                    1969
                ]
            ],
            "shape_type": "rectangle"
        },
        {
            "flags": {},
            "group_id": null,
            "label": "d1",
            "points": [
                [
                    480,
                    1829
                ],
                [
                    564,
                    1966
                ]
            ],
            "shape_type": "rectangle"
        },
        {
            "flags": {},
            "group_id": null,
            "label": "vt1",
            "points": [
                [
                    536,
                    1559
                ],
                [
                    790,
                    1812
                ]
            ],
            "shape_type": "rectangle"
        },
        {
            "flags": {},
            "group_id": null,
            "label": "vb1",
            "points": [
                [
                    879,
                    1635
                ],
                [
                    1060,
                    1736
                ]
            ],
            "shape_type": "rectangle"
        },
        {
            "flags": {},
            "group_id": null,
            "label": "seven",
            "points": [
                [
                    879,
                    1636
                ]
            ],
            "shape_type": "point"
        },
        {
            "flags": {},
            "group_id": null,
            "label": "seven",
            "points": [
                [
                    889,
                    1646
                ]
            ],
            "shape_type": "point"
        },
        {
            "flags": {},
            "group_id": null,
            "label": "thirteen",
            "points": [
                [
                    969,
                    1646
                ]
            ],
            "shape_type": "point"
        },
        {
            "flags": {},
            "group_id": null,
            "label": "eight",
            "points": [
                [
                    1059,
                    1636
                ]
            ],
            "shape_type": "point"
        },
        {
            "flags": {},
            "group_id": null,
            "label": "eight",
            "points": [
                [
                    1049,
                    1646
                ]
            ],
            "shape_type": "point"
        },
        {
            "flags": {},
            "group_id": null,
            "label": "fourteen",
            "points": [
                [
                    969,
                    1725
                ]
            ],
            "shape_type": "point"
        },
        {
            "flags": {},
            "group_id": null,
            "label": "ten",
            "points": [
                [
                    1049,
                    1726
                ]
            ],
            "shape_type": "point"
        },
        {
            "flags": {},
            "group_id": null,
            "label": "ten",
            "points": [
                [
                    1059,
                    1736
                ]
            ],
            "shape_type": "point"
        },
        {
            "flags": {},
            "group_id": null,
            "label": "nine",
            "points": [
                [
                    889,
                    1725
                ]
            ],
            "shape_type": "point"
        },
        {
            "flags": {},
            "group_id": null,
            "label": "nine",
            "points": [
                [
                    879,
                    1736
                ]
            ],
            "shape_type": "point"
        },
        {
            "flags": {},
            "group_id": null,
            "label": "v1",
            "points": [
                [
                    695,
                    2835
                ],
                [
                    1026,
                    2925
                ]
            ],
            "shape_type": "rectangle"
        },
        {
            "flags": {},
            "group_id": null,
            "label": "va1",
            "points": [
                [
                    871,
                    2467
                ],
                [
                    915,
                    2501
                ]
            ],
            "shape_type": "rectangle"
        },
        {
            "flags": {},
            "group_id": null,
            "label": "va1",
            "points": [
                [
                    731,
                    2707
                ],
                [
                    771,
                    2750
                ]
            ],
            "shape_type": "rectangle"
        },
        {
            "flags": {},
            "group_id": null,
            "label": "va1",
            "points": [
                [
                    1014,
                    2706
                ],
                [
                    1054,
                    2750
                ]
            ],
            "shape_type": "rectangle"
        },
        {
            "flags": {},
            "group_id": null,
            "label": "vp1-1",
            "points": [
                [
                    809,
                    2561
                ],
                [
                    975,
                    2727
                ]
            ],
            "shape_type": "rectangle"
        },
        {
            "flags": {},
            "group_id": null,
            "label": "vp1-1",
            "points": [
                [
                    1457,
                    2555
                ],
                [
                    1623,
                    2721
                ]
            ],
            "shape_type": "rectangle"
        },
        {
            "flags": {},
            "group_id": null,
            "label": "va1",
            "points": [
                [
                    1530,
                    2458
                ],
                [
                    1569,
                    2502
                ]
            ],
            "shape_type": "rectangle"
        },
        {
            "flags": {},
            "group_id": null,
            "label": "va1",
            "points": [
                [
                    1377,
                    2686
                ],
                [
                    1417,
                    2730
                ]
            ],
            "shape_type": "rectangle"
        },
        {
            "flags": {},
            "group_id": null,
            "label": "va1",
            "points": [
                [
                    1647,
                    2704
                ],
                [
                    1693,
                    2741
                ]
            ],
            "shape_type": "rectangle"
        },
        {
            "flags": {},
            "group_id": null,
            "label": "v1",
            "points": [
                [
                    1343,
                    2829
                ],
                [
                    1674,
                    2918
                ]
            ],
            "shape_type": "rectangle"
        },
        {
            "flags": {},
            "group_id": null,
            "label": "v1",
            "points": [
                [
                    2061,
                    2835
                ],
                [
                    2391,
                    2924
                ]
            ],
            "shape_type": "rectangle"
        },
        {
            "flags": {},
            "group_id": null,
            "label": "vp1-1",
            "points": [
                [
                    2174,
                    2562
                ],
                [
                    2340,
                    2726
                ]
            ],
            "shape_type": "rectangle"
        },
        {
            "flags": {},
            "group_id": null,
            "label": "x1",
            "points": [
                [
                    3087,
                    2475
                ],
                [
                    3240,
                    2501
                ]
            ],
            "shape_type": "rectangle"
        },
        {
            "flags": {},
            "group_id": null,
            "label": "sm",
            "points": [
                [
                    1826,
                    3210
                ],
                [
                    3291,
                    3877
                ]
            ],
            "shape_type": "rectangle"
        },
        {
            "flags": {},
            "group_id": null,
            "label": "btl",
            "points": [
                [
                    2346,
                    3866
                ],
                [
                    4151,
                    4167
                ]
            ],
            "shape_type": "rectangle"
        },
        {
            "flags": {},
            "group_id": null,
            "label": "j1",
            "points": [
                [
                    1954,
                    1801
                ],
                [
                    2063,
                    1880
                ]
            ],
            "shape_type": "rectangle"
        },
        {
            "flags": {},
            "group_id": null,
            "label": "j1",
            "points": [
                [
                    2099,
                    1567
                ],
                [
                    2187,
                    1644
                ]
            ],
            "shape_type": "rectangle"
        },
        {
            "flags": {},
            "group_id": null,
            "label": "j1",
            "points": [
                [
                    1939,
                    1420
                ],
                [
                    1971,
                    1462
                ]
            ],
            "shape_type": "rectangle"
        },
        {
            "flags": {},
            "group_id": null,
            "label": "j1",
            "points": [
                [
                    1636,
                    1576
                ],
                [
                    1745,
                    1658
                ]
            ],
            "shape_type": "rectangle"
        },
        {
            "flags": {},
            "group_id": null,
            "label": "mask",
            "lineType": [
                "LLLLLLLLLLL"
            ],
            "points": [
                [
                    592,
                    1506
                ],
                [
                    503,
                    1603
                ],
                [
                    443,
                    1993
                ],
                [
                    1053,
                    2001
                ],
                [
                    1170,
                    1981
                ],
                [
                    1185,
                    1937
                ],
                [
                    1187,
                    1837
                ],
                [
                    1083,
                    1635
                ],
                [
                    1043,
                    1608
                ],
                [
                    759,
                    1555
                ],
                [
                    592,
                    1506
                ]
            ],
            "shape_type": "polygon"
        },
        {
            "flags": {},
            "group_id": null,
            "label": "mask",
            "lineType": [
                "LLLLLLLLLLLLLLLLLLLLLLL"
            ],
            "points": [
                [
                    743,
                    2383
                ],
                [
                    832,
                    2450
                ],
                [
                    821,
                    2552
                ],
                [
                    753,
                    2651
                ],
                [
                    636,
                    2707
                ],
                [
                    563,
                    2737
                ],
                [
                    566,
                    2783
                ],
                [
                    691,
                    2939
                ],
                [
                    1048,
                    2939
                ],
                [
                    1047,
                    2880
                ],
                [
                    1215,
                    2805
                ],
                [
                    1176,
                    2741
                ],
                [
                    1063,
                    2742
                ],
                [
                    1061,
                    2708
                ],
                [
                    1049,
                    2700
                ],
                [
                    986,
                    2671
                ],
                [
                    970,
                    2565
                ],
                [
                    924,
                    2508
                ],
                [
                    928,
                    2465
                ],
                [
                    963,
                    2379
                ],
                [
                    957,
                    2357
                ],
                [
                    817,
                    2358
                ],
                [
                    743,
                    2383
                ]
            ],
            "shape_type": "polygon"
        },
        {
            "flags": {},
            "group_id": null,
            "label": "mask",
            "lineType": [
                "LLLLLLLLLLLLLLLLLLLLLL"
            ],
            "points": [
                [
                    1547,
                    2432
                ],
                [
                    1484,
                    2479
                ],
                [
                    1439,
                    2665
                ],
                [
                    1406,
                    2663
                ],
                [
                    1274,
                    2674
                ],
                [
                    1224,
                    2660
                ],
                [
                    1201,
                    2676
                ],
                [
                    1215,
                    2755
                ],
                [
                    1347,
                    2754
                ],
                [
                    1333,
                    2935
                ],
                [
                    1700,
                    2930
                ],
                [
                    1666,
                    2795
                ],
                [
                    1858,
                    2802
                ],
                [
                    1887,
                    2739
                ],
                [
                    1865,
                    2725
                ],
                [
                    1693,
                    2711
                ],
                [
                    1637,
                    2664
                ],
                [
                    1604,
                    2528
                ],
                [
                    1745,
                    2503
                ],
                [
                    1765,
                    2418
                ],
                [
                    1637,
                    2409
                ],
                [
                    1547,
                    2432
                ]
            ],
            "shape_type": "polygon"
        },
        {
            "flags": {},
            "group_id": null,
            "label": "mask",
            "lineType": [
                "LLLLLLLLLLLLL"
            ],
            "points": [
                [
                    2231,
                    2446
                ],
                [
                    2212,
                    2525
                ],
                [
                    2179,
                    2591
                ],
                [
                    2157,
                    2676
                ],
                [
                    2100,
                    2713
                ],
                [
                    2040,
                    2929
                ],
                [
                    2406,
                    2936
                ],
                [
                    2415,
                    2880
                ],
                [
                    2298,
                    2753
                ],
                [
                    2415,
                    2748
                ],
                [
                    2339,
                    2545
                ],
                [
                    2321,
                    2487
                ],
                [
                    2231,
                    2446
                ]
            ],
            "shape_type": "polygon"
        },
        {
            "flags": {},
            "group_id": null,
            "label": "mask",
            "lineType": [
                "LLLLLLLLLL"
            ],
            "points": [
                [
                    332,
                    3288
                ],
                [
                    1742,
                    3288
                ],
                [
                    1742,
                    4035
                ],
                [
                    332,
                    4035
                ]
            ],
            "shape_type": "polygon"
        },
        {
            "flags": {},
            "group_id": null,
            "label": "mask",
            "lineType": [
                "LLLLLLLLLLLLLLLLLLLL"
            ],
            "points": [
                [
                    1816,
                    3200
                ],
                [
                    3301,
                    3200
                ],
                [
                    3301,
                    3887
                ],
                [
                    1816,
                    3887
                ]
            ],
            "shape_type": "polygon"
        },
        {
            "flags": {},
            "group_id": null,
            "label": "mask",
            "lineType": [
                "LLLLL"
            ],
            "points": [
                [
                    2336,
                    3856
                ],
                [
                    4161,
                    3856
                ],
                [
                    4161,
                    4177
                ],
                [
                    2336,
                    4177
                ]
            ],
            "shape_type": "polygon"
        },
        {
            "flags": {},
            "group_id": null,
            "label": "mask",
            "lineType": [
                "LLLLLLLLLLLLLLLLLLLLLLLL"
            ],
            "points": [
                [
                    1625,
                    1408
                ],
                [
                    2198,
                    1408
                ],
                [
                    2198,
                    1893
                ],
                [
                    1625,
                    1893
                ]
            ],
            "shape_type": "polygon"
        },
        {
            "flags": {},
            "group_id": null,
            "label": "mask",
            "lineType": [
                "LLLLLLLLLLLLLLLLLLLLLLLLLLLLLLLLLLLLLLLLLLLL"
            ],
            "points": [
                [
                    2866,
                    1409
                ],
                [
                    2823,
                    1482
                ],
                [
                    2733,
                    1512
                ],
                [
                    2651,
                    1529
                ],
                [
                    2631,
                    1546
                ],
                [
                    2611,
                    1586
                ],
                [
                    2616,
                    1659
                ],
                [
                    2599,
                    1764
                ],
                [
                    2644,
                    1786
                ],
                [
                    2788,
                    1807
                ],
                [
                    2834,
                    1991
                ],
                [
                    2876,
                    2037
                ],
                [
                    3071,
                    2059
                ],
                [
                    3101,
                    2132
                ],
                [
                    3078,
                    2571
                ],
                [
                    3058,
                    3051
                ],
                [
                    2903,
                    3101
                ],
                [
                    2916,
                    3177
                ],
                [
                    3291,
                    3184
                ],
                [
                    3310,
                    3354
                ],
                [
                    3675,
                    3358
                ],
                [
                    3670,
                    3303
                ],
                [
                    3626,
                    3190
                ],
                [
                    3922,
                    3169
                ],
                [
                    3932,
                    3115
                ],
                [
                    3926,
                    3049
                ],
                [
                    3726,
                    3027
                ],
                [
                    3608,
                    3046
                ],
                [
                    3613,
                    2854
                ],
                [
                    3401,
                    2857
                ],
                [
                    3388,
                    3060
                ],
                [
                    3207,
                    3079
                ],
                [
                    3214,
                    2559
                ],
                [
                    3258,
                    2507
                ],
                [
                    3260,
                    2464
                ],
                [
                    3210,
                    2450
                ],
                [
                    3216,
                    2195
                ],
                [
                    3232,
                    2066
                ],
                [
                    3529,
                    2027
                ],
                [
                    3659,
                    2052
                ],
                [
                    3803,
                    2047
                ],
                [
                    3812,
                    1993
                ],
                [
                    3797,
                    1390
                ],
                [
                    2866,
                    1409
                ]
            ],
            "shape_type": "polygon"
        },
        {
            "flags": {},
            "group_id": null,
            "label": "Ns",
            "points": [
                [
                    1906,
                    1705
                ]
            ],
            "shape_type": "point"
        },
        {
            "flags": {},
            "group_id": null,
            "label": "Ne",
            "points": [
                [
                    1906,
                    1528
                ]
            ],
            "shape_type": "point"
        },
        {
            "flags": {},
            "group_id": null,
            "label": "wlb",
            "points": [
                [
                    342,
                    3298
                ],
                [
                    1732,
                    4025
                ]
            ],
            "shape_type": "rectangle"
        },
        {
            "flags": {},
            "group_id": null,
            "label": "wz3",
            "points": [
                [
                    2638,
                    1552
                ],
                [
                    2768,
                    1594
                ]
            ],
            "shape_type": "rectangle"
        },
        {
            "flags": {},
            "group_id": null,
            "label": "wz3",
            "points": [
                [
                    2649,
                    1745
                ],
                [
                    2783,
                    1774
                ]
            ],
            "shape_type": "rectangle"
        },
        {
            "flags": {},
            "group_id": null,
            "label": "wz3",
            "points": [
                [
                    1606,
                    2431
                ],
                [
                    1744,
                    2492
                ]
            ],
            "shape_type": "rectangle"
        },
        {
            "flags": {},
            "group_id": null,
            "label": "wz3",
            "points": [
                [
                    1715,
                    2730
                ],
                [
                    1865,
                    2794
                ]
            ],
            "shape_type": "rectangle"
        },
        {
            "flags": {},
            "group_id": null,
            "label": "wz3",
            "points": [
                [
                    1211,
                    2675
                ],
                [
                    1365,
                    2741
                ]
            ],
            "shape_type": "rectangle"
        },
        {
            "flags": {},
            "group_id": null,
            "label": "wz3",
            "points": [
                [
                    1041,
                    2758
                ],
                [
                    1169,
                    2801
                ]
            ],
            "shape_type": "rectangle"
        },
        {
            "flags": {},
            "group_id": null,
            "label": "wz3",
            "points": [
                [
                    577,
                    2738
                ],
                [
                    711,
                    2782
                ]
            ],
            "shape_type": "rectangle"
        },
        {
            "flags": {},
            "group_id": null,
            "label": "wz3",
            "points": [
                [
                    813,
                    2371
                ],
                [
                    943,
                    2414
                ]
            ],
            "shape_type": "rectangle"
        },
        {
            "flags": {},
            "group_id": null,
            "label": "wz3",
            "points": [
                [
                    1759,
                    1904
                ],
                [
                    1975,
                    1951
                ]
            ],
            "shape_type": "rectangle"
        }
    ],
    "version": "4.5.7"
}