{
    "flags": {},
    "imageData": null,
    "imageHeight": 4205,
    "imagePath": "样本6_127_4.png",
    "imageWidth": 4205,
    "shapes": [
        {
            "flags": {},
            "group_id": null,
            "label": "",
            "points": [],
            "shape_type": ""
        },
        {
            "flags": {},
            "group_id": null,
            "label": "c1",
            "points": [
                [
                    3462,
                    1509
                ],
                [
                    3491,
                    1703
                ]
            ],
            "shape_type": "rectangle"
        },
        {
            "flags": {},
            "group_id": null,
            "label": "d1",
            "points": [
                [
                    3267,
                    1711
                ],
                [
                    3350,
                    1848
                ]
            ],
            "shape_type": "rectangle"
        },
        {
            "flags": {},
            "group_id": null,
            "label": "d1",
            "points": [
                [
                    3270,
                    1944
                ],
                [
                    3354,
                    2082
                ]
            ],
            "shape_type": "rectangle"
        },
        {
            "flags": {},
            "group_id": null,
            "label": "d1",
            "points": [
                [
                    3270,
                    2161
                ],
                [
                    3355,
                    2298
                ]
            ],
            "shape_type": "rectangle"
        },
        {
            "flags": {},
            "group_id": null,
            "label": "d1",
            "points": [
                [
                    3272,
                    2395
                ],
                [
                    3357,
                    2532
                ]
            ],
            "shape_type": "rectangle"
        },
        {
            "flags": {},
            "group_id": null,
            "label": "d1",
            "points": [
                [
                    3270,
                    2611
                ],
                [
                    3354,
                    2747
                ]
            ],
            "shape_type": "rectangle"
        },
        {
            "flags": {},
            "group_id": null,
            "label": "b1",
            "points": [
                [
                    3572,
                    3170
                ],
                [
                    3745,
                    3318
                ]
            ],
            "shape_type": "rectangle"
        },
        {
            "flags": {},
            "group_id": null,
            "label": "h1",
            "points": [
                [
                    3888,
                    3242
                ],
                [
                    4058,
                    3318
                ]
            ],
            "shape_type": "rectangle"
        },
        {
            "flags": {},
            "group_id": null,
            "label": "v1",
            "points": [
                [
                    3251,
                    3501
                ],
                [
                    3583,
                    3591
                ]
            ],
            "shape_type": "rectangle"
        },
        {
            "flags": {},
            "group_id": null,
            "label": "seven",
            "points": [
                [
                    3587,
                    3173
                ]
            ],
            "shape_type": "point"
        },
        {
            "flags": {},
            "group_id": null,
            "label": "thirteen",
            "points": [
                [
                    3652,
                    3174
                ]
            ],
            "shape_type": "point"
        },
        {
            "flags": {},
            "group_id": null,
            "label": "eight",
            "points": [
                [
                    3718,
                    3173
                ]
            ],
            "shape_type": "point"
        },
        {
            "flags": {},
            "group_id": null,
            "label": "fourteen",
            "points": [
                [
                    3587,
                    3285
                ]
            ],
            "shape_type": "point"
        },
        {
            "flags": {},
            "group_id": null,
            "label": "fourteen",
            "points": [
                [
                    3652,
                    3285
                ]
            ],
            "shape_type": "point"
        },
        {
            "flags": {},
            "group_id": null,
            "label": "fourteen",
            "points": [
                [
                    3717,
                    3286
                ]
            ],
            "shape_type": "point"
        },
        {
            "flags": {},
            "group_id": null,
            "label": "seven",
            "points": [
                [
                    3573,
                    3288
                ]
            ],
            "shape_type": "point"
        },
        {
            "flags": {},
            "group_id": null,
            "label": "eight",
            "points": [
                [
                    3745,
                    3288
                ]
            ],
            "shape_type": "point"
        },
        {
            "flags": {},
            "group_id": null,
            "label": "fourteen",
            "points": [
                [
                    3572,
                    3318
                ]
            ],
            "shape_type": "point"
        },
        {
            "flags": {},
            "group_id": null,
            "label": "fourteen",
            "points": [
                [
                    3745,
                    3318
                ]
            ],
            "shape_type": "point"
        },
        {
            "flags": {},
            "group_id": null,
            "label": "d1",
            "points": [
                [
                    3607,
                    2610
                ],
                [
                    3691,
                    2749
                ]
            ],
            "shape_type": "rectangle"
        },
        {
            "flags": {},
            "group_id": null,
            "label": "d1",
            "points": [
                [
                    3610,
                    2395
                ],
                [
                    3695,
                    2533
                ]
            ],
            "shape_type": "rectangle"
        },
        {
            "flags": {},
            "group_id": null,
            "label": "d1",
            "points": [
                [
                    3607,
                    2162
                ],
                [
                    3690,
                    2299
                ]
            ],
            "shape_type": "rectangle"
        },
        {
            "flags": {},
            "group_id": null,
            "label": "d1",
            "points": [
                [
                    3607,
                    1945
                ],
                [
                    3690,
                    2083
                ]
            ],
            "shape_type": "rectangle"
        },
        {
            "flags": {},
            "group_id": null,
            "label": "d1",
            "points": [
                [
                    3605,
                    1711
                ],
                [
                    3688,
                    1850
                ]
            ],
            "shape_type": "rectangle"
        },
        {
            "flags": {},
            "group_id": null,
            "label": "h1",
            "points": [
                [
                    3822,
                    1526
                ],
                [
                    4005,
                    1601
                ]
            ],
            "shape_type": "rectangle"
        },
        {
            "flags": {},
            "group_id": null,
            "label": "h1",
            "points": [
                [
                    3811,
                    1874
                ],
                [
                    3991,
                    1950
                ]
            ],
            "shape_type": "rectangle"
        },
        {
            "flags": {},
            "group_id": null,
            "label": "h1",
            "points": [
                [
                    3812,
                    2088
                ],
                [
                    3991,
                    2164
                ]
            ],
            "shape_type": "rectangle"
        },
        {
            "flags": {},
            "group_id": null,
            "label": "h1",
            "points": [
                [
                    3811,
                    2326
                ],
                [
                    3991,
                    2403
                ]
            ],
            "shape_type": "rectangle"
        },
        {
            "flags": {},
            "group_id": null,
            "label": "h1",
            "points": [
                [
                    3811,
                    2490
                ],
                [
                    3992,
                    2566
                ]
            ],
            "shape_type": "rectangle"
        },
        {
            "flags": {},
            "group_id": null,
            "label": "h1",
            "points": [
                [
                    3811,
                    2694
                ],
                [
                    3992,
                    2771
                ]
            ],
            "shape_type": "rectangle"
        },
        {
            "flags": {},
            "group_id": null,
            "label": "p1-1",
            "points": [
                [
                    3405,
                    2623
                ],
                [
                    3558,
                    2802
                ]
            ],
            "shape_type": "rectangle"
        },
        {
            "flags": {},
            "group_id": null,
            "label": "p1-1",
            "points": [
                [
                    3404,
                    2419
                ],
                [
                    3557,
                    2596
                ]
            ],
            "shape_type": "rectangle"
        },
        {
            "flags": {},
            "group_id": null,
            "label": "p1-1",
            "points": [
                [
                    3401,
                    2209
                ],
                [
                    3554,
                    2387
                ]
            ],
            "shape_type": "rectangle"
        },
        {
            "flags": {},
            "group_id": null,
            "label": "p1-1",
            "points": [
                [
                    3401,
                    1980
                ],
                [
                    3555,
                    2158
                ]
            ],
            "shape_type": "rectangle"
        },
        {
            "flags": {},
            "group_id": null,
            "label": "p1-1",
            "points": [
                [
                    3401,
                    1757
                ],
                [
                    3554,
                    1936
                ]
            ],
            "shape_type": "rectangle"
        },
        {
            "flags": {},
            "group_id": null,
            "label": "z1",
            "points": [
                [
                    3392,
                    1738
                ],
                [
                    3562,
                    1959
                ]
            ],
            "shape_type": "rectangle"
        },
        {
            "flags": {},
            "group_id": null,
            "label": "z1",
            "points": [
                [
                    3392,
                    1959
                ],
                [
                    3562,
                    2179
                ]
            ],
            "shape_type": "rectangle"
        },
        {
            "flags": {},
            "group_id": null,
            "label": "a1-1",
            "points": [
                [
                    3401,
                    1774
                ],
                [
                    3432,
                    1903
                ]
            ],
            "shape_type": "rectangle"
        },
        {
            "flags": {},
            "group_id": null,
            "label": "a1-2",
            "points": [
                [
                    3521,
                    1769
                ],
                [
                    3554,
                    1907
                ]
            ],
            "shape_type": "rectangle"
        },
        {
            "flags": {},
            "group_id": null,
            "label": "a1-1",
            "points": [
                [
                    3400,
                    1993
                ],
                [
                    3431,
                    2123
                ]
            ],
            "shape_type": "rectangle"
        },
        {
            "flags": {},
            "group_id": null,
            "label": "a1-2",
            "points": [
                [
                    3522,
                    1989
                ],
                [
                    3554,
                    2127
                ]
            ],
            "shape_type": "rectangle"
        },
        {
            "flags": {},
            "group_id": null,
            "label": "a1-1",
            "points": [
                [
                    3401,
                    2224
                ],
                [
                    3432,
                    2353
                ]
            ],
            "shape_type": "rectangle"
        },
        {
            "flags": {},
            "group_id": null,
            "label": "a1-2",
            "points": [
                [
                    3521,
                    2219
                ],
                [
                    3553,
                    2355
                ]
            ],
            "shape_type": "rectangle"
        },
        {
            "flags": {},
            "group_id": null,
            "label": "a1-1",
            "points": [
                [
                    3404,
                    2433
                ],
                [
                    3435,
                    2562
                ]
            ],
            "shape_type": "rectangle"
        },
        {
            "flags": {},
            "group_id": null,
            "label": "a1-2",
            "points": [
                [
                    3525,
                    2430
                ],
                [
                    3557,
                    2566
                ]
            ],
            "shape_type": "rectangle"
        },
        {
            "flags": {},
            "group_id": null,
            "label": "a1-1",
            "points": [
                [
                    3406,
                    2637
                ],
                [
                    3436,
                    2768
                ]
            ],
            "shape_type": "rectangle"
        },
        {
            "flags": {},
            "group_id": null,
            "label": "a1-2",
            "points": [
                [
                    3525,
                    2634
                ],
                [
                    3557,
                    2770
                ]
            ],
            "shape_type": "rectangle"
        },
        {
            "flags": {},
            "group_id": null,
            "label": "g1",
            "points": [
                [
                    3440,
                    2622
                ],
                [
                    3444,
                    2802
                ]
            ],
            "shape_type": "rectangle"
        },
        {
            "flags": {},
            "group_id": null,
            "label": "g1",
            "points": [
                [
                    3520,
                    2623
                ],
                [
                    3524,
                    2801
                ]
            ],
            "shape_type": "rectangle"
        },
        {
            "flags": {},
            "group_id": null,
            "label": "g1",
            "points": [
                [
                    3437,
                    2419
                ],
                [
                    3442,
                    2596
                ]
            ],
            "shape_type": "rectangle"
        },
        {
            "flags": {},
            "group_id": null,
            "label": "g1",
            "points": [
                [
                    3519,
                    2419
                ],
                [
                    3524,
                    2596
                ]
            ],
            "shape_type": "rectangle"
        },
        {
            "flags": {},
            "group_id": null,
            "label": "g1",
            "points": [
                [
                    3435,
                    2209
                ],
                [
                    3440,
                    2386
                ]
            ],
            "shape_type": "rectangle"
        },
        {
            "flags": {},
            "group_id": null,
            "label": "g1",
            "points": [
                [
                    3515,
                    2209
                ],
                [
                    3520,
                    2386
                ]
            ],
            "shape_type": "rectangle"
        },
        {
            "flags": {},
            "group_id": null,
            "label": "g1",
            "points": [
                [
                    3434,
                    1980
                ],
                [
                    3440,
                    2158
                ]
            ],
            "shape_type": "rectangle"
        },
        {
            "flags": {},
            "group_id": null,
            "label": "g1",
            "points": [
                [
                    3516,
                    1980
                ],
                [
                    3520,
                    2158
                ]
            ],
            "shape_type": "rectangle"
        },
        {
            "flags": {},
            "group_id": null,
            "label": "g1",
            "points": [
                [
                    3434,
                    1757
                ],
                [
                    3440,
                    1936
                ]
            ],
            "shape_type": "rectangle"
        },
        {
            "flags": {},
            "group_id": null,
            "label": "g1",
            "points": [
                [
                    3516,
                    1758
                ],
                [
                    3521,
                    1935
                ]
            ],
            "shape_type": "rectangle"
        },
        {
            "flags": {},
            "group_id": null,
            "label": "vp1-1",
            "points": [
                [
                    2199,
                    1610
                ],
                [
                    2297,
                    1709
                ]
            ],
            "shape_type": "rectangle"
        },
        {
            "flags": {},
            "group_id": null,
            "label": "va1",
            "points": [
                [
                    2226,
                    1563
                ],
                [
                    2268,
                    1596
                ]
            ],
            "shape_type": "rectangle"
        },
        {
            "flags": {},
            "group_id": null,
            "label": "va1",
            "points": [
                [
                    2156,
                    1686
                ],
                [
                    2193,
                    1726
                ]
            ],
            "shape_type": "rectangle"
        },
        {
            "flags": {},
            "group_id": null,
            "label": "va1",
            "points": [
                [
                    2303,
                    1685
                ],
                [
                    2342,
                    1723
                ]
            ],
            "shape_type": "rectangle"
        },
        {
            "flags": {},
            "group_id": null,
            "label": "va1",
            "points": [
                [
                    1664,
                    1545
                ],
                [
                    1706,
                    1577
                ]
            ],
            "shape_type": "rectangle"
        },
        {
            "flags": {},
            "group_id": null,
            "label": "va1",
            "points": [
                [
                    1593,
                    1667
                ],
                [
                    1629,
                    1708
                ]
            ],
            "shape_type": "rectangle"
        },
        {
            "flags": {},
            "group_id": null,
            "label": "va1",
            "points": [
                [
                    1740,
                    1667
                ],
                [
                    1778,
                    1705
                ]
            ],
            "shape_type": "rectangle"
        },
        {
            "flags": {},
            "group_id": null,
            "label": "va1",
            "points": [
                [
                    1114,
                    1547
                ],
                [
                    1157,
                    1579
                ]
            ],
            "shape_type": "rectangle"
        },
        {
            "flags": {},
            "group_id": null,
            "label": "va1",
            "points": [
                [
                    1044,
                    1669
                ],
                [
                    1081,
                    1710
                ]
            ],
            "shape_type": "rectangle"
        },
        {
            "flags": {},
            "group_id": null,
            "label": "va1",
            "points": [
                [
                    1191,
                    1669
                ],
                [
                    1229,
                    1707
                ]
            ],
            "shape_type": "rectangle"
        },
        {
            "flags": {},
            "group_id": null,
            "label": "va1",
            "points": [
                [
                    1108,
                    2146
                ],
                [
                    1150,
                    2178
                ]
            ],
            "shape_type": "rectangle"
        },
        {
            "flags": {},
            "group_id": null,
            "label": "va1",
            "points": [
                [
                    1038,
                    2268
                ],
                [
                    1073,
                    2309
                ]
            ],
            "shape_type": "rectangle"
        },
        {
            "flags": {},
            "group_id": null,
            "label": "va1",
            "points": [
                [
                    1183,
                    2268
                ],
                [
                    1222,
                    2306
                ]
            ],
            "shape_type": "rectangle"
        },
        {
            "flags": {},
            "group_id": null,
            "label": "va1",
            "points": [
                [
                    1700,
                    2129
                ],
                [
                    1742,
                    2162
                ]
            ],
            "shape_type": "rectangle"
        },
        {
            "flags": {},
            "group_id": null,
            "label": "va1",
            "points": [
                [
                    1629,
                    2252
                ],
                [
                    1666,
                    2293
                ]
            ],
            "shape_type": "rectangle"
        },
        {
            "flags": {},
            "group_id": null,
            "label": "va1",
            "points": [
                [
                    1776,
                    2251
                ],
                [
                    1815,
                    2290
                ]
            ],
            "shape_type": "rectangle"
        },
        {
            "flags": {},
            "group_id": null,
            "label": "vp1-1",
            "points": [
                [
                    1031,
                    1538
                ],
                [
                    1243,
                    1750
                ]
            ],
            "shape_type": "rectangle"
        },
        {
            "flags": {},
            "group_id": null,
            "label": "v1",
            "points": [
                [
                    958,
                    1832
                ],
                [
                    1289,
                    1925
                ]
            ],
            "shape_type": "rectangle"
        },
        {
            "flags": {},
            "group_id": null,
            "label": "v1",
            "points": [
                [
                    1522,
                    1833
                ],
                [
                    1855,
                    1925
                ]
            ],
            "shape_type": "rectangle"
        },
        {
            "flags": {},
            "group_id": null,
            "label": "v1",
            "points": [
                [
                    2101,
                    1835
                ],
                [
                    2432,
                    1926
                ]
            ],
            "shape_type": "rectangle"
        },
        {
            "flags": {},
            "group_id": null,
            "label": "n1",
            "points": [
                [
                    2413,
                    2009
                ],
                [
                    2837,
                    2444
                ]
            ],
            "shape_type": "rectangle"
        },
        {
            "flags": {},
            "group_id": null,
            "label": "vp2-1",
            "points": [
                [
                    1580,
                    1536
                ],
                [
                    1793,
                    1747
                ]
            ],
            "shape_type": "rectangle"
        },
        {
            "flags": {},
            "group_id": null,
            "label": "vp1-1",
            "points": [
                [
                    1673,
                    2177
                ],
                [
                    1772,
                    2276
                ]
            ],
            "shape_type": "rectangle"
        },
        {
            "flags": {},
            "group_id": null,
            "label": "v1",
            "points": [
                [
                    1554,
                    2358
                ],
                [
                    1886,
                    2451
                ]
            ],
            "shape_type": "rectangle"
        },
        {
            "flags": {},
            "group_id": null,
            "label": "vp1-1",
            "points": [
                [
                    1080,
                    2194
                ],
                [
                    1179,
                    2293
                ]
            ],
            "shape_type": "rectangle"
        },
        {
            "flags": {},
            "group_id": null,
            "label": "v1",
            "points": [
                [
                    956,
                    2374
                ],
                [
                    1287,
                    2465
                ]
            ],
            "shape_type": "rectangle"
        },
        {
            "flags": {},
            "group_id": null,
            "label": "v1",
            "points": [
                [
                    545,
                    2415
                ],
                [
                    735,
                    2488
                ]
            ],
            "shape_type": "rectangle"
        },
        {
            "flags": {},
            "group_id": null,
            "label": "vb1",
            "points": [
                [
                    609,
                    2142
                ],
                [
                    700,
                    2305
                ]
            ],
            "shape_type": "rectangle"
        },
        {
            "flags": {},
            "group_id": null,
            "label": "d1",
            "points": [
                [
                    377,
                    2300
                ],
                [
                    515,
                    2383
                ]
            ],
            "shape_type": "rectangle"
        },
        {
            "flags": {},
            "group_id": null,
            "label": "d1",
            "points": [
                [
                    378,
                    1626
                ],
                [
                    515,
                    1710
                ]
            ],
            "shape_type": "rectangle"
        },
        {
            "flags": {},
            "group_id": null,
            "label": "vt9",
            "points": [
                [
                    500,
                    1732
                ],
                [
                    811,
                    2042
                ]
            ],
            "shape_type": "rectangle"
        },
        {
            "flags": {},
            "group_id": null,
            "label": "seven",
            "points": [
                [
                    610,
                    2142
                ]
            ],
            "shape_type": "point"
        },
        {
            "flags": {},
            "group_id": null,
            "label": "eight",
            "points": [
                [
                    700,
                    2142
                ]
            ],
            "shape_type": "point"
        },
        {
            "flags": {},
            "group_id": null,
            "label": "nine",
            "points": [
                [
                    610,
                    2304
                ]
            ],
            "shape_type": "point"
        },
        {
            "flags": {},
            "group_id": null,
            "label": "ten",
            "points": [
                [
                    700,
                    2304
                ]
            ],
            "shape_type": "point"
        },
        {
            "flags": {},
            "group_id": null,
            "label": "x1",
            "points": [
                [
                    3428,
                    2876
                ],
                [
                    3525,
                    2902
                ]
            ],
            "shape_type": "rectangle"
        },
        {
            "flags": {},
            "group_id": null,
            "label": "t9",
            "points": [
                [
                    3392,
                    1509
                ],
                [
                    3564,
                    3319
                ]
            ],
            "shape_type": "rectangle"
        },
        {
            "flags": {},
            "group_id": null,
            "label": "",
            "points": [],
            "shape_type": ""
        },
        {
            "flags": {},
            "group_id": null,
            "label": "sm",
            "points": [
                [
                    1819,
                    3140
                ],
                [
                    4139,
                    3902
                ]
            ],
            "shape_type": "rectangle"
        },
        {
            "flags": {},
            "group_id": null,
            "label": "btl",
            "points": [
                [
                    2346,
                    3864
                ],
                [
                    4149,
                    4169
                ]
            ],
            "shape_type": "rectangle"
        },
        {
            "flags": {},
            "group_id": null,
            "label": "j1",
            "points": [
                [
                    2473,
                    2362
                ],
                [
                    2581,
                    2443
                ]
            ],
            "shape_type": "rectangle"
        },
        {
            "flags": {},
            "group_id": null,
            "label": "j1",
            "points": [
                [
                    2744,
                    2274
                ],
                [
                    2835,
                    2357
                ]
            ],
            "shape_type": "rectangle"
        },
        {
            "flags": {},
            "group_id": null,
            "label": "j1",
            "points": [
                [
                    2414,
                    2146
                ],
                [
                    2514,
                    2230
                ]
            ],
            "shape_type": "rectangle"
        },
        {
            "flags": {},
            "group_id": null,
            "label": "j1",
            "points": [
                [
                    2611,
                    2014
                ],
                [
                    2642,
                    2048
                ]
            ],
            "shape_type": "rectangle"
        },
        {
            "flags": {},
            "group_id": null,
            "label": "mask",
            "lineType": [
                "LLLLLLLLLL"
            ],
            "points": [
                [
                    403,
                    2687
                ],
                [
                    1813,
                    2687
                ],
                [
                    1813,
                    4027
                ],
                [
                    403,
                    4027
                ]
            ],
            "shape_type": "polygon"
        },
        {
            "flags": {},
            "group_id": null,
            "label": "mask",
            "lineType": [
                "LLLLLLLLLLLLLLLLLLLLLLLLLLLL"
            ],
            "points": [
                [
                    1809,
                    3130
                ],
                [
                    4149,
                    3130
                ],
                [
                    4149,
                    3912
                ],
                [
                    1809,
                    3912
                ]
            ],
            "shape_type": "polygon"
        },
        {
            "flags": {},
            "group_id": null,
            "label": "mask",
            "lineType": [
                "LLLLL"
            ],
            "points": [
                [
                    2336,
                    3854
                ],
                [
                    4159,
                    3854
                ],
                [
                    4159,
                    4179
                ],
                [
                    2336,
                    4179
                ]
            ],
            "shape_type": "polygon"
        },
        {
            "flags": {},
            "group_id": null,
            "label": "mask",
            "lineType": [
                "LLLLLLLLL"
            ],
            "points": [
                [
                    3241,
                    3518
                ],
                [
                    3225,
                    3601
                ],
                [
                    3236,
                    3626
                ],
                [
                    3660,
                    3609
                ],
                [
                    3615,
                    3531
                ],
                [
                    3571,
                    3503
                ],
                [
                    3491,
                    3492
                ],
                [
                    3299,
                    3492
                ],
                [
                    3241,
                    3518
                ]
            ],
            "shape_type": "polygon"
        },
        {
            "flags": {},
            "group_id": null,
            "label": "mask",
            "lineType": [
                "LLLLLLLLLLLLLLLLLLLLLLLLLLLLLLLLLLLLLLLL"
            ],
            "points": [
                [
                    3477,
                    1472
                ],
                [
                    3403,
                    1586
                ],
                [
                    3333,
                    1660
                ],
                [
                    3269,
                    1670
                ],
                [
                    3232,
                    1692
                ],
                [
                    3213,
                    1735
                ],
                [
                    3124,
                    1757
                ],
                [
                    3080,
                    1776
                ],
                [
                    3076,
                    2130
                ],
                [
                    3062,
                    2586
                ],
                [
                    3043,
                    2757
                ],
                [
                    3376,
                    2796
                ],
                [
                    3410,
                    3220
                ],
                [
                    3410,
                    3275
                ],
                [
                    3190,
                    3299
                ],
                [
                    3177,
                    3357
                ],
                [
                    3422,
                    3414
                ],
                [
                    3624,
                    3414
                ],
                [
                    3679,
                    3367
                ],
                [
                    3941,
                    3355
                ],
                [
                    3981,
                    3301
                ],
                [
                    4083,
                    3296
                ],
                [
                    4069,
                    3229
                ],
                [
                    3850,
                    3217
                ],
                [
                    3740,
                    3228
                ],
                [
                    3728,
                    3147
                ],
                [
                    3553,
                    3147
                ],
                [
                    3552,
                    2903
                ],
                [
                    3584,
                    2784
                ],
                [
                    3828,
                    2789
                ],
                [
                    4020,
                    2767
                ],
                [
                    4015,
                    1884
                ],
                [
                    3994,
                    1863
                ],
                [
                    4019,
                    1523
                ],
                [
                    3934,
                    1498
                ],
                [
                    3797,
                    1508
                ],
                [
                    3791,
                    1701
                ],
                [
                    3595,
                    1677
                ],
                [
                    3544,
                    1660
                ],
                [
                    3477,
                    1472
                ]
            ],
            "shape_type": "polygon"
        },
        {
            "flags": {},
            "group_id": null,
            "label": "mask",
            "lineType": [
                "LLLLLLLLLLLLLLLLLLLL"
            ],
            "points": [
                [
                    2403,
                    1999
                ],
                [
                    2847,
                    1999
                ],
                [
                    2847,
                    2454
                ],
                [
                    2403,
                    2454
                ]
            ],
            "shape_type": "polygon"
        },
        {
            "flags": {},
            "group_id": null,
            "label": "mask",
            "lineType": [
                "LLLLLLLLLLLLL"
            ],
            "points": [
                [
                    2084,
                    1942
                ],
                [
                    2043,
                    1849
                ],
                [
                    2064,
                    1673
                ],
                [
                    2145,
                    1630
                ],
                [
                    2191,
                    1480
                ],
                [
                    2334,
                    1488
                ],
                [
                    2354,
                    1598
                ],
                [
                    2431,
                    1715
                ],
                [
                    2456,
                    1761
                ],
                [
                    2401,
                    1808
                ],
                [
                    2450,
                    1915
                ],
                [
                    2446,
                    1946
                ],
                [
                    2084,
                    1942
                ]
            ],
            "shape_type": "polygon"
        },
        {
            "flags": {},
            "group_id": null,
            "label": "mask",
            "lineType": [
                "LLLLLLLLLLLLLLLLLL"
            ],
            "points": [
                [
                    1823,
                    1936
                ],
                [
                    1499,
                    1947
                ],
                [
                    1503,
                    1840
                ],
                [
                    1563,
                    1760
                ],
                [
                    1476,
                    1745
                ],
                [
                    1491,
                    1675
                ],
                [
                    1571,
                    1645
                ],
                [
                    1565,
                    1569
                ],
                [
                    1627,
                    1473
                ],
                [
                    1763,
                    1479
                ],
                [
                    1818,
                    1595
                ],
                [
                    1873,
                    1687
                ],
                [
                    1886,
                    1753
                ],
                [
                    1853,
                    1774
                ],
                [
                    1781,
                    1757
                ],
                [
                    1877,
                    1901
                ],
                [
                    1871,
                    1946
                ],
                [
                    1823,
                    1936
                ]
            ],
            "shape_type": "polygon"
        },
        {
            "flags": {},
            "group_id": null,
            "label": "mask",
            "lineType": [
                "LLLLLLLLLLLLLLLLLL"
            ],
            "points": [
                [
                    1290,
                    1615
                ],
                [
                    1203,
                    1476
                ],
                [
                    1095,
                    1473
                ],
                [
                    1083,
                    1479
                ],
                [
                    1041,
                    1523
                ],
                [
                    997,
                    1638
                ],
                [
                    925,
                    1704
                ],
                [
                    945,
                    1771
                ],
                [
                    998,
                    1864
                ],
                [
                    950,
                    1881
                ],
                [
                    947,
                    1948
                ],
                [
                    1303,
                    1940
                ],
                [
                    1314,
                    1874
                ],
                [
                    1227,
                    1860
                ],
                [
                    1244,
                    1768
                ],
                [
                    1319,
                    1750
                ],
                [
                    1334,
                    1713
                ],
                [
                    1290,
                    1615
                ]
            ],
            "shape_type": "polygon"
        },
        {
            "flags": {},
            "group_id": null,
            "label": "mask",
            "lineType": [
                "LLLLLLLLLLLLLLLLLLLLLLLL"
            ],
            "points": [
                [
                    644,
                    1657
                ],
                [
                    557,
                    1620
                ],
                [
                    450,
                    1620
                ],
                [
                    374,
                    1608
                ],
                [
                    359,
                    1660
                ],
                [
                    375,
                    1778
                ],
                [
                    478,
                    1806
                ],
                [
                    470,
                    2033
                ],
                [
                    517,
                    2121
                ],
                [
                    350,
                    2141
                ],
                [
                    360,
                    2239
                ],
                [
                    346,
                    2400
                ],
                [
                    484,
                    2438
                ],
                [
                    518,
                    2501
                ],
                [
                    747,
                    2497
                ],
                [
                    758,
                    2388
                ],
                [
                    708,
                    2303
                ],
                [
                    721,
                    2104
                ],
                [
                    744,
                    2041
                ],
                [
                    804,
                    1997
                ],
                [
                    840,
                    1866
                ],
                [
                    800,
                    1763
                ],
                [
                    721,
                    1721
                ],
                [
                    644,
                    1657
                ]
            ],
            "shape_type": "polygon"
        },
        {
            "flags": {},
            "group_id": null,
            "label": "mask",
            "lineType": [
                "LLLLLLLLLLLLL"
            ],
            "points": [
                [
                    1138,
                    2071
                ],
                [
                    1026,
                    2094
                ],
                [
                    1053,
                    2206
                ],
                [
                    1000,
                    2257
                ],
                [
                    917,
                    2291
                ],
                [
                    939,
                    2477
                ],
                [
                    1303,
                    2480
                ],
                [
                    1300,
                    2413
                ],
                [
                    1337,
                    2330
                ],
                [
                    1324,
                    2285
                ],
                [
                    1247,
                    2287
                ],
                [
                    1226,
                    2107
                ],
                [
                    1138,
                    2071
                ]
            ],
            "shape_type": "polygon"
        },
        {
            "flags": {},
            "group_id": null,
            "label": "mask",
            "lineType": [
                "LLLLLLLLLLLLLLLLLLLLLLLL"
            ],
            "points": [
                [
                    1614,
                    2206
                ],
                [
                    1505,
                    2197
                ],
                [
                    1471,
                    2211
                ],
                [
                    1460,
                    2285
                ],
                [
                    1506,
                    2318
                ],
                [
                    1577,
                    2315
                ],
                [
                    1550,
                    2406
                ],
                [
                    1546,
                    2466
                ],
                [
                    1904,
                    2471
                ],
                [
                    1901,
                    2373
                ],
                [
                    1966,
                    2337
                ],
                [
                    1951,
                    2267
                ],
                [
                    1830,
                    2254
                ],
                [
                    1826,
                    2203
                ],
                [
                    1826,
                    2174
                ],
                [
                    1884,
                    2176
                ],
                [
                    1901,
                    2158
                ],
                [
                    1901,
                    2083
                ],
                [
                    1865,
                    2067
                ],
                [
                    1763,
                    2066
                ],
                [
                    1707,
                    2076
                ],
                [
                    1691,
                    2116
                ],
                [
                    1686,
                    2160
                ],
                [
                    1614,
                    2206
                ]
            ],
            "shape_type": "polygon"
        },
        {
            "flags": {},
            "group_id": null,
            "label": "wlb",
            "points": [
                [
                    413,
                    2697
                ],
                [
                    1803,
                    4017
                ]
            ],
            "shape_type": "rectangle"
        },
        {
            "flags": {},
            "group_id": null,
            "label": "Ns",
            "points": [
                [
                    2588,
                    2288
                ]
            ],
            "shape_type": "point"
        },
        {
            "flags": {},
            "group_id": null,
            "label": "Ne",
            "points": [
                [
                    2588,
                    2109
                ]
            ],
            "shape_type": "point"
        },
        {
            "flags": {},
            "group_id": null,
            "label": "wz1",
            "points": [
                [
                    3459,
                    3358
                ],
                [
                    3586,
                    3404
                ]
            ],
            "shape_type": "rectangle"
        },
        {
            "flags": {},
            "group_id": null,
            "label": "wz3",
            "points": [
                [
                    3061,
                    2707
                ],
                [
                    3241,
                    2746
                ]
            ],
            "shape_type": "rectangle"
        },
        {
            "flags": {},
            "group_id": null,
            "label": "wz3",
            "points": [
                [
                    3088,
                    2504
                ],
                [
                    3221,
                    2549
                ]
            ],
            "shape_type": "rectangle"
        },
        {
            "flags": {},
            "group_id": null,
            "label": "wz3",
            "points": [
                [
                    3089,
                    2271
                ],
                [
                    3220,
                    2319
                ]
            ],
            "shape_type": "rectangle"
        },
        {
            "flags": {},
            "group_id": null,
            "label": "wz3",
            "points": [
                [
                    3089,
                    2031
                ],
                [
                    3221,
                    2083
                ]
            ],
            "shape_type": "rectangle"
        },
        {
            "flags": {},
            "group_id": null,
            "label": "wz3",
            "points": [
                [
                    3088,
                    1791
                ],
                [
                    3221,
                    1838
                ]
            ],
            "shape_type": "rectangle"
        },
        {
            "flags": {},
            "group_id": null,
            "label": "wz3",
            "points": [
                [
                    3392,
                    1701
                ],
                [
                    3431,
                    1727
                ]
            ],
            "shape_type": "rectangle"
        },
        {
            "flags": {},
            "group_id": null,
            "label": "wz3",
            "points": [
                [
                    3514,
                    1702
                ],
                [
                    3553,
                    1727
                ]
            ],
            "shape_type": "rectangle"
        },
        {
            "flags": {},
            "group_id": null,
            "label": "wz3",
            "points": [
                [
                    1807,
                    2283
                ],
                [
                    1955,
                    2353
                ]
            ],
            "shape_type": "rectangle"
        },
        {
            "flags": {},
            "group_id": null,
            "label": "wz3",
            "points": [
                [
                    1755,
                    2099
                ],
                [
                    1896,
                    2170
                ]
            ],
            "shape_type": "rectangle"
        },
        {
            "flags": {},
            "group_id": null,
            "label": "wz3",
            "points": [
                [
                    1483,
                    2213
                ],
                [
                    1629,
                    2283
                ]
            ],
            "shape_type": "rectangle"
        },
        {
            "flags": {},
            "group_id": null,
            "label": "wz3",
            "points": [
                [
                    1208,
                    2306
                ],
                [
                    1310,
                    2343
                ]
            ],
            "shape_type": "rectangle"
        },
        {
            "flags": {},
            "group_id": null,
            "label": "wz3",
            "points": [
                [
                    941,
                    2300
                ],
                [
                    1041,
                    2335
                ]
            ],
            "shape_type": "rectangle"
        },
        {
            "flags": {},
            "group_id": null,
            "label": "wz3",
            "points": [
                [
                    1080,
                    2101
                ],
                [
                    1181,
                    2134
                ]
            ],
            "shape_type": "rectangle"
        },
        {
            "flags": {},
            "group_id": null,
            "label": "wz1",
            "points": [
                [
                    371,
                    2146
                ],
                [
                    536,
                    2195
                ]
            ],
            "shape_type": "rectangle"
        },
        {
            "flags": {},
            "group_id": null,
            "label": "wz3",
            "points": [
                [
                    947,
                    1701
                ],
                [
                    1047,
                    1736
                ]
            ],
            "shape_type": "rectangle"
        },
        {
            "flags": {},
            "group_id": null,
            "label": "wz3",
            "points": [
                [
                    1211,
                    1705
                ],
                [
                    1317,
                    1742
                ]
            ],
            "shape_type": "rectangle"
        },
        {
            "flags": {},
            "group_id": null,
            "label": "wz3",
            "points": [
                [
                    1086,
                    1498
                ],
                [
                    1188,
                    1535
                ]
            ],
            "shape_type": "rectangle"
        },
        {
            "flags": {},
            "group_id": null,
            "label": "wz3",
            "points": [
                [
                    1495,
                    1697
                ],
                [
                    1598,
                    1736
                ]
            ],
            "shape_type": "rectangle"
        },
        {
            "flags": {},
            "group_id": null,
            "label": "wz3",
            "points": [
                [
                    1763,
                    1705
                ],
                [
                    1864,
                    1742
                ]
            ],
            "shape_type": "rectangle"
        },
        {
            "flags": {},
            "group_id": null,
            "label": "wz3",
            "points": [
                [
                    1632,
                    1496
                ],
                [
                    1739,
                    1535
                ]
            ],
            "shape_type": "rectangle"
        },
        {
            "flags": {},
            "group_id": null,
            "label": "wz3",
            "points": [
                [
                    2059,
                    1719
                ],
                [
                    2161,
                    1755
                ]
            ],
            "shape_type": "rectangle"
        },
        {
            "flags": {},
            "group_id": null,
            "label": "wz3",
            "points": [
                [
                    2325,
                    1723
                ],
                [
                    2425,
                    1756
                ]
            ],
            "shape_type": "rectangle"
        },
        {
            "flags": {},
            "group_id": null,
            "label": "wz3",
            "points": [
                [
                    2197,
                    1517
                ],
                [
                    2300,
                    1552
                ]
            ],
            "shape_type": "rectangle"
        }
    ],
    "version": "4.5.7"
}