{
    "flags": {},
    "imageData": null,
    "imageHeight": 4205,
    "imagePath": "样本3_134_116.png",
    "imageWidth": 4205,
    "shapes": [
        {
            "flags": {},
            "group_id": null,
            "label": "t1",
            "points": [
                [
                    1685,
                    1577
                ],
                [
                    1871,
                    3260
                ]
            ],
            "shape_type": "rectangle"
        },
        {
            "flags": {},
            "group_id": null,
            "label": "h1",
            "points": [
                [
                    2123,
                    3190
                ],
                [
                    2255,
                    3260
                ]
            ],
            "shape_type": "rectangle"
        },
        {
            "flags": {},
            "group_id": null,
            "label": "v1",
            "points": [
                [
                    1292,
                    3304
                ],
                [
                    1624,
                    3377
                ]
            ],
            "shape_type": "rectangle"
        },
        {
            "flags": {},
            "group_id": null,
            "label": "b1",
            "points": [
                [
                    1309,
                    3060
                ],
                [
                    1608,
                    3260
                ]
            ],
            "shape_type": "rectangle"
        },
        {
            "flags": {},
            "group_id": null,
            "label": "d1",
            "points": [
                [
                    1134,
                    2352
                ],
                [
                    1219,
                    2491
                ]
            ],
            "shape_type": "rectangle"
        },
        {
            "flags": {},
            "group_id": null,
            "label": "d1",
            "points": [
                [
                    1534,
                    1670
                ],
                [
                    1617,
                    1808
                ]
            ],
            "shape_type": "rectangle"
        },
        {
            "flags": {},
            "group_id": null,
            "label": "c1",
            "points": [
                [
                    1777,
                    1577
                ],
                [
                    1780,
                    1735
                ]
            ],
            "shape_type": "rectangle"
        },
        {
            "flags": {},
            "group_id": null,
            "label": "d1",
            "points": [
                [
                    1978,
                    1670
                ],
                [
                    2061,
                    1809
                ]
            ],
            "shape_type": "rectangle"
        },
        {
            "flags": {},
            "group_id": null,
            "label": "h1",
            "points": [
                [
                    2124,
                    1769
                ],
                [
                    2299,
                    1839
                ]
            ],
            "shape_type": "rectangle"
        },
        {
            "flags": {},
            "group_id": null,
            "label": "h1",
            "points": [
                [
                    2125,
                    1987
                ],
                [
                    2299,
                    2058
                ]
            ],
            "shape_type": "rectangle"
        },
        {
            "flags": {},
            "group_id": null,
            "label": "h1",
            "points": [
                [
                    2124,
                    2203
                ],
                [
                    2296,
                    2272
                ]
            ],
            "shape_type": "rectangle"
        },
        {
            "flags": {},
            "group_id": null,
            "label": "a1-1",
            "points": [
                [
                    1640,
                    1727
                ],
                [
                    1667,
                    1832
                ]
            ],
            "shape_type": "rectangle"
        },
        {
            "flags": {},
            "group_id": null,
            "label": "a1-2",
            "points": [
                [
                    1780,
                    1727
                ],
                [
                    1807,
                    1831
                ]
            ],
            "shape_type": "rectangle"
        },
        {
            "flags": {},
            "group_id": null,
            "label": "a1-3",
            "points": [
                [
                    1863,
                    1728
                ],
                [
                    1888,
                    1838
                ]
            ],
            "shape_type": "rectangle"
        },
        {
            "flags": {},
            "group_id": null,
            "label": "g1",
            "points": [
                [
                    1873,
                    1708
                ],
                [
                    1877,
                    1898
                ]
            ],
            "shape_type": "rectangle"
        },
        {
            "flags": {},
            "group_id": null,
            "label": "g1",
            "points": [
                [
                    1777,
                    1736
                ],
                [
                    1781,
                    1892
                ]
            ],
            "shape_type": "rectangle"
        },
        {
            "flags": {},
            "group_id": null,
            "label": "g1",
            "points": [
                [
                    1667,
                    1702
                ],
                [
                    1671,
                    1898
                ]
            ],
            "shape_type": "rectangle"
        },
        {
            "flags": {},
            "group_id": null,
            "label": "p1-1",
            "points": [
                [
                    1640,
                    1701
                ],
                [
                    1888,
                    1899
                ]
            ],
            "shape_type": "rectangle"
        },
        {
            "flags": {},
            "group_id": null,
            "label": "vt1",
            "points": [
                [
                    575,
                    2100
                ],
                [
                    874,
                    2399
                ]
            ],
            "shape_type": "rectangle"
        },
        {
            "flags": {},
            "group_id": null,
            "label": "vb1",
            "points": [
                [
                    658,
                    1761
                ],
                [
                    848,
                    2024
                ]
            ],
            "shape_type": "rectangle"
        },
        {
            "flags": {},
            "group_id": null,
            "label": "d1",
            "points": [
                [
                    344,
                    2354
                ],
                [
                    428,
                    2491
                ]
            ],
            "shape_type": "rectangle"
        },
        {
            "flags": {},
            "group_id": null,
            "label": "v1",
            "points": [
                [
                    686,
                    2528
                ],
                [
                    878,
                    2601
                ]
            ],
            "shape_type": "rectangle"
        },
        {
            "flags": {},
            "group_id": null,
            "label": "three",
            "points": [
                [
                    728,
                    2446
                ]
            ],
            "shape_type": "point"
        },
        {
            "flags": {},
            "group_id": null,
            "label": "four",
            "points": [
                [
                    848,
                    2446
                ]
            ],
            "shape_type": "point"
        },
        {
            "flags": {},
            "group_id": null,
            "label": "seven",
            "points": [
                [
                    659,
                    1761
                ]
            ],
            "shape_type": "point"
        },
        {
            "flags": {},
            "group_id": null,
            "label": "eight",
            "points": [
                [
                    848,
                    1761
                ]
            ],
            "shape_type": "point"
        },
        {
            "flags": {},
            "group_id": null,
            "label": "thirteen",
            "points": [
                [
                    678,
                    1761
                ]
            ],
            "shape_type": "point"
        },
        {
            "flags": {},
            "group_id": null,
            "label": "eleven",
            "points": [
                [
                    678,
                    1826
                ]
            ],
            "shape_type": "point"
        },
        {
            "flags": {},
            "group_id": null,
            "label": "twelve",
            "points": [
                [
                    848,
                    1826
                ]
            ],
            "shape_type": "point"
        },
        {
            "flags": {},
            "group_id": null,
            "label": "eleven",
            "points": [
                [
                    678,
                    1915
                ]
            ],
            "shape_type": "point"
        },
        {
            "flags": {},
            "group_id": null,
            "label": "twelve",
            "points": [
                [
                    848,
                    1915
                ]
            ],
            "shape_type": "point"
        },
        {
            "flags": {},
            "group_id": null,
            "label": "nine",
            "points": [
                [
                    658,
                    2025
                ]
            ],
            "shape_type": "point"
        },
        {
            "flags": {},
            "group_id": null,
            "label": "ten",
            "points": [
                [
                    848,
                    2024
                ]
            ],
            "shape_type": "point"
        },
        {
            "flags": {},
            "group_id": null,
            "label": "fourteen",
            "points": [
                [
                    678,
                    2024
                ]
            ],
            "shape_type": "point"
        },
        {
            "flags": {},
            "group_id": null,
            "label": "g1",
            "points": [
                [
                    1666,
                    1922
                ],
                [
                    1672,
                    2112
                ]
            ],
            "shape_type": "rectangle"
        },
        {
            "flags": {},
            "group_id": null,
            "label": "g1",
            "points": [
                [
                    1777,
                    1922
                ],
                [
                    1781,
                    2108
                ]
            ],
            "shape_type": "rectangle"
        },
        {
            "flags": {},
            "group_id": null,
            "label": "g1",
            "points": [
                [
                    1874,
                    1928
                ],
                [
                    1878,
                    2112
                ]
            ],
            "shape_type": "rectangle"
        },
        {
            "flags": {},
            "group_id": null,
            "label": "p1-1",
            "points": [
                [
                    1665,
                    1922
                ],
                [
                    1878,
                    2113
                ]
            ],
            "shape_type": "rectangle"
        },
        {
            "flags": {},
            "group_id": null,
            "label": "g1",
            "points": [
                [
                    1667,
                    2136
                ],
                [
                    1671,
                    2326
                ]
            ],
            "shape_type": "rectangle"
        },
        {
            "flags": {},
            "group_id": null,
            "label": "g1",
            "points": [
                [
                    1776,
                    2136
                ],
                [
                    1781,
                    2322
                ]
            ],
            "shape_type": "rectangle"
        },
        {
            "flags": {},
            "group_id": null,
            "label": "g1",
            "points": [
                [
                    1874,
                    2141
                ],
                [
                    1877,
                    2325
                ]
            ],
            "shape_type": "rectangle"
        },
        {
            "flags": {},
            "group_id": null,
            "label": "p1-1",
            "points": [
                [
                    1667,
                    2135
                ],
                [
                    1877,
                    2326
                ]
            ],
            "shape_type": "rectangle"
        },
        {
            "flags": {},
            "group_id": null,
            "label": "vp1-1",
            "points": [
                [
                    2686,
                    1993
                ],
                [
                    2851,
                    2160
                ]
            ],
            "shape_type": "rectangle"
        },
        {
            "flags": {},
            "group_id": null,
            "label": "va1",
            "points": [
                [
                    2748,
                    1897
                ],
                [
                    2794,
                    1933
                ]
            ],
            "shape_type": "rectangle"
        },
        {
            "flags": {},
            "group_id": null,
            "label": "va1",
            "points": [
                [
                    2607,
                    2142
                ],
                [
                    2647,
                    2183
                ]
            ],
            "shape_type": "rectangle"
        },
        {
            "flags": {},
            "group_id": null,
            "label": "va1",
            "points": [
                [
                    2891,
                    2136
                ],
                [
                    2929,
                    2179
                ]
            ],
            "shape_type": "rectangle"
        },
        {
            "flags": {},
            "group_id": null,
            "label": "v1",
            "points": [
                [
                    2627,
                    2361
                ],
                [
                    2856,
                    2434
                ]
            ],
            "shape_type": "rectangle"
        },
        {
            "flags": {},
            "group_id": null,
            "label": "n1",
            "points": [
                [
                    3100,
                    1399
                ],
                [
                    3630,
                    1781
                ]
            ],
            "shape_type": "rectangle"
        },
        {
            "flags": {},
            "group_id": null,
            "label": "twentytwo",
            "points": [
                [
                    1588,
                    3115
                ]
            ],
            "shape_type": "point"
        },
        {
            "flags": {},
            "group_id": null,
            "label": "twentythere",
            "points": [
                [
                    1608,
                    3145
                ]
            ],
            "shape_type": "point"
        },
        {
            "flags": {},
            "group_id": null,
            "label": "seven",
            "points": [
                [
                    1309,
                    3059
                ]
            ],
            "shape_type": "point"
        },
        {
            "flags": {},
            "group_id": null,
            "label": "eight",
            "points": [
                [
                    1608,
                    3060
                ]
            ],
            "shape_type": "point"
        },
        {
            "flags": {},
            "group_id": null,
            "label": "seven",
            "points": [
                [
                    1329,
                    3080
                ]
            ],
            "shape_type": "point"
        },
        {
            "flags": {},
            "group_id": null,
            "label": "thirteen",
            "points": [
                [
                    1376,
                    3080
                ]
            ],
            "shape_type": "point"
        },
        {
            "flags": {},
            "group_id": null,
            "label": "thirteen",
            "points": [
                [
                    1396,
                    3080
                ]
            ],
            "shape_type": "point"
        },
        {
            "flags": {},
            "group_id": null,
            "label": "thirteen",
            "points": [
                [
                    1492,
                    3080
                ]
            ],
            "shape_type": "point"
        },
        {
            "flags": {},
            "group_id": null,
            "label": "eight",
            "points": [
                [
                    1588,
                    3080
                ]
            ],
            "shape_type": "point"
        },
        {
            "flags": {},
            "group_id": null,
            "label": "eleven",
            "points": [
                [
                    1588,
                    3145
                ]
            ],
            "shape_type": "point"
        },
        {
            "flags": {},
            "group_id": null,
            "label": "twelve",
            "points": [
                [
                    1608,
                    3114
                ]
            ],
            "shape_type": "point"
        },
        {
            "flags": {},
            "group_id": null,
            "label": "fourteen",
            "points": [
                [
                    1309,
                    3260
                ]
            ],
            "shape_type": "point"
        },
        {
            "flags": {},
            "group_id": null,
            "label": "fourteen",
            "points": [
                [
                    1329,
                    3260
                ]
            ],
            "shape_type": "point"
        },
        {
            "flags": {},
            "group_id": null,
            "label": "fourteen",
            "points": [
                [
                    1376,
                    3260
                ]
            ],
            "shape_type": "point"
        },
        {
            "flags": {},
            "group_id": null,
            "label": "fourteen",
            "points": [
                [
                    1396,
                    3260
                ]
            ],
            "shape_type": "point"
        },
        {
            "flags": {},
            "group_id": null,
            "label": "fourteen",
            "points": [
                [
                    1492,
                    3260
                ]
            ],
            "shape_type": "point"
        },
        {
            "flags": {},
            "group_id": null,
            "label": "fourteen",
            "points": [
                [
                    1588,
                    3260
                ]
            ],
            "shape_type": "point"
        },
        {
            "flags": {},
            "group_id": null,
            "label": "fourteen",
            "points": [
                [
                    1608,
                    3260
                ]
            ],
            "shape_type": "point"
        },
        {
            "flags": {},
            "group_id": null,
            "label": "a4",
            "points": [
                [
                    1592,
                    3032
                ],
                [
                    1614,
                    3060
                ]
            ],
            "shape_type": "rectangle"
        },
        {
            "flags": {},
            "group_id": null,
            "label": "btl",
            "points": [
                [
                    2346,
                    3864
                ],
                [
                    4152,
                    4172
                ]
            ],
            "shape_type": "rectangle"
        },
        {
            "flags": {},
            "group_id": null,
            "label": "sm",
            "points": [
                [
                    476,
                    3386
                ],
                [
                    1754,
                    4076
                ]
            ],
            "shape_type": "rectangle"
        },
        {
            "flags": {},
            "group_id": null,
            "label": "wz4",
            "points": [
                [
                    1381,
                    3009
                ],
                [
                    1546,
                    3054
                ]
            ],
            "shape_type": "rectangle"
        },
        {
            "flags": {},
            "group_id": null,
            "label": "k1",
            "points": [
                [
                    1587,
                    3114
                ],
                [
                    1607,
                    3145
                ]
            ],
            "shape_type": "rectangle"
        },
        {
            "flags": {},
            "group_id": null,
            "label": "x2",
            "points": [
                [
                    715,
                    2404
                ],
                [
                    857,
                    2459
                ]
            ],
            "shape_type": "rectangle"
        },
        {
            "flags": {},
            "group_id": null,
            "label": "wz2",
            "points": [
                [
                    747,
                    2404
                ],
                [
                    832,
                    2441
                ]
            ],
            "shape_type": "rectangle"
        },
        {
            "flags": {},
            "group_id": null,
            "label": "wz4",
            "points": [
                [
                    680,
                    1843
                ],
                [
                    843,
                    1892
                ]
            ],
            "shape_type": "rectangle"
        },
        {
            "flags": {},
            "group_id": null,
            "label": "j1",
            "points": [
                [
                    3100,
                    1676
                ],
                [
                    3212,
                    1760
                ]
            ],
            "shape_type": "rectangle"
        },
        {
            "flags": {},
            "group_id": null,
            "label": "j1",
            "points": [
                [
                    3520,
                    1678
                ],
                [
                    3628,
                    1765
                ]
            ],
            "shape_type": "rectangle"
        },
        {
            "flags": {},
            "group_id": null,
            "label": "j1",
            "points": [
                [
                    3384,
                    1471
                ],
                [
                    3472,
                    1551
                ]
            ],
            "shape_type": "rectangle"
        },
        {
            "flags": {},
            "group_id": null,
            "label": "j1",
            "points": [
                [
                    3297,
                    1403
                ],
                [
                    3331,
                    1447
                ]
            ],
            "shape_type": "rectangle"
        },
        {
            "flags": {},
            "group_id": null,
            "label": "mask",
            "lineType": [
                "LLLLLLLLLLLLLL"
            ],
            "points": [
                [
                    2654,
                    2514
                ],
                [
                    4063,
                    2514
                ],
                [
                    4063,
                    3857
                ],
                [
                    2654,
                    3857
                ]
            ],
            "shape_type": "polygon"
        },
        {
            "flags": {},
            "group_id": null,
            "label": "mask",
            "lineType": [
                "LLLLLL"
            ],
            "points": [
                [
                    2336,
                    3854
                ],
                [
                    4162,
                    3854
                ],
                [
                    4162,
                    4182
                ],
                [
                    2336,
                    4182
                ]
            ],
            "shape_type": "polygon"
        },
        {
            "flags": {},
            "group_id": null,
            "label": "mask",
            "lineType": [
                "LLLLLLLLLLLLLLLLLLL"
            ],
            "points": [
                [
                    466,
                    3376
                ],
                [
                    1764,
                    3376
                ],
                [
                    1764,
                    4086
                ],
                [
                    466,
                    4086
                ]
            ],
            "shape_type": "polygon"
        },
        {
            "flags": {},
            "group_id": null,
            "label": "mask",
            "lineType": [
                "LLLLLLLLLLLLLLLLLLLLLLLLLLLLLLLLLLLLLLLLLLLLLLLLLLL"
            ],
            "points": [
                [
                    1363,
                    3396
                ],
                [
                    1633,
                    3397
                ],
                [
                    2067,
                    3311
                ],
                [
                    2288,
                    3310
                ],
                [
                    2310,
                    3286
                ],
                [
                    2239,
                    3185
                ],
                [
                    2199,
                    3175
                ],
                [
                    1840,
                    3176
                ],
                [
                    1823,
                    2859
                ],
                [
                    1839,
                    2348
                ],
                [
                    2007,
                    2346
                ],
                [
                    2323,
                    2253
                ],
                [
                    2331,
                    1994
                ],
                [
                    2309,
                    1728
                ],
                [
                    2223,
                    1684
                ],
                [
                    2104,
                    1659
                ],
                [
                    2059,
                    1607
                ],
                [
                    1978,
                    1509
                ],
                [
                    1947,
                    1473
                ],
                [
                    1888,
                    1462
                ],
                [
                    1813,
                    1462
                ],
                [
                    1743,
                    1467
                ],
                [
                    1721,
                    1482
                ],
                [
                    1553,
                    1649
                ],
                [
                    1337,
                    1732
                ],
                [
                    1328,
                    1787
                ],
                [
                    1366,
                    1798
                ],
                [
                    1506,
                    1817
                ],
                [
                    1577,
                    1819
                ],
                [
                    1632,
                    1858
                ],
                [
                    1641,
                    2308
                ],
                [
                    1721,
                    2599
                ],
                [
                    1646,
                    2516
                ],
                [
                    1385,
                    2525
                ],
                [
                    1392,
                    2588
                ],
                [
                    1601,
                    2607
                ],
                [
                    1690,
                    2680
                ],
                [
                    1670,
                    2863
                ],
                [
                    1659,
                    2979
                ],
                [
                    1619,
                    2961
                ],
                [
                    1354,
                    3015
                ],
                [
                    1292,
                    3039
                ],
                [
                    1287,
                    3074
                ],
                [
                    1290,
                    3252
                ],
                [
                    819,
                    3245
                ],
                [
                    805,
                    3254
                ],
                [
                    806,
                    3277
                ],
                [
                    829,
                    3305
                ],
                [
                    895,
                    3330
                ],
                [
                    1160,
                    3388
                ],
                [
                    1363,
                    3396
                ]
            ],
            "shape_type": "polygon"
        },
        {
            "flags": {},
            "group_id": null,
            "label": "mask",
            "lineType": [
                "LLLLLLLLLLLLLLLLLLLL"
            ],
            "points": [
                [
                    691,
                    2612
                ],
                [
                    782,
                    2623
                ],
                [
                    901,
                    2603
                ],
                [
                    891,
                    2501
                ],
                [
                    1191,
                    2507
                ],
                [
                    1278,
                    2508
                ],
                [
                    1225,
                    2347
                ],
                [
                    895,
                    2324
                ],
                [
                    901,
                    1926
                ],
                [
                    892,
                    1809
                ],
                [
                    858,
                    1738
                ],
                [
                    843,
                    1727
                ],
                [
                    648,
                    1732
                ],
                [
                    616,
                    2093
                ],
                [
                    496,
                    2349
                ],
                [
                    313,
                    2333
                ],
                [
                    311,
                    2403
                ],
                [
                    325,
                    2502
                ],
                [
                    593,
                    2499
                ],
                [
                    691,
                    2612
                ]
            ],
            "shape_type": "polygon"
        },
        {
            "flags": {},
            "group_id": null,
            "label": "mask",
            "lineType": [
                "LLLLLLLLLLLLLLLLLLLLL"
            ],
            "points": [
                [
                    2785,
                    2468
                ],
                [
                    2917,
                    2452
                ],
                [
                    2868,
                    2294
                ],
                [
                    3063,
                    2292
                ],
                [
                    3145,
                    2292
                ],
                [
                    3171,
                    2170
                ],
                [
                    2944,
                    2166
                ],
                [
                    2912,
                    1909
                ],
                [
                    3019,
                    1901
                ],
                [
                    3037,
                    1826
                ],
                [
                    2991,
                    1778
                ],
                [
                    2845,
                    1797
                ],
                [
                    2819,
                    1813
                ],
                [
                    2779,
                    1871
                ],
                [
                    2745,
                    1898
                ],
                [
                    2652,
                    2022
                ],
                [
                    2373,
                    2040
                ],
                [
                    2358,
                    2146
                ],
                [
                    2581,
                    2148
                ],
                [
                    2616,
                    2456
                ],
                [
                    2785,
                    2468
                ]
            ],
            "shape_type": "polygon"
        },
        {
            "flags": {},
            "group_id": null,
            "label": "mask",
            "lineType": [
                "LLLLLLLLLLLLLLLLL"
            ],
            "points": [
                [
                    3090,
                    1389
                ],
                [
                    3640,
                    1389
                ],
                [
                    3640,
                    1791
                ],
                [
                    3090,
                    1791
                ]
            ],
            "shape_type": "polygon"
        },
        {
            "flags": {},
            "group_id": null,
            "label": "Ns",
            "points": [
                [
                    3341,
                    1663
                ]
            ],
            "shape_type": "point"
        },
        {
            "flags": {},
            "group_id": null,
            "label": "Ne",
            "points": [
                [
                    3340,
                    1484
                ]
            ],
            "shape_type": "point"
        },
        {
            "flags": {},
            "group_id": null,
            "label": "wlb",
            "points": [
                [
                    2664,
                    2524
                ],
                [
                    4053,
                    3847
                ]
            ],
            "shape_type": "rectangle"
        },
        {
            "flags": {},
            "group_id": null,
            "label": "wz1",
            "points": [
                [
                    1680,
                    2858
                ],
                [
                    1707,
                    2892
                ]
            ],
            "shape_type": "rectangle"
        },
        {
            "flags": {},
            "group_id": null,
            "label": "wz1",
            "points": [
                [
                    1405,
                    2524
                ],
                [
                    1592,
                    2573
                ]
            ],
            "shape_type": "rectangle"
        },
        {
            "flags": {},
            "group_id": null,
            "label": "wz3",
            "points": [
                [
                    1354,
                    1753
                ],
                [
                    1535,
                    1791
                ]
            ],
            "shape_type": "rectangle"
        },
        {
            "flags": {},
            "group_id": null,
            "label": "wz1",
            "points": [
                [
                    1700,
                    1683
                ],
                [
                    1746,
                    1722
                ]
            ],
            "shape_type": "rectangle"
        },
        {
            "flags": {},
            "group_id": null,
            "label": "wz1",
            "points": [
                [
                    1828,
                    1491
                ],
                [
                    1932,
                    1542
                ]
            ],
            "shape_type": "rectangle"
        },
        {
            "flags": {},
            "group_id": null,
            "label": "wz1",
            "points": [
                [
                    2960,
                    2188
                ],
                [
                    3150,
                    2287
                ]
            ],
            "shape_type": "rectangle"
        },
        {
            "flags": {},
            "group_id": null,
            "label": "wz1",
            "points": [
                [
                    2379,
                    2038
                ],
                [
                    2568,
                    2138
                ]
            ],
            "shape_type": "rectangle"
        },
        {
            "flags": {},
            "group_id": null,
            "label": "wz1",
            "points": [
                [
                    2829,
                    1805
                ],
                [
                    3016,
                    1898
                ]
            ],
            "shape_type": "rectangle"
        },
        {
            "flags": {},
            "group_id": null,
            "label": "wz3",
            "points": [
                [
                    3219,
                    1842
                ],
                [
                    3438,
                    1888
                ]
            ],
            "shape_type": "rectangle"
        },
        {
            "flags": {},
            "group_id": null,
            "label": "wz1",
            "points": [
                [
                    1614,
                    3004
                ],
                [
                    1624,
                    3019
                ]
            ],
            "shape_type": "rectangle"
        }
    ],
    "version": "4.5.7"
}