{
    "flags": {},
    "imageData": null,
    "imageHeight": 4205,
    "imagePath": "样本1_67_37.png",
    "imageWidth": 4205,
    "shapes": [
        {
            "flags": {},
            "group_id": null,
            "label": "vp1-1",
            "points": [
                [
                    2281,
                    2738
                ],
                [
                    2611,
                    3066
                ]
            ],
            "shape_type": "rectangle"
        },
        {
            "flags": {},
            "group_id": null,
            "label": "v1",
            "points": [
                [
                    2333,
                    3109
                ],
                [
                    2564,
                    3202
                ]
            ],
            "shape_type": "rectangle"
        },
        {
            "flags": {},
            "group_id": null,
            "label": "vp1-1",
            "points": [
                [
                    2277,
                    3268
                ],
                [
                    2604,
                    3599
                ]
            ],
            "shape_type": "rectangle"
        },
        {
            "flags": {},
            "group_id": null,
            "label": "v1",
            "points": [
                [
                    2324,
                    3679
                ],
                [
                    2555,
                    3771
                ]
            ],
            "shape_type": "rectangle"
        },
        {
            "flags": {},
            "group_id": null,
            "label": "v1",
            "points": [
                [
                    3445,
                    3580
                ],
                [
                    3778,
                    3673
                ]
            ],
            "shape_type": "rectangle"
        },
        {
            "flags": {},
            "group_id": null,
            "label": "h1",
            "points": [
                [
                    3023,
                    3385
                ],
                [
                    3156,
                    3453
                ]
            ],
            "shape_type": "rectangle"
        },
        {
            "flags": {},
            "group_id": null,
            "label": "t1",
            "points": [
                [
                    3348,
                    1487
                ],
                [
                    3504,
                    3452
                ]
            ],
            "shape_type": "rectangle"
        },
        {
            "flags": {},
            "group_id": null,
            "label": "c1",
            "points": [
                [
                    3424,
                    1487
                ],
                [
                    3429,
                    1607
                ]
            ],
            "shape_type": "rectangle"
        },
        {
            "flags": {},
            "group_id": null,
            "label": "z1",
            "points": [
                [
                    3347,
                    1673
                ],
                [
                    3511,
                    1877
                ]
            ],
            "shape_type": "rectangle"
        },
        {
            "flags": {},
            "group_id": null,
            "label": "z1",
            "points": [
                [
                    3347,
                    1876
                ],
                [
                    3512,
                    2079
                ]
            ],
            "shape_type": "rectangle"
        },
        {
            "flags": {},
            "group_id": null,
            "label": "z1",
            "points": [
                [
                    3347,
                    2079
                ],
                [
                    3511,
                    2281
                ]
            ],
            "shape_type": "rectangle"
        },
        {
            "flags": {},
            "group_id": null,
            "label": "x1",
            "points": [
                [
                    3329,
                    2819
                ],
                [
                    3497,
                    2856
                ]
            ],
            "shape_type": "rectangle"
        },
        {
            "flags": {},
            "group_id": null,
            "label": "fourteen",
            "points": [
                [
                    3618,
                    3453
                ]
            ],
            "shape_type": "point"
        },
        {
            "flags": {},
            "group_id": null,
            "label": "fourteen",
            "points": [
                [
                    3832,
                    3452
                ]
            ],
            "shape_type": "point"
        },
        {
            "flags": {},
            "group_id": null,
            "label": "twelve",
            "points": [
                [
                    3832,
                    3414
                ]
            ],
            "shape_type": "point"
        },
        {
            "flags": {},
            "group_id": null,
            "label": "twelve",
            "points": [
                [
                    3832,
                    3398
                ]
            ],
            "shape_type": "point"
        },
        {
            "flags": {},
            "group_id": null,
            "label": "fourteen",
            "points": [
                [
                    3725,
                    3414
                ]
            ],
            "shape_type": "point"
        },
        {
            "flags": {},
            "group_id": null,
            "label": "eleven",
            "points": [
                [
                    3618,
                    3414
                ]
            ],
            "shape_type": "point"
        },
        {
            "flags": {},
            "group_id": null,
            "label": "eleven",
            "points": [
                [
                    3618,
                    3398
                ]
            ],
            "shape_type": "point"
        },
        {
            "flags": {},
            "group_id": null,
            "label": "eleven",
            "points": [
                [
                    3618,
                    3390
                ]
            ],
            "shape_type": "point"
        },
        {
            "flags": {},
            "group_id": null,
            "label": "twelve",
            "points": [
                [
                    3832,
                    3390
                ]
            ],
            "shape_type": "point"
        },
        {
            "flags": {},
            "group_id": null,
            "label": "eight",
            "points": [
                [
                    3832,
                    3169
                ]
            ],
            "shape_type": "point"
        },
        {
            "flags": {},
            "group_id": null,
            "label": "twelve",
            "points": [
                [
                    3832,
                    3178
                ]
            ],
            "shape_type": "point"
        },
        {
            "flags": {},
            "group_id": null,
            "label": "thirteen",
            "points": [
                [
                    3725,
                    3168
                ]
            ],
            "shape_type": "point"
        },
        {
            "flags": {},
            "group_id": null,
            "label": "eleven",
            "points": [
                [
                    3618,
                    3178
                ]
            ],
            "shape_type": "point"
        },
        {
            "flags": {},
            "group_id": null,
            "label": "seven",
            "points": [
                [
                    3618,
                    3169
                ]
            ],
            "shape_type": "point"
        },
        {
            "flags": {},
            "group_id": null,
            "label": "h1",
            "points": [
                [
                    3007,
                    2128
                ],
                [
                    3156,
                    2196
                ]
            ],
            "shape_type": "rectangle"
        },
        {
            "flags": {},
            "group_id": null,
            "label": "d1",
            "points": [
                [
                    3234,
                    2072
                ],
                [
                    3318,
                    2208
                ]
            ],
            "shape_type": "rectangle"
        },
        {
            "flags": {},
            "group_id": null,
            "label": "d1",
            "points": [
                [
                    3526,
                    2072
                ],
                [
                    3611,
                    2210
                ]
            ],
            "shape_type": "rectangle"
        },
        {
            "flags": {},
            "group_id": null,
            "label": "d1",
            "points": [
                [
                    3526,
                    1869
                ],
                [
                    3611,
                    2008
                ]
            ],
            "shape_type": "rectangle"
        },
        {
            "flags": {},
            "group_id": null,
            "label": "d1",
            "points": [
                [
                    3235,
                    1870
                ],
                [
                    3319,
                    2007
                ]
            ],
            "shape_type": "rectangle"
        },
        {
            "flags": {},
            "group_id": null,
            "label": "h1",
            "points": [
                [
                    3010,
                    1940
                ],
                [
                    3150,
                    2009
                ]
            ],
            "shape_type": "rectangle"
        },
        {
            "flags": {},
            "group_id": null,
            "label": "h1",
            "points": [
                [
                    3008,
                    1775
                ],
                [
                    3152,
                    1844
                ]
            ],
            "shape_type": "rectangle"
        },
        {
            "flags": {},
            "group_id": null,
            "label": "h1",
            "points": [
                [
                    3007,
                    1598
                ],
                [
                    3153,
                    1666
                ]
            ],
            "shape_type": "rectangle"
        },
        {
            "flags": {},
            "group_id": null,
            "label": "d1",
            "points": [
                [
                    3236,
                    1636
                ],
                [
                    3319,
                    1773
                ]
            ],
            "shape_type": "rectangle"
        },
        {
            "flags": {},
            "group_id": null,
            "label": "d1",
            "points": [
                [
                    3527,
                    1636
                ],
                [
                    3610,
                    1774
                ]
            ],
            "shape_type": "rectangle"
        },
        {
            "flags": {},
            "group_id": null,
            "label": "p1-1",
            "points": [
                [
                    3353,
                    1690
                ],
                [
                    3500,
                    1860
                ]
            ],
            "shape_type": "rectangle"
        },
        {
            "flags": {},
            "group_id": null,
            "label": "a1-3",
            "points": [
                [
                    3419,
                    1713
                ],
                [
                    3435,
                    1816
                ]
            ],
            "shape_type": "rectangle"
        },
        {
            "flags": {},
            "group_id": null,
            "label": "a1-1",
            "points": [
                [
                    3353,
                    1711
                ],
                [
                    3379,
                    1821
                ]
            ],
            "shape_type": "rectangle"
        },
        {
            "flags": {},
            "group_id": null,
            "label": "a1-2",
            "points": [
                [
                    3473,
                    1709
                ],
                [
                    3499,
                    1819
                ]
            ],
            "shape_type": "rectangle"
        },
        {
            "flags": {},
            "group_id": null,
            "label": "a1-1",
            "points": [
                [
                    3353,
                    1914
                ],
                [
                    3379,
                    2024
                ]
            ],
            "shape_type": "rectangle"
        },
        {
            "flags": {},
            "group_id": null,
            "label": "a1-3",
            "points": [
                [
                    3418,
                    1915
                ],
                [
                    3435,
                    2017
                ]
            ],
            "shape_type": "rectangle"
        },
        {
            "flags": {},
            "group_id": null,
            "label": "a1-2",
            "points": [
                [
                    3472,
                    1912
                ],
                [
                    3499,
                    2021
                ]
            ],
            "shape_type": "rectangle"
        },
        {
            "flags": {},
            "group_id": null,
            "label": "p1-1",
            "points": [
                [
                    3353,
                    1895
                ],
                [
                    3499,
                    2065
                ]
            ],
            "shape_type": "rectangle"
        },
        {
            "flags": {},
            "group_id": null,
            "label": "p1-1",
            "points": [
                [
                    3353,
                    2097
                ],
                [
                    3498,
                    2267
                ]
            ],
            "shape_type": "rectangle"
        },
        {
            "flags": {},
            "group_id": null,
            "label": "a1-1",
            "points": [
                [
                    3353,
                    2125
                ],
                [
                    3379,
                    2235
                ]
            ],
            "shape_type": "rectangle"
        },
        {
            "flags": {},
            "group_id": null,
            "label": "a1-3",
            "points": [
                [
                    3418,
                    2127
                ],
                [
                    3435,
                    2229
                ]
            ],
            "shape_type": "rectangle"
        },
        {
            "flags": {},
            "group_id": null,
            "label": "a1-2",
            "points": [
                [
                    3472,
                    2124
                ],
                [
                    3498,
                    2234
                ]
            ],
            "shape_type": "rectangle"
        },
        {
            "flags": {},
            "group_id": null,
            "label": "v1",
            "points": [
                [
                    2082,
                    2514
                ],
                [
                    2313,
                    2606
                ]
            ],
            "shape_type": "rectangle"
        },
        {
            "flags": {},
            "group_id": null,
            "label": "vp1-1",
            "points": [
                [
                    2044,
                    2134
                ],
                [
                    2374,
                    2463
                ]
            ],
            "shape_type": "rectangle"
        },
        {
            "flags": {},
            "group_id": null,
            "label": "va1",
            "points": [
                [
                    2275,
                    2205
                ],
                [
                    2343,
                    2254
                ]
            ],
            "shape_type": "rectangle"
        },
        {
            "flags": {},
            "group_id": null,
            "label": "va1",
            "points": [
                [
                    2067,
                    2217
                ],
                [
                    2117,
                    2285
                ]
            ],
            "shape_type": "rectangle"
        },
        {
            "flags": {},
            "group_id": null,
            "label": "va1",
            "points": [
                [
                    2196,
                    2387
                ],
                [
                    2247,
                    2455
                ]
            ],
            "shape_type": "rectangle"
        },
        {
            "flags": {},
            "group_id": null,
            "label": "n1",
            "points": [
                [
                    1908,
                    1498
                ],
                [
                    2423,
                    1932
                ]
            ],
            "shape_type": "rectangle"
        },
        {
            "flags": {},
            "group_id": null,
            "label": "d1",
            "points": [
                [
                    1300,
                    1898
                ],
                [
                    1383,
                    2033
                ]
            ],
            "shape_type": "rectangle"
        },
        {
            "flags": {},
            "group_id": null,
            "label": "v1",
            "points": [
                [
                    761,
                    1984
                ],
                [
                    951,
                    2051
                ]
            ],
            "shape_type": "rectangle"
        },
        {
            "flags": {},
            "group_id": null,
            "label": "d1",
            "points": [
                [
                    374,
                    1896
                ],
                [
                    457,
                    2034
                ]
            ],
            "shape_type": "rectangle"
        },
        {
            "flags": {},
            "group_id": null,
            "label": "vt1",
            "points": [
                [
                    543,
                    1549
                ],
                [
                    820,
                    1827
                ]
            ],
            "shape_type": "rectangle"
        },
        {
            "flags": {},
            "group_id": null,
            "label": "vb1",
            "points": [
                [
                    879,
                    1633
                ],
                [
                    1132,
                    1766
                ]
            ],
            "shape_type": "rectangle"
        },
        {
            "flags": {},
            "group_id": null,
            "label": "two",
            "points": [
                [
                    1190,
                    1633
                ]
            ],
            "shape_type": "point"
        },
        {
            "flags": {},
            "group_id": null,
            "label": "one",
            "points": [
                [
                    1190,
                    1766
                ]
            ],
            "shape_type": "point"
        },
        {
            "flags": {},
            "group_id": null,
            "label": "eleven",
            "points": [
                [
                    879,
                    1739
                ]
            ],
            "shape_type": "point"
        },
        {
            "flags": {},
            "group_id": null,
            "label": "nine",
            "points": [
                [
                    879,
                    1766
                ]
            ],
            "shape_type": "point"
        },
        {
            "flags": {},
            "group_id": null,
            "label": "fourteen",
            "points": [
                [
                    1005,
                    1766
                ]
            ],
            "shape_type": "point"
        },
        {
            "flags": {},
            "group_id": null,
            "label": "fifteen",
            "points": [
                [
                    1005,
                    1739
                ]
            ],
            "shape_type": "point"
        },
        {
            "flags": {},
            "group_id": null,
            "label": "ten",
            "points": [
                [
                    1132,
                    1765
                ]
            ],
            "shape_type": "point"
        },
        {
            "flags": {},
            "group_id": null,
            "label": "twelve",
            "points": [
                [
                    1133,
                    1739
                ]
            ],
            "shape_type": "point"
        },
        {
            "flags": {},
            "group_id": null,
            "label": "eight",
            "points": [
                [
                    1132,
                    1633
                ]
            ],
            "shape_type": "point"
        },
        {
            "flags": {},
            "group_id": null,
            "label": "thirteen",
            "points": [
                [
                    1005,
                    1633
                ]
            ],
            "shape_type": "point"
        },
        {
            "flags": {},
            "group_id": null,
            "label": "seven",
            "points": [
                [
                    879,
                    1633
                ]
            ],
            "shape_type": "point"
        },
        {
            "flags": {},
            "group_id": null,
            "label": "va1",
            "points": [
                [
                    2306,
                    2820
                ],
                [
                    2354,
                    2888
                ]
            ],
            "shape_type": "rectangle"
        },
        {
            "flags": {},
            "group_id": null,
            "label": "va1",
            "points": [
                [
                    2513,
                    2808
                ],
                [
                    2581,
                    2856
                ]
            ],
            "shape_type": "rectangle"
        },
        {
            "flags": {},
            "group_id": null,
            "label": "va1",
            "points": [
                [
                    2435,
                    2990
                ],
                [
                    2486,
                    3058
                ]
            ],
            "shape_type": "rectangle"
        },
        {
            "flags": {},
            "group_id": null,
            "label": "va1",
            "points": [
                [
                    2307,
                    3361
                ],
                [
                    2348,
                    3406
                ]
            ],
            "shape_type": "rectangle"
        },
        {
            "flags": {},
            "group_id": null,
            "label": "va1",
            "points": [
                [
                    2527,
                    3354
                ],
                [
                    2565,
                    3398
                ]
            ],
            "shape_type": "rectangle"
        },
        {
            "flags": {},
            "group_id": null,
            "label": "va1",
            "points": [
                [
                    2419,
                    3535
                ],
                [
                    2463,
                    3572
                ]
            ],
            "shape_type": "rectangle"
        },
        {
            "flags": {},
            "group_id": null,
            "label": "g1",
            "points": [
                [
                    3385,
                    1691
                ],
                [
                    3389,
                    1860
                ]
            ],
            "shape_type": "rectangle"
        },
        {
            "flags": {},
            "group_id": null,
            "label": "g1",
            "points": [
                [
                    3421,
                    1691
                ],
                [
                    3425,
                    1860
                ]
            ],
            "shape_type": "rectangle"
        },
        {
            "flags": {},
            "group_id": null,
            "label": "g1",
            "points": [
                [
                    3462,
                    1691
                ],
                [
                    3466,
                    1860
                ]
            ],
            "shape_type": "rectangle"
        },
        {
            "flags": {},
            "group_id": null,
            "label": "g1",
            "points": [
                [
                    3382,
                    1895
                ],
                [
                    3386,
                    2064
                ]
            ],
            "shape_type": "rectangle"
        },
        {
            "flags": {},
            "group_id": null,
            "label": "g1",
            "points": [
                [
                    3425,
                    1895
                ],
                [
                    3428,
                    2064
                ]
            ],
            "shape_type": "rectangle"
        },
        {
            "flags": {},
            "group_id": null,
            "label": "g1",
            "points": [
                [
                    3465,
                    1895
                ],
                [
                    3470,
                    2065
                ]
            ],
            "shape_type": "rectangle"
        },
        {
            "flags": {},
            "group_id": null,
            "label": "g1",
            "points": [
                [
                    3383,
                    2097
                ],
                [
                    3386,
                    2267
                ]
            ],
            "shape_type": "rectangle"
        },
        {
            "flags": {},
            "group_id": null,
            "label": "g1",
            "points": [
                [
                    3426,
                    2097
                ],
                [
                    3429,
                    2267
                ]
            ],
            "shape_type": "rectangle"
        },
        {
            "flags": {},
            "group_id": null,
            "label": "g1",
            "points": [
                [
                    3465,
                    2097
                ],
                [
                    3469,
                    2266
                ]
            ],
            "shape_type": "rectangle"
        },
        {
            "flags": {},
            "group_id": null,
            "label": "fifteen",
            "points": [
                [
                    3725,
                    3398
                ]
            ],
            "shape_type": "point"
        },
        {
            "flags": {},
            "group_id": null,
            "label": "sm",
            "points": [
                [
                    316,
                    2345
                ],
                [
                    1838,
                    3051
                ]
            ],
            "shape_type": "rectangle"
        },
        {
            "flags": {},
            "group_id": null,
            "label": "btl",
            "points": [
                [
                    2348,
                    3863
                ],
                [
                    4148,
                    4167
                ]
            ],
            "shape_type": "rectangle"
        },
        {
            "flags": {},
            "group_id": null,
            "label": "j1",
            "points": [
                [
                    2184,
                    1850
                ],
                [
                    2296,
                    1930
                ]
            ],
            "shape_type": "rectangle"
        },
        {
            "flags": {},
            "group_id": null,
            "label": "j1",
            "points": [
                [
                    2333,
                    1647
                ],
                [
                    2423,
                    1733
                ]
            ],
            "shape_type": "rectangle"
        },
        {
            "flags": {},
            "group_id": null,
            "label": "j1",
            "points": [
                [
                    1908,
                    1614
                ],
                [
                    2024,
                    1700
                ]
            ],
            "shape_type": "rectangle"
        },
        {
            "flags": {},
            "group_id": null,
            "label": "j1",
            "points": [
                [
                    2201,
                    1501
                ],
                [
                    2233,
                    1548
                ]
            ],
            "shape_type": "rectangle"
        },
        {
            "flags": {},
            "group_id": null,
            "label": "wz4",
            "points": [
                [
                    896,
                    1674
                ],
                [
                    978,
                    1714
                ]
            ],
            "shape_type": "rectangle"
        },
        {
            "flags": {},
            "group_id": null,
            "label": "wz4",
            "points": [
                [
                    1023,
                    1664
                ],
                [
                    1099,
                    1706
                ]
            ],
            "shape_type": "rectangle"
        },
        {
            "flags": {},
            "group_id": null,
            "label": "x2",
            "points": [
                [
                    1163,
                    1627
                ],
                [
                    1202,
                    1774
                ]
            ],
            "shape_type": "rectangle"
        },
        {
            "flags": {},
            "group_id": null,
            "label": "wz2",
            "points": [
                [
                    1163,
                    1668
                ],
                [
                    1190,
                    1728
                ]
            ],
            "shape_type": "rectangle"
        },
        {
            "flags": {},
            "group_id": null,
            "label": "mask",
            "lineType": [
                "LLLLLLLLLLLLLLLLL"
            ],
            "points": [
                [
                    916,
                    1428
                ],
                [
                    760,
                    1448
                ],
                [
                    760,
                    1527
                ],
                [
                    626,
                    1533
                ],
                [
                    539,
                    1590
                ],
                [
                    522,
                    1856
                ],
                [
                    365,
                    1872
                ],
                [
                    353,
                    2055
                ],
                [
                    986,
                    2058
                ],
                [
                    1398,
                    2055
                ],
                [
                    1398,
                    2008
                ],
                [
                    1393,
                    1844
                ],
                [
                    1223,
                    1774
                ],
                [
                    1226,
                    1601
                ],
                [
                    1075,
                    1580
                ],
                [
                    964,
                    1450
                ],
                [
                    916,
                    1428
                ]
            ],
            "shape_type": "polygon"
        },
        {
            "flags": {},
            "group_id": null,
            "label": "mask",
            "lineType": [
                "LLLLLLLLLLLLLLLLL"
            ],
            "points": [
                [
                    1898,
                    1488
                ],
                [
                    2433,
                    1488
                ],
                [
                    2433,
                    1942
                ],
                [
                    1898,
                    1942
                ]
            ],
            "shape_type": "polygon"
        },
        {
            "flags": {},
            "group_id": null,
            "label": "mask",
            "lineType": [
                "LLLLLLLLLLLL"
            ],
            "points": [
                [
                    2134,
                    2104
                ],
                [
                    1999,
                    2181
                ],
                [
                    2022,
                    2404
                ],
                [
                    1991,
                    2574
                ],
                [
                    2059,
                    2622
                ],
                [
                    2345,
                    2619
                ],
                [
                    2378,
                    2394
                ],
                [
                    2448,
                    2300
                ],
                [
                    2562,
                    2308
                ],
                [
                    2616,
                    2251
                ],
                [
                    2598,
                    2181
                ],
                [
                    2134,
                    2104
                ]
            ],
            "shape_type": "polygon"
        },
        {
            "flags": {},
            "group_id": null,
            "label": "mask",
            "lineType": [
                "LLLLLLLLLLLLLL"
            ],
            "points": [
                [
                    2438,
                    2669
                ],
                [
                    2317,
                    2769
                ],
                [
                    2253,
                    2857
                ],
                [
                    2261,
                    2981
                ],
                [
                    2310,
                    3063
                ],
                [
                    2319,
                    3216
                ],
                [
                    2585,
                    3215
                ],
                [
                    2585,
                    3070
                ],
                [
                    2658,
                    2928
                ],
                [
                    2819,
                    2896
                ],
                [
                    2810,
                    2816
                ],
                [
                    2589,
                    2793
                ],
                [
                    2522,
                    2714
                ],
                [
                    2438,
                    2669
                ]
            ],
            "shape_type": "polygon"
        },
        {
            "flags": {},
            "group_id": null,
            "label": "mask",
            "lineType": [
                "LLLLLLLLLLLLLLLL"
            ],
            "points": [
                [
                    2278,
                    3250
                ],
                [
                    2140,
                    3267
                ],
                [
                    2147,
                    3367
                ],
                [
                    2198,
                    3400
                ],
                [
                    2262,
                    3523
                ],
                [
                    2184,
                    3553
                ],
                [
                    2214,
                    3669
                ],
                [
                    2294,
                    3666
                ],
                [
                    2301,
                    3787
                ],
                [
                    2582,
                    3797
                ],
                [
                    2574,
                    3593
                ],
                [
                    2650,
                    3429
                ],
                [
                    2748,
                    3393
                ],
                [
                    2774,
                    3310
                ],
                [
                    2380,
                    3236
                ],
                [
                    2278,
                    3250
                ]
            ],
            "shape_type": "polygon"
        },
        {
            "flags": {},
            "group_id": null,
            "label": "mask",
            "lineType": [
                "LLLLL"
            ],
            "points": [
                [
                    2338,
                    3853
                ],
                [
                    4158,
                    3853
                ],
                [
                    4158,
                    4177
                ],
                [
                    2338,
                    4177
                ]
            ],
            "shape_type": "polygon"
        },
        {
            "flags": {},
            "group_id": null,
            "label": "mask",
            "lineType": [
                "LLLLLLLLLLLL"
            ],
            "points": [
                [
                    287,
                    3018
                ],
                [
                    2132,
                    3018
                ],
                [
                    2132,
                    4140
                ],
                [
                    287,
                    4140
                ]
            ],
            "shape_type": "polygon"
        },
        {
            "flags": {},
            "group_id": null,
            "label": "mask",
            "lineType": [
                "LLLLLLLLLLLLLLLLLLLLL"
            ],
            "points": [
                [
                    306,
                    2335
                ],
                [
                    1848,
                    2335
                ],
                [
                    1848,
                    3061
                ],
                [
                    306,
                    3061
                ]
            ],
            "shape_type": "polygon"
        },
        {
            "flags": {},
            "group_id": null,
            "label": "mask",
            "lineType": [
                "LLLLLLLLLLLLLLLLLLLLLLLLLLLLLLLLLLLLLL"
            ],
            "points": [
                [
                    3433,
                    1420
                ],
                [
                    3360,
                    1533
                ],
                [
                    2977,
                    1583
                ],
                [
                    2990,
                    2175
                ],
                [
                    3315,
                    2241
                ],
                [
                    3320,
                    2908
                ],
                [
                    3367,
                    3365
                ],
                [
                    3014,
                    3369
                ],
                [
                    3002,
                    3455
                ],
                [
                    3279,
                    3492
                ],
                [
                    3401,
                    3513
                ],
                [
                    3421,
                    3691
                ],
                [
                    3796,
                    3690
                ],
                [
                    3788,
                    3495
                ],
                [
                    4035,
                    3492
                ],
                [
                    4043,
                    3431
                ],
                [
                    3847,
                    3429
                ],
                [
                    3855,
                    3154
                ],
                [
                    3597,
                    3153
                ],
                [
                    3599,
                    3408
                ],
                [
                    3484,
                    3396
                ],
                [
                    3469,
                    3215
                ],
                [
                    3474,
                    2885
                ],
                [
                    3501,
                    2861
                ],
                [
                    3502,
                    2818
                ],
                [
                    3504,
                    2577
                ],
                [
                    3623,
                    2549
                ],
                [
                    3619,
                    2488
                ],
                [
                    3475,
                    2483
                ],
                [
                    3469,
                    2296
                ],
                [
                    3557,
                    2293
                ],
                [
                    3619,
                    2188
                ],
                [
                    3850,
                    2183
                ],
                [
                    3848,
                    1919
                ],
                [
                    3854,
                    1681
                ],
                [
                    3606,
                    1619
                ],
                [
                    3508,
                    1585
                ],
                [
                    3433,
                    1420
                ]
            ],
            "shape_type": "polygon"
        },
        {
            "flags": {},
            "group_id": null,
            "label": "Ne",
            "points": [
                [
                    2182,
                    1562
                ]
            ],
            "shape_type": "point"
        },
        {
            "flags": {},
            "group_id": null,
            "label": "wlb",
            "points": [
                [
                    297,
                    3028
                ],
                [
                    2122,
                    4130
                ]
            ],
            "shape_type": "rectangle"
        },
        {
            "flags": {},
            "group_id": null,
            "label": "Ns",
            "points": [
                [
                    2182,
                    1742
                ]
            ],
            "shape_type": "point"
        },
        {
            "flags": {},
            "group_id": null,
            "label": "wz1",
            "points": [
                [
                    3467,
                    2513
                ],
                [
                    3609,
                    2541
                ]
            ],
            "shape_type": "rectangle"
        },
        {
            "flags": {},
            "group_id": null,
            "label": "wz3",
            "points": [
                [
                    3657,
                    2130
                ],
                [
                    3839,
                    2179
                ]
            ],
            "shape_type": "rectangle"
        },
        {
            "flags": {},
            "group_id": null,
            "label": "wz3",
            "points": [
                [
                    3657,
                    1918
                ],
                [
                    3827,
                    1978
                ]
            ],
            "shape_type": "rectangle"
        },
        {
            "flags": {},
            "group_id": null,
            "label": "wz3",
            "points": [
                [
                    3675,
                    1701
                ],
                [
                    3841,
                    1763
                ]
            ],
            "shape_type": "rectangle"
        },
        {
            "flags": {},
            "group_id": null,
            "label": "wz3",
            "points": [
                [
                    2086,
                    1976
                ],
                [
                    2306,
                    2032
                ]
            ],
            "shape_type": "rectangle"
        },
        {
            "flags": {},
            "group_id": null,
            "label": "wz3",
            "points": [
                [
                    2397,
                    2213
                ],
                [
                    2564,
                    2279
                ]
            ],
            "shape_type": "rectangle"
        },
        {
            "flags": {},
            "group_id": null,
            "label": "wz3",
            "points": [
                [
                    2635,
                    2818
                ],
                [
                    2803,
                    2880
                ]
            ],
            "shape_type": "rectangle"
        },
        {
            "flags": {},
            "group_id": null,
            "label": "wz3",
            "points": [
                [
                    2149,
                    3296
                ],
                [
                    2300,
                    3370
                ]
            ],
            "shape_type": "rectangle"
        },
        {
            "flags": {},
            "group_id": null,
            "label": "wz3",
            "points": [
                [
                    2605,
                    3318
                ],
                [
                    2749,
                    3396
                ]
            ],
            "shape_type": "rectangle"
        },
        {
            "flags": {},
            "group_id": null,
            "label": "wz3",
            "points": [
                [
                    2206,
                    3555
                ],
                [
                    2359,
                    3637
                ]
            ],
            "shape_type": "rectangle"
        },
        {
            "flags": {},
            "group_id": null,
            "label": "wz1",
            "points": [
                [
                    797,
                    1457
                ],
                [
                    958,
                    1511
                ]
            ],
            "shape_type": "rectangle"
        }
    ],
    "version": "4.5.7"
}