{
    "flags": {},
    "imageData": null,
    "imageHeight": 4205,
    "imagePath": "样本4_96_22.png",
    "imageWidth": 4205,
    "shapes": [
        {
            "flags": {},
            "group_id": null,
            "label": "v1",
            "points": [
                [
                    2326,
                    2833
                ],
                [
                    2552,
                    2901
                ]
            ],
            "shape_type": "rectangle"
        },
        {
            "flags": {},
            "group_id": null,
            "label": "vp1-1",
            "points": [
                [
                    2357,
                    2620
                ],
                [
                    2464,
                    2729
                ]
            ],
            "shape_type": "rectangle"
        },
        {
            "flags": {},
            "group_id": null,
            "label": "va1",
            "points": [
                [
                    2459,
                    2609
                ],
                [
                    2500,
                    2648
                ]
            ],
            "shape_type": "rectangle"
        },
        {
            "flags": {},
            "group_id": null,
            "label": "va1",
            "points": [
                [
                    2397,
                    2734
                ],
                [
                    2439,
                    2773
                ]
            ],
            "shape_type": "rectangle"
        },
        {
            "flags": {},
            "group_id": null,
            "label": "va1",
            "points": [
                [
                    2326,
                    2618
                ],
                [
                    2360,
                    2662
                ]
            ],
            "shape_type": "rectangle"
        },
        {
            "flags": {},
            "group_id": null,
            "label": "v1",
            "points": [
                [
                    2317,
                    2416
                ],
                [
                    2541,
                    2480
                ]
            ],
            "shape_type": "rectangle"
        },
        {
            "flags": {},
            "group_id": null,
            "label": "vp1-1",
            "points": [
                [
                    2349,
                    2229
                ],
                [
                    2457,
                    2338
                ]
            ],
            "shape_type": "rectangle"
        },
        {
            "flags": {},
            "group_id": null,
            "label": "v1",
            "points": [
                [
                    2302,
                    1978
                ],
                [
                    2527,
                    2041
                ]
            ],
            "shape_type": "rectangle"
        },
        {
            "flags": {},
            "group_id": null,
            "label": "vp1-1",
            "points": [
                [
                    2352,
                    1787
                ],
                [
                    2457,
                    1893
                ]
            ],
            "shape_type": "rectangle"
        },
        {
            "flags": {},
            "group_id": null,
            "label": "n1",
            "points": [
                [
                    1582,
                    1416
                ],
                [
                    2011,
                    1867
                ]
            ],
            "shape_type": "rectangle"
        },
        {
            "flags": {},
            "group_id": null,
            "label": "d1",
            "points": [
                [
                    825,
                    1448
                ],
                [
                    964,
                    1531
                ]
            ],
            "shape_type": "rectangle"
        },
        {
            "flags": {},
            "group_id": null,
            "label": "d1",
            "points": [
                [
                    832,
                    1858
                ],
                [
                    972,
                    1942
                ]
            ],
            "shape_type": "rectangle"
        },
        {
            "flags": {},
            "group_id": null,
            "label": "v1",
            "points": [
                [
                    519,
                    1866
                ],
                [
                    709,
                    1941
                ]
            ],
            "shape_type": "rectangle"
        },
        {
            "flags": {},
            "group_id": null,
            "label": "vt1",
            "points": [
                [
                    593,
                    1486
                ],
                [
                    675,
                    1557
                ]
            ],
            "shape_type": "rectangle"
        },
        {
            "flags": {},
            "group_id": null,
            "label": "vb1",
            "points": [
                [
                    558,
                    1619
                ],
                [
                    650,
                    1780
                ]
            ],
            "shape_type": "rectangle"
        },
        {
            "flags": {},
            "group_id": null,
            "label": "one",
            "points": [
                [
                    508,
                    1780
                ]
            ],
            "shape_type": "point"
        },
        {
            "flags": {},
            "group_id": null,
            "label": "two",
            "points": [
                [
                    509,
                    1619
                ]
            ],
            "shape_type": "point"
        },
        {
            "flags": {},
            "group_id": null,
            "label": "seven",
            "points": [
                [
                    559,
                    1619
                ]
            ],
            "shape_type": "point"
        },
        {
            "flags": {},
            "group_id": null,
            "label": "eight",
            "points": [
                [
                    649,
                    1619
                ]
            ],
            "shape_type": "point"
        },
        {
            "flags": {},
            "group_id": null,
            "label": "seven",
            "points": [
                [
                    574,
                    1639
                ]
            ],
            "shape_type": "point"
        },
        {
            "flags": {},
            "group_id": null,
            "label": "eight",
            "points": [
                [
                    634,
                    1639
                ]
            ],
            "shape_type": "point"
        },
        {
            "flags": {},
            "group_id": null,
            "label": "eleven",
            "points": [
                [
                    574,
                    1699
                ]
            ],
            "shape_type": "point"
        },
        {
            "flags": {},
            "group_id": null,
            "label": "twelve",
            "points": [
                [
                    634,
                    1699
                ]
            ],
            "shape_type": "point"
        },
        {
            "flags": {},
            "group_id": null,
            "label": "nine",
            "points": [
                [
                    574,
                    1759
                ]
            ],
            "shape_type": "point"
        },
        {
            "flags": {},
            "group_id": null,
            "label": "ten",
            "points": [
                [
                    634,
                    1758
                ]
            ],
            "shape_type": "point"
        },
        {
            "flags": {},
            "group_id": null,
            "label": "nine",
            "points": [
                [
                    560,
                    1780
                ]
            ],
            "shape_type": "point"
        },
        {
            "flags": {},
            "group_id": null,
            "label": "ten",
            "points": [
                [
                    649,
                    1779
                ]
            ],
            "shape_type": "point"
        },
        {
            "flags": {},
            "group_id": null,
            "label": "twentytwo",
            "points": [
                [
                    580,
                    1607
                ]
            ],
            "shape_type": "point"
        },
        {
            "flags": {},
            "group_id": null,
            "label": "x1",
            "points": [
                [
                    3526,
                    2652
                ],
                [
                    3818,
                    2699
                ]
            ],
            "shape_type": "rectangle"
        },
        {
            "flags": {},
            "group_id": null,
            "label": "v1",
            "points": [
                [
                    3183,
                    3751
                ],
                [
                    3515,
                    3843
                ]
            ],
            "shape_type": "rectangle"
        },
        {
            "flags": {},
            "group_id": null,
            "label": "h1",
            "points": [
                [
                    3115,
                    3637
                ],
                [
                    3245,
                    3702
                ]
            ],
            "shape_type": "rectangle"
        },
        {
            "flags": {},
            "group_id": null,
            "label": "b1",
            "points": [
                [
                    3340,
                    3561
                ],
                [
                    3500,
                    3703
                ]
            ],
            "shape_type": "rectangle"
        },
        {
            "flags": {},
            "group_id": null,
            "label": "seven",
            "points": [
                [
                    3360,
                    3561
                ]
            ],
            "shape_type": "point"
        },
        {
            "flags": {},
            "group_id": null,
            "label": "eight",
            "points": [
                [
                    3479,
                    3561
                ]
            ],
            "shape_type": "point"
        },
        {
            "flags": {},
            "group_id": null,
            "label": "eleven",
            "points": [
                [
                    3360,
                    3586
                ]
            ],
            "shape_type": "point"
        },
        {
            "flags": {},
            "group_id": null,
            "label": "thirteen",
            "points": [
                [
                    3420,
                    3586
                ]
            ],
            "shape_type": "point"
        },
        {
            "flags": {},
            "group_id": null,
            "label": "twelve",
            "points": [
                [
                    3479,
                    3585
                ]
            ],
            "shape_type": "point"
        },
        {
            "flags": {},
            "group_id": null,
            "label": "fourteen",
            "points": [
                [
                    3360,
                    3682
                ]
            ],
            "shape_type": "point"
        },
        {
            "flags": {},
            "group_id": null,
            "label": "fourteen",
            "points": [
                [
                    3420,
                    3682
                ]
            ],
            "shape_type": "point"
        },
        {
            "flags": {},
            "group_id": null,
            "label": "fourteen",
            "points": [
                [
                    3480,
                    3681
                ]
            ],
            "shape_type": "point"
        },
        {
            "flags": {},
            "group_id": null,
            "label": "eight",
            "points": [
                [
                    3500,
                    3682
                ]
            ],
            "shape_type": "point"
        },
        {
            "flags": {},
            "group_id": null,
            "label": "fourteen",
            "points": [
                [
                    3501,
                    3702
                ]
            ],
            "shape_type": "point"
        },
        {
            "flags": {},
            "group_id": null,
            "label": "seven",
            "points": [
                [
                    3340,
                    3682
                ]
            ],
            "shape_type": "point"
        },
        {
            "flags": {},
            "group_id": null,
            "label": "fourteen",
            "points": [
                [
                    3340,
                    3703
                ]
            ],
            "shape_type": "point"
        },
        {
            "flags": {},
            "group_id": null,
            "label": "d1",
            "points": [
                [
                    3771,
                    2101
                ],
                [
                    3857,
                    2244
                ]
            ],
            "shape_type": "rectangle"
        },
        {
            "flags": {},
            "group_id": null,
            "label": "d1",
            "points": [
                [
                    3770,
                    1914
                ],
                [
                    3855,
                    2052
                ]
            ],
            "shape_type": "rectangle"
        },
        {
            "flags": {},
            "group_id": null,
            "label": "d1",
            "points": [
                [
                    3503,
                    1914
                ],
                [
                    3589,
                    2053
                ]
            ],
            "shape_type": "rectangle"
        },
        {
            "flags": {},
            "group_id": null,
            "label": "d1",
            "points": [
                [
                    3502,
                    2100
                ],
                [
                    3592,
                    2242
                ]
            ],
            "shape_type": "rectangle"
        },
        {
            "flags": {},
            "group_id": null,
            "label": "h1",
            "points": [
                [
                    3119,
                    2264
                ],
                [
                    3252,
                    2326
                ]
            ],
            "shape_type": "rectangle"
        },
        {
            "flags": {},
            "group_id": null,
            "label": "h1",
            "points": [
                [
                    3117,
                    2046
                ],
                [
                    3251,
                    2110
                ]
            ],
            "shape_type": "rectangle"
        },
        {
            "flags": {},
            "group_id": null,
            "label": "h1",
            "points": [
                [
                    3111,
                    1829
                ],
                [
                    3244,
                    1893
                ]
            ],
            "shape_type": "rectangle"
        },
        {
            "flags": {},
            "group_id": null,
            "label": "h1",
            "points": [
                [
                    3111,
                    1652
                ],
                [
                    3242,
                    1716
                ]
            ],
            "shape_type": "rectangle"
        },
        {
            "flags": {},
            "group_id": null,
            "label": "d1",
            "points": [
                [
                    3503,
                    1621
                ],
                [
                    3589,
                    1762
                ]
            ],
            "shape_type": "rectangle"
        },
        {
            "flags": {},
            "group_id": null,
            "label": "d1",
            "points": [
                [
                    3769,
                    1620
                ],
                [
                    3856,
                    1760
                ]
            ],
            "shape_type": "rectangle"
        },
        {
            "flags": {},
            "group_id": null,
            "label": "c1",
            "points": [
                [
                    3675,
                    1420
                ],
                [
                    3695,
                    1681
                ]
            ],
            "shape_type": "rectangle"
        },
        {
            "flags": {},
            "group_id": null,
            "label": "g1",
            "points": [
                [
                    3625,
                    1740
                ],
                [
                    3631,
                    1891
                ]
            ],
            "shape_type": "rectangle"
        },
        {
            "flags": {},
            "group_id": null,
            "label": "g1",
            "points": [
                [
                    3739,
                    1740
                ],
                [
                    3743,
                    1890
                ]
            ],
            "shape_type": "rectangle"
        },
        {
            "flags": {},
            "group_id": null,
            "label": "p1-1",
            "points": [
                [
                    3623,
                    1740
                ],
                [
                    3743,
                    1892
                ]
            ],
            "shape_type": "rectangle"
        },
        {
            "flags": {},
            "group_id": null,
            "label": "g1",
            "points": [
                [
                    3625,
                    1944
                ],
                [
                    3630,
                    2098
                ]
            ],
            "shape_type": "rectangle"
        },
        {
            "flags": {},
            "group_id": null,
            "label": "g1",
            "points": [
                [
                    3741,
                    1945
                ],
                [
                    3746,
                    2097
                ]
            ],
            "shape_type": "rectangle"
        },
        {
            "flags": {},
            "group_id": null,
            "label": "p1-1",
            "points": [
                [
                    3621,
                    1942
                ],
                [
                    3745,
                    2096
                ]
            ],
            "shape_type": "rectangle"
        },
        {
            "flags": {},
            "group_id": null,
            "label": "a1-1",
            "points": [
                [
                    3598,
                    2174
                ],
                [
                    3623,
                    2275
                ]
            ],
            "shape_type": "rectangle"
        },
        {
            "flags": {},
            "group_id": null,
            "label": "a1-2",
            "points": [
                [
                    3749,
                    2176
                ],
                [
                    3773,
                    2279
                ]
            ],
            "shape_type": "rectangle"
        },
        {
            "flags": {},
            "group_id": null,
            "label": "g1",
            "points": [
                [
                    3623,
                    2156
                ],
                [
                    3627,
                    2306
                ]
            ],
            "shape_type": "rectangle"
        },
        {
            "flags": {},
            "group_id": null,
            "label": "g1",
            "points": [
                [
                    3742,
                    2158
                ],
                [
                    3746,
                    2307
                ]
            ],
            "shape_type": "rectangle"
        },
        {
            "flags": {},
            "group_id": null,
            "label": "p1-1",
            "points": [
                [
                    3600,
                    2154
                ],
                [
                    3773,
                    2307
                ]
            ],
            "shape_type": "rectangle"
        },
        {
            "flags": {},
            "group_id": null,
            "label": "t1",
            "points": [
                [
                    3552,
                    1420
                ],
                [
                    3828,
                    3703
                ]
            ],
            "shape_type": "rectangle"
        },
        {
            "flags": {},
            "group_id": null,
            "label": "twentythere",
            "points": [
                [
                    628,
                    1627
                ]
            ],
            "shape_type": "point"
        },
        {
            "flags": {},
            "group_id": null,
            "label": "sm",
            "points": [
                [
                    314,
                    2292
                ],
                [
                    1878,
                    2974
                ]
            ],
            "shape_type": "rectangle"
        },
        {
            "flags": {},
            "group_id": null,
            "label": "btl",
            "points": [
                [
                    2346,
                    3865
                ],
                [
                    4153,
                    4169
                ]
            ],
            "shape_type": "rectangle"
        },
        {
            "flags": {},
            "group_id": null,
            "label": "j1",
            "points": [
                [
                    1924,
                    1783
                ],
                [
                    2009,
                    1864
                ]
            ],
            "shape_type": "rectangle"
        },
        {
            "flags": {},
            "group_id": null,
            "label": "j1",
            "points": [
                [
                    1914,
                    1492
                ],
                [
                    1990,
                    1577
                ]
            ],
            "shape_type": "rectangle"
        },
        {
            "flags": {},
            "group_id": null,
            "label": "j1",
            "points": [
                [
                    1584,
                    1601
                ],
                [
                    1677,
                    1686
                ]
            ],
            "shape_type": "rectangle"
        },
        {
            "flags": {},
            "group_id": null,
            "label": "j1",
            "points": [
                [
                    1760,
                    1417
                ],
                [
                    1803,
                    1465
                ]
            ],
            "shape_type": "rectangle"
        },
        {
            "flags": {},
            "group_id": null,
            "label": "x2",
            "points": [
                [
                    471,
                    1610
                ],
                [
                    518,
                    1791
                ]
            ],
            "shape_type": "rectangle"
        },
        {
            "flags": {},
            "group_id": null,
            "label": "wz2",
            "points": [
                [
                    471,
                    1654
                ],
                [
                    502,
                    1743
                ]
            ],
            "shape_type": "rectangle"
        },
        {
            "flags": {},
            "group_id": null,
            "label": "k1",
            "points": [
                [
                    578,
                    1608
                ],
                [
                    629,
                    1628
                ]
            ],
            "shape_type": "rectangle"
        },
        {
            "flags": {},
            "group_id": null,
            "label": "mask",
            "lineType": [
                "LLLLLLLLLL"
            ],
            "points": [
                [
                    734,
                    1436
                ],
                [
                    558,
                    1432
                ],
                [
                    504,
                    1501
                ],
                [
                    439,
                    1721
                ],
                [
                    453,
                    1872
                ],
                [
                    486,
                    1956
                ],
                [
                    739,
                    1957
                ],
                [
                    1006,
                    1962
                ],
                [
                    973,
                    1413
                ],
                [
                    734,
                    1436
                ]
            ],
            "shape_type": "polygon"
        },
        {
            "flags": {},
            "group_id": null,
            "label": "mask",
            "lineType": [
                "LLLLLLLLLLLLLLLLLLLLL"
            ],
            "points": [
                [
                    1572,
                    1406
                ],
                [
                    2021,
                    1406
                ],
                [
                    2021,
                    1877
                ],
                [
                    1572,
                    1877
                ]
            ],
            "shape_type": "polygon"
        },
        {
            "flags": {},
            "group_id": null,
            "label": "mask",
            "lineType": [
                "LLLLLLLLLLLLL"
            ],
            "points": [
                [
                    2444,
                    1750
                ],
                [
                    2359,
                    1740
                ],
                [
                    2309,
                    1763
                ],
                [
                    2302,
                    1860
                ],
                [
                    2334,
                    1937
                ],
                [
                    2283,
                    1983
                ],
                [
                    2282,
                    2061
                ],
                [
                    2560,
                    2051
                ],
                [
                    2500,
                    1924
                ],
                [
                    2483,
                    1883
                ],
                [
                    2506,
                    1787
                ],
                [
                    2497,
                    1773
                ],
                [
                    2444,
                    1750
                ]
            ],
            "shape_type": "polygon"
        },
        {
            "flags": {},
            "group_id": null,
            "label": "mask",
            "lineType": [
                "LLLLLLLLLLLLL"
            ],
            "points": [
                [
                    2414,
                    2215
                ],
                [
                    2297,
                    2215
                ],
                [
                    2304,
                    2262
                ],
                [
                    2341,
                    2365
                ],
                [
                    2302,
                    2481
                ],
                [
                    2325,
                    2486
                ],
                [
                    2554,
                    2490
                ],
                [
                    2564,
                    2458
                ],
                [
                    2474,
                    2374
                ],
                [
                    2480,
                    2297
                ],
                [
                    2494,
                    2264
                ],
                [
                    2484,
                    2211
                ],
                [
                    2414,
                    2215
                ]
            ],
            "shape_type": "polygon"
        },
        {
            "flags": {},
            "group_id": null,
            "label": "mask",
            "lineType": [
                "LLLLLLLLLLLLLLLLLLLLLL"
            ],
            "points": [
                [
                    2404,
                    2598
                ],
                [
                    2375,
                    2603
                ],
                [
                    2299,
                    2601
                ],
                [
                    2245,
                    2611
                ],
                [
                    2189,
                    2614
                ],
                [
                    2198,
                    2672
                ],
                [
                    2208,
                    2689
                ],
                [
                    2337,
                    2680
                ],
                [
                    2371,
                    2818
                ],
                [
                    2320,
                    2839
                ],
                [
                    2311,
                    2872
                ],
                [
                    2325,
                    2912
                ],
                [
                    2571,
                    2903
                ],
                [
                    2582,
                    2855
                ],
                [
                    2551,
                    2812
                ],
                [
                    2578,
                    2745
                ],
                [
                    2580,
                    2711
                ],
                [
                    2561,
                    2691
                ],
                [
                    2607,
                    2671
                ],
                [
                    2627,
                    2616
                ],
                [
                    2624,
                    2596
                ],
                [
                    2404,
                    2598
                ]
            ],
            "shape_type": "polygon"
        },
        {
            "flags": {},
            "group_id": null,
            "label": "mask",
            "lineType": [
                "LLLLLLLLLLLLLLL"
            ],
            "points": [
                [
                    304,
                    2282
                ],
                [
                    1888,
                    2282
                ],
                [
                    1888,
                    2984
                ],
                [
                    304,
                    2984
                ]
            ],
            "shape_type": "polygon"
        },
        {
            "flags": {},
            "group_id": null,
            "label": "mask",
            "lineType": [
                "LLLLLLL"
            ],
            "points": [
                [
                    337,
                    3027
                ],
                [
                    2183,
                    3027
                ],
                [
                    2183,
                    4151
                ],
                [
                    337,
                    4151
                ]
            ],
            "shape_type": "polygon"
        },
        {
            "flags": {},
            "group_id": null,
            "label": "mask",
            "lineType": [
                "LLLLLLLLLLLLLLLLLLLLLLLLLLLLLLLLLLLL"
            ],
            "points": [
                [
                    3716,
                    1347
                ],
                [
                    3601,
                    1460
                ],
                [
                    3486,
                    1615
                ],
                [
                    3382,
                    1645
                ],
                [
                    3221,
                    1625
                ],
                [
                    3137,
                    1632
                ],
                [
                    3064,
                    1645
                ],
                [
                    3082,
                    2058
                ],
                [
                    3094,
                    2338
                ],
                [
                    3394,
                    2347
                ],
                [
                    3527,
                    2368
                ],
                [
                    3502,
                    2723
                ],
                [
                    3586,
                    3487
                ],
                [
                    3309,
                    3522
                ],
                [
                    3079,
                    3625
                ],
                [
                    3132,
                    3817
                ],
                [
                    3169,
                    3850
                ],
                [
                    3527,
                    3848
                ],
                [
                    3554,
                    3759
                ],
                [
                    4051,
                    3743
                ],
                [
                    4060,
                    3689
                ],
                [
                    3845,
                    3680
                ],
                [
                    3834,
                    3641
                ],
                [
                    3738,
                    3633
                ],
                [
                    3750,
                    3213
                ],
                [
                    3732,
                    3041
                ],
                [
                    4080,
                    2956
                ],
                [
                    4010,
                    2874
                ],
                [
                    3751,
                    2877
                ],
                [
                    3835,
                    2682
                ],
                [
                    3876,
                    2268
                ],
                [
                    4042,
                    2228
                ],
                [
                    4024,
                    2183
                ],
                [
                    3866,
                    2180
                ],
                [
                    3867,
                    1605
                ],
                [
                    3716,
                    1347
                ]
            ],
            "shape_type": "polygon"
        },
        {
            "flags": {},
            "group_id": null,
            "label": "mask",
            "lineType": [
                "LLLLLL"
            ],
            "points": [
                [
                    2336,
                    3855
                ],
                [
                    4163,
                    3855
                ],
                [
                    4163,
                    4179
                ],
                [
                    2336,
                    4179
                ]
            ],
            "shape_type": "polygon"
        },
        {
            "flags": {},
            "group_id": null,
            "label": "Ns",
            "points": [
                [
                    1816,
                    1694
                ]
            ],
            "shape_type": "point"
        },
        {
            "flags": {},
            "group_id": null,
            "label": "Ne",
            "points": [
                [
                    1816,
                    1513
                ]
            ],
            "shape_type": "point"
        },
        {
            "flags": {},
            "group_id": null,
            "label": "wlb",
            "points": [
                [
                    347,
                    3037
                ],
                [
                    2173,
                    4141
                ]
            ],
            "shape_type": "rectangle"
        },
        {
            "flags": {},
            "group_id": null,
            "label": "wz1",
            "points": [
                [
                    3807,
                    2894
                ],
                [
                    4001,
                    2946
                ]
            ],
            "shape_type": "rectangle"
        },
        {
            "flags": {},
            "group_id": null,
            "label": "wz3",
            "points": [
                [
                    3900,
                    2196
                ],
                [
                    4022,
                    2225
                ]
            ],
            "shape_type": "rectangle"
        },
        {
            "flags": {},
            "group_id": null,
            "label": "wz3",
            "points": [
                [
                    3728,
                    2120
                ],
                [
                    3771,
                    2149
                ]
            ],
            "shape_type": "rectangle"
        },
        {
            "flags": {},
            "group_id": null,
            "label": "wz3",
            "points": [
                [
                    3616,
                    2121
                ],
                [
                    3655,
                    2154
                ]
            ],
            "shape_type": "rectangle"
        },
        {
            "flags": {},
            "group_id": null,
            "label": "wz1",
            "points": [
                [
                    3549,
                    2193
                ],
                [
                    3568,
                    2222
                ]
            ],
            "shape_type": "rectangle"
        },
        {
            "flags": {},
            "group_id": null,
            "label": "wz3",
            "points": [
                [
                    2449,
                    2731
                ],
                [
                    2563,
                    2780
                ]
            ],
            "shape_type": "rectangle"
        },
        {
            "flags": {},
            "group_id": null,
            "label": "wz3",
            "points": [
                [
                    2506,
                    2606
                ],
                [
                    2618,
                    2663
                ]
            ],
            "shape_type": "rectangle"
        },
        {
            "flags": {},
            "group_id": null,
            "label": "wz3",
            "points": [
                [
                    2202,
                    2633
                ],
                [
                    2316,
                    2679
                ]
            ],
            "shape_type": "rectangle"
        },
        {
            "flags": {},
            "group_id": null,
            "label": "wz3",
            "points": [
                [
                    1715,
                    1929
                ],
                [
                    1939,
                    1977
                ]
            ],
            "shape_type": "rectangle"
        },
        {
            "flags": {},
            "group_id": null,
            "label": "wz1",
            "points": [
                [
                    715,
                    1731
                ],
                [
                    878,
                    1780
                ]
            ],
            "shape_type": "rectangle"
        }
    ],
    "version": "4.5.7"
}