{
    "flags": {},
    "imageData": null,
    "imageHeight": 4205,
    "imagePath": "样本1_67_59.png",
    "imageWidth": 4205,
    "shapes": [
        {
            "flags": {},
            "group_id": null,
            "label": "t3-r",
            "points": [
                [
                    2892,
                    1400
                ],
                [
                    3537,
                    3262
                ]
            ],
            "shape_type": "rectangle"
        },
        {
            "flags": {},
            "group_id": null,
            "label": "b1",
            "points": [
                [
                    3728,
                    2990
                ],
                [
                    3994,
                    3261
                ]
            ],
            "shape_type": "rectangle"
        },
        {
            "flags": {},
            "group_id": null,
            "label": "h1",
            "points": [
                [
                    3558,
                    1550
                ],
                [
                    3688,
                    1613
                ]
            ],
            "shape_type": "rectangle"
        },
        {
            "flags": {},
            "group_id": null,
            "label": "h1",
            "points": [
                [
                    3558,
                    1668
                ],
                [
                    3688,
                    1729
                ]
            ],
            "shape_type": "rectangle"
        },
        {
            "flags": {},
            "group_id": null,
            "label": "h1",
            "points": [
                [
                    3558,
                    1898
                ],
                [
                    3688,
                    1960
                ]
            ],
            "shape_type": "rectangle"
        },
        {
            "flags": {},
            "group_id": null,
            "label": "h1",
            "points": [
                [
                    3559,
                    2046
                ],
                [
                    3688,
                    2108
                ]
            ],
            "shape_type": "rectangle"
        },
        {
            "flags": {},
            "group_id": null,
            "label": "h1",
            "points": [
                [
                    2744,
                    3199
                ],
                [
                    2874,
                    3261
                ]
            ],
            "shape_type": "rectangle"
        },
        {
            "flags": {},
            "group_id": null,
            "label": "seven",
            "points": [
                [
                    3727,
                    2991
                ]
            ],
            "shape_type": "point"
        },
        {
            "flags": {},
            "group_id": null,
            "label": "seven",
            "points": [
                [
                    3748,
                    3011
                ]
            ],
            "shape_type": "point"
        },
        {
            "flags": {},
            "group_id": null,
            "label": "eight",
            "points": [
                [
                    3993,
                    2990
                ]
            ],
            "shape_type": "point"
        },
        {
            "flags": {},
            "group_id": null,
            "label": "eight",
            "points": [
                [
                    3973,
                    3011
                ]
            ],
            "shape_type": "point"
        },
        {
            "flags": {},
            "group_id": null,
            "label": "twentytwo",
            "points": [
                [
                    3728,
                    3061
                ]
            ],
            "shape_type": "point"
        },
        {
            "flags": {},
            "group_id": null,
            "label": "twentythere",
            "points": [
                [
                    3747,
                    3090
                ]
            ],
            "shape_type": "point"
        },
        {
            "flags": {},
            "group_id": null,
            "label": "twelve",
            "points": [
                [
                    3748,
                    3061
                ]
            ],
            "shape_type": "point"
        },
        {
            "flags": {},
            "group_id": null,
            "label": "fourteen",
            "points": [
                [
                    3728,
                    3261
                ]
            ],
            "shape_type": "point"
        },
        {
            "flags": {},
            "group_id": null,
            "label": "fourteen",
            "points": [
                [
                    3748,
                    3261
                ]
            ],
            "shape_type": "point"
        },
        {
            "flags": {},
            "group_id": null,
            "label": "fourteen",
            "points": [
                [
                    3973,
                    3261
                ]
            ],
            "shape_type": "point"
        },
        {
            "flags": {},
            "group_id": null,
            "label": "fourteen",
            "points": [
                [
                    3993,
                    3261
                ]
            ],
            "shape_type": "point"
        },
        {
            "flags": {},
            "group_id": null,
            "label": "fifteen",
            "points": [
                [
                    3728,
                    3091
                ]
            ],
            "shape_type": "point"
        },
        {
            "flags": {},
            "group_id": null,
            "label": "c1",
            "points": [
                [
                    3170,
                    1400
                ],
                [
                    3175,
                    1596
                ]
            ],
            "shape_type": "rectangle"
        },
        {
            "flags": {},
            "group_id": null,
            "label": "g1",
            "points": [
                [
                    3040,
                    1580
                ],
                [
                    3044,
                    1729
                ]
            ],
            "shape_type": "rectangle"
        },
        {
            "flags": {},
            "group_id": null,
            "label": "g1",
            "points": [
                [
                    3154,
                    1580
                ],
                [
                    3158,
                    1728
                ]
            ],
            "shape_type": "rectangle"
        },
        {
            "flags": {},
            "group_id": null,
            "label": "g1",
            "points": [
                [
                    3284,
                    1580
                ],
                [
                    3287,
                    1728
                ]
            ],
            "shape_type": "rectangle"
        },
        {
            "flags": {},
            "group_id": null,
            "label": "g1",
            "points": [
                [
                    3403,
                    1581
                ],
                [
                    3406,
                    1729
                ]
            ],
            "shape_type": "rectangle"
        },
        {
            "flags": {},
            "group_id": null,
            "label": "g1",
            "points": [
                [
                    3043,
                    1818
                ],
                [
                    3046,
                    1966
                ]
            ],
            "shape_type": "rectangle"
        },
        {
            "flags": {},
            "group_id": null,
            "label": "g1",
            "points": [
                [
                    3148,
                    1818
                ],
                [
                    3152,
                    1965
                ]
            ],
            "shape_type": "rectangle"
        },
        {
            "flags": {},
            "group_id": null,
            "label": "g1",
            "points": [
                [
                    3325,
                    1818
                ],
                [
                    3328,
                    1965
                ]
            ],
            "shape_type": "rectangle"
        },
        {
            "flags": {},
            "group_id": null,
            "label": "g1",
            "points": [
                [
                    3406,
                    1818
                ],
                [
                    3410,
                    1966
                ]
            ],
            "shape_type": "rectangle"
        },
        {
            "flags": {},
            "group_id": null,
            "label": "g1",
            "points": [
                [
                    3146,
                    1989
                ],
                [
                    3149,
                    2136
                ]
            ],
            "shape_type": "rectangle"
        },
        {
            "flags": {},
            "group_id": null,
            "label": "g1",
            "points": [
                [
                    3328,
                    1989
                ],
                [
                    3331,
                    2136
                ]
            ],
            "shape_type": "rectangle"
        },
        {
            "flags": {},
            "group_id": null,
            "label": "a1-1",
            "points": [
                [
                    3018,
                    1610
                ],
                [
                    3039,
                    1698
                ]
            ],
            "shape_type": "rectangle"
        },
        {
            "flags": {},
            "group_id": null,
            "label": "a1-1",
            "points": [
                [
                    3132,
                    1610
                ],
                [
                    3153,
                    1698
                ]
            ],
            "shape_type": "rectangle"
        },
        {
            "flags": {},
            "group_id": null,
            "label": "a1-2",
            "points": [
                [
                    3289,
                    1611
                ],
                [
                    3309,
                    1697
                ]
            ],
            "shape_type": "rectangle"
        },
        {
            "flags": {},
            "group_id": null,
            "label": "a1-2",
            "points": [
                [
                    3408,
                    1610
                ],
                [
                    3429,
                    1698
                ]
            ],
            "shape_type": "rectangle"
        },
        {
            "flags": {},
            "group_id": null,
            "label": "a1-1",
            "points": [
                [
                    3020,
                    1848
                ],
                [
                    3042,
                    1934
                ]
            ],
            "shape_type": "rectangle"
        },
        {
            "flags": {},
            "group_id": null,
            "label": "a1-1",
            "points": [
                [
                    3126,
                    1848
                ],
                [
                    3146,
                    1934
                ]
            ],
            "shape_type": "rectangle"
        },
        {
            "flags": {},
            "group_id": null,
            "label": "a1-2",
            "points": [
                [
                    3329,
                    1848
                ],
                [
                    3351,
                    1933
                ]
            ],
            "shape_type": "rectangle"
        },
        {
            "flags": {},
            "group_id": null,
            "label": "a1-2",
            "points": [
                [
                    3410,
                    1849
                ],
                [
                    3432,
                    1935
                ]
            ],
            "shape_type": "rectangle"
        },
        {
            "flags": {},
            "group_id": null,
            "label": "a1-1",
            "points": [
                [
                    3123,
                    2018
                ],
                [
                    3145,
                    2106
                ]
            ],
            "shape_type": "rectangle"
        },
        {
            "flags": {},
            "group_id": null,
            "label": "a1-2",
            "points": [
                [
                    3332,
                    2019
                ],
                [
                    3354,
                    2105
                ]
            ],
            "shape_type": "rectangle"
        },
        {
            "flags": {},
            "group_id": null,
            "label": "v1",
            "points": [
                [
                    2443,
                    2927
                ],
                [
                    2679,
                    3019
                ]
            ],
            "shape_type": "rectangle"
        },
        {
            "flags": {},
            "group_id": null,
            "label": "vp1-4",
            "points": [
                [
                    2358,
                    2355
                ],
                [
                    2745,
                    2740
                ]
            ],
            "shape_type": "rectangle"
        },
        {
            "flags": {},
            "group_id": null,
            "label": "va1",
            "points": [
                [
                    2445,
                    2277
                ],
                [
                    2489,
                    2315
                ]
            ],
            "shape_type": "rectangle"
        },
        {
            "flags": {},
            "group_id": null,
            "label": "va1",
            "points": [
                [
                    2607,
                    2278
                ],
                [
                    2652,
                    2314
                ]
            ],
            "shape_type": "rectangle"
        },
        {
            "flags": {},
            "group_id": null,
            "label": "va1",
            "points": [
                [
                    2280,
                    2457
                ],
                [
                    2325,
                    2496
                ]
            ],
            "shape_type": "rectangle"
        },
        {
            "flags": {},
            "group_id": null,
            "label": "va1",
            "points": [
                [
                    2785,
                    2472
                ],
                [
                    2825,
                    2515
                ]
            ],
            "shape_type": "rectangle"
        },
        {
            "flags": {},
            "group_id": null,
            "label": "va1",
            "points": [
                [
                    2785,
                    2593
                ],
                [
                    2824,
                    2639
                ]
            ],
            "shape_type": "rectangle"
        },
        {
            "flags": {},
            "group_id": null,
            "label": "",
            "points": [],
            "shape_type": ""
        },
        {
            "flags": {},
            "group_id": null,
            "label": "va1",
            "points": [
                [
                    2439,
                    2776
                ],
                [
                    2480,
                    2819
                ]
            ],
            "shape_type": "rectangle"
        },
        {
            "flags": {},
            "group_id": null,
            "label": "va1",
            "points": [
                [
                    2278,
                    2617
                ],
                [
                    2319,
                    2656
                ]
            ],
            "shape_type": "rectangle"
        },
        {
            "flags": {},
            "group_id": null,
            "label": "v1",
            "points": [
                [
                    2105,
                    2046
                ],
                [
                    2335,
                    2139
                ]
            ],
            "shape_type": "rectangle"
        },
        {
            "flags": {},
            "group_id": null,
            "label": "va1",
            "points": [
                [
                    2122,
                    1950
                ],
                [
                    2163,
                    1982
                ]
            ],
            "shape_type": "rectangle"
        },
        {
            "flags": {},
            "group_id": null,
            "label": "va1",
            "points": [
                [
                    2297,
                    1945
                ],
                [
                    2336,
                    1989
                ]
            ],
            "shape_type": "rectangle"
        },
        {
            "flags": {},
            "group_id": null,
            "label": "va1",
            "points": [
                [
                    1956,
                    1772
                ],
                [
                    1991,
                    1814
                ]
            ],
            "shape_type": "rectangle"
        },
        {
            "flags": {},
            "group_id": null,
            "label": "va1",
            "points": [
                [
                    2458,
                    1621
                ],
                [
                    2499,
                    1665
                ]
            ],
            "shape_type": "rectangle"
        },
        {
            "flags": {},
            "group_id": null,
            "label": "va1",
            "points": [
                [
                    2358,
                    1462
                ],
                [
                    2399,
                    1500
                ]
            ],
            "shape_type": "rectangle"
        },
        {
            "flags": {},
            "group_id": null,
            "label": "va1",
            "points": [
                [
                    2119,
                    1446
                ],
                [
                    2163,
                    1485
                ]
            ],
            "shape_type": "rectangle"
        },
        {
            "flags": {},
            "group_id": null,
            "label": "vp1-4",
            "points": [
                [
                    2032,
                    1525
                ],
                [
                    2418,
                    1909
                ]
            ],
            "shape_type": "rectangle"
        },
        {
            "flags": {},
            "group_id": null,
            "label": "three",
            "points": [
                [
                    1429,
                    1428
                ]
            ],
            "shape_type": "point"
        },
        {
            "flags": {},
            "group_id": null,
            "label": "four",
            "points": [
                [
                    1729,
                    1427
                ]
            ],
            "shape_type": "point"
        },
        {
            "flags": {},
            "group_id": null,
            "label": "three",
            "points": [
                [
                    1429,
                    1478
                ]
            ],
            "shape_type": "point"
        },
        {
            "flags": {},
            "group_id": null,
            "label": "four",
            "points": [
                [
                    1549,
                    1478
                ]
            ],
            "shape_type": "point"
        },
        {
            "flags": {},
            "group_id": null,
            "label": "two",
            "points": [
                [
                    1796,
                    1531
                ]
            ],
            "shape_type": "point"
        },
        {
            "flags": {},
            "group_id": null,
            "label": "one",
            "points": [
                [
                    1796,
                    2132
                ]
            ],
            "shape_type": "point"
        },
        {
            "flags": {},
            "group_id": null,
            "label": "one",
            "points": [
                [
                    1376,
                    2132
                ]
            ],
            "shape_type": "point"
        },
        {
            "flags": {},
            "group_id": null,
            "label": "six",
            "points": [
                [
                    1376,
                    2102
                ]
            ],
            "shape_type": "point"
        },
        {
            "flags": {},
            "group_id": null,
            "label": "two",
            "points": [
                [
                    1376,
                    2012
                ]
            ],
            "shape_type": "point"
        },
        {
            "flags": {},
            "group_id": null,
            "label": "vp2-3",
            "points": [
                [
                    1610,
                    2661
                ],
                [
                    1838,
                    2891
                ]
            ],
            "shape_type": "rectangle"
        },
        {
            "flags": {},
            "group_id": null,
            "label": "va1",
            "points": [
                [
                    1551,
                    2607
                ],
                [
                    1591,
                    2651
                ]
            ],
            "shape_type": "rectangle"
        },
        {
            "flags": {},
            "group_id": null,
            "label": "va1",
            "points": [
                [
                    1854,
                    2605
                ],
                [
                    1899,
                    2642
                ]
            ],
            "shape_type": "rectangle"
        },
        {
            "flags": {},
            "group_id": null,
            "label": "va1",
            "points": [
                [
                    1848,
                    2910
                ],
                [
                    1891,
                    2946
                ]
            ],
            "shape_type": "rectangle"
        },
        {
            "flags": {},
            "group_id": null,
            "label": "v1",
            "points": [
                [
                    1609,
                    2999
                ],
                [
                    1850,
                    3091
                ]
            ],
            "shape_type": "rectangle"
        },
        {
            "flags": {},
            "group_id": null,
            "label": "d1",
            "points": [
                [
                    1321,
                    2948
                ],
                [
                    1403,
                    3084
                ]
            ],
            "shape_type": "rectangle"
        },
        {
            "flags": {},
            "group_id": null,
            "label": "v1",
            "points": [
                [
                    766,
                    3012
                ],
                [
                    935,
                    3065
                ]
            ],
            "shape_type": "rectangle"
        },
        {
            "flags": {},
            "group_id": null,
            "label": "d1",
            "points": [
                [
                    279,
                    2947
                ],
                [
                    362,
                    3085
                ]
            ],
            "shape_type": "rectangle"
        },
        {
            "flags": {},
            "group_id": null,
            "label": "one",
            "points": [
                [
                    382,
                    2929
                ]
            ],
            "shape_type": "point"
        },
        {
            "flags": {},
            "group_id": null,
            "label": "two",
            "points": [
                [
                    382,
                    2327
                ]
            ],
            "shape_type": "point"
        },
        {
            "flags": {},
            "group_id": null,
            "label": "three",
            "points": [
                [
                    472,
                    2245
                ]
            ],
            "shape_type": "point"
        },
        {
            "flags": {},
            "group_id": null,
            "label": "four",
            "points": [
                [
                    1072,
                    2245
                ]
            ],
            "shape_type": "point"
        },
        {
            "flags": {},
            "group_id": null,
            "label": "n1",
            "points": [
                [
                    604,
                    1467
                ],
                [
                    992,
                    2004
                ]
            ],
            "shape_type": "rectangle"
        },
        {
            "flags": {},
            "group_id": null,
            "label": "three",
            "points": [
                [
                    1073,
                    2707
                ]
            ],
            "shape_type": "point"
        },
        {
            "flags": {},
            "group_id": null,
            "label": "four",
            "points": [
                [
                    1188,
                    2707
                ]
            ],
            "shape_type": "point"
        },
        {
            "flags": {},
            "group_id": null,
            "label": "one",
            "points": [
                [
                    1140,
                    2603
                ]
            ],
            "shape_type": "point"
        },
        {
            "flags": {},
            "group_id": null,
            "label": "two",
            "points": [
                [
                    1140,
                    2453
                ]
            ],
            "shape_type": "point"
        },
        {
            "flags": {},
            "group_id": null,
            "label": "three",
            "points": [
                [
                    1238,
                    2470
                ]
            ],
            "shape_type": "point"
        },
        {
            "flags": {},
            "group_id": null,
            "label": "four",
            "points": [
                [
                    1599,
                    2469
                ]
            ],
            "shape_type": "point"
        },
        {
            "flags": {},
            "group_id": null,
            "label": "vb1",
            "points": [
                [
                    1408,
                    1510
                ],
                [
                    1749,
                    2152
                ]
            ],
            "shape_type": "rectangle"
        },
        {
            "flags": {},
            "group_id": null,
            "label": "seven",
            "points": [
                [
                    1409,
                    1510
                ]
            ],
            "shape_type": "point"
        },
        {
            "flags": {},
            "group_id": null,
            "label": "seven",
            "points": [
                [
                    1429,
                    1531
                ]
            ],
            "shape_type": "point"
        },
        {
            "flags": {},
            "group_id": null,
            "label": "eight",
            "points": [
                [
                    1750,
                    1511
                ]
            ],
            "shape_type": "point"
        },
        {
            "flags": {},
            "group_id": null,
            "label": "eight",
            "points": [
                [
                    1729,
                    1531
                ]
            ],
            "shape_type": "point"
        },
        {
            "flags": {},
            "group_id": null,
            "label": "ten",
            "points": [
                [
                    1729,
                    2132
                ]
            ],
            "shape_type": "point"
        },
        {
            "flags": {},
            "group_id": null,
            "label": "ten",
            "points": [
                [
                    1749,
                    2152
                ]
            ],
            "shape_type": "point"
        },
        {
            "flags": {},
            "group_id": null,
            "label": "twentytwo",
            "points": [
                [
                    1549,
                    2132
                ]
            ],
            "shape_type": "point"
        },
        {
            "flags": {},
            "group_id": null,
            "label": "twentythere",
            "points": [
                [
                    1599,
                    2151
                ]
            ],
            "shape_type": "point"
        },
        {
            "flags": {},
            "group_id": null,
            "label": "thirteen",
            "points": [
                [
                    1599,
                    2132
                ]
            ],
            "shape_type": "point"
        },
        {
            "flags": {},
            "group_id": null,
            "label": "fifteen",
            "points": [
                [
                    1549,
                    2152
                ]
            ],
            "shape_type": "point"
        },
        {
            "flags": {},
            "group_id": null,
            "label": "nine",
            "points": [
                [
                    1429,
                    2132
                ]
            ],
            "shape_type": "point"
        },
        {
            "flags": {},
            "group_id": null,
            "label": "nine",
            "points": [
                [
                    1409,
                    2152
                ]
            ],
            "shape_type": "point"
        },
        {
            "flags": {},
            "group_id": null,
            "label": "eight",
            "points": [
                [
                    1429,
                    2102
                ]
            ],
            "shape_type": "point"
        },
        {
            "flags": {},
            "group_id": null,
            "label": "seven",
            "points": [
                [
                    1409,
                    2102
                ]
            ],
            "shape_type": "point"
        },
        {
            "flags": {},
            "group_id": null,
            "label": "twentyone",
            "points": [
                [
                    1419,
                    2102
                ]
            ],
            "shape_type": "point"
        },
        {
            "flags": {},
            "group_id": null,
            "label": "nine",
            "points": [
                [
                    1409,
                    2011
                ]
            ],
            "shape_type": "point"
        },
        {
            "flags": {},
            "group_id": null,
            "label": "ten",
            "points": [
                [
                    1429,
                    2011
                ]
            ],
            "shape_type": "point"
        },
        {
            "flags": {},
            "group_id": null,
            "label": "vt4",
            "points": [
                [
                    432,
                    2287
                ],
                [
                    1113,
                    2968
                ]
            ],
            "shape_type": "rectangle"
        },
        {
            "flags": {},
            "group_id": null,
            "label": "p1-1",
            "points": [
                [
                    3017,
                    1579
                ],
                [
                    3429,
                    1729
                ]
            ],
            "shape_type": "rectangle"
        },
        {
            "flags": {},
            "group_id": null,
            "label": "p1-1",
            "points": [
                [
                    3020,
                    1817
                ],
                [
                    3432,
                    1966
                ]
            ],
            "shape_type": "rectangle"
        },
        {
            "flags": {},
            "group_id": null,
            "label": "p1-2",
            "points": [
                [
                    3123,
                    1988
                ],
                [
                    3355,
                    2137
                ]
            ],
            "shape_type": "rectangle"
        },
        {
            "flags": {},
            "group_id": null,
            "label": "j1",
            "points": [
                [
                    852,
                    1926
                ],
                [
                    931,
                    2004
                ]
            ],
            "shape_type": "rectangle"
        },
        {
            "flags": {},
            "group_id": null,
            "label": "j1",
            "points": [
                [
                    924,
                    1616
                ],
                [
                    992,
                    1688
                ]
            ],
            "shape_type": "rectangle"
        },
        {
            "flags": {},
            "group_id": null,
            "label": "j1",
            "points": [
                [
                    808,
                    1467
                ],
                [
                    840,
                    1512
                ]
            ],
            "shape_type": "rectangle"
        },
        {
            "flags": {},
            "group_id": null,
            "label": "j1",
            "points": [
                [
                    604,
                    1713
                ],
                [
                    691,
                    1786
                ]
            ],
            "shape_type": "rectangle"
        },
        {
            "flags": {},
            "group_id": null,
            "label": "wz2",
            "points": [
                [
                    1088,
                    2670
                ],
                [
                    1174,
                    2702
                ]
            ],
            "shape_type": "rectangle"
        },
        {
            "flags": {},
            "group_id": null,
            "label": "x2",
            "points": [
                [
                    1062,
                    2669
                ],
                [
                    1199,
                    2717
                ]
            ],
            "shape_type": "rectangle"
        },
        {
            "flags": {},
            "group_id": null,
            "label": "wz2",
            "points": [
                [
                    1104,
                    2483
                ],
                [
                    1132,
                    2575
                ]
            ],
            "shape_type": "rectangle"
        },
        {
            "flags": {},
            "group_id": null,
            "label": "x2",
            "points": [
                [
                    1104,
                    2443
                ],
                [
                    1151,
                    2615
                ]
            ],
            "shape_type": "rectangle"
        },
        {
            "flags": {},
            "group_id": null,
            "label": "wz2",
            "points": [
                [
                    1375,
                    2435
                ],
                [
                    1463,
                    2463
                ]
            ],
            "shape_type": "rectangle"
        },
        {
            "flags": {},
            "group_id": null,
            "label": "x2",
            "points": [
                [
                    1230,
                    2431
                ],
                [
                    1609,
                    2483
                ]
            ],
            "shape_type": "rectangle"
        },
        {
            "flags": {},
            "group_id": null,
            "label": "wz2",
            "points": [
                [
                    727,
                    2209
                ],
                [
                    818,
                    2237
                ]
            ],
            "shape_type": "rectangle"
        },
        {
            "flags": {},
            "group_id": null,
            "label": "x2",
            "points": [
                [
                    462,
                    2208
                ],
                [
                    1086,
                    2261
                ]
            ],
            "shape_type": "rectangle"
        },
        {
            "flags": {},
            "group_id": null,
            "label": "wz2",
            "points": [
                [
                    346,
                    2583
                ],
                [
                    376,
                    2673
                ]
            ],
            "shape_type": "rectangle"
        },
        {
            "flags": {},
            "group_id": null,
            "label": "x2",
            "points": [
                [
                    346,
                    2317
                ],
                [
                    394,
                    2941
                ]
            ],
            "shape_type": "rectangle"
        },
        {
            "flags": {},
            "group_id": null,
            "label": "wz2",
            "points": [
                [
                    1338,
                    2022
                ],
                [
                    1367,
                    2090
                ]
            ],
            "shape_type": "rectangle"
        },
        {
            "flags": {},
            "group_id": null,
            "label": "wz2",
            "points": [
                [
                    1340,
                    2085
                ],
                [
                    1366,
                    2150
                ]
            ],
            "shape_type": "rectangle"
        },
        {
            "flags": {},
            "group_id": null,
            "label": "x2",
            "points": [
                [
                    1337,
                    2001
                ],
                [
                    1386,
                    2152
                ]
            ],
            "shape_type": "rectangle"
        },
        {
            "flags": {},
            "group_id": null,
            "label": "k1",
            "points": [
                [
                    1548,
                    2131
                ],
                [
                    1599,
                    2152
                ]
            ],
            "shape_type": "rectangle"
        },
        {
            "flags": {},
            "group_id": null,
            "label": "wz2",
            "points": [
                [
                    1758,
                    1785
                ],
                [
                    1788,
                    1876
                ]
            ],
            "shape_type": "rectangle"
        },
        {
            "flags": {},
            "group_id": null,
            "label": "x2",
            "points": [
                [
                    1758,
                    1519
                ],
                [
                    1807,
                    2143
                ]
            ],
            "shape_type": "rectangle"
        },
        {
            "flags": {},
            "group_id": null,
            "label": "wz2",
            "points": [
                [
                    1448,
                    1442
                ],
                [
                    1530,
                    1473
                ]
            ],
            "shape_type": "rectangle"
        },
        {
            "flags": {},
            "group_id": null,
            "label": "x2",
            "points": [
                [
                    1417,
                    1441
                ],
                [
                    1558,
                    1489
                ]
            ],
            "shape_type": "rectangle"
        },
        {
            "flags": {},
            "group_id": null,
            "label": "wz2",
            "points": [
                [
                    1536,
                    1392
                ],
                [
                    1622,
                    1421
                ]
            ],
            "shape_type": "rectangle"
        },
        {
            "flags": {},
            "group_id": null,
            "label": "x2",
            "points": [
                [
                    1416,
                    1391
                ],
                [
                    1739,
                    1438
                ]
            ],
            "shape_type": "rectangle"
        },
        {
            "flags": {},
            "group_id": null,
            "label": "sm",
            "points": [
                [
                    1736,
                    3158
                ],
                [
                    3674,
                    3835
                ]
            ],
            "shape_type": "rectangle"
        },
        {
            "flags": {},
            "group_id": null,
            "label": "btl",
            "points": [
                [
                    2348,
                    3863
                ],
                [
                    4153,
                    4167
                ]
            ],
            "shape_type": "rectangle"
        },
        {
            "flags": {},
            "group_id": null,
            "label": "wz4",
            "points": [
                [
                    3818,
                    3116
                ],
                [
                    3952,
                    3166
                ]
            ],
            "shape_type": "rectangle"
        },
        {
            "flags": {},
            "group_id": null,
            "label": "k1",
            "points": [
                [
                    3728,
                    3061
                ],
                [
                    3748,
                    3091
                ]
            ],
            "shape_type": "rectangle"
        },
        {
            "flags": {},
            "group_id": null,
            "label": "mask",
            "lineType": [
                "LLLLLLLLLLLLLLLLLLLLLLLLLLLLLLLLLLLL"
            ],
            "points": [
                [
                    3103,
                    1368
                ],
                [
                    3268,
                    1419
                ],
                [
                    3468,
                    1465
                ],
                [
                    3656,
                    1496
                ],
                [
                    3733,
                    1547
                ],
                [
                    3729,
                    1710
                ],
                [
                    3741,
                    1930
                ],
                [
                    3733,
                    2033
                ],
                [
                    3735,
                    2144
                ],
                [
                    3638,
                    2186
                ],
                [
                    3427,
                    2194
                ],
                [
                    3376,
                    2240
                ],
                [
                    3440,
                    2602
                ],
                [
                    3465,
                    2722
                ],
                [
                    3516,
                    2905
                ],
                [
                    3768,
                    2951
                ],
                [
                    4011,
                    2957
                ],
                [
                    4040,
                    2994
                ],
                [
                    4069,
                    3216
                ],
                [
                    4126,
                    3254
                ],
                [
                    4134,
                    3285
                ],
                [
                    4124,
                    3314
                ],
                [
                    2740,
                    3311
                ],
                [
                    2705,
                    3269
                ],
                [
                    2716,
                    3188
                ],
                [
                    2840,
                    3024
                ],
                [
                    2934,
                    2918
                ],
                [
                    3012,
                    2581
                ],
                [
                    3069,
                    2500
                ],
                [
                    2995,
                    2123
                ],
                [
                    2842,
                    2135
                ],
                [
                    2765,
                    2074
                ],
                [
                    2779,
                    1842
                ],
                [
                    2775,
                    1637
                ],
                [
                    2848,
                    1546
                ],
                [
                    3103,
                    1368
                ]
            ],
            "shape_type": "polygon"
        },
        {
            "flags": {},
            "group_id": null,
            "label": "mask",
            "lineType": [
                "LLLLLLLLLLLLLLLLLLLLLLLLLLLLLLLL"
            ],
            "points": [
                [
                    1726,
                    3148
                ],
                [
                    3684,
                    3148
                ],
                [
                    3684,
                    3845
                ],
                [
                    1726,
                    3845
                ]
            ],
            "shape_type": "polygon"
        },
        {
            "flags": {},
            "group_id": null,
            "label": "mask",
            "lineType": [
                "LLLLL"
            ],
            "points": [
                [
                    2338,
                    3853
                ],
                [
                    4163,
                    3853
                ],
                [
                    4163,
                    4177
                ],
                [
                    2338,
                    4177
                ]
            ],
            "shape_type": "polygon"
        },
        {
            "flags": {},
            "group_id": null,
            "label": "mask",
            "lineType": [
                "LLLLLLLL"
            ],
            "points": [
                [
                    254,
                    3223
                ],
                [
                    1753,
                    3223
                ],
                [
                    1753,
                    4134
                ],
                [
                    254,
                    4134
                ]
            ],
            "shape_type": "polygon"
        },
        {
            "flags": {},
            "group_id": null,
            "label": "mask",
            "lineType": [
                "LLLLLLLLLLLLLLLLLLLLLLLLLLLLLLLLLLLLLL"
            ],
            "points": [
                [
                    594,
                    1457
                ],
                [
                    1002,
                    1457
                ],
                [
                    1002,
                    2014
                ],
                [
                    594,
                    2014
                ]
            ],
            "shape_type": "polygon"
        },
        {
            "flags": {},
            "group_id": null,
            "label": "mask",
            "lineType": [
                "LLLLLLLLLLLLLLLLLLLLLLL"
            ],
            "points": [
                [
                    1367,
                    2624
                ],
                [
                    1397,
                    2589
                ],
                [
                    1466,
                    2564
                ],
                [
                    1630,
                    2569
                ],
                [
                    1802,
                    2595
                ],
                [
                    1883,
                    2537
                ],
                [
                    2011,
                    2528
                ],
                [
                    2032,
                    2613
                ],
                [
                    1897,
                    2785
                ],
                [
                    1955,
                    2855
                ],
                [
                    2021,
                    2875
                ],
                [
                    2042,
                    2935
                ],
                [
                    2027,
                    2982
                ],
                [
                    1937,
                    2995
                ],
                [
                    1906,
                    3049
                ],
                [
                    1885,
                    3087
                ],
                [
                    1854,
                    3100
                ],
                [
                    1810,
                    3109
                ],
                [
                    1690,
                    3114
                ],
                [
                    1589,
                    3115
                ],
                [
                    1524,
                    3015
                ],
                [
                    1521,
                    2842
                ],
                [
                    1367,
                    2624
                ]
            ],
            "shape_type": "polygon"
        },
        {
            "flags": {},
            "group_id": null,
            "label": "mask",
            "lineType": [
                "LLLLLLLLLLLLLLLLLLL"
            ],
            "points": [
                [
                    594,
                    1457
                ],
                [
                    1002,
                    1457
                ],
                [
                    1002,
                    2014
                ],
                [
                    594,
                    2014
                ]
            ],
            "shape_type": "polygon"
        },
        {
            "flags": {},
            "group_id": null,
            "label": "mask",
            "lineType": [
                "LLLLLLLLLLLLLLLLLLLLLLLLLLLLLLL"
            ],
            "points": [
                [
                    1851,
                    1760
                ],
                [
                    1824,
                    1733
                ],
                [
                    1813,
                    1715
                ],
                [
                    1811,
                    1690
                ],
                [
                    1825,
                    1663
                ],
                [
                    1906,
                    1650
                ],
                [
                    1988,
                    1618
                ],
                [
                    2053,
                    1485
                ],
                [
                    2064,
                    1410
                ],
                [
                    2081,
                    1386
                ],
                [
                    2179,
                    1387
                ],
                [
                    2239,
                    1417
                ],
                [
                    2453,
                    1433
                ],
                [
                    2592,
                    1432
                ],
                [
                    2581,
                    1483
                ],
                [
                    2585,
                    1620
                ],
                [
                    2608,
                    1662
                ],
                [
                    2604,
                    1703
                ],
                [
                    2509,
                    1718
                ],
                [
                    2464,
                    1720
                ],
                [
                    2461,
                    1818
                ],
                [
                    2459,
                    1890
                ],
                [
                    2470,
                    2031
                ],
                [
                    2433,
                    2076
                ],
                [
                    2377,
                    2140
                ],
                [
                    2356,
                    2150
                ],
                [
                    2316,
                    2155
                ],
                [
                    2073,
                    2158
                ],
                [
                    2033,
                    2118
                ],
                [
                    1934,
                    2035
                ],
                [
                    1851,
                    1760
                ]
            ],
            "shape_type": "polygon"
        },
        {
            "flags": {},
            "group_id": null,
            "label": "mask",
            "lineType": [
                "LLLLLLLLLLLLLLLLLLL"
            ],
            "points": [
                [
                    2161,
                    2382
                ],
                [
                    2238,
                    2337
                ],
                [
                    2319,
                    2259
                ],
                [
                    2391,
                    2217
                ],
                [
                    2577,
                    2199
                ],
                [
                    2724,
                    2219
                ],
                [
                    2774,
                    2327
                ],
                [
                    2965,
                    2490
                ],
                [
                    2960,
                    2645
                ],
                [
                    2755,
                    2779
                ],
                [
                    2750,
                    2932
                ],
                [
                    2742,
                    3017
                ],
                [
                    2692,
                    3037
                ],
                [
                    2579,
                    3048
                ],
                [
                    2404,
                    3041
                ],
                [
                    2295,
                    2971
                ],
                [
                    2231,
                    2780
                ],
                [
                    2163,
                    2699
                ],
                [
                    2161,
                    2382
                ]
            ],
            "shape_type": "polygon"
        },
        {
            "flags": {},
            "group_id": null,
            "label": "wlb",
            "points": [
                [
                    264,
                    3233
                ],
                [
                    1743,
                    4124
                ]
            ],
            "shape_type": "rectangle"
        },
        {
            "flags": {},
            "group_id": null,
            "label": "Ns",
            "points": [
                [
                    859,
                    1776
                ]
            ],
            "shape_type": "point"
        },
        {
            "flags": {},
            "group_id": null,
            "label": "Ne",
            "points": [
                [
                    858,
                    1595
                ]
            ],
            "shape_type": "point"
        },
        {
            "flags": {},
            "group_id": null,
            "label": "wz3",
            "points": [
                [
                    735,
                    2035
                ],
                [
                    896,
                    2066
                ]
            ],
            "shape_type": "rectangle"
        },
        {
            "flags": {},
            "group_id": null,
            "label": "wz1",
            "points": [
                [
                    2427,
                    1446
                ],
                [
                    2558,
                    1507
                ]
            ],
            "shape_type": "rectangle"
        },
        {
            "flags": {},
            "group_id": null,
            "label": "wz3",
            "points": [
                [
                    2494,
                    1658
                ],
                [
                    2592,
                    1693
                ]
            ],
            "shape_type": "rectangle"
        },
        {
            "flags": {},
            "group_id": null,
            "label": "wz3",
            "points": [
                [
                    2080,
                    1402
                ],
                [
                    2180,
                    1436
                ]
            ],
            "shape_type": "rectangle"
        },
        {
            "flags": {},
            "group_id": null,
            "label": "wz1",
            "points": [
                [
                    1822,
                    1678
                ],
                [
                    1954,
                    1740
                ]
            ],
            "shape_type": "rectangle"
        },
        {
            "flags": {},
            "group_id": null,
            "label": "wz1",
            "points": [
                [
                    1971,
                    1984
                ],
                [
                    2105,
                    2043
                ]
            ],
            "shape_type": "rectangle"
        },
        {
            "flags": {},
            "group_id": null,
            "label": "wz3",
            "points": [
                [
                    2332,
                    1990
                ],
                [
                    2430,
                    2024
                ]
            ],
            "shape_type": "rectangle"
        },
        {
            "flags": {},
            "group_id": null,
            "label": "wz3",
            "points": [
                [
                    2399,
                    2228
                ],
                [
                    2498,
                    2261
                ]
            ],
            "shape_type": "rectangle"
        },
        {
            "flags": {},
            "group_id": null,
            "label": "wz3",
            "points": [
                [
                    2587,
                    2228
                ],
                [
                    2686,
                    2265
                ]
            ],
            "shape_type": "rectangle"
        },
        {
            "flags": {},
            "group_id": null,
            "label": "wz3",
            "points": [
                [
                    2831,
                    2490
                ],
                [
                    2931,
                    2525
                ]
            ],
            "shape_type": "rectangle"
        },
        {
            "flags": {},
            "group_id": null,
            "label": "wz3",
            "points": [
                [
                    2831,
                    2601
                ],
                [
                    2930,
                    2637
                ]
            ],
            "shape_type": "rectangle"
        },
        {
            "flags": {},
            "group_id": null,
            "label": "wz3",
            "points": [
                [
                    2591,
                    2845
                ],
                [
                    2641,
                    2883
                ]
            ],
            "shape_type": "rectangle"
        },
        {
            "flags": {},
            "group_id": null,
            "label": "wz3",
            "points": [
                [
                    2331,
                    2821
                ],
                [
                    2425,
                    2853
                ]
            ],
            "shape_type": "rectangle"
        },
        {
            "flags": {},
            "group_id": null,
            "label": "wz3",
            "points": [
                [
                    2202,
                    2655
                ],
                [
                    2301,
                    2689
                ]
            ],
            "shape_type": "rectangle"
        },
        {
            "flags": {},
            "group_id": null,
            "label": "wz3",
            "points": [
                [
                    2206,
                    2419
                ],
                [
                    2306,
                    2455
                ]
            ],
            "shape_type": "rectangle"
        },
        {
            "flags": {},
            "group_id": null,
            "label": "wz3",
            "points": [
                [
                    1920,
                    2878
                ],
                [
                    2014,
                    2963
                ]
            ],
            "shape_type": "rectangle"
        },
        {
            "flags": {},
            "group_id": null,
            "label": "wz3",
            "points": [
                [
                    1919,
                    2552
                ],
                [
                    2001,
                    2635
                ]
            ],
            "shape_type": "rectangle"
        },
        {
            "flags": {},
            "group_id": null,
            "label": "wz3",
            "points": [
                [
                    1427,
                    2580
                ],
                [
                    1533,
                    2665
                ]
            ],
            "shape_type": "rectangle"
        },
        {
            "flags": {},
            "group_id": null,
            "label": "wz3",
            "points": [
                [
                    2838,
                    2063
                ],
                [
                    2916,
                    2098
                ]
            ],
            "shape_type": "rectangle"
        },
        {
            "flags": {},
            "group_id": null,
            "label": "wz3",
            "points": [
                [
                    2834,
                    1874
                ],
                [
                    2934,
                    1909
                ]
            ],
            "shape_type": "rectangle"
        },
        {
            "flags": {},
            "group_id": null,
            "label": "wz3",
            "points": [
                [
                    2825,
                    1689
                ],
                [
                    2955,
                    1714
                ]
            ],
            "shape_type": "rectangle"
        },
        {
            "flags": {},
            "group_id": null,
            "label": "wz3",
            "points": [
                [
                    2835,
                    1637
                ],
                [
                    2933,
                    1672
                ]
            ],
            "shape_type": "rectangle"
        }
    ],
    "version": "4.5.7"
}