{
    "flags": {},
    "imageData": null,
    "imageHeight": 4205,
    "imagePath": "样本2_93_10.png",
    "imageWidth": 4205,
    "shapes": [
        {
            "flags": {},
            "group_id": null,
            "label": "vp1-3",
            "points": [
                [
                    2020,
                    1878
                ],
                [
                    2476,
                    2334
                ]
            ],
            "shape_type": "rectangle"
        },
        {
            "flags": {},
            "group_id": null,
            "label": "t3-l",
            "points": [
                [
                    3265,
                    1132
                ],
                [
                    3950,
                    3102
                ]
            ],
            "shape_type": "rectangle"
        },
        {
            "flags": {},
            "group_id": null,
            "label": "c1",
            "points": [
                [
                    3598,
                    1133
                ],
                [
                    3607,
                    1343
                ]
            ],
            "shape_type": "rectangle"
        },
        {
            "flags": {},
            "group_id": null,
            "label": "a1-2",
            "points": [
                [
                    3762,
                    1358
                ],
                [
                    3785,
                    1450
                ]
            ],
            "shape_type": "rectangle"
        },
        {
            "flags": {},
            "group_id": null,
            "label": "a1-1",
            "points": [
                [
                    3710,
                    1358
                ],
                [
                    3733,
                    1450
                ]
            ],
            "shape_type": "rectangle"
        },
        {
            "flags": {},
            "group_id": null,
            "label": "a1-3",
            "points": [
                [
                    3399,
                    1363
                ],
                [
                    3420,
                    1452
                ]
            ],
            "shape_type": "rectangle"
        },
        {
            "flags": {},
            "group_id": null,
            "label": "d1",
            "points": [
                [
                    3285,
                    1282
                ],
                [
                    3373,
                    1429
                ]
            ],
            "shape_type": "rectangle"
        },
        {
            "flags": {},
            "group_id": null,
            "label": "d1",
            "points": [
                [
                    3282,
                    1530
                ],
                [
                    3372,
                    1676
                ]
            ],
            "shape_type": "rectangle"
        },
        {
            "flags": {},
            "group_id": null,
            "label": "d1",
            "points": [
                [
                    3283,
                    1734
                ],
                [
                    3373,
                    1880
                ]
            ],
            "shape_type": "rectangle"
        },
        {
            "flags": {},
            "group_id": null,
            "label": "d1",
            "points": [
                [
                    3283,
                    1916
                ],
                [
                    3373,
                    2062
                ]
            ],
            "shape_type": "rectangle"
        },
        {
            "flags": {},
            "group_id": null,
            "label": "d1",
            "points": [
                [
                    3283,
                    2103
                ],
                [
                    3373,
                    2249
                ]
            ],
            "shape_type": "rectangle"
        },
        {
            "flags": {},
            "group_id": null,
            "label": "d1",
            "points": [
                [
                    3819,
                    2106
                ],
                [
                    3909,
                    2251
                ]
            ],
            "shape_type": "rectangle"
        },
        {
            "flags": {},
            "group_id": null,
            "label": "d1",
            "points": [
                [
                    3819,
                    1919
                ],
                [
                    3907,
                    2066
                ]
            ],
            "shape_type": "rectangle"
        },
        {
            "flags": {},
            "group_id": null,
            "label": "d1",
            "points": [
                [
                    3819,
                    1737
                ],
                [
                    3908,
                    1883
                ]
            ],
            "shape_type": "rectangle"
        },
        {
            "flags": {},
            "group_id": null,
            "label": "d1",
            "points": [
                [
                    3824,
                    1530
                ],
                [
                    3913,
                    1677
                ]
            ],
            "shape_type": "rectangle"
        },
        {
            "flags": {},
            "group_id": null,
            "label": "d1",
            "points": [
                [
                    3830,
                    1282
                ],
                [
                    3920,
                    1428
                ]
            ],
            "shape_type": "rectangle"
        },
        {
            "flags": {},
            "group_id": null,
            "label": "h1",
            "points": [
                [
                    3968,
                    3034
                ],
                [
                    4108,
                    3101
                ]
            ],
            "shape_type": "rectangle"
        },
        {
            "flags": {},
            "group_id": null,
            "label": "h1",
            "points": [
                [
                    3955,
                    2152
                ],
                [
                    4095,
                    2221
                ]
            ],
            "shape_type": "rectangle"
        },
        {
            "flags": {},
            "group_id": null,
            "label": "h1",
            "points": [
                [
                    3955,
                    1956
                ],
                [
                    4095,
                    2024
                ]
            ],
            "shape_type": "rectangle"
        },
        {
            "flags": {},
            "group_id": null,
            "label": "h1",
            "points": [
                [
                    3956,
                    1799
                ],
                [
                    4095,
                    1866
                ]
            ],
            "shape_type": "rectangle"
        },
        {
            "flags": {},
            "group_id": null,
            "label": "h1",
            "points": [
                [
                    3955,
                    1589
                ],
                [
                    4093,
                    1656
                ]
            ],
            "shape_type": "rectangle"
        },
        {
            "flags": {},
            "group_id": null,
            "label": "h1",
            "points": [
                [
                    3955,
                    1418
                ],
                [
                    4093,
                    1485
                ]
            ],
            "shape_type": "rectangle"
        },
        {
            "flags": {},
            "group_id": null,
            "label": "h1",
            "points": [
                [
                    3955,
                    1276
                ],
                [
                    4094,
                    1342
                ]
            ],
            "shape_type": "rectangle"
        },
        {
            "flags": {},
            "group_id": null,
            "label": "a1-3",
            "points": [
                [
                    3476,
                    1570
                ],
                [
                    3498,
                    1659
                ]
            ],
            "shape_type": "rectangle"
        },
        {
            "flags": {},
            "group_id": null,
            "label": "a1-2",
            "points": [
                [
                    3697,
                    1566
                ],
                [
                    3719,
                    1659
                ]
            ],
            "shape_type": "rectangle"
        },
        {
            "flags": {},
            "group_id": null,
            "label": "a1-2",
            "points": [
                [
                    3753,
                    1762
                ],
                [
                    3776,
                    1854
                ]
            ],
            "shape_type": "rectangle"
        },
        {
            "flags": {},
            "group_id": null,
            "label": "a1-3",
            "points": [
                [
                    3714,
                    1765
                ],
                [
                    3736,
                    1853
                ]
            ],
            "shape_type": "rectangle"
        },
        {
            "flags": {},
            "group_id": null,
            "label": "a1-3",
            "points": [
                [
                    3389,
                    1768
                ],
                [
                    3411,
                    1856
                ]
            ],
            "shape_type": "rectangle"
        },
        {
            "flags": {},
            "group_id": null,
            "label": "a1-3",
            "points": [
                [
                    3454,
                    1937
                ],
                [
                    3475,
                    2025
                ]
            ],
            "shape_type": "rectangle"
        },
        {
            "flags": {},
            "group_id": null,
            "label": "a1-2",
            "points": [
                [
                    3717,
                    1931
                ],
                [
                    3740,
                    2025
                ]
            ],
            "shape_type": "rectangle"
        },
        {
            "flags": {},
            "group_id": null,
            "label": "a1-3",
            "points": [
                [
                    3439,
                    2137
                ],
                [
                    3460,
                    2225
                ]
            ],
            "shape_type": "rectangle"
        },
        {
            "flags": {},
            "group_id": null,
            "label": "a1-2",
            "points": [
                [
                    3732,
                    2131
                ],
                [
                    3754,
                    2223
                ]
            ],
            "shape_type": "rectangle"
        },
        {
            "flags": {},
            "group_id": null,
            "label": "va1",
            "points": [
                [
                    2477,
                    1903
                ],
                [
                    2520,
                    1949
                ]
            ],
            "shape_type": "rectangle"
        },
        {
            "flags": {},
            "group_id": null,
            "label": "va1",
            "points": [
                [
                    2507,
                    1957
                ],
                [
                    2550,
                    2004
                ]
            ],
            "shape_type": "rectangle"
        },
        {
            "flags": {},
            "group_id": null,
            "label": "va1",
            "points": [
                [
                    1974,
                    1901
                ],
                [
                    2018,
                    1948
                ]
            ],
            "shape_type": "rectangle"
        },
        {
            "flags": {},
            "group_id": null,
            "label": "va1",
            "points": [
                [
                    1946,
                    1956
                ],
                [
                    1988,
                    2002
                ]
            ],
            "shape_type": "rectangle"
        },
        {
            "flags": {},
            "group_id": null,
            "label": "va1",
            "points": [
                [
                    2196,
                    2385
                ],
                [
                    2244,
                    2422
                ]
            ],
            "shape_type": "rectangle"
        },
        {
            "flags": {},
            "group_id": null,
            "label": "va1",
            "points": [
                [
                    2258,
                    2387
                ],
                [
                    2306,
                    2424
                ]
            ],
            "shape_type": "rectangle"
        },
        {
            "flags": {},
            "group_id": null,
            "label": "n1",
            "points": [
                [
                    2212,
                    1190
                ],
                [
                    2783,
                    1694
                ]
            ],
            "shape_type": "rectangle"
        },
        {
            "flags": {},
            "group_id": null,
            "label": "va1",
            "points": [
                [
                    1573,
                    1330
                ],
                [
                    1617,
                    1378
                ]
            ],
            "shape_type": "rectangle"
        },
        {
            "flags": {},
            "group_id": null,
            "label": "va1",
            "points": [
                [
                    1603,
                    1386
                ],
                [
                    1646,
                    1433
                ]
            ],
            "shape_type": "rectangle"
        },
        {
            "flags": {},
            "group_id": null,
            "label": "va1",
            "points": [
                [
                    1620,
                    1571
                ],
                [
                    1668,
                    1615
                ]
            ],
            "shape_type": "rectangle"
        },
        {
            "flags": {},
            "group_id": null,
            "label": "vt4",
            "points": [
                [
                    199,
                    2292
                ],
                [
                    921,
                    3013
                ]
            ],
            "shape_type": "rectangle"
        },
        {
            "flags": {},
            "group_id": null,
            "label": "three",
            "points": [
                [
                    243,
                    3054
                ]
            ],
            "shape_type": "point"
        },
        {
            "flags": {},
            "group_id": null,
            "label": "four",
            "points": [
                [
                    877,
                    3054
                ]
            ],
            "shape_type": "point"
        },
        {
            "flags": {},
            "group_id": null,
            "label": "d1",
            "points": [
                [
                    135,
                    3025
                ],
                [
                    224,
                    3171
                ]
            ],
            "shape_type": "rectangle"
        },
        {
            "flags": {},
            "group_id": null,
            "label": "d1",
            "points": [
                [
                    942,
                    3025
                ],
                [
                    1031,
                    3171
                ]
            ],
            "shape_type": "rectangle"
        },
        {
            "flags": {},
            "group_id": null,
            "label": "four",
            "points": [
                [
                    738,
                    1247
                ]
            ],
            "shape_type": "point"
        },
        {
            "flags": {},
            "group_id": null,
            "label": "three",
            "points": [
                [
                    342,
                    1247
                ]
            ],
            "shape_type": "point"
        },
        {
            "flags": {},
            "group_id": null,
            "label": "two",
            "points": [
                [
                    308,
                    1284
                ]
            ],
            "shape_type": "point"
        },
        {
            "flags": {},
            "group_id": null,
            "label": "six",
            "points": [
                [
                    308,
                    1697
                ]
            ],
            "shape_type": "point"
        },
        {
            "flags": {},
            "group_id": null,
            "label": "one",
            "points": [
                [
                    308,
                    1781
                ]
            ],
            "shape_type": "point"
        },
        {
            "flags": {},
            "group_id": null,
            "label": "one",
            "points": [
                [
                    801,
                    2156
                ]
            ],
            "shape_type": "point"
        },
        {
            "flags": {},
            "group_id": null,
            "label": "two",
            "points": [
                [
                    801,
                    1284
                ]
            ],
            "shape_type": "point"
        },
        {
            "flags": {},
            "group_id": null,
            "label": "vb1",
            "points": [
                [
                    341,
                    1283
                ],
                [
                    739,
                    2156
                ]
            ],
            "shape_type": "rectangle"
        },
        {
            "flags": {},
            "group_id": null,
            "label": "va1",
            "points": [
                [
                    1224,
                    1228
                ],
                [
                    1270,
                    1270
                ]
            ],
            "shape_type": "rectangle"
        },
        {
            "flags": {},
            "group_id": null,
            "label": "va1",
            "points": [
                [
                    1071,
                    1329
                ],
                [
                    1115,
                    1376
                ]
            ],
            "shape_type": "rectangle"
        },
        {
            "flags": {},
            "group_id": null,
            "label": "va1",
            "points": [
                [
                    1042,
                    1384
                ],
                [
                    1084,
                    1431
                ]
            ],
            "shape_type": "rectangle"
        },
        {
            "flags": {},
            "group_id": null,
            "label": "va1",
            "points": [
                [
                    1137,
                    1742
                ],
                [
                    1174,
                    1790
                ]
            ],
            "shape_type": "rectangle"
        },
        {
            "flags": {},
            "group_id": null,
            "label": "va1",
            "points": [
                [
                    1293,
                    1814
                ],
                [
                    1340,
                    1851
                ]
            ],
            "shape_type": "rectangle"
        },
        {
            "flags": {},
            "group_id": null,
            "label": "va1",
            "points": [
                [
                    1355,
                    1816
                ],
                [
                    1403,
                    1853
                ]
            ],
            "shape_type": "rectangle"
        },
        {
            "flags": {},
            "group_id": null,
            "label": "va1",
            "points": [
                [
                    1450,
                    2330
                ],
                [
                    1498,
                    2372
                ]
            ],
            "shape_type": "rectangle"
        },
        {
            "flags": {},
            "group_id": null,
            "label": "va1",
            "points": [
                [
                    1469,
                    2012
                ],
                [
                    1509,
                    2060
                ]
            ],
            "shape_type": "rectangle"
        },
        {
            "flags": {},
            "group_id": null,
            "label": "va1",
            "points": [
                [
                    1143,
                    2310
                ],
                [
                    1187,
                    2354
                ]
            ],
            "shape_type": "rectangle"
        },
        {
            "flags": {},
            "group_id": null,
            "label": "vp2-3",
            "points": [
                [
                    1206,
                    2068
                ],
                [
                    1449,
                    2311
                ]
            ],
            "shape_type": "rectangle"
        },
        {
            "flags": {},
            "group_id": null,
            "label": "va1",
            "points": [
                [
                    1517,
                    2586
                ],
                [
                    1557,
                    2634
                ]
            ],
            "shape_type": "rectangle"
        },
        {
            "flags": {},
            "group_id": null,
            "label": "va1",
            "points": [
                [
                    1498,
                    2905
                ],
                [
                    1546,
                    2948
                ]
            ],
            "shape_type": "rectangle"
        },
        {
            "flags": {},
            "group_id": null,
            "label": "va1",
            "points": [
                [
                    1190,
                    2884
                ],
                [
                    1234,
                    2928
                ]
            ],
            "shape_type": "rectangle"
        },
        {
            "flags": {},
            "group_id": null,
            "label": "vp2-3",
            "points": [
                [
                    1253,
                    2642
                ],
                [
                    1496,
                    2886
                ]
            ],
            "shape_type": "rectangle"
        },
        {
            "flags": {},
            "group_id": null,
            "label": "va1",
            "points": [
                [
                    2437,
                    2587
                ],
                [
                    2478,
                    2636
                ]
            ],
            "shape_type": "rectangle"
        },
        {
            "flags": {},
            "group_id": null,
            "label": "va1",
            "points": [
                [
                    2424,
                    2906
                ],
                [
                    2472,
                    2944
                ]
            ],
            "shape_type": "rectangle"
        },
        {
            "flags": {},
            "group_id": null,
            "label": "va1",
            "points": [
                [
                    2111,
                    2886
                ],
                [
                    2155,
                    2933
                ]
            ],
            "shape_type": "rectangle"
        },
        {
            "flags": {},
            "group_id": null,
            "label": "vp2-3",
            "points": [
                [
                    2173,
                    2644
                ],
                [
                    2417,
                    2889
                ]
            ],
            "shape_type": "rectangle"
        },
        {
            "flags": {},
            "group_id": null,
            "label": "b1",
            "points": [
                [
                    3353,
                    2842
                ],
                [
                    3852,
                    3102
                ]
            ],
            "shape_type": "rectangle"
        },
        {
            "flags": {},
            "group_id": null,
            "label": "seven",
            "points": [
                [
                    3355,
                    2844
                ]
            ],
            "shape_type": "point"
        },
        {
            "flags": {},
            "group_id": null,
            "label": "eight",
            "points": [
                [
                    3850,
                    2844
                ]
            ],
            "shape_type": "point"
        },
        {
            "flags": {},
            "group_id": null,
            "label": "fourteen",
            "points": [
                [
                    3355,
                    3101
                ]
            ],
            "shape_type": "point"
        },
        {
            "flags": {},
            "group_id": null,
            "label": "fourteen",
            "points": [
                [
                    3850,
                    3101
                ]
            ],
            "shape_type": "point"
        },
        {
            "flags": {},
            "group_id": null,
            "label": "p1-1",
            "points": [
                [
                    3476,
                    1535
                ],
                [
                    3721,
                    1709
                ]
            ],
            "shape_type": "rectangle"
        },
        {
            "flags": {},
            "group_id": null,
            "label": "p1-1",
            "points": [
                [
                    3388,
                    1730
                ],
                [
                    3768,
                    1889
                ]
            ],
            "shape_type": "rectangle"
        },
        {
            "flags": {},
            "group_id": null,
            "label": "p1-1",
            "points": [
                [
                    3454,
                    1900
                ],
                [
                    3732,
                    2091
                ]
            ],
            "shape_type": "rectangle"
        },
        {
            "flags": {},
            "group_id": null,
            "label": "p1-1",
            "points": [
                [
                    3439,
                    2100
                ],
                [
                    3747,
                    2286
                ]
            ],
            "shape_type": "rectangle"
        },
        {
            "flags": {},
            "group_id": null,
            "label": "g1",
            "points": [
                [
                    3712,
                    1900
                ],
                [
                    3717,
                    2058
                ]
            ],
            "shape_type": "rectangle"
        },
        {
            "flags": {},
            "group_id": null,
            "label": "g1",
            "points": [
                [
                    3462,
                    1907
                ],
                [
                    3467,
                    2057
                ]
            ],
            "shape_type": "rectangle"
        },
        {
            "flags": {},
            "group_id": null,
            "label": "g1",
            "points": [
                [
                    3397,
                    1738
                ],
                [
                    3402,
                    1888
                ]
            ],
            "shape_type": "rectangle"
        },
        {
            "flags": {},
            "group_id": null,
            "label": "g1",
            "points": [
                [
                    3748,
                    1729
                ],
                [
                    3753,
                    1887
                ]
            ],
            "shape_type": "rectangle"
        },
        {
            "flags": {},
            "group_id": null,
            "label": "g1",
            "points": [
                [
                    3723,
                    1735
                ],
                [
                    3727,
                    1885
                ]
            ],
            "shape_type": "rectangle"
        },
        {
            "flags": {},
            "group_id": null,
            "label": "g1",
            "points": [
                [
                    3691,
                    1534
                ],
                [
                    3696,
                    1692
                ]
            ],
            "shape_type": "rectangle"
        },
        {
            "flags": {},
            "group_id": null,
            "label": "g1",
            "points": [
                [
                    3734,
                    1326
                ],
                [
                    3739,
                    1478
                ]
            ],
            "shape_type": "rectangle"
        },
        {
            "flags": {},
            "group_id": null,
            "label": "g1",
            "points": [
                [
                    3757,
                    1325
                ],
                [
                    3762,
                    1483
                ]
            ],
            "shape_type": "rectangle"
        },
        {
            "flags": {},
            "group_id": null,
            "label": "g1",
            "points": [
                [
                    3407,
                    1334
                ],
                [
                    3412,
                    1483
                ]
            ],
            "shape_type": "rectangle"
        },
        {
            "flags": {},
            "group_id": null,
            "label": "g1",
            "points": [
                [
                    3485,
                    1542
                ],
                [
                    3489,
                    1691
                ]
            ],
            "shape_type": "rectangle"
        },
        {
            "flags": {},
            "group_id": null,
            "label": "g1",
            "points": [
                [
                    3726,
                    2099
                ],
                [
                    3731,
                    2256
                ]
            ],
            "shape_type": "rectangle"
        },
        {
            "flags": {},
            "group_id": null,
            "label": "g1",
            "points": [
                [
                    3447,
                    2108
                ],
                [
                    3452,
                    2257
                ]
            ],
            "shape_type": "rectangle"
        },
        {
            "flags": {},
            "group_id": null,
            "label": "p1-1",
            "points": [
                [
                    3397,
                    1324
                ],
                [
                    3785,
                    1484
                ]
            ],
            "shape_type": "rectangle"
        },
        {
            "flags": {},
            "group_id": null,
            "label": "twentyone",
            "points": [
                [
                    355,
                    1697
                ]
            ],
            "shape_type": "point"
        },
        {
            "flags": {},
            "group_id": null,
            "label": "twentytwo",
            "points": [
                [
                    3532,
                    2910
                ]
            ],
            "shape_type": "point"
        },
        {
            "flags": {},
            "group_id": null,
            "label": "twentythere",
            "points": [
                [
                    3550,
                    2939
                ]
            ],
            "shape_type": "point"
        },
        {
            "flags": {},
            "group_id": null,
            "label": "vp1-3",
            "points": [
                [
                    1117,
                    1306
                ],
                [
                    1573,
                    1763
                ]
            ],
            "shape_type": "rectangle"
        },
        {
            "flags": {},
            "group_id": null,
            "label": "v1",
            "points": [
                [
                    2076,
                    2453
                ],
                [
                    2427,
                    2554
                ]
            ],
            "shape_type": "rectangle"
        },
        {
            "flags": {},
            "group_id": null,
            "label": "v1",
            "points": [
                [
                    2145,
                    3022
                ],
                [
                    2498,
                    3124
                ]
            ],
            "shape_type": "rectangle"
        },
        {
            "flags": {},
            "group_id": null,
            "label": "v1",
            "points": [
                [
                    1224,
                    3021
                ],
                [
                    1576,
                    3121
                ]
            ],
            "shape_type": "rectangle"
        },
        {
            "flags": {},
            "group_id": null,
            "label": "v1",
            "points": [
                [
                    467,
                    3078
                ],
                [
                    670,
                    3157
                ]
            ],
            "shape_type": "rectangle"
        },
        {
            "flags": {},
            "group_id": null,
            "label": "v1",
            "points": [
                [
                    1171,
                    1882
                ],
                [
                    1524,
                    1981
                ]
            ],
            "shape_type": "rectangle"
        },
        {
            "flags": {},
            "group_id": null,
            "label": "v1",
            "points": [
                [
                    3466,
                    3176
                ],
                [
                    3820,
                    3278
                ]
            ],
            "shape_type": "rectangle"
        },
        {
            "flags": {},
            "group_id": null,
            "label": "seven",
            "points": [
                [
                    3374,
                    2863
                ]
            ],
            "shape_type": "point"
        },
        {
            "flags": {},
            "group_id": null,
            "label": "eight",
            "points": [
                [
                    3831,
                    2863
                ]
            ],
            "shape_type": "point"
        },
        {
            "flags": {},
            "group_id": null,
            "label": "fourteen",
            "points": [
                [
                    3374,
                    3101
                ]
            ],
            "shape_type": "point"
        },
        {
            "flags": {},
            "group_id": null,
            "label": "fourteen",
            "points": [
                [
                    3830,
                    3101
                ]
            ],
            "shape_type": "point"
        },
        {
            "flags": {},
            "group_id": null,
            "label": "twentytwo",
            "points": [
                [
                    543,
                    2156
                ]
            ],
            "shape_type": "point"
        },
        {
            "flags": {},
            "group_id": null,
            "label": "twentythere",
            "points": [
                [
                    584,
                    2130
                ]
            ],
            "shape_type": "point"
        },
        {
            "flags": {},
            "group_id": null,
            "label": "nine",
            "points": [
                [
                    342,
                    2156
                ]
            ],
            "shape_type": "point"
        },
        {
            "flags": {},
            "group_id": null,
            "label": "ten",
            "points": [
                [
                    738,
                    2156
                ]
            ],
            "shape_type": "point"
        },
        {
            "flags": {},
            "group_id": null,
            "label": "eight",
            "points": [
                [
                    738,
                    1284
                ]
            ],
            "shape_type": "point"
        },
        {
            "flags": {},
            "group_id": null,
            "label": "seven",
            "points": [
                [
                    342,
                    1284
                ]
            ],
            "shape_type": "point"
        },
        {
            "flags": {},
            "group_id": null,
            "label": "seven",
            "points": [
                [
                    368,
                    1311
                ]
            ],
            "shape_type": "point"
        },
        {
            "flags": {},
            "group_id": null,
            "label": "eight",
            "points": [
                [
                    712,
                    1311
                ]
            ],
            "shape_type": "point"
        },
        {
            "flags": {},
            "group_id": null,
            "label": "nine",
            "points": [
                [
                    369,
                    2130
                ]
            ],
            "shape_type": "point"
        },
        {
            "flags": {},
            "group_id": null,
            "label": "ten",
            "points": [
                [
                    712,
                    2130
                ]
            ],
            "shape_type": "point"
        },
        {
            "flags": {},
            "group_id": null,
            "label": "seven",
            "points": [
                [
                    342,
                    1781
                ]
            ],
            "shape_type": "point"
        },
        {
            "flags": {},
            "group_id": null,
            "label": "eight",
            "points": [
                [
                    368,
                    1781
                ]
            ],
            "shape_type": "point"
        },
        {
            "flags": {},
            "group_id": null,
            "label": "nine",
            "points": [
                [
                    342,
                    1697
                ]
            ],
            "shape_type": "point"
        },
        {
            "flags": {},
            "group_id": null,
            "label": "ten",
            "points": [
                [
                    368,
                    1697
                ]
            ],
            "shape_type": "point"
        },
        {
            "flags": {},
            "group_id": null,
            "label": "v1",
            "points": [
                [
                    1178,
                    2447
                ],
                [
                    1528,
                    2547
                ]
            ],
            "shape_type": "rectangle"
        },
        {
            "flags": {},
            "group_id": null,
            "label": "fifteen",
            "points": [
                [
                    585,
                    2156
                ]
            ],
            "shape_type": "point"
        },
        {
            "flags": {},
            "group_id": null,
            "label": "btl",
            "points": [
                [
                    2250,
                    3846
                ],
                [
                    4153,
                    4167
                ]
            ],
            "shape_type": "rectangle"
        },
        {
            "flags": {},
            "group_id": null,
            "label": "sm",
            "points": [
                [
                    2024,
                    3202
                ],
                [
                    3380,
                    3834
                ]
            ],
            "shape_type": "rectangle"
        },
        {
            "flags": {},
            "group_id": null,
            "label": "k1",
            "points": [
                [
                    3532,
                    2908
                ],
                [
                    3551,
                    2940
                ]
            ],
            "shape_type": "rectangle"
        },
        {
            "flags": {},
            "group_id": null,
            "label": "wz4",
            "points": [
                [
                    3569,
                    2956
                ],
                [
                    3689,
                    2999
                ]
            ],
            "shape_type": "rectangle"
        },
        {
            "flags": {},
            "group_id": null,
            "label": "j1",
            "points": [
                [
                    2485,
                    1192
                ],
                [
                    2516,
                    1237
                ]
            ],
            "shape_type": "rectangle"
        },
        {
            "flags": {},
            "group_id": null,
            "label": "j1",
            "points": [
                [
                    2690,
                    1362
                ],
                [
                    2781,
                    1447
                ]
            ],
            "shape_type": "rectangle"
        },
        {
            "flags": {},
            "group_id": null,
            "label": "j1",
            "points": [
                [
                    2215,
                    1309
                ],
                [
                    2332,
                    1389
                ]
            ],
            "shape_type": "rectangle"
        },
        {
            "flags": {},
            "group_id": null,
            "label": "j1",
            "points": [
                [
                    2520,
                    1608
                ],
                [
                    2631,
                    1692
                ]
            ],
            "shape_type": "rectangle"
        },
        {
            "flags": {},
            "group_id": null,
            "label": "x2",
            "points": [
                [
                    230,
                    3016
                ],
                [
                    888,
                    3065
                ]
            ],
            "shape_type": "rectangle"
        },
        {
            "flags": {},
            "group_id": null,
            "label": "wz2",
            "points": [
                [
                    512,
                    3017
                ],
                [
                    608,
                    3045
                ]
            ],
            "shape_type": "rectangle"
        },
        {
            "flags": {},
            "group_id": null,
            "label": "k1",
            "points": [
                [
                    544,
                    2129
                ],
                [
                    585,
                    2155
                ]
            ],
            "shape_type": "rectangle"
        },
        {
            "flags": {},
            "group_id": null,
            "label": "wz4",
            "points": [
                [
                    480,
                    1633
                ],
                [
                    615,
                    1745
                ]
            ],
            "shape_type": "rectangle"
        },
        {
            "flags": {},
            "group_id": null,
            "label": "x2",
            "points": [
                [
                    238,
                    1268
                ],
                [
                    318,
                    1793
                ]
            ],
            "shape_type": "rectangle"
        },
        {
            "flags": {},
            "group_id": null,
            "label": "wz2",
            "points": [
                [
                    266,
                    1442
                ],
                [
                    302,
                    1538
                ]
            ],
            "shape_type": "rectangle"
        },
        {
            "flags": {},
            "group_id": null,
            "label": "wz2",
            "points": [
                [
                    243,
                    1705
                ],
                [
                    272,
                    1774
                ]
            ],
            "shape_type": "rectangle"
        },
        {
            "flags": {},
            "group_id": null,
            "label": "x2",
            "points": [
                [
                    761,
                    1271
                ],
                [
                    823,
                    2167
                ]
            ],
            "shape_type": "rectangle"
        },
        {
            "flags": {},
            "group_id": null,
            "label": "wz2",
            "points": [
                [
                    762,
                    1673
                ],
                [
                    791,
                    1769
                ]
            ],
            "shape_type": "rectangle"
        },
        {
            "flags": {},
            "group_id": null,
            "label": "x2",
            "points": [
                [
                    331,
                    1208
                ],
                [
                    751,
                    1259
                ]
            ],
            "shape_type": "rectangle"
        },
        {
            "flags": {},
            "group_id": null,
            "label": "wz2",
            "points": [
                [
                    492,
                    1209
                ],
                [
                    587,
                    1237
                ]
            ],
            "shape_type": "rectangle"
        },
        {
            "flags": {},
            "group_id": null,
            "label": "mask",
            "lineType": [
                "LLLLLLLLLLLLLLLLLLLLLLLLLLLLLLLLLLLLLLLLL"
            ],
            "points": [
                [
                    251,
                    1175
                ],
                [
                    243,
                    1556
                ],
                [
                    258,
                    1652
                ],
                [
                    227,
                    1696
                ],
                [
                    223,
                    1783
                ],
                [
                    305,
                    1827
                ],
                [
                    315,
                    2156
                ],
                [
                    494,
                    2178
                ],
                [
                    509,
                    2311
                ],
                [
                    302,
                    2313
                ],
                [
                    298,
                    2279
                ],
                [
                    176,
                    2281
                ],
                [
                    171,
                    2403
                ],
                [
                    231,
                    2395
                ],
                [
                    226,
                    2901
                ],
                [
                    179,
                    2903
                ],
                [
                    175,
                    3001
                ],
                [
                    133,
                    3001
                ],
                [
                    123,
                    3192
                ],
                [
                    239,
                    3183
                ],
                [
                    253,
                    3086
                ],
                [
                    468,
                    3078
                ],
                [
                    456,
                    3173
                ],
                [
                    685,
                    3171
                ],
                [
                    678,
                    3078
                ],
                [
                    936,
                    3172
                ],
                [
                    1047,
                    3191
                ],
                [
                    1017,
                    2996
                ],
                [
                    933,
                    3015
                ],
                [
                    927,
                    2914
                ],
                [
                    896,
                    2905
                ],
                [
                    891,
                    2548
                ],
                [
                    901,
                    2396
                ],
                [
                    923,
                    2385
                ],
                [
                    932,
                    2266
                ],
                [
                    818,
                    2278
                ],
                [
                    833,
                    2163
                ],
                [
                    819,
                    1630
                ],
                [
                    852,
                    1262
                ],
                [
                    808,
                    1173
                ],
                [
                    251,
                    1175
                ]
            ],
            "shape_type": "polygon"
        },
        {
            "flags": {},
            "group_id": null,
            "label": "mask",
            "lineType": [
                "LLLLLLLLLLLLLLLLLLLLLLLLLLLLLLLLLLLLLL"
            ],
            "points": [
                [
                    1294,
                    1160
                ],
                [
                    1209,
                    1218
                ],
                [
                    1184,
                    1290
                ],
                [
                    1099,
                    1280
                ],
                [
                    879,
                    1271
                ],
                [
                    871,
                    1285
                ],
                [
                    849,
                    1438
                ],
                [
                    925,
                    1475
                ],
                [
                    1091,
                    1490
                ],
                [
                    1118,
                    1664
                ],
                [
                    1112,
                    1698
                ],
                [
                    859,
                    1707
                ],
                [
                    870,
                    1764
                ],
                [
                    1091,
                    1767
                ],
                [
                    1099,
                    1865
                ],
                [
                    1152,
                    2001
                ],
                [
                    1538,
                    1994
                ],
                [
                    1552,
                    1972
                ],
                [
                    1544,
                    1939
                ],
                [
                    1539,
                    1904
                ],
                [
                    1540,
                    1810
                ],
                [
                    1509,
                    1789
                ],
                [
                    1429,
                    1774
                ],
                [
                    1453,
                    1748
                ],
                [
                    1547,
                    1693
                ],
                [
                    1885,
                    1692
                ],
                [
                    1893,
                    1639
                ],
                [
                    1690,
                    1618
                ],
                [
                    1682,
                    1560
                ],
                [
                    1608,
                    1482
                ],
                [
                    1625,
                    1443
                ],
                [
                    1845,
                    1429
                ],
                [
                    1847,
                    1364
                ],
                [
                    1714,
                    1350
                ],
                [
                    1716,
                    1288
                ],
                [
                    1648,
                    1271
                ],
                [
                    1549,
                    1182
                ],
                [
                    1294,
                    1160
                ]
            ],
            "shape_type": "polygon"
        },
        {
            "flags": {},
            "group_id": null,
            "label": "mask",
            "lineType": [
                "LLLLLLLLLLLLLLLLLLL"
            ],
            "points": [
                [
                    2202,
                    1180
                ],
                [
                    2793,
                    1180
                ],
                [
                    2793,
                    1704
                ],
                [
                    2202,
                    1704
                ]
            ],
            "shape_type": "polygon"
        },
        {
            "flags": {},
            "group_id": null,
            "label": "mask",
            "lineType": [
                "LLLLLLLLLLLLLLLLLLLLLLLLLLLL"
            ],
            "points": [
                [
                    2163,
                    1861
                ],
                [
                    2055,
                    1916
                ],
                [
                    1947,
                    1841
                ],
                [
                    1781,
                    1839
                ],
                [
                    1768,
                    2006
                ],
                [
                    2003,
                    2030
                ],
                [
                    2024,
                    2210
                ],
                [
                    2141,
                    2346
                ],
                [
                    1947,
                    2369
                ],
                [
                    1980,
                    2457
                ],
                [
                    2063,
                    2484
                ],
                [
                    2056,
                    2566
                ],
                [
                    2435,
                    2563
                ],
                [
                    2445,
                    2499
                ],
                [
                    2425,
                    2434
                ],
                [
                    2502,
                    2426
                ],
                [
                    2503,
                    2363
                ],
                [
                    2372,
                    2332
                ],
                [
                    2479,
                    2217
                ],
                [
                    2496,
                    2028
                ],
                [
                    2571,
                    2008
                ],
                [
                    2573,
                    1990
                ],
                [
                    2724,
                    1965
                ],
                [
                    2699,
                    1815
                ],
                [
                    2524,
                    1813
                ],
                [
                    2452,
                    1912
                ],
                [
                    2283,
                    1859
                ],
                [
                    2163,
                    1861
                ]
            ],
            "shape_type": "polygon"
        },
        {
            "flags": {},
            "group_id": null,
            "label": "mask",
            "lineType": [
                "LLLLLLLLLLLLLLLLLLLLLLLLLL"
            ],
            "points": [
                [
                    1380,
                    2022
                ],
                [
                    1194,
                    2047
                ],
                [
                    1164,
                    2087
                ],
                [
                    1199,
                    2175
                ],
                [
                    1194,
                    2238
                ],
                [
                    1109,
                    2345
                ],
                [
                    990,
                    2365
                ],
                [
                    977,
                    2455
                ],
                [
                    1149,
                    2458
                ],
                [
                    1160,
                    2575
                ],
                [
                    1542,
                    2562
                ],
                [
                    1550,
                    2493
                ],
                [
                    1482,
                    2422
                ],
                [
                    1527,
                    2403
                ],
                [
                    1690,
                    2400
                ],
                [
                    1715,
                    2335
                ],
                [
                    1512,
                    2327
                ],
                [
                    1444,
                    2205
                ],
                [
                    1454,
                    2127
                ],
                [
                    1529,
                    2060
                ],
                [
                    1722,
                    2052
                ],
                [
                    1747,
                    1988
                ],
                [
                    1730,
                    1975
                ],
                [
                    1574,
                    1970
                ],
                [
                    1535,
                    2003
                ],
                [
                    1380,
                    2022
                ]
            ],
            "shape_type": "polygon"
        },
        {
            "flags": {},
            "group_id": null,
            "label": "mask",
            "lineType": [
                "LLLLLLLLLLLLLLLLLLLLL"
            ],
            "points": [
                [
                    1312,
                    2606
                ],
                [
                    1241,
                    2638
                ],
                [
                    1238,
                    2835
                ],
                [
                    1158,
                    2918
                ],
                [
                    1054,
                    2931
                ],
                [
                    1032,
                    3041
                ],
                [
                    1168,
                    3072
                ],
                [
                    1202,
                    3142
                ],
                [
                    1590,
                    3135
                ],
                [
                    1605,
                    3049
                ],
                [
                    1551,
                    3011
                ],
                [
                    1764,
                    2982
                ],
                [
                    1748,
                    2912
                ],
                [
                    1548,
                    2896
                ],
                [
                    1510,
                    2838
                ],
                [
                    1500,
                    2711
                ],
                [
                    1807,
                    2601
                ],
                [
                    1769,
                    2544
                ],
                [
                    1661,
                    2551
                ],
                [
                    1547,
                    2568
                ],
                [
                    1312,
                    2606
                ]
            ],
            "shape_type": "polygon"
        },
        {
            "flags": {},
            "group_id": null,
            "label": "mask",
            "lineType": [
                "LLLLLLLLLLLLLLLLLLLLLLLL"
            ],
            "points": [
                [
                    2217,
                    2585
                ],
                [
                    2142,
                    2665
                ],
                [
                    2140,
                    2768
                ],
                [
                    1968,
                    2776
                ],
                [
                    1958,
                    2941
                ],
                [
                    2138,
                    2975
                ],
                [
                    2119,
                    3137
                ],
                [
                    2230,
                    3133
                ],
                [
                    2330,
                    3130
                ],
                [
                    2396,
                    3131
                ],
                [
                    2517,
                    3133
                ],
                [
                    2505,
                    3067
                ],
                [
                    2445,
                    2958
                ],
                [
                    2650,
                    2951
                ],
                [
                    2677,
                    2888
                ],
                [
                    2668,
                    2838
                ],
                [
                    2443,
                    2816
                ],
                [
                    2437,
                    2715
                ],
                [
                    2448,
                    2660
                ],
                [
                    2618,
                    2663
                ],
                [
                    2678,
                    2546
                ],
                [
                    2488,
                    2540
                ],
                [
                    2425,
                    2578
                ],
                [
                    2217,
                    2585
                ]
            ],
            "shape_type": "polygon"
        },
        {
            "flags": {},
            "group_id": null,
            "label": "mask",
            "lineType": [
                "LLLLLLLLLLLLLLLLLLLLLL"
            ],
            "points": [
                [
                    2014,
                    3192
                ],
                [
                    3390,
                    3192
                ],
                [
                    3390,
                    3844
                ],
                [
                    2014,
                    3844
                ]
            ],
            "shape_type": "polygon"
        },
        {
            "flags": {},
            "group_id": null,
            "label": "mask",
            "lineType": [
                "LLLLLL"
            ],
            "points": [
                [
                    2240,
                    3836
                ],
                [
                    4163,
                    3836
                ],
                [
                    4163,
                    4177
                ],
                [
                    2240,
                    4177
                ]
            ],
            "shape_type": "polygon"
        },
        {
            "flags": {},
            "group_id": null,
            "label": "mask",
            "lineType": [
                "LLLLLLLL"
            ],
            "points": [
                [
                    462,
                    3264
                ],
                [
                    1947,
                    3264
                ],
                [
                    1947,
                    4048
                ],
                [
                    462,
                    4048
                ]
            ],
            "shape_type": "polygon"
        },
        {
            "flags": {},
            "group_id": null,
            "label": "mask",
            "lineType": [
                "LLLLLLLLLLLLLLLLLLLLLLLLLLLLLLLLLLLLLL"
            ],
            "points": [
                [
                    3579,
                    1134
                ],
                [
                    3504,
                    1271
                ],
                [
                    3310,
                    1259
                ],
                [
                    3005,
                    1304
                ],
                [
                    3017,
                    1408
                ],
                [
                    3102,
                    1411
                ],
                [
                    3102,
                    1803
                ],
                [
                    3094,
                    2041
                ],
                [
                    3107,
                    2251
                ],
                [
                    3425,
                    2268
                ],
                [
                    3400,
                    2433
                ],
                [
                    3305,
                    2849
                ],
                [
                    3252,
                    2956
                ],
                [
                    3144,
                    3031
                ],
                [
                    2980,
                    3071
                ],
                [
                    2985,
                    3162
                ],
                [
                    3447,
                    3169
                ],
                [
                    3446,
                    3296
                ],
                [
                    3849,
                    3292
                ],
                [
                    3845,
                    3158
                ],
                [
                    4120,
                    3148
                ],
                [
                    4129,
                    3033
                ],
                [
                    4116,
                    3008
                ],
                [
                    3954,
                    3030
                ],
                [
                    3844,
                    2718
                ],
                [
                    3744,
                    2430
                ],
                [
                    3748,
                    2384
                ],
                [
                    3809,
                    2315
                ],
                [
                    4035,
                    2310
                ],
                [
                    4117,
                    2192
                ],
                [
                    4115,
                    1972
                ],
                [
                    4122,
                    1589
                ],
                [
                    4120,
                    1411
                ],
                [
                    4115,
                    1225
                ],
                [
                    3735,
                    1186
                ],
                [
                    3659,
                    1138
                ],
                [
                    3639,
                    1136
                ],
                [
                    3579,
                    1134
                ]
            ],
            "shape_type": "polygon"
        },
        {
            "flags": {},
            "group_id": null,
            "label": "Ns",
            "points": [
                [
                    2477,
                    1494
                ]
            ],
            "shape_type": "point"
        },
        {
            "flags": {},
            "group_id": null,
            "label": "Ne",
            "points": [
                [
                    2476,
                    1306
                ]
            ],
            "shape_type": "point"
        },
        {
            "flags": {},
            "group_id": null,
            "label": "wlb",
            "points": [
                [
                    472,
                    3274
                ],
                [
                    1937,
                    4038
                ]
            ],
            "shape_type": "rectangle"
        },
        {
            "flags": {},
            "group_id": null,
            "label": "wz1",
            "points": [
                [
                    3798,
                    2242
                ],
                [
                    3991,
                    2288
                ]
            ],
            "shape_type": "rectangle"
        },
        {
            "flags": {},
            "group_id": null,
            "label": "wz3",
            "points": [
                [
                    3135,
                    2213
                ],
                [
                    3277,
                    2241
                ]
            ],
            "shape_type": "rectangle"
        },
        {
            "flags": {},
            "group_id": null,
            "label": "wz3",
            "points": [
                [
                    3116,
                    1982
                ],
                [
                    3249,
                    2029
                ]
            ],
            "shape_type": "rectangle"
        },
        {
            "flags": {},
            "group_id": null,
            "label": "wz3",
            "points": [
                [
                    3116,
                    1848
                ],
                [
                    3253,
                    1892
                ]
            ],
            "shape_type": "rectangle"
        },
        {
            "flags": {},
            "group_id": null,
            "label": "wz3",
            "points": [
                [
                    3120,
                    1784
                ],
                [
                    3256,
                    1829
                ]
            ],
            "shape_type": "rectangle"
        },
        {
            "flags": {},
            "group_id": null,
            "label": "wz3",
            "points": [
                [
                    3128,
                    1576
                ],
                [
                    3261,
                    1619
                ]
            ],
            "shape_type": "rectangle"
        },
        {
            "flags": {},
            "group_id": null,
            "label": "wz3",
            "points": [
                [
                    3141,
                    1406
                ],
                [
                    3277,
                    1498
                ]
            ],
            "shape_type": "rectangle"
        },
        {
            "flags": {},
            "group_id": null,
            "label": "wz3",
            "points": [
                [
                    3043,
                    1314
                ],
                [
                    3268,
                    1362
                ]
            ],
            "shape_type": "rectangle"
        },
        {
            "flags": {},
            "group_id": null,
            "label": "wz3",
            "points": [
                [
                    2207,
                    1704
                ],
                [
                    2533,
                    1753
                ]
            ],
            "shape_type": "rectangle"
        },
        {
            "flags": {},
            "group_id": null,
            "label": "wz3",
            "points": [
                [
                    2530,
                    1825
                ],
                [
                    2667,
                    1872
                ]
            ],
            "shape_type": "rectangle"
        },
        {
            "flags": {},
            "group_id": null,
            "label": "wz3",
            "points": [
                [
                    2568,
                    1911
                ],
                [
                    2705,
                    1956
                ]
            ],
            "shape_type": "rectangle"
        },
        {
            "flags": {},
            "group_id": null,
            "label": "wz3",
            "points": [
                [
                    2352,
                    2371
                ],
                [
                    2489,
                    2415
                ]
            ],
            "shape_type": "rectangle"
        },
        {
            "flags": {},
            "group_id": null,
            "label": "wz3",
            "points": [
                [
                    1981,
                    2382
                ],
                [
                    2117,
                    2428
                ]
            ],
            "shape_type": "rectangle"
        },
        {
            "flags": {},
            "group_id": null,
            "label": "wz3",
            "points": [
                [
                    1798,
                    1947
                ],
                [
                    1933,
                    1993
                ]
            ],
            "shape_type": "rectangle"
        },
        {
            "flags": {},
            "group_id": null,
            "label": "wz3",
            "points": [
                [
                    1797,
                    1854
                ],
                [
                    1934,
                    1899
                ]
            ],
            "shape_type": "rectangle"
        },
        {
            "flags": {},
            "group_id": null,
            "label": "wz3",
            "points": [
                [
                    1579,
                    1990
                ],
                [
                    1714,
                    2033
                ]
            ],
            "shape_type": "rectangle"
        },
        {
            "flags": {},
            "group_id": null,
            "label": "wz3",
            "points": [
                [
                    1552,
                    2345
                ],
                [
                    1690,
                    2391
                ]
            ],
            "shape_type": "rectangle"
        },
        {
            "flags": {},
            "group_id": null,
            "label": "wz3",
            "points": [
                [
                    1007,
                    2381
                ],
                [
                    1142,
                    2423
                ]
            ],
            "shape_type": "rectangle"
        },
        {
            "flags": {},
            "group_id": null,
            "label": "wz3",
            "points": [
                [
                    1468,
                    1814
                ],
                [
                    1524,
                    1845
                ]
            ],
            "shape_type": "rectangle"
        },
        {
            "flags": {},
            "group_id": null,
            "label": "wz3",
            "points": [
                [
                    1649,
                    1634
                ],
                [
                    1876,
                    1685
                ]
            ],
            "shape_type": "rectangle"
        },
        {
            "flags": {},
            "group_id": null,
            "label": "wz3",
            "points": [
                [
                    1695,
                    1375
                ],
                [
                    1832,
                    1420
                ]
            ],
            "shape_type": "rectangle"
        },
        {
            "flags": {},
            "group_id": null,
            "label": "wz3",
            "points": [
                [
                    1651,
                    1290
                ],
                [
                    1707,
                    1327
                ]
            ],
            "shape_type": "rectangle"
        },
        {
            "flags": {},
            "group_id": null,
            "label": "wz3",
            "points": [
                [
                    1293,
                    1185
                ],
                [
                    1521,
                    1232
                ]
            ],
            "shape_type": "rectangle"
        },
        {
            "flags": {},
            "group_id": null,
            "label": "wz3",
            "points": [
                [
                    880,
                    1279
                ],
                [
                    1018,
                    1326
                ]
            ],
            "shape_type": "rectangle"
        },
        {
            "flags": {},
            "group_id": null,
            "label": "wz3",
            "points": [
                [
                    858,
                    1401
                ],
                [
                    916,
                    1434
                ]
            ],
            "shape_type": "rectangle"
        },
        {
            "flags": {},
            "group_id": null,
            "label": "wz3",
            "points": [
                [
                    890,
                    1707
                ],
                [
                    1115,
                    1756
                ]
            ],
            "shape_type": "rectangle"
        },
        {
            "flags": {},
            "group_id": null,
            "label": "wz3",
            "points": [
                [
                    1119,
                    1823
                ],
                [
                    1257,
                    1869
                ]
            ],
            "shape_type": "rectangle"
        },
        {
            "flags": {},
            "group_id": null,
            "label": "wz3",
            "points": [
                [
                    1624,
                    2564
                ],
                [
                    1762,
                    2607
                ]
            ],
            "shape_type": "rectangle"
        },
        {
            "flags": {},
            "group_id": null,
            "label": "wz3",
            "points": [
                [
                    1598,
                    2919
                ],
                [
                    1735,
                    2963
                ]
            ],
            "shape_type": "rectangle"
        },
        {
            "flags": {},
            "group_id": null,
            "label": "wz3",
            "points": [
                [
                    1053,
                    2954
                ],
                [
                    1193,
                    2999
                ]
            ],
            "shape_type": "rectangle"
        },
        {
            "flags": {},
            "group_id": null,
            "label": "wz3",
            "points": [
                [
                    1986,
                    2812
                ],
                [
                    2138,
                    2889
                ]
            ],
            "shape_type": "rectangle"
        },
        {
            "flags": {},
            "group_id": null,
            "label": "wz3",
            "points": [
                [
                    2488,
                    2855
                ],
                [
                    2642,
                    2927
                ]
            ],
            "shape_type": "rectangle"
        },
        {
            "flags": {},
            "group_id": null,
            "label": "wz3",
            "points": [
                [
                    2497,
                    2568
                ],
                [
                    2641,
                    2639
                ]
            ],
            "shape_type": "rectangle"
        }
    ],
    "version": "4.5.7"
}