{
    "flags": {},
    "imageData": null,
    "imageHeight": 4205,
    "imagePath": "样本4_96_18.png",
    "imageWidth": 4205,
    "shapes": [
        {
            "flags": {},
            "group_id": null,
            "label": "t1",
            "points": [
                [
                    3551,
                    1423
                ],
                [
                    3827,
                    3702
                ]
            ],
            "shape_type": "rectangle"
        },
        {
            "flags": {},
            "group_id": null,
            "label": "seven",
            "points": [
                [
                    3360,
                    3561
                ]
            ],
            "shape_type": "point"
        },
        {
            "flags": {},
            "group_id": null,
            "label": "eight",
            "points": [
                [
                    3480,
                    3561
                ]
            ],
            "shape_type": "point"
        },
        {
            "flags": {},
            "group_id": null,
            "label": "seven",
            "points": [
                [
                    3340,
                    3682
                ]
            ],
            "shape_type": "point"
        },
        {
            "flags": {},
            "group_id": null,
            "label": "fourteen",
            "points": [
                [
                    3340,
                    3702
                ]
            ],
            "shape_type": "point"
        },
        {
            "flags": {},
            "group_id": null,
            "label": "fourteen",
            "points": [
                [
                    3360,
                    3682
                ]
            ],
            "shape_type": "point"
        },
        {
            "flags": {},
            "group_id": null,
            "label": "fourteen",
            "points": [
                [
                    3420,
                    3682
                ]
            ],
            "shape_type": "point"
        },
        {
            "flags": {},
            "group_id": null,
            "label": "fourteen",
            "points": [
                [
                    3480,
                    3682
                ]
            ],
            "shape_type": "point"
        },
        {
            "flags": {},
            "group_id": null,
            "label": "eight",
            "points": [
                [
                    3500,
                    3682
                ]
            ],
            "shape_type": "point"
        },
        {
            "flags": {},
            "group_id": null,
            "label": "fourteen",
            "points": [
                [
                    3500,
                    3702
                ]
            ],
            "shape_type": "point"
        },
        {
            "flags": {},
            "group_id": null,
            "label": "eleven",
            "points": [
                [
                    3360,
                    3586
                ]
            ],
            "shape_type": "point"
        },
        {
            "flags": {},
            "group_id": null,
            "label": "thirteen",
            "points": [
                [
                    3420,
                    3586
                ]
            ],
            "shape_type": "point"
        },
        {
            "flags": {},
            "group_id": null,
            "label": "twelve",
            "points": [
                [
                    3480,
                    3586
                ]
            ],
            "shape_type": "point"
        },
        {
            "flags": {},
            "group_id": null,
            "label": "b1",
            "points": [
                [
                    3339,
                    3561
                ],
                [
                    3500,
                    3702
                ]
            ],
            "shape_type": "rectangle"
        },
        {
            "flags": {},
            "group_id": null,
            "label": "v1",
            "points": [
                [
                    3183,
                    3751
                ],
                [
                    3513,
                    3843
                ]
            ],
            "shape_type": "rectangle"
        },
        {
            "flags": {},
            "group_id": null,
            "label": "h1",
            "points": [
                [
                    3115,
                    3637
                ],
                [
                    3246,
                    3703
                ]
            ],
            "shape_type": "rectangle"
        },
        {
            "flags": {},
            "group_id": null,
            "label": "x1",
            "points": [
                [
                    3528,
                    2652
                ],
                [
                    3814,
                    2697
                ]
            ],
            "shape_type": "rectangle"
        },
        {
            "flags": {},
            "group_id": null,
            "label": "p1-1",
            "points": [
                [
                    3624,
                    2371
                ],
                [
                    3747,
                    2518
                ]
            ],
            "shape_type": "rectangle"
        },
        {
            "flags": {},
            "group_id": null,
            "label": "p1-1",
            "points": [
                [
                    3623,
                    2158
                ],
                [
                    3747,
                    2306
                ]
            ],
            "shape_type": "rectangle"
        },
        {
            "flags": {},
            "group_id": null,
            "label": "p1-1",
            "points": [
                [
                    3598,
                    1946
                ],
                [
                    3773,
                    2095
                ]
            ],
            "shape_type": "rectangle"
        },
        {
            "flags": {},
            "group_id": null,
            "label": "p1-1",
            "points": [
                [
                    3625,
                    1741
                ],
                [
                    3743,
                    1889
                ]
            ],
            "shape_type": "rectangle"
        },
        {
            "flags": {},
            "group_id": null,
            "label": "c1",
            "points": [
                [
                    3674,
                    1424
                ],
                [
                    3695,
                    1680
                ]
            ],
            "shape_type": "rectangle"
        },
        {
            "flags": {},
            "group_id": null,
            "label": "g1",
            "points": [
                [
                    3625,
                    1742
                ],
                [
                    3630,
                    1888
                ]
            ],
            "shape_type": "rectangle"
        },
        {
            "flags": {},
            "group_id": null,
            "label": "g1",
            "points": [
                [
                    3739,
                    1741
                ],
                [
                    3743,
                    1889
                ]
            ],
            "shape_type": "rectangle"
        },
        {
            "flags": {},
            "group_id": null,
            "label": "g1",
            "points": [
                [
                    3626,
                    1947
                ],
                [
                    3629,
                    2095
                ]
            ],
            "shape_type": "rectangle"
        },
        {
            "flags": {},
            "group_id": null,
            "label": "g1",
            "points": [
                [
                    3741,
                    1946
                ],
                [
                    3744,
                    2095
                ]
            ],
            "shape_type": "rectangle"
        },
        {
            "flags": {},
            "group_id": null,
            "label": "a1-1",
            "points": [
                [
                    3598,
                    1964
                ],
                [
                    3622,
                    2068
                ]
            ],
            "shape_type": "rectangle"
        },
        {
            "flags": {},
            "group_id": null,
            "label": "a1-2",
            "points": [
                [
                    3748,
                    1965
                ],
                [
                    3773,
                    2068
                ]
            ],
            "shape_type": "rectangle"
        },
        {
            "flags": {},
            "group_id": null,
            "label": "g1",
            "points": [
                [
                    3623,
                    2157
                ],
                [
                    3627,
                    2306
                ]
            ],
            "shape_type": "rectangle"
        },
        {
            "flags": {},
            "group_id": null,
            "label": "g1",
            "points": [
                [
                    3742,
                    2158
                ],
                [
                    3746,
                    2305
                ]
            ],
            "shape_type": "rectangle"
        },
        {
            "flags": {},
            "group_id": null,
            "label": "g1",
            "points": [
                [
                    3624,
                    2371
                ],
                [
                    3628,
                    2518
                ]
            ],
            "shape_type": "rectangle"
        },
        {
            "flags": {},
            "group_id": null,
            "label": "g1",
            "points": [
                [
                    3743,
                    2370
                ],
                [
                    3746,
                    2518
                ]
            ],
            "shape_type": "rectangle"
        },
        {
            "flags": {},
            "group_id": null,
            "label": "d1",
            "points": [
                [
                    3494,
                    2339
                ],
                [
                    3577,
                    2477
                ]
            ],
            "shape_type": "rectangle"
        },
        {
            "flags": {},
            "group_id": null,
            "label": "d1",
            "points": [
                [
                    3505,
                    2104
                ],
                [
                    3588,
                    2241
                ]
            ],
            "shape_type": "rectangle"
        },
        {
            "flags": {},
            "group_id": null,
            "label": "d1",
            "points": [
                [
                    3505,
                    1915
                ],
                [
                    3588,
                    2053
                ]
            ],
            "shape_type": "rectangle"
        },
        {
            "flags": {},
            "group_id": null,
            "label": "d1",
            "points": [
                [
                    3505,
                    1623
                ],
                [
                    3588,
                    1761
                ]
            ],
            "shape_type": "rectangle"
        },
        {
            "flags": {},
            "group_id": null,
            "label": "d1",
            "points": [
                [
                    3771,
                    1624
                ],
                [
                    3854,
                    1761
                ]
            ],
            "shape_type": "rectangle"
        },
        {
            "flags": {},
            "group_id": null,
            "label": "d1",
            "points": [
                [
                    3771,
                    1915
                ],
                [
                    3855,
                    2053
                ]
            ],
            "shape_type": "rectangle"
        },
        {
            "flags": {},
            "group_id": null,
            "label": "d1",
            "points": [
                [
                    3771,
                    2104
                ],
                [
                    3855,
                    2241
                ]
            ],
            "shape_type": "rectangle"
        },
        {
            "flags": {},
            "group_id": null,
            "label": "d1",
            "points": [
                [
                    3759,
                    2339
                ],
                [
                    3843,
                    2477
                ]
            ],
            "shape_type": "rectangle"
        },
        {
            "flags": {},
            "group_id": null,
            "label": "h1",
            "points": [
                [
                    3113,
                    1652
                ],
                [
                    3243,
                    1714
                ]
            ],
            "shape_type": "rectangle"
        },
        {
            "flags": {},
            "group_id": null,
            "label": "h1",
            "points": [
                [
                    3112,
                    1831
                ],
                [
                    3242,
                    1893
                ]
            ],
            "shape_type": "rectangle"
        },
        {
            "flags": {},
            "group_id": null,
            "label": "h1",
            "points": [
                [
                    3119,
                    2048
                ],
                [
                    3249,
                    2110
                ]
            ],
            "shape_type": "rectangle"
        },
        {
            "flags": {},
            "group_id": null,
            "label": "h1",
            "points": [
                [
                    3121,
                    2263
                ],
                [
                    3251,
                    2326
                ]
            ],
            "shape_type": "rectangle"
        },
        {
            "flags": {},
            "group_id": null,
            "label": "h1",
            "points": [
                [
                    3121,
                    2436
                ],
                [
                    3252,
                    2500
                ]
            ],
            "shape_type": "rectangle"
        },
        {
            "flags": {},
            "group_id": null,
            "label": "n1",
            "points": [
                [
                    1545,
                    1535
                ],
                [
                    1975,
                    1999
                ]
            ],
            "shape_type": "rectangle"
        },
        {
            "flags": {},
            "group_id": null,
            "label": "d1",
            "points": [
                [
                    826,
                    1447
                ],
                [
                    963,
                    1531
                ]
            ],
            "shape_type": "rectangle"
        },
        {
            "flags": {},
            "group_id": null,
            "label": "d1",
            "points": [
                [
                    833,
                    1859
                ],
                [
                    971,
                    1942
                ]
            ],
            "shape_type": "rectangle"
        },
        {
            "flags": {},
            "group_id": null,
            "label": "v1",
            "points": [
                [
                    519,
                    1868
                ],
                [
                    709,
                    1940
                ]
            ],
            "shape_type": "rectangle"
        },
        {
            "flags": {},
            "group_id": null,
            "label": "vb1",
            "points": [
                [
                    558,
                    1619
                ],
                [
                    650,
                    1780
                ]
            ],
            "shape_type": "rectangle"
        },
        {
            "flags": {},
            "group_id": null,
            "label": "twentytwo",
            "points": [
                [
                    579,
                    1608
                ]
            ],
            "shape_type": "point"
        },
        {
            "flags": {},
            "group_id": null,
            "label": "twentythere",
            "points": [
                [
                    628,
                    1627
                ]
            ],
            "shape_type": "point"
        },
        {
            "flags": {},
            "group_id": null,
            "label": "seven",
            "points": [
                [
                    558,
                    1619
                ]
            ],
            "shape_type": "point"
        },
        {
            "flags": {},
            "group_id": null,
            "label": "eight",
            "points": [
                [
                    649,
                    1619
                ]
            ],
            "shape_type": "point"
        },
        {
            "flags": {},
            "group_id": null,
            "label": "seven",
            "points": [
                [
                    574,
                    1639
                ]
            ],
            "shape_type": "point"
        },
        {
            "flags": {},
            "group_id": null,
            "label": "eight",
            "points": [
                [
                    634,
                    1639
                ]
            ],
            "shape_type": "point"
        },
        {
            "flags": {},
            "group_id": null,
            "label": "eleven",
            "points": [
                [
                    574,
                    1699
                ]
            ],
            "shape_type": "point"
        },
        {
            "flags": {},
            "group_id": null,
            "label": "twelve",
            "points": [
                [
                    634,
                    1699
                ]
            ],
            "shape_type": "point"
        },
        {
            "flags": {},
            "group_id": null,
            "label": "nine",
            "points": [
                [
                    574,
                    1759
                ]
            ],
            "shape_type": "point"
        },
        {
            "flags": {},
            "group_id": null,
            "label": "ten",
            "points": [
                [
                    634,
                    1759
                ]
            ],
            "shape_type": "point"
        },
        {
            "flags": {},
            "group_id": null,
            "label": "nine",
            "points": [
                [
                    559,
                    1779
                ]
            ],
            "shape_type": "point"
        },
        {
            "flags": {},
            "group_id": null,
            "label": "ten",
            "points": [
                [
                    649,
                    1779
                ]
            ],
            "shape_type": "point"
        },
        {
            "flags": {},
            "group_id": null,
            "label": "one",
            "points": [
                [
                    509,
                    1780
                ]
            ],
            "shape_type": "point"
        },
        {
            "flags": {},
            "group_id": null,
            "label": "two",
            "points": [
                [
                    509,
                    1618
                ]
            ],
            "shape_type": "point"
        },
        {
            "flags": {},
            "group_id": null,
            "label": "vt1",
            "points": [
                [
                    594,
                    1487
                ],
                [
                    675,
                    1556
                ]
            ],
            "shape_type": "rectangle"
        },
        {
            "flags": {},
            "group_id": null,
            "label": "vp1-1",
            "points": [
                [
                    2349,
                    1786
                ],
                [
                    2457,
                    1893
                ]
            ],
            "shape_type": "rectangle"
        },
        {
            "flags": {},
            "group_id": null,
            "label": "v1",
            "points": [
                [
                    2301,
                    1977
                ],
                [
                    2526,
                    2041
                ]
            ],
            "shape_type": "rectangle"
        },
        {
            "flags": {},
            "group_id": null,
            "label": "vp1-1",
            "points": [
                [
                    2354,
                    2205
                ],
                [
                    2462,
                    2312
                ]
            ],
            "shape_type": "rectangle"
        },
        {
            "flags": {},
            "group_id": null,
            "label": "va1",
            "points": [
                [
                    2325,
                    2203
                ],
                [
                    2358,
                    2245
                ]
            ],
            "shape_type": "rectangle"
        },
        {
            "flags": {},
            "group_id": null,
            "label": "va1",
            "points": [
                [
                    2455,
                    2195
                ],
                [
                    2496,
                    2234
                ]
            ],
            "shape_type": "rectangle"
        },
        {
            "flags": {},
            "group_id": null,
            "label": "va1",
            "points": [
                [
                    2396,
                    2319
                ],
                [
                    2436,
                    2359
                ]
            ],
            "shape_type": "rectangle"
        },
        {
            "flags": {},
            "group_id": null,
            "label": "v1",
            "points": [
                [
                    2318,
                    2416
                ],
                [
                    2543,
                    2481
                ]
            ],
            "shape_type": "rectangle"
        },
        {
            "flags": {},
            "group_id": null,
            "label": "vp1-1",
            "points": [
                [
                    2405,
                    2661
                ],
                [
                    2512,
                    2769
                ]
            ],
            "shape_type": "rectangle"
        },
        {
            "flags": {},
            "group_id": null,
            "label": "v1",
            "points": [
                [
                    2327,
                    2835
                ],
                [
                    2551,
                    2899
                ]
            ],
            "shape_type": "rectangle"
        },
        {
            "flags": {},
            "group_id": null,
            "label": "vp1-1",
            "points": [
                [
                    2426,
                    3022
                ],
                [
                    2533,
                    3130
                ]
            ],
            "shape_type": "rectangle"
        },
        {
            "flags": {},
            "group_id": null,
            "label": "v1",
            "points": [
                [
                    2373,
                    3187
                ],
                [
                    2597,
                    3251
                ]
            ],
            "shape_type": "rectangle"
        },
        {
            "flags": {},
            "group_id": null,
            "label": "sm",
            "points": [
                [
                    310,
                    2289
                ],
                [
                    1872,
                    2972
                ]
            ],
            "shape_type": "rectangle"
        },
        {
            "flags": {},
            "group_id": null,
            "label": "btl",
            "points": [
                [
                    2346,
                    3865
                ],
                [
                    4150,
                    4169
                ]
            ],
            "shape_type": "rectangle"
        },
        {
            "flags": {},
            "group_id": null,
            "label": "j1",
            "points": [
                [
                    1885,
                    1915
                ],
                [
                    1973,
                    1999
                ]
            ],
            "shape_type": "rectangle"
        },
        {
            "flags": {},
            "group_id": null,
            "label": "j1",
            "points": [
                [
                    1546,
                    1727
                ],
                [
                    1637,
                    1810
                ]
            ],
            "shape_type": "rectangle"
        },
        {
            "flags": {},
            "group_id": null,
            "label": "j1",
            "points": [
                [
                    1902,
                    1631
                ],
                [
                    1974,
                    1712
                ]
            ],
            "shape_type": "rectangle"
        },
        {
            "flags": {},
            "group_id": null,
            "label": "j1",
            "points": [
                [
                    1746,
                    1536
                ],
                [
                    1780,
                    1579
                ]
            ],
            "shape_type": "rectangle"
        },
        {
            "flags": {},
            "group_id": null,
            "label": "x2",
            "points": [
                [
                    471,
                    1609
                ],
                [
                    521,
                    1789
                ]
            ],
            "shape_type": "rectangle"
        },
        {
            "flags": {},
            "group_id": null,
            "label": "wz2",
            "points": [
                [
                    471,
                    1655
                ],
                [
                    503,
                    1743
                ]
            ],
            "shape_type": "rectangle"
        },
        {
            "flags": {},
            "group_id": null,
            "label": "k1",
            "points": [
                [
                    578,
                    1608
                ],
                [
                    629,
                    1629
                ]
            ],
            "shape_type": "rectangle"
        },
        {
            "flags": {},
            "group_id": null,
            "label": "mask",
            "lineType": [
                "LLLLLLLLLLLLLLLLLLLLL"
            ],
            "points": [
                [
                    875,
                    1963
                ],
                [
                    946,
                    1971
                ],
                [
                    985,
                    1953
                ],
                [
                    991,
                    1921
                ],
                [
                    989,
                    1859
                ],
                [
                    972,
                    1776
                ],
                [
                    966,
                    1642
                ],
                [
                    984,
                    1472
                ],
                [
                    982,
                    1441
                ],
                [
                    941,
                    1430
                ],
                [
                    845,
                    1430
                ],
                [
                    698,
                    1440
                ],
                [
                    568,
                    1472
                ],
                [
                    545,
                    1504
                ],
                [
                    475,
                    1594
                ],
                [
                    458,
                    1650
                ],
                [
                    456,
                    1705
                ],
                [
                    459,
                    1756
                ],
                [
                    473,
                    1800
                ],
                [
                    481,
                    1978
                ],
                [
                    875,
                    1963
                ]
            ],
            "shape_type": "polygon"
        },
        {
            "flags": {},
            "group_id": null,
            "label": "mask",
            "lineType": [
                "LLLLLLLLLLLLLLLLLLLLLLL"
            ],
            "points": [
                [
                    1535,
                    1525
                ],
                [
                    1985,
                    1525
                ],
                [
                    1985,
                    2009
                ],
                [
                    1535,
                    2009
                ]
            ],
            "shape_type": "polygon"
        },
        {
            "flags": {},
            "group_id": null,
            "label": "mask",
            "lineType": [
                "LLLLLLLLLLLLLLLL"
            ],
            "points": [
                [
                    2412,
                    2057
                ],
                [
                    2482,
                    2058
                ],
                [
                    2536,
                    2060
                ],
                [
                    2545,
                    2043
                ],
                [
                    2536,
                    1978
                ],
                [
                    2532,
                    1847
                ],
                [
                    2506,
                    1800
                ],
                [
                    2483,
                    1785
                ],
                [
                    2330,
                    1775
                ],
                [
                    2320,
                    1784
                ],
                [
                    2308,
                    1812
                ],
                [
                    2294,
                    1875
                ],
                [
                    2290,
                    1960
                ],
                [
                    2281,
                    2013
                ],
                [
                    2284,
                    2052
                ],
                [
                    2412,
                    2057
                ]
            ],
            "shape_type": "polygon"
        },
        {
            "flags": {},
            "group_id": null,
            "label": "mask",
            "lineType": [
                "LLLLLLLLLLLLLLLLLL"
            ],
            "points": [
                [
                    2409,
                    2178
                ],
                [
                    2507,
                    2173
                ],
                [
                    2577,
                    2173
                ],
                [
                    2623,
                    2191
                ],
                [
                    2623,
                    2214
                ],
                [
                    2619,
                    2266
                ],
                [
                    2610,
                    2289
                ],
                [
                    2570,
                    2337
                ],
                [
                    2572,
                    2427
                ],
                [
                    2563,
                    2489
                ],
                [
                    2315,
                    2489
                ],
                [
                    2307,
                    2479
                ],
                [
                    2299,
                    2440
                ],
                [
                    2290,
                    2320
                ],
                [
                    2211,
                    2274
                ],
                [
                    2197,
                    2263
                ],
                [
                    2190,
                    2217
                ],
                [
                    2409,
                    2178
                ]
            ],
            "shape_type": "polygon"
        },
        {
            "flags": {},
            "group_id": null,
            "label": "mask",
            "lineType": [
                "LLLLLLLLLLLL"
            ],
            "points": [
                [
                    2428,
                    2641
                ],
                [
                    2541,
                    2667
                ],
                [
                    2573,
                    2802
                ],
                [
                    2576,
                    2892
                ],
                [
                    2571,
                    2914
                ],
                [
                    2518,
                    2917
                ],
                [
                    2323,
                    2914
                ],
                [
                    2314,
                    2897
                ],
                [
                    2315,
                    2856
                ],
                [
                    2356,
                    2734
                ],
                [
                    2365,
                    2680
                ],
                [
                    2428,
                    2641
                ]
            ],
            "shape_type": "polygon"
        },
        {
            "flags": {},
            "group_id": null,
            "label": "mask",
            "lineType": [
                "LLLLLLLLLLL"
            ],
            "points": [
                [
                    2480,
                    3004
                ],
                [
                    2531,
                    3006
                ],
                [
                    2572,
                    3019
                ],
                [
                    2584,
                    3067
                ],
                [
                    2604,
                    3259
                ],
                [
                    2494,
                    3260
                ],
                [
                    2367,
                    3260
                ],
                [
                    2362,
                    3242
                ],
                [
                    2367,
                    3206
                ],
                [
                    2396,
                    3028
                ],
                [
                    2480,
                    3004
                ]
            ],
            "shape_type": "polygon"
        },
        {
            "flags": {},
            "group_id": null,
            "label": "mask",
            "lineType": [
                "LLLLLLLLLLLLLLLLLLLLLLLLLLLLLLLLLLLLLLLLLLLLLLLLLLLLL"
            ],
            "points": [
                [
                    3095,
                    1644
                ],
                [
                    3170,
                    1546
                ],
                [
                    3555,
                    1419
                ],
                [
                    3689,
                    1404
                ],
                [
                    3728,
                    1408
                ],
                [
                    3790,
                    1452
                ],
                [
                    3845,
                    1518
                ],
                [
                    3880,
                    1608
                ],
                [
                    3875,
                    1837
                ],
                [
                    3889,
                    2310
                ],
                [
                    3886,
                    2524
                ],
                [
                    3833,
                    2535
                ],
                [
                    3817,
                    2547
                ],
                [
                    3824,
                    2682
                ],
                [
                    3847,
                    2869
                ],
                [
                    3988,
                    2876
                ],
                [
                    4052,
                    2895
                ],
                [
                    4067,
                    2918
                ],
                [
                    4067,
                    2960
                ],
                [
                    4062,
                    2971
                ],
                [
                    3797,
                    2989
                ],
                [
                    3767,
                    3008
                ],
                [
                    3787,
                    3578
                ],
                [
                    3803,
                    3624
                ],
                [
                    3878,
                    3639
                ],
                [
                    4052,
                    3679
                ],
                [
                    4063,
                    3709
                ],
                [
                    4058,
                    3748
                ],
                [
                    4008,
                    3759
                ],
                [
                    3547,
                    3756
                ],
                [
                    3525,
                    3855
                ],
                [
                    3168,
                    3852
                ],
                [
                    3168,
                    3830
                ],
                [
                    3160,
                    3731
                ],
                [
                    3107,
                    3699
                ],
                [
                    3099,
                    3631
                ],
                [
                    3103,
                    3618
                ],
                [
                    3159,
                    3606
                ],
                [
                    3306,
                    3561
                ],
                [
                    3340,
                    3549
                ],
                [
                    3396,
                    3541
                ],
                [
                    3618,
                    3560
                ],
                [
                    3634,
                    3464
                ],
                [
                    3612,
                    3156
                ],
                [
                    3527,
                    2718
                ],
                [
                    3509,
                    2645
                ],
                [
                    3446,
                    2542
                ],
                [
                    3249,
                    2541
                ],
                [
                    3139,
                    2518
                ],
                [
                    3099,
                    2455
                ],
                [
                    3095,
                    2300
                ],
                [
                    3094,
                    2084
                ],
                [
                    3095,
                    1644
                ]
            ],
            "shape_type": "polygon"
        },
        {
            "flags": {},
            "group_id": null,
            "label": "mask",
            "lineType": [
                "LLLLL"
            ],
            "points": [
                [
                    2336,
                    3855
                ],
                [
                    4160,
                    3855
                ],
                [
                    4160,
                    4179
                ],
                [
                    2336,
                    4179
                ]
            ],
            "shape_type": "polygon"
        },
        {
            "flags": {},
            "group_id": null,
            "label": "mask",
            "lineType": [
                "LLLLLLLLLLLL"
            ],
            "points": [
                [
                    337,
                    3029
                ],
                [
                    2182,
                    3029
                ],
                [
                    2182,
                    4151
                ],
                [
                    337,
                    4151
                ]
            ],
            "shape_type": "polygon"
        },
        {
            "flags": {},
            "group_id": null,
            "label": "mask",
            "lineType": [
                "LLLLLLLLLLLLLLLLLLLLLLLLLL"
            ],
            "points": [
                [
                    300,
                    2279
                ],
                [
                    1882,
                    2279
                ],
                [
                    1882,
                    2982
                ],
                [
                    300,
                    2982
                ]
            ],
            "shape_type": "polygon"
        },
        {
            "flags": {},
            "group_id": null,
            "label": "Ns",
            "points": [
                [
                    1796,
                    1811
                ]
            ],
            "shape_type": "point"
        },
        {
            "flags": {},
            "group_id": null,
            "label": "Ne",
            "points": [
                [
                    1795,
                    1630
                ]
            ],
            "shape_type": "point"
        },
        {
            "flags": {},
            "group_id": null,
            "label": "wlb",
            "points": [
                [
                    347,
                    3039
                ],
                [
                    2172,
                    4141
                ]
            ],
            "shape_type": "rectangle"
        },
        {
            "flags": {},
            "group_id": null,
            "label": "wz1",
            "points": [
                [
                    3807,
                    2896
                ],
                [
                    4001,
                    2946
                ]
            ],
            "shape_type": "rectangle"
        },
        {
            "flags": {},
            "group_id": null,
            "label": "wz3",
            "points": [
                [
                    3596,
                    1902
                ],
                [
                    3629,
                    1934
                ]
            ],
            "shape_type": "rectangle"
        },
        {
            "flags": {},
            "group_id": null,
            "label": "wz3",
            "points": [
                [
                    3708,
                    1901
                ],
                [
                    3748,
                    1931
                ]
            ],
            "shape_type": "rectangle"
        },
        {
            "flags": {},
            "group_id": null,
            "label": "wz3",
            "points": [
                [
                    2447,
                    2313
                ],
                [
                    2561,
                    2366
                ]
            ],
            "shape_type": "rectangle"
        },
        {
            "flags": {},
            "group_id": null,
            "label": "wz3",
            "points": [
                [
                    2502,
                    2190
                ],
                [
                    2621,
                    2245
                ]
            ],
            "shape_type": "rectangle"
        },
        {
            "flags": {},
            "group_id": null,
            "label": "wz3",
            "points": [
                [
                    2199,
                    2218
                ],
                [
                    2313,
                    2267
                ]
            ],
            "shape_type": "rectangle"
        },
        {
            "flags": {},
            "group_id": null,
            "label": "wz3",
            "points": [
                [
                    1690,
                    2002
                ],
                [
                    1910,
                    2054
                ]
            ],
            "shape_type": "rectangle"
        },
        {
            "flags": {},
            "group_id": null,
            "label": "wz1",
            "points": [
                [
                    718,
                    1731
                ],
                [
                    882,
                    1781
                ]
            ],
            "shape_type": "rectangle"
        },
        {
            "flags": {},
            "group_id": null,
            "label": "wz1",
            "points": [
                [
                    3551,
                    1984
                ],
                [
                    3567,
                    2011
                ]
            ],
            "shape_type": "rectangle"
        }
    ],
    "version": "4.5.7"
}