{
    "flags": {},
    "imageData": null,
    "imageHeight": 4205,
    "imagePath": "样本3_134_36.png",
    "imageWidth": 4205,
    "shapes": [
        {
            "flags": {},
            "group_id": null,
            "label": "v1",
            "points": [
                [
                    1282,
                    2802
                ],
                [
                    1614,
                    2895
                ]
            ],
            "shape_type": "rectangle"
        },
        {
            "flags": {},
            "group_id": null,
            "label": "v1",
            "points": [
                [
                    1813,
                    2781
                ],
                [
                    2043,
                    2877
                ]
            ],
            "shape_type": "rectangle"
        },
        {
            "flags": {},
            "group_id": null,
            "label": "v1",
            "points": [
                [
                    2321,
                    2783
                ],
                [
                    2552,
                    2877
                ]
            ],
            "shape_type": "rectangle"
        },
        {
            "flags": {},
            "group_id": null,
            "label": "v1",
            "points": [
                [
                    742,
                    2790
                ],
                [
                    975,
                    2885
                ]
            ],
            "shape_type": "rectangle"
        },
        {
            "flags": {},
            "group_id": null,
            "label": "vp1-1",
            "points": [
                [
                    761,
                    2446
                ],
                [
                    927,
                    2611
                ]
            ],
            "shape_type": "rectangle"
        },
        {
            "flags": {},
            "group_id": null,
            "label": "vp1-1",
            "points": [
                [
                    1369,
                    2456
                ],
                [
                    1535,
                    2622
                ]
            ],
            "shape_type": "rectangle"
        },
        {
            "flags": {},
            "group_id": null,
            "label": "vp1-1",
            "points": [
                [
                    1847,
                    2465
                ],
                [
                    2012,
                    2629
                ]
            ],
            "shape_type": "rectangle"
        },
        {
            "flags": {},
            "group_id": null,
            "label": "va1",
            "points": [
                [
                    898,
                    2650
                ],
                [
                    943,
                    2684
                ]
            ],
            "shape_type": "rectangle"
        },
        {
            "flags": {},
            "group_id": null,
            "label": "va1",
            "points": [
                [
                    660,
                    2498
                ],
                [
                    700,
                    2540
                ]
            ],
            "shape_type": "rectangle"
        },
        {
            "flags": {},
            "group_id": null,
            "label": "va1",
            "points": [
                [
                    906,
                    2366
                ],
                [
                    948,
                    2404
                ]
            ],
            "shape_type": "rectangle"
        },
        {
            "flags": {},
            "group_id": null,
            "label": "va1",
            "points": [
                [
                    1293,
                    2431
                ],
                [
                    1334,
                    2472
                ]
            ],
            "shape_type": "rectangle"
        },
        {
            "flags": {},
            "group_id": null,
            "label": "va1",
            "points": [
                [
                    1569,
                    2431
                ],
                [
                    1613,
                    2471
                ]
            ],
            "shape_type": "rectangle"
        },
        {
            "flags": {},
            "group_id": null,
            "label": "va1",
            "points": [
                [
                    1426,
                    2681
                ],
                [
                    1469,
                    2719
                ]
            ],
            "shape_type": "rectangle"
        },
        {
            "flags": {},
            "group_id": null,
            "label": "vp1-1",
            "points": [
                [
                    2355,
                    2464
                ],
                [
                    2520,
                    2629
                ]
            ],
            "shape_type": "rectangle"
        },
        {
            "flags": {},
            "group_id": null,
            "label": "d1",
            "points": [
                [
                    1173,
                    1858
                ],
                [
                    1257,
                    2030
                ]
            ],
            "shape_type": "rectangle"
        },
        {
            "flags": {},
            "group_id": null,
            "label": "d1",
            "points": [
                [
                    541,
                    1874
                ],
                [
                    625,
                    2047
                ]
            ],
            "shape_type": "rectangle"
        },
        {
            "flags": {},
            "group_id": null,
            "label": "vb1",
            "points": [
                [
                    658,
                    1625
                ],
                [
                    821,
                    1717
                ]
            ],
            "shape_type": "rectangle"
        },
        {
            "flags": {},
            "group_id": null,
            "label": "vt1",
            "points": [
                [
                    930,
                    1513
                ],
                [
                    1242,
                    1824
                ]
            ],
            "shape_type": "rectangle"
        },
        {
            "flags": {},
            "group_id": null,
            "label": "seven",
            "points": [
                [
                    658,
                    1626
                ]
            ],
            "shape_type": "point"
        },
        {
            "flags": {},
            "group_id": null,
            "label": "seven",
            "points": [
                [
                    673,
                    1640
                ]
            ],
            "shape_type": "point"
        },
        {
            "flags": {},
            "group_id": null,
            "label": "nine",
            "points": [
                [
                    657,
                    1716
                ]
            ],
            "shape_type": "point"
        },
        {
            "flags": {},
            "group_id": null,
            "label": "nine",
            "points": [
                [
                    672,
                    1710
                ]
            ],
            "shape_type": "point"
        },
        {
            "flags": {},
            "group_id": null,
            "label": "eight",
            "points": [
                [
                    812,
                    1641
                ]
            ],
            "shape_type": "point"
        },
        {
            "flags": {},
            "group_id": null,
            "label": "eight",
            "points": [
                [
                    821,
                    1626
                ]
            ],
            "shape_type": "point"
        },
        {
            "flags": {},
            "group_id": null,
            "label": "ten",
            "points": [
                [
                    821,
                    1717
                ]
            ],
            "shape_type": "point"
        },
        {
            "flags": {},
            "group_id": null,
            "label": "ten",
            "points": [
                [
                    813,
                    1710
                ]
            ],
            "shape_type": "point"
        },
        {
            "flags": {},
            "group_id": null,
            "label": "thirteen",
            "points": [
                [
                    743,
                    1641
                ]
            ],
            "shape_type": "point"
        },
        {
            "flags": {},
            "group_id": null,
            "label": "fifteen",
            "points": [
                [
                    743,
                    1652
                ]
            ],
            "shape_type": "point"
        },
        {
            "flags": {},
            "group_id": null,
            "label": "eleven",
            "points": [
                [
                    673,
                    1654
                ]
            ],
            "shape_type": "point"
        },
        {
            "flags": {},
            "group_id": null,
            "label": "twelve",
            "points": [
                [
                    813,
                    1652
                ]
            ],
            "shape_type": "point"
        },
        {
            "flags": {},
            "group_id": null,
            "label": "fourteen",
            "points": [
                [
                    743,
                    1710
                ]
            ],
            "shape_type": "point"
        },
        {
            "flags": {},
            "group_id": null,
            "label": "va1",
            "points": [
                [
                    1157,
                    1689
                ],
                [
                    1199,
                    1742
                ]
            ],
            "shape_type": "rectangle"
        },
        {
            "flags": {},
            "group_id": null,
            "label": "va1",
            "points": [
                [
                    971,
                    1703
                ],
                [
                    1023,
                    1751
                ]
            ],
            "shape_type": "rectangle"
        },
        {
            "flags": {},
            "group_id": null,
            "label": "va1",
            "points": [
                [
                    1052,
                    1541
                ],
                [
                    1104,
                    1589
                ]
            ],
            "shape_type": "rectangle"
        },
        {
            "flags": {},
            "group_id": null,
            "label": "n1",
            "points": [
                [
                    1990,
                    1481
                ],
                [
                    2523,
                    1954
                ]
            ],
            "shape_type": "rectangle"
        },
        {
            "flags": {},
            "group_id": null,
            "label": "b1",
            "points": [
                [
                    3136,
                    2949
                ],
                [
                    3393,
                    3254
                ]
            ],
            "shape_type": "rectangle"
        },
        {
            "flags": {},
            "group_id": null,
            "label": "v1",
            "points": [
                [
                    3476,
                    3286
                ],
                [
                    3807,
                    3377
                ]
            ],
            "shape_type": "rectangle"
        },
        {
            "flags": {},
            "group_id": null,
            "label": "seven",
            "points": [
                [
                    3155,
                    2949
                ]
            ],
            "shape_type": "point"
        },
        {
            "flags": {},
            "group_id": null,
            "label": "eleven",
            "points": [
                [
                    3155,
                    2955
                ]
            ],
            "shape_type": "point"
        },
        {
            "flags": {},
            "group_id": null,
            "label": "eight",
            "points": [
                [
                    3372,
                    2949
                ]
            ],
            "shape_type": "point"
        },
        {
            "flags": {},
            "group_id": null,
            "label": "twelve",
            "points": [
                [
                    3372,
                    2955
                ]
            ],
            "shape_type": "point"
        },
        {
            "flags": {},
            "group_id": null,
            "label": "thirteen",
            "points": [
                [
                    3264,
                    2949
                ]
            ],
            "shape_type": "point"
        },
        {
            "flags": {},
            "group_id": null,
            "label": "fourteen",
            "points": [
                [
                    3155,
                    3212
                ]
            ],
            "shape_type": "point"
        },
        {
            "flags": {},
            "group_id": null,
            "label": "fourteen",
            "points": [
                [
                    3264,
                    3212
                ]
            ],
            "shape_type": "point"
        },
        {
            "flags": {},
            "group_id": null,
            "label": "ten",
            "points": [
                [
                    3371,
                    3187
                ]
            ],
            "shape_type": "point"
        },
        {
            "flags": {},
            "group_id": null,
            "label": "eleven",
            "points": [
                [
                    3156,
                    3188
                ]
            ],
            "shape_type": "point"
        },
        {
            "flags": {},
            "group_id": null,
            "label": "fifteen",
            "points": [
                [
                    3264,
                    3188
                ]
            ],
            "shape_type": "point"
        },
        {
            "flags": {},
            "group_id": null,
            "label": "seven",
            "points": [
                [
                    3136,
                    3212
                ]
            ],
            "shape_type": "point"
        },
        {
            "flags": {},
            "group_id": null,
            "label": "eight",
            "points": [
                [
                    3392,
                    3212
                ]
            ],
            "shape_type": "point"
        },
        {
            "flags": {},
            "group_id": null,
            "label": "fourteen",
            "points": [
                [
                    3392,
                    3255
                ]
            ],
            "shape_type": "point"
        },
        {
            "flags": {},
            "group_id": null,
            "label": "fourteen",
            "points": [
                [
                    3135,
                    3254
                ]
            ],
            "shape_type": "point"
        },
        {
            "flags": {},
            "group_id": null,
            "label": "h1",
            "points": [
                [
                    4004,
                    3211
                ],
                [
                    4106,
                    3255
                ]
            ],
            "shape_type": "rectangle"
        },
        {
            "flags": {},
            "group_id": null,
            "label": "x1",
            "points": [
                [
                    3602,
                    2449
                ],
                [
                    3772,
                    2503
                ]
            ],
            "shape_type": "rectangle"
        },
        {
            "flags": {},
            "group_id": null,
            "label": "h1",
            "points": [
                [
                    3944,
                    2350
                ],
                [
                    4114,
                    2427
                ]
            ],
            "shape_type": "rectangle"
        },
        {
            "flags": {},
            "group_id": null,
            "label": "h1",
            "points": [
                [
                    3944,
                    2090
                ],
                [
                    4113,
                    2168
                ]
            ],
            "shape_type": "rectangle"
        },
        {
            "flags": {},
            "group_id": null,
            "label": "h1",
            "points": [
                [
                    3943,
                    1850
                ],
                [
                    4113,
                    1925
                ]
            ],
            "shape_type": "rectangle"
        },
        {
            "flags": {},
            "group_id": null,
            "label": "h1",
            "points": [
                [
                    3943,
                    1614
                ],
                [
                    4114,
                    1690
                ]
            ],
            "shape_type": "rectangle"
        },
        {
            "flags": {},
            "group_id": null,
            "label": "d1",
            "points": [
                [
                    3827,
                    1770
                ],
                [
                    3910,
                    1909
                ]
            ],
            "shape_type": "rectangle"
        },
        {
            "flags": {},
            "group_id": null,
            "label": "d1",
            "points": [
                [
                    3474,
                    1771
                ],
                [
                    3552,
                    1912
                ]
            ],
            "shape_type": "rectangle"
        },
        {
            "flags": {},
            "group_id": null,
            "label": "h1",
            "points": [
                [
                    3944,
                    1433
                ],
                [
                    4114,
                    1511
                ]
            ],
            "shape_type": "rectangle"
        },
        {
            "flags": {},
            "group_id": null,
            "label": "c1",
            "points": [
                [
                    3684,
                    1368
                ],
                [
                    3690,
                    1507
                ]
            ],
            "shape_type": "rectangle"
        },
        {
            "flags": {},
            "group_id": null,
            "label": "a1-1",
            "points": [
                [
                    3618,
                    1570
                ],
                [
                    3645,
                    1683
                ]
            ],
            "shape_type": "rectangle"
        },
        {
            "flags": {},
            "group_id": null,
            "label": "a1-2",
            "points": [
                [
                    3730,
                    1570
                ],
                [
                    3757,
                    1678
                ]
            ],
            "shape_type": "rectangle"
        },
        {
            "flags": {},
            "group_id": null,
            "label": "a1-3",
            "points": [
                [
                    3674,
                    1568
                ],
                [
                    3700,
                    1680
                ]
            ],
            "shape_type": "rectangle"
        },
        {
            "flags": {},
            "group_id": null,
            "label": "g1",
            "points": [
                [
                    3646,
                    1545
                ],
                [
                    3652,
                    1715
                ]
            ],
            "shape_type": "rectangle"
        },
        {
            "flags": {},
            "group_id": null,
            "label": "g1",
            "points": [
                [
                    3724,
                    1544
                ],
                [
                    3729,
                    1715
                ]
            ],
            "shape_type": "rectangle"
        },
        {
            "flags": {},
            "group_id": null,
            "label": "g1",
            "points": [
                [
                    3684,
                    1544
                ],
                [
                    3690,
                    1710
                ]
            ],
            "shape_type": "rectangle"
        },
        {
            "flags": {},
            "group_id": null,
            "label": "p1-1",
            "points": [
                [
                    3618,
                    1543
                ],
                [
                    3757,
                    1716
                ]
            ],
            "shape_type": "rectangle"
        },
        {
            "flags": {},
            "group_id": null,
            "label": "a1-1",
            "points": [
                [
                    3610,
                    1810
                ],
                [
                    3636,
                    1921
                ]
            ],
            "shape_type": "rectangle"
        },
        {
            "flags": {},
            "group_id": null,
            "label": "a1-2",
            "points": [
                [
                    3750,
                    1810
                ],
                [
                    3777,
                    1921
                ]
            ],
            "shape_type": "rectangle"
        },
        {
            "flags": {},
            "group_id": null,
            "label": "g1",
            "points": [
                [
                    3638,
                    1771
                ],
                [
                    3642,
                    1968
                ]
            ],
            "shape_type": "rectangle"
        },
        {
            "flags": {},
            "group_id": null,
            "label": "g1",
            "points": [
                [
                    3744,
                    1773
                ],
                [
                    3748,
                    1969
                ]
            ],
            "shape_type": "rectangle"
        },
        {
            "flags": {},
            "group_id": null,
            "label": "g1",
            "points": [
                [
                    3685,
                    1789
                ],
                [
                    3690,
                    1959
                ]
            ],
            "shape_type": "rectangle"
        },
        {
            "flags": {},
            "group_id": null,
            "label": "g1",
            "points": [
                [
                    3724,
                    1788
                ],
                [
                    3728,
                    1959
                ]
            ],
            "shape_type": "rectangle"
        },
        {
            "flags": {},
            "group_id": null,
            "label": "g1",
            "points": [
                [
                    3646,
                    1788
                ],
                [
                    3651,
                    1958
                ]
            ],
            "shape_type": "rectangle"
        },
        {
            "flags": {},
            "group_id": null,
            "label": "p1-1",
            "points": [
                [
                    3610,
                    1771
                ],
                [
                    3778,
                    1969
                ]
            ],
            "shape_type": "rectangle"
        },
        {
            "flags": {},
            "group_id": null,
            "label": "g1",
            "points": [
                [
                    3646,
                    2047
                ],
                [
                    3651,
                    2218
                ]
            ],
            "shape_type": "rectangle"
        },
        {
            "flags": {},
            "group_id": null,
            "label": "g1",
            "points": [
                [
                    3685,
                    2048
                ],
                [
                    3690,
                    2218
                ]
            ],
            "shape_type": "rectangle"
        },
        {
            "flags": {},
            "group_id": null,
            "label": "g1",
            "points": [
                [
                    3724,
                    2047
                ],
                [
                    3729,
                    2219
                ]
            ],
            "shape_type": "rectangle"
        },
        {
            "flags": {},
            "group_id": null,
            "label": "p1-1",
            "points": [
                [
                    3644,
                    2047
                ],
                [
                    3730,
                    2218
                ]
            ],
            "shape_type": "rectangle"
        },
        {
            "flags": {},
            "group_id": null,
            "label": "g1",
            "points": [
                [
                    3648,
                    2276
                ],
                [
                    3651,
                    2447
                ]
            ],
            "shape_type": "rectangle"
        },
        {
            "flags": {},
            "group_id": null,
            "label": "g1",
            "points": [
                [
                    3685,
                    2276
                ],
                [
                    3690,
                    2447
                ]
            ],
            "shape_type": "rectangle"
        },
        {
            "flags": {},
            "group_id": null,
            "label": "g1",
            "points": [
                [
                    3725,
                    2277
                ],
                [
                    3729,
                    2447
                ]
            ],
            "shape_type": "rectangle"
        },
        {
            "flags": {},
            "group_id": null,
            "label": "p1-1",
            "points": [
                [
                    3646,
                    2276
                ],
                [
                    3730,
                    2448
                ]
            ],
            "shape_type": "rectangle"
        },
        {
            "flags": {},
            "group_id": null,
            "label": "t1",
            "points": [
                [
                    3640,
                    1366
                ],
                [
                    3740,
                    3255
                ]
            ],
            "shape_type": "rectangle"
        },
        {
            "flags": {},
            "group_id": null,
            "label": "three",
            "points": [
                [
                    835,
                    1564
                ]
            ],
            "shape_type": "point"
        },
        {
            "flags": {},
            "group_id": null,
            "label": "four",
            "points": [
                [
                    934,
                    1564
                ]
            ],
            "shape_type": "point"
        },
        {
            "flags": {},
            "group_id": null,
            "label": "sm",
            "points": [
                [
                    1852,
                    3085
                ],
                [
                    3659,
                    3757
                ]
            ],
            "shape_type": "rectangle"
        },
        {
            "flags": {},
            "group_id": null,
            "label": "btl",
            "points": [
                [
                    2345,
                    3863
                ],
                [
                    4151,
                    4170
                ]
            ],
            "shape_type": "rectangle"
        },
        {
            "flags": {},
            "group_id": null,
            "label": "j1",
            "points": [
                [
                    2255,
                    1870
                ],
                [
                    2369,
                    1951
                ]
            ],
            "shape_type": "rectangle"
        },
        {
            "flags": {},
            "group_id": null,
            "label": "j1",
            "points": [
                [
                    2393,
                    1780
                ],
                [
                    2515,
                    1823
                ]
            ],
            "shape_type": "rectangle"
        },
        {
            "flags": {},
            "group_id": null,
            "label": "j1",
            "points": [
                [
                    2317,
                    1558
                ],
                [
                    2404,
                    1636
                ]
            ],
            "shape_type": "rectangle"
        },
        {
            "flags": {},
            "group_id": null,
            "label": "j1",
            "points": [
                [
                    2269,
                    1489
                ],
                [
                    2292,
                    1521
                ]
            ],
            "shape_type": "rectangle"
        },
        {
            "flags": {},
            "group_id": null,
            "label": "j1",
            "points": [
                [
                    1993,
                    1660
                ],
                [
                    2103,
                    1740
                ]
            ],
            "shape_type": "rectangle"
        },
        {
            "flags": {},
            "group_id": null,
            "label": "x2",
            "points": [
                [
                    814,
                    1529
                ],
                [
                    955,
                    1575
                ]
            ],
            "shape_type": "rectangle"
        },
        {
            "flags": {},
            "group_id": null,
            "label": "wz2",
            "points": [
                [
                    842,
                    1530
                ],
                [
                    929,
                    1557
                ]
            ],
            "shape_type": "rectangle"
        },
        {
            "flags": {},
            "group_id": null,
            "label": "mask",
            "lineType": [
                "LLLLLLLLLLLLLLL"
            ],
            "points": [
                [
                    1999,
                    2893
                ],
                [
                    2059,
                    2886
                ],
                [
                    2049,
                    2776
                ],
                [
                    2036,
                    2619
                ],
                [
                    2030,
                    2500
                ],
                [
                    2029,
                    2397
                ],
                [
                    1886,
                    2426
                ],
                [
                    1766,
                    2506
                ],
                [
                    1756,
                    2527
                ],
                [
                    1749,
                    2567
                ],
                [
                    1842,
                    2572
                ],
                [
                    1875,
                    2773
                ],
                [
                    1799,
                    2782
                ],
                [
                    1796,
                    2886
                ],
                [
                    1999,
                    2893
                ]
            ],
            "shape_type": "polygon"
        },
        {
            "flags": {},
            "group_id": null,
            "label": "mask",
            "lineType": [
                "LLLLLLLLLLLLLLLLLLLLLLLLLLLLLLLL"
            ],
            "points": [
                [
                    1519,
                    2926
                ],
                [
                    1614,
                    2908
                ],
                [
                    1754,
                    2789
                ],
                [
                    1793,
                    2721
                ],
                [
                    1793,
                    2697
                ],
                [
                    1774,
                    2649
                ],
                [
                    1751,
                    2611
                ],
                [
                    1732,
                    2554
                ],
                [
                    1744,
                    2498
                ],
                [
                    1786,
                    2483
                ],
                [
                    1799,
                    2476
                ],
                [
                    1815,
                    2460
                ],
                [
                    1830,
                    2448
                ],
                [
                    1830,
                    2437
                ],
                [
                    1824,
                    2406
                ],
                [
                    1815,
                    2381
                ],
                [
                    1715,
                    2376
                ],
                [
                    1638,
                    2376
                ],
                [
                    1611,
                    2378
                ],
                [
                    1369,
                    2442
                ],
                [
                    1341,
                    2430
                ],
                [
                    1310,
                    2385
                ],
                [
                    1292,
                    2354
                ],
                [
                    1088,
                    2339
                ],
                [
                    1083,
                    2347
                ],
                [
                    1079,
                    2379
                ],
                [
                    1080,
                    2403
                ],
                [
                    1105,
                    2467
                ],
                [
                    1152,
                    2500
                ],
                [
                    1350,
                    2650
                ],
                [
                    1265,
                    2900
                ],
                [
                    1519,
                    2926
                ]
            ],
            "shape_type": "polygon"
        },
        {
            "flags": {},
            "group_id": null,
            "label": "mask",
            "lineType": [
                "LLLLLLLLLLLLLLLLLLLL"
            ],
            "points": [
                [
                    956,
                    2904
                ],
                [
                    1011,
                    2894
                ],
                [
                    1122,
                    2820
                ],
                [
                    1291,
                    2641
                ],
                [
                    1279,
                    2610
                ],
                [
                    968,
                    2588
                ],
                [
                    950,
                    2520
                ],
                [
                    1085,
                    2292
                ],
                [
                    1089,
                    2267
                ],
                [
                    1082,
                    2249
                ],
                [
                    758,
                    2238
                ],
                [
                    747,
                    2242
                ],
                [
                    483,
                    2393
                ],
                [
                    401,
                    2392
                ],
                [
                    418,
                    2467
                ],
                [
                    501,
                    2517
                ],
                [
                    750,
                    2692
                ],
                [
                    750,
                    2736
                ],
                [
                    721,
                    2901
                ],
                [
                    956,
                    2904
                ]
            ],
            "shape_type": "polygon"
        },
        {
            "flags": {},
            "group_id": null,
            "label": "mask",
            "lineType": [
                "LLLLLLLLLLL"
            ],
            "points": [
                [
                    1164,
                    2040
                ],
                [
                    1273,
                    2039
                ],
                [
                    1288,
                    1719
                ],
                [
                    1243,
                    1577
                ],
                [
                    1207,
                    1525
                ],
                [
                    1143,
                    1508
                ],
                [
                    853,
                    1512
                ],
                [
                    577,
                    1627
                ],
                [
                    488,
                    1773
                ],
                [
                    499,
                    2055
                ],
                [
                    1164,
                    2040
                ]
            ],
            "shape_type": "polygon"
        },
        {
            "flags": {},
            "group_id": null,
            "label": "mask",
            "lineType": [
                "LLLLLLLLLLLLLLL"
            ],
            "points": [
                [
                    1980,
                    1471
                ],
                [
                    2533,
                    1471
                ],
                [
                    2533,
                    1964
                ],
                [
                    1980,
                    1964
                ]
            ],
            "shape_type": "polygon"
        },
        {
            "flags": {},
            "group_id": null,
            "label": "mask",
            "lineType": [
                "LLLLLLLLLLLL"
            ],
            "points": [
                [
                    2551,
                    2903
                ],
                [
                    2567,
                    2893
                ],
                [
                    2574,
                    2873
                ],
                [
                    2546,
                    2402
                ],
                [
                    2511,
                    2386
                ],
                [
                    2303,
                    2504
                ],
                [
                    2249,
                    2564
                ],
                [
                    2340,
                    2569
                ],
                [
                    2421,
                    2711
                ],
                [
                    2325,
                    2781
                ],
                [
                    2314,
                    2893
                ],
                [
                    2551,
                    2903
                ]
            ],
            "shape_type": "polygon"
        },
        {
            "flags": {},
            "group_id": null,
            "label": "mask",
            "lineType": [
                "LLLLLLLLLL"
            ],
            "points": [
                [
                    410,
                    3108
                ],
                [
                    1822,
                    3108
                ],
                [
                    1822,
                    3851
                ],
                [
                    410,
                    3851
                ]
            ],
            "shape_type": "polygon"
        },
        {
            "flags": {},
            "group_id": null,
            "label": "mask",
            "lineType": [
                "LLLLLLLLLLLLLLLLLLLLLLLLLLLLLLLLLL"
            ],
            "points": [
                [
                    1842,
                    3075
                ],
                [
                    3669,
                    3075
                ],
                [
                    3669,
                    3767
                ],
                [
                    1842,
                    3767
                ]
            ],
            "shape_type": "polygon"
        },
        {
            "flags": {},
            "group_id": null,
            "label": "mask",
            "lineType": [
                "LLLLLLL"
            ],
            "points": [
                [
                    2335,
                    3853
                ],
                [
                    4161,
                    3853
                ],
                [
                    4161,
                    4180
                ],
                [
                    2335,
                    4180
                ]
            ],
            "shape_type": "polygon"
        },
        {
            "flags": {},
            "group_id": null,
            "label": "mask",
            "lineType": [
                "LLLLLLLLLLLLLLLLLLLLLLLLLLLLLLLLLLLLLLLLLLLLLLLLLL"
            ],
            "points": [
                [
                    3806,
                    3383
                ],
                [
                    3828,
                    3370
                ],
                [
                    3911,
                    3322
                ],
                [
                    4048,
                    3291
                ],
                [
                    4099,
                    3271
                ],
                [
                    4114,
                    3256
                ],
                [
                    4115,
                    3232
                ],
                [
                    4105,
                    3218
                ],
                [
                    4081,
                    3200
                ],
                [
                    3997,
                    3198
                ],
                [
                    3749,
                    3201
                ],
                [
                    3732,
                    2886
                ],
                [
                    3737,
                    2651
                ],
                [
                    3740,
                    2511
                ],
                [
                    3766,
                    2503
                ],
                [
                    3815,
                    2497
                ],
                [
                    4116,
                    2437
                ],
                [
                    4129,
                    1997
                ],
                [
                    4120,
                    1813
                ],
                [
                    4129,
                    1427
                ],
                [
                    3760,
                    1408
                ],
                [
                    3696,
                    1351
                ],
                [
                    3542,
                    1349
                ],
                [
                    3515,
                    1357
                ],
                [
                    3506,
                    1380
                ],
                [
                    3500,
                    1399
                ],
                [
                    3505,
                    1436
                ],
                [
                    3460,
                    1560
                ],
                [
                    3262,
                    1610
                ],
                [
                    3262,
                    1888
                ],
                [
                    3310,
                    1904
                ],
                [
                    3490,
                    1926
                ],
                [
                    3598,
                    1938
                ],
                [
                    3607,
                    1944
                ],
                [
                    3616,
                    2430
                ],
                [
                    3597,
                    2442
                ],
                [
                    3582,
                    2500
                ],
                [
                    3629,
                    2941
                ],
                [
                    3139,
                    2941
                ],
                [
                    3140,
                    3171
                ],
                [
                    3126,
                    3198
                ],
                [
                    2984,
                    3238
                ],
                [
                    2974,
                    3257
                ],
                [
                    2979,
                    3272
                ],
                [
                    3206,
                    3296
                ],
                [
                    3470,
                    3360
                ],
                [
                    3472,
                    3381
                ],
                [
                    3673,
                    3382
                ],
                [
                    3714,
                    3384
                ],
                [
                    3806,
                    3383
                ]
            ],
            "shape_type": "polygon"
        },
        {
            "flags": {},
            "group_id": null,
            "label": "wlb",
            "points": [
                [
                    420,
                    3118
                ],
                [
                    1812,
                    3841
                ]
            ],
            "shape_type": "rectangle"
        },
        {
            "flags": {},
            "group_id": null,
            "label": "Ns",
            "points": [
                [
                    2250,
                    1771
                ]
            ],
            "shape_type": "point"
        },
        {
            "flags": {},
            "group_id": null,
            "label": "Ne",
            "points": [
                [
                    2250,
                    1590
                ]
            ],
            "shape_type": "point"
        },
        {
            "flags": {},
            "group_id": null,
            "label": "wz1",
            "points": [
                [
                    3538,
                    1369
                ],
                [
                    3630,
                    1412
                ]
            ],
            "shape_type": "rectangle"
        },
        {
            "flags": {},
            "group_id": null,
            "label": "wz3",
            "points": [
                [
                    3278,
                    1608
                ],
                [
                    3593,
                    1657
                ]
            ],
            "shape_type": "rectangle"
        },
        {
            "flags": {},
            "group_id": null,
            "label": "wz3",
            "points": [
                [
                    3273,
                    1854
                ],
                [
                    3453,
                    1890
                ]
            ],
            "shape_type": "rectangle"
        },
        {
            "flags": {},
            "group_id": null,
            "label": "wz3",
            "points": [
                [
                    1099,
                    2357
                ],
                [
                    1297,
                    2450
                ]
            ],
            "shape_type": "rectangle"
        },
        {
            "flags": {},
            "group_id": null,
            "label": "wz3",
            "points": [
                [
                    1627,
                    2393
                ],
                [
                    1822,
                    2478
                ]
            ],
            "shape_type": "rectangle"
        },
        {
            "flags": {},
            "group_id": null,
            "label": "wz3",
            "points": [
                [
                    1582,
                    2653
                ],
                [
                    1785,
                    2752
                ]
            ],
            "shape_type": "rectangle"
        },
        {
            "flags": {},
            "group_id": null,
            "label": "wz3",
            "points": [
                [
                    963,
                    2603
                ],
                [
                    1275,
                    2715
                ]
            ],
            "shape_type": "rectangle"
        },
        {
            "flags": {},
            "group_id": null,
            "label": "wz3",
            "points": [
                [
                    766,
                    2252
                ],
                [
                    1079,
                    2351
                ]
            ],
            "shape_type": "rectangle"
        },
        {
            "flags": {},
            "group_id": null,
            "label": "wz3",
            "points": [
                [
                    416,
                    2401
                ],
                [
                    730,
                    2502
                ]
            ],
            "shape_type": "rectangle"
        },
        {
            "flags": {},
            "group_id": null,
            "label": "wz1",
            "points": [
                [
                    531,
                    1750
                ],
                [
                    690,
                    1792
                ]
            ],
            "shape_type": "rectangle"
        }
    ],
    "version": "4.5.7"
}