{
    "flags": {},
    "imageData": null,
    "imageHeight": 4205,
    "imagePath": "样本3_134_77.png",
    "imageWidth": 4205,
    "shapes": [
        {
            "flags": {},
            "group_id": null,
            "label": "t1",
            "points": [
                [
                    1686,
                    1575
                ],
                [
                    1871,
                    3260
                ]
            ],
            "shape_type": "rectangle"
        },
        {
            "flags": {},
            "group_id": null,
            "label": "c1",
            "points": [
                [
                    1776,
                    1575
                ],
                [
                    1780,
                    1736
                ]
            ],
            "shape_type": "rectangle"
        },
        {
            "flags": {},
            "group_id": null,
            "label": "d1",
            "points": [
                [
                    1534,
                    1669
                ],
                [
                    1618,
                    1808
                ]
            ],
            "shape_type": "rectangle"
        },
        {
            "flags": {},
            "group_id": null,
            "label": "a1-1",
            "points": [
                [
                    1640,
                    1726
                ],
                [
                    1668,
                    1831
                ]
            ],
            "shape_type": "rectangle"
        },
        {
            "flags": {},
            "group_id": null,
            "label": "g1",
            "points": [
                [
                    1667,
                    1701
                ],
                [
                    1671,
                    1899
                ]
            ],
            "shape_type": "rectangle"
        },
        {
            "flags": {},
            "group_id": null,
            "label": "a1-2",
            "points": [
                [
                    1780,
                    1727
                ],
                [
                    1807,
                    1831
                ]
            ],
            "shape_type": "rectangle"
        },
        {
            "flags": {},
            "group_id": null,
            "label": "a1-3",
            "points": [
                [
                    1863,
                    1728
                ],
                [
                    1889,
                    1838
                ]
            ],
            "shape_type": "rectangle"
        },
        {
            "flags": {},
            "group_id": null,
            "label": "g1",
            "points": [
                [
                    1874,
                    1709
                ],
                [
                    1878,
                    1899
                ]
            ],
            "shape_type": "rectangle"
        },
        {
            "flags": {},
            "group_id": null,
            "label": "g1",
            "points": [
                [
                    1776,
                    1736
                ],
                [
                    1780,
                    1892
                ]
            ],
            "shape_type": "rectangle"
        },
        {
            "flags": {},
            "group_id": null,
            "label": "p1-1",
            "points": [
                [
                    1640,
                    1701
                ],
                [
                    1889,
                    1899
                ]
            ],
            "shape_type": "rectangle"
        },
        {
            "flags": {},
            "group_id": null,
            "label": "d1",
            "points": [
                [
                    1978,
                    1670
                ],
                [
                    2061,
                    1809
                ]
            ],
            "shape_type": "rectangle"
        },
        {
            "flags": {},
            "group_id": null,
            "label": "h1",
            "points": [
                [
                    2125,
                    1768
                ],
                [
                    2299,
                    1839
                ]
            ],
            "shape_type": "rectangle"
        },
        {
            "flags": {},
            "group_id": null,
            "label": "d1",
            "points": [
                [
                    1980,
                    1929
                ],
                [
                    2065,
                    2068
                ]
            ],
            "shape_type": "rectangle"
        },
        {
            "flags": {},
            "group_id": null,
            "label": "h1",
            "points": [
                [
                    2126,
                    1986
                ],
                [
                    2298,
                    2058
                ]
            ],
            "shape_type": "rectangle"
        },
        {
            "flags": {},
            "group_id": null,
            "label": "d1",
            "points": [
                [
                    1981,
                    2143
                ],
                [
                    2065,
                    2281
                ]
            ],
            "shape_type": "rectangle"
        },
        {
            "flags": {},
            "group_id": null,
            "label": "h1",
            "points": [
                [
                    2123,
                    2202
                ],
                [
                    2297,
                    2272
                ]
            ],
            "shape_type": "rectangle"
        },
        {
            "flags": {},
            "group_id": null,
            "label": "d1",
            "points": [
                [
                    1534,
                    2142
                ],
                [
                    1618,
                    2281
                ]
            ],
            "shape_type": "rectangle"
        },
        {
            "flags": {},
            "group_id": null,
            "label": "d1",
            "points": [
                [
                    1534,
                    1929
                ],
                [
                    1618,
                    2067
                ]
            ],
            "shape_type": "rectangle"
        },
        {
            "flags": {},
            "group_id": null,
            "label": "a1-1",
            "points": [
                [
                    1640,
                    1945
                ],
                [
                    1667,
                    2049
                ]
            ],
            "shape_type": "rectangle"
        },
        {
            "flags": {},
            "group_id": null,
            "label": "g1",
            "points": [
                [
                    1667,
                    1922
                ],
                [
                    1672,
                    2112
                ]
            ],
            "shape_type": "rectangle"
        },
        {
            "flags": {},
            "group_id": null,
            "label": "g1",
            "points": [
                [
                    1776,
                    1922
                ],
                [
                    1780,
                    2108
                ]
            ],
            "shape_type": "rectangle"
        },
        {
            "flags": {},
            "group_id": null,
            "label": "a1-2",
            "points": [
                [
                    1780,
                    1945
                ],
                [
                    1807,
                    2050
                ]
            ],
            "shape_type": "rectangle"
        },
        {
            "flags": {},
            "group_id": null,
            "label": "a1-4",
            "points": [
                [
                    1862,
                    1945
                ],
                [
                    1888,
                    2057
                ]
            ],
            "shape_type": "rectangle"
        },
        {
            "flags": {},
            "group_id": null,
            "label": "g1",
            "points": [
                [
                    1874,
                    1927
                ],
                [
                    1877,
                    2112
                ]
            ],
            "shape_type": "rectangle"
        },
        {
            "flags": {},
            "group_id": null,
            "label": "p1-1",
            "points": [
                [
                    1640,
                    1922
                ],
                [
                    1888,
                    2113
                ]
            ],
            "shape_type": "rectangle"
        },
        {
            "flags": {},
            "group_id": null,
            "label": "a1-1",
            "points": [
                [
                    1641,
                    2159
                ],
                [
                    1667,
                    2263
                ]
            ],
            "shape_type": "rectangle"
        },
        {
            "flags": {},
            "group_id": null,
            "label": "g1",
            "points": [
                [
                    1666,
                    2134
                ],
                [
                    1671,
                    2326
                ]
            ],
            "shape_type": "rectangle"
        },
        {
            "flags": {},
            "group_id": null,
            "label": "g1",
            "points": [
                [
                    1776,
                    2135
                ],
                [
                    1781,
                    2322
                ]
            ],
            "shape_type": "rectangle"
        },
        {
            "flags": {},
            "group_id": null,
            "label": "a1-2",
            "points": [
                [
                    1781,
                    2159
                ],
                [
                    1807,
                    2263
                ]
            ],
            "shape_type": "rectangle"
        },
        {
            "flags": {},
            "group_id": null,
            "label": "a1-4",
            "points": [
                [
                    1863,
                    2160
                ],
                [
                    1889,
                    2270
                ]
            ],
            "shape_type": "rectangle"
        },
        {
            "flags": {},
            "group_id": null,
            "label": "g1",
            "points": [
                [
                    1873,
                    2140
                ],
                [
                    1877,
                    2325
                ]
            ],
            "shape_type": "rectangle"
        },
        {
            "flags": {},
            "group_id": null,
            "label": "p1-1",
            "points": [
                [
                    1640,
                    2134
                ],
                [
                    1889,
                    2326
                ]
            ],
            "shape_type": "rectangle"
        },
        {
            "flags": {},
            "group_id": null,
            "label": "b1",
            "points": [
                [
                    1308,
                    3060
                ],
                [
                    1608,
                    3260
                ]
            ],
            "shape_type": "rectangle"
        },
        {
            "flags": {},
            "group_id": null,
            "label": "h1",
            "points": [
                [
                    2124,
                    3190
                ],
                [
                    2254,
                    3260
                ]
            ],
            "shape_type": "rectangle"
        },
        {
            "flags": {},
            "group_id": null,
            "label": "v1",
            "points": [
                [
                    1293,
                    3304
                ],
                [
                    1624,
                    3377
                ]
            ],
            "shape_type": "rectangle"
        },
        {
            "flags": {},
            "group_id": null,
            "label": "d1",
            "points": [
                [
                    1134,
                    2353
                ],
                [
                    1219,
                    2492
                ]
            ],
            "shape_type": "rectangle"
        },
        {
            "flags": {},
            "group_id": null,
            "label": "v1",
            "points": [
                [
                    687,
                    2528
                ],
                [
                    879,
                    2600
                ]
            ],
            "shape_type": "rectangle"
        },
        {
            "flags": {},
            "group_id": null,
            "label": "vt1",
            "points": [
                [
                    576,
                    2099
                ],
                [
                    874,
                    2398
                ]
            ],
            "shape_type": "rectangle"
        },
        {
            "flags": {},
            "group_id": null,
            "label": "vb1",
            "points": [
                [
                    657,
                    1762
                ],
                [
                    848,
                    2025
                ]
            ],
            "shape_type": "rectangle"
        },
        {
            "flags": {},
            "group_id": null,
            "label": "d1",
            "points": [
                [
                    344,
                    2353
                ],
                [
                    427,
                    2491
                ]
            ],
            "shape_type": "rectangle"
        },
        {
            "flags": {},
            "group_id": null,
            "label": "three",
            "points": [
                [
                    728,
                    2446
                ]
            ],
            "shape_type": "point"
        },
        {
            "flags": {},
            "group_id": null,
            "label": "four",
            "points": [
                [
                    848,
                    2447
                ]
            ],
            "shape_type": "point"
        },
        {
            "flags": {},
            "group_id": null,
            "label": "seven",
            "points": [
                [
                    658,
                    1762
                ]
            ],
            "shape_type": "point"
        },
        {
            "flags": {},
            "group_id": null,
            "label": "thirteen",
            "points": [
                [
                    678,
                    1762
                ]
            ],
            "shape_type": "point"
        },
        {
            "flags": {},
            "group_id": null,
            "label": "eight",
            "points": [
                [
                    848,
                    1762
                ]
            ],
            "shape_type": "point"
        },
        {
            "flags": {},
            "group_id": null,
            "label": "eleven",
            "points": [
                [
                    678,
                    1826
                ]
            ],
            "shape_type": "point"
        },
        {
            "flags": {},
            "group_id": null,
            "label": "twelve",
            "points": [
                [
                    848,
                    1827
                ]
            ],
            "shape_type": "point"
        },
        {
            "flags": {},
            "group_id": null,
            "label": "eleven",
            "points": [
                [
                    678,
                    1915
                ]
            ],
            "shape_type": "point"
        },
        {
            "flags": {},
            "group_id": null,
            "label": "twelve",
            "points": [
                [
                    848,
                    1915
                ]
            ],
            "shape_type": "point"
        },
        {
            "flags": {},
            "group_id": null,
            "label": "nine",
            "points": [
                [
                    658,
                    2024
                ]
            ],
            "shape_type": "point"
        },
        {
            "flags": {},
            "group_id": null,
            "label": "fourteen",
            "points": [
                [
                    678,
                    2024
                ]
            ],
            "shape_type": "point"
        },
        {
            "flags": {},
            "group_id": null,
            "label": "ten",
            "points": [
                [
                    848,
                    2025
                ]
            ],
            "shape_type": "point"
        },
        {
            "flags": {},
            "group_id": null,
            "label": "seven",
            "points": [
                [
                    1309,
                    3060
                ]
            ],
            "shape_type": "point"
        },
        {
            "flags": {},
            "group_id": null,
            "label": "eight",
            "points": [
                [
                    1608,
                    3060
                ]
            ],
            "shape_type": "point"
        },
        {
            "flags": {},
            "group_id": null,
            "label": "seven",
            "points": [
                [
                    1329,
                    3080
                ]
            ],
            "shape_type": "point"
        },
        {
            "flags": {},
            "group_id": null,
            "label": "thirteen",
            "points": [
                [
                    1376,
                    3080
                ]
            ],
            "shape_type": "point"
        },
        {
            "flags": {},
            "group_id": null,
            "label": "thirteen",
            "points": [
                [
                    1396,
                    3080
                ]
            ],
            "shape_type": "point"
        },
        {
            "flags": {},
            "group_id": null,
            "label": "eight",
            "points": [
                [
                    1588,
                    3080
                ]
            ],
            "shape_type": "point"
        },
        {
            "flags": {},
            "group_id": null,
            "label": "thirteen",
            "points": [
                [
                    1492,
                    3080
                ]
            ],
            "shape_type": "point"
        },
        {
            "flags": {},
            "group_id": null,
            "label": "fourteen",
            "points": [
                [
                    1309,
                    3259
                ]
            ],
            "shape_type": "point"
        },
        {
            "flags": {},
            "group_id": null,
            "label": "fourteen",
            "points": [
                [
                    1329,
                    3260
                ]
            ],
            "shape_type": "point"
        },
        {
            "flags": {},
            "group_id": null,
            "label": "fourteen",
            "points": [
                [
                    1376,
                    3260
                ]
            ],
            "shape_type": "point"
        },
        {
            "flags": {},
            "group_id": null,
            "label": "fourteen",
            "points": [
                [
                    1396,
                    3260
                ]
            ],
            "shape_type": "point"
        },
        {
            "flags": {},
            "group_id": null,
            "label": "fourteen",
            "points": [
                [
                    1492,
                    3260
                ]
            ],
            "shape_type": "point"
        },
        {
            "flags": {},
            "group_id": null,
            "label": "fourteen",
            "points": [
                [
                    1588,
                    3260
                ]
            ],
            "shape_type": "point"
        },
        {
            "flags": {},
            "group_id": null,
            "label": "fourteen",
            "points": [
                [
                    1608,
                    3260
                ]
            ],
            "shape_type": "point"
        },
        {
            "flags": {},
            "group_id": null,
            "label": "twentytwo",
            "points": [
                [
                    1588,
                    3115
                ]
            ],
            "shape_type": "point"
        },
        {
            "flags": {},
            "group_id": null,
            "label": "twentythere",
            "points": [
                [
                    1608,
                    3145
                ]
            ],
            "shape_type": "point"
        },
        {
            "flags": {},
            "group_id": null,
            "label": "eleven",
            "points": [
                [
                    1588,
                    3145
                ]
            ],
            "shape_type": "point"
        },
        {
            "flags": {},
            "group_id": null,
            "label": "twelve",
            "points": [
                [
                    1608,
                    3114
                ]
            ],
            "shape_type": "point"
        },
        {
            "flags": {},
            "group_id": null,
            "label": "vp1-1",
            "points": [
                [
                    2686,
                    1994
                ],
                [
                    2852,
                    2160
                ]
            ],
            "shape_type": "rectangle"
        },
        {
            "flags": {},
            "group_id": null,
            "label": "va1",
            "points": [
                [
                    2748,
                    1900
                ],
                [
                    2791,
                    1933
                ]
            ],
            "shape_type": "rectangle"
        },
        {
            "flags": {},
            "group_id": null,
            "label": "va1",
            "points": [
                [
                    2891,
                    2130
                ],
                [
                    2926,
                    2175
                ]
            ],
            "shape_type": "rectangle"
        },
        {
            "flags": {},
            "group_id": null,
            "label": "va1",
            "points": [
                [
                    2613,
                    2131
                ],
                [
                    2646,
                    2175
                ]
            ],
            "shape_type": "rectangle"
        },
        {
            "flags": {},
            "group_id": null,
            "label": "v1",
            "points": [
                [
                    2627,
                    2362
                ],
                [
                    2857,
                    2434
                ]
            ],
            "shape_type": "rectangle"
        },
        {
            "flags": {},
            "group_id": null,
            "label": "n1",
            "points": [
                [
                    3128,
                    1399
                ],
                [
                    3609,
                    1733
                ]
            ],
            "shape_type": "rectangle"
        },
        {
            "flags": {},
            "group_id": null,
            "label": "a4",
            "points": [
                [
                    1593,
                    3032
                ],
                [
                    1614,
                    3060
                ]
            ],
            "shape_type": "rectangle"
        },
        {
            "flags": {},
            "group_id": null,
            "label": "btl",
            "points": [
                [
                    2345,
                    3863
                ],
                [
                    4152,
                    4169
                ]
            ],
            "shape_type": "rectangle"
        },
        {
            "flags": {},
            "group_id": null,
            "label": "j1",
            "points": [
                [
                    3297,
                    1402
                ],
                [
                    3327,
                    1447
                ]
            ],
            "shape_type": "rectangle"
        },
        {
            "flags": {},
            "group_id": null,
            "label": "j1",
            "points": [
                [
                    3384,
                    1472
                ],
                [
                    3449,
                    1548
                ]
            ],
            "shape_type": "rectangle"
        },
        {
            "flags": {},
            "group_id": null,
            "label": "j1",
            "points": [
                [
                    3520,
                    1650
                ],
                [
                    3607,
                    1731
                ]
            ],
            "shape_type": "rectangle"
        },
        {
            "flags": {},
            "group_id": null,
            "label": "j1",
            "points": [
                [
                    3128,
                    1566
                ],
                [
                    3237,
                    1647
                ]
            ],
            "shape_type": "rectangle"
        },
        {
            "flags": {},
            "group_id": null,
            "label": "sm",
            "points": [
                [
                    482,
                    3389
                ],
                [
                    1724,
                    4065
                ]
            ],
            "shape_type": "rectangle"
        },
        {
            "flags": {},
            "group_id": null,
            "label": "k1",
            "points": [
                [
                    1587,
                    3113
                ],
                [
                    1609,
                    3146
                ]
            ],
            "shape_type": "rectangle"
        },
        {
            "flags": {},
            "group_id": null,
            "label": "wz4",
            "points": [
                [
                    1381,
                    3012
                ],
                [
                    1544,
                    3055
                ]
            ],
            "shape_type": "rectangle"
        },
        {
            "flags": {},
            "group_id": null,
            "label": "wz4",
            "points": [
                [
                    681,
                    1846
                ],
                [
                    841,
                    1889
                ]
            ],
            "shape_type": "rectangle"
        },
        {
            "flags": {},
            "group_id": null,
            "label": "x2",
            "points": [
                [
                    717,
                    2402
                ],
                [
                    859,
                    2458
                ]
            ],
            "shape_type": "rectangle"
        },
        {
            "flags": {},
            "group_id": null,
            "label": "wz2",
            "points": [
                [
                    744,
                    2411
                ],
                [
                    831,
                    2439
                ]
            ],
            "shape_type": "rectangle"
        },
        {
            "flags": {},
            "group_id": null,
            "label": "mask",
            "lineType": [
                "LLLLLLLLLLLLLLLLLLLLLLLLLLLLLLL"
            ],
            "points": [
                [
                    843,
                    2637
                ],
                [
                    893,
                    2627
                ],
                [
                    916,
                    2583
                ],
                [
                    948,
                    2543
                ],
                [
                    1225,
                    2511
                ],
                [
                    1230,
                    2488
                ],
                [
                    1236,
                    2444
                ],
                [
                    1207,
                    2335
                ],
                [
                    1108,
                    2315
                ],
                [
                    965,
                    2315
                ],
                [
                    935,
                    2279
                ],
                [
                    933,
                    2190
                ],
                [
                    889,
                    2016
                ],
                [
                    888,
                    1906
                ],
                [
                    889,
                    1832
                ],
                [
                    873,
                    1743
                ],
                [
                    792,
                    1740
                ],
                [
                    637,
                    1750
                ],
                [
                    641,
                    1840
                ],
                [
                    637,
                    2080
                ],
                [
                    605,
                    2126
                ],
                [
                    584,
                    2154
                ],
                [
                    539,
                    2258
                ],
                [
                    498,
                    2308
                ],
                [
                    452,
                    2354
                ],
                [
                    361,
                    2346
                ],
                [
                    345,
                    2352
                ],
                [
                    335,
                    2405
                ],
                [
                    327,
                    2496
                ],
                [
                    581,
                    2605
                ],
                [
                    843,
                    2637
                ]
            ],
            "shape_type": "polygon"
        },
        {
            "flags": {},
            "group_id": null,
            "label": "mask",
            "lineType": [
                "LLLLLLLLLLLLLLLLLLLLLLLLLLLLLLLLLLLLLLLLLLLLLLLLLLLLLLLLLLLLLLLLLLLLLLLLLLLLLLLL"
            ],
            "points": [
                [
                    1673,
                    1545
                ],
                [
                    1767,
                    1505
                ],
                [
                    1834,
                    1482
                ],
                [
                    1905,
                    1482
                ],
                [
                    1938,
                    1488
                ],
                [
                    1952,
                    1509
                ],
                [
                    1960,
                    1583
                ],
                [
                    1956,
                    1627
                ],
                [
                    2056,
                    1656
                ],
                [
                    2170,
                    1682
                ],
                [
                    2285,
                    1737
                ],
                [
                    2313,
                    1790
                ],
                [
                    2338,
                    1991
                ],
                [
                    2326,
                    2084
                ],
                [
                    2324,
                    2280
                ],
                [
                    2274,
                    2286
                ],
                [
                    2112,
                    2303
                ],
                [
                    1943,
                    2312
                ],
                [
                    1864,
                    2374
                ],
                [
                    1849,
                    2464
                ],
                [
                    1845,
                    2922
                ],
                [
                    1869,
                    3157
                ],
                [
                    2029,
                    3164
                ],
                [
                    2216,
                    3162
                ],
                [
                    2305,
                    3179
                ],
                [
                    2317,
                    3221
                ],
                [
                    2300,
                    3314
                ],
                [
                    1625,
                    3307
                ],
                [
                    1633,
                    3385
                ],
                [
                    1629,
                    3390
                ],
                [
                    1315,
                    3391
                ],
                [
                    1287,
                    3388
                ],
                [
                    1284,
                    3379
                ],
                [
                    1284,
                    3349
                ],
                [
                    1275,
                    3304
                ],
                [
                    1029,
                    3300
                ],
                [
                    825,
                    3297
                ],
                [
                    812,
                    3284
                ],
                [
                    805,
                    3261
                ],
                [
                    808,
                    3255
                ],
                [
                    865,
                    3254
                ],
                [
                    1226,
                    3250
                ],
                [
                    1294,
                    3249
                ],
                [
                    1285,
                    3043
                ],
                [
                    1343,
                    3009
                ],
                [
                    1491,
                    2992
                ],
                [
                    1575,
                    2992
                ],
                [
                    1661,
                    2960
                ],
                [
                    1671,
                    2810
                ],
                [
                    1615,
                    2605
                ],
                [
                    1500,
                    2596
                ],
                [
                    1407,
                    2599
                ],
                [
                    1397,
                    2587
                ],
                [
                    1397,
                    2562
                ],
                [
                    1402,
                    2541
                ],
                [
                    1434,
                    2527
                ],
                [
                    1516,
                    2516
                ],
                [
                    1544,
                    2515
                ],
                [
                    1591,
                    2518
                ],
                [
                    1618,
                    2533
                ],
                [
                    1656,
                    2550
                ],
                [
                    1669,
                    2359
                ],
                [
                    1601,
                    2342
                ],
                [
                    1453,
                    2318
                ],
                [
                    1346,
                    2268
                ],
                [
                    1343,
                    2231
                ],
                [
                    1351,
                    2215
                ],
                [
                    1491,
                    2166
                ],
                [
                    1478,
                    2080
                ],
                [
                    1377,
                    2085
                ],
                [
                    1352,
                    2075
                ],
                [
                    1349,
                    2057
                ],
                [
                    1346,
                    2029
                ],
                [
                    1348,
                    2010
                ],
                [
                    1366,
                    1951
                ],
                [
                    1365,
                    1843
                ],
                [
                    1350,
                    1801
                ],
                [
                    1347,
                    1766
                ],
                [
                    1362,
                    1725
                ],
                [
                    1673,
                    1545
                ]
            ],
            "shape_type": "polygon"
        },
        {
            "flags": {},
            "group_id": null,
            "label": "mask",
            "lineType": [
                "LLLLLLLLLLLLLLLLLLLLLLLLLLLLLLLLLLLLLLL"
            ],
            "points": [
                [
                    2804,
                    2456
                ],
                [
                    2852,
                    2457
                ],
                [
                    2870,
                    2450
                ],
                [
                    2890,
                    2405
                ],
                [
                    2920,
                    2312
                ],
                [
                    3150,
                    2287
                ],
                [
                    3165,
                    2269
                ],
                [
                    3167,
                    2246
                ],
                [
                    3167,
                    2220
                ],
                [
                    3148,
                    2168
                ],
                [
                    3052,
                    2166
                ],
                [
                    2992,
                    2152
                ],
                [
                    2957,
                    2123
                ],
                [
                    2953,
                    2060
                ],
                [
                    2947,
                    1959
                ],
                [
                    2943,
                    1925
                ],
                [
                    3034,
                    1877
                ],
                [
                    3038,
                    1850
                ],
                [
                    3032,
                    1822
                ],
                [
                    3027,
                    1804
                ],
                [
                    3007,
                    1794
                ],
                [
                    2972,
                    1793
                ],
                [
                    2842,
                    1792
                ],
                [
                    2805,
                    1811
                ],
                [
                    2730,
                    1898
                ],
                [
                    2719,
                    1928
                ],
                [
                    2680,
                    1987
                ],
                [
                    2607,
                    2027
                ],
                [
                    2528,
                    2027
                ],
                [
                    2374,
                    2042
                ],
                [
                    2370,
                    2060
                ],
                [
                    2367,
                    2130
                ],
                [
                    2472,
                    2173
                ],
                [
                    2561,
                    2173
                ],
                [
                    2582,
                    2220
                ],
                [
                    2602,
                    2319
                ],
                [
                    2602,
                    2407
                ],
                [
                    2611,
                    2448
                ],
                [
                    2804,
                    2456
                ]
            ],
            "shape_type": "polygon"
        },
        {
            "flags": {},
            "group_id": null,
            "label": "mask",
            "lineType": [
                "LLLLLLLLLLLLLLLLLLLL"
            ],
            "points": [
                [
                    2653,
                    2513
                ],
                [
                    4064,
                    2513
                ],
                [
                    4064,
                    3857
                ],
                [
                    2653,
                    3857
                ]
            ],
            "shape_type": "polygon"
        },
        {
            "flags": {},
            "group_id": null,
            "label": "mask",
            "lineType": [
                "LLLLL"
            ],
            "points": [
                [
                    2335,
                    3853
                ],
                [
                    4162,
                    3853
                ],
                [
                    4162,
                    4179
                ],
                [
                    2335,
                    4179
                ]
            ],
            "shape_type": "polygon"
        },
        {
            "flags": {},
            "group_id": null,
            "label": "mask",
            "lineType": [
                "LLLLLLLLLLLLLLLLLLLLLL"
            ],
            "points": [
                [
                    3118,
                    1389
                ],
                [
                    3619,
                    1389
                ],
                [
                    3619,
                    1743
                ],
                [
                    3118,
                    1743
                ]
            ],
            "shape_type": "polygon"
        },
        {
            "flags": {},
            "group_id": null,
            "label": "mask",
            "lineType": [
                "LLLLLLLLLLLLLLLLLLLLLLLLLLLLLLLLLLLL"
            ],
            "points": [
                [
                    472,
                    3379
                ],
                [
                    1734,
                    3379
                ],
                [
                    1734,
                    4075
                ],
                [
                    472,
                    4075
                ]
            ],
            "shape_type": "polygon"
        },
        {
            "flags": {},
            "group_id": null,
            "label": "Ns",
            "points": [
                [
                    3340,
                    1663
                ]
            ],
            "shape_type": "point"
        },
        {
            "flags": {},
            "group_id": null,
            "label": "Ne",
            "points": [
                [
                    3340,
                    1483
                ]
            ],
            "shape_type": "point"
        },
        {
            "flags": {},
            "group_id": null,
            "label": "wlb",
            "points": [
                [
                    2663,
                    2523
                ],
                [
                    4054,
                    3847
                ]
            ],
            "shape_type": "rectangle"
        },
        {
            "flags": {},
            "group_id": null,
            "label": "wz3",
            "points": [
                [
                    3278,
                    1696
                ],
                [
                    3489,
                    1740
                ]
            ],
            "shape_type": "rectangle"
        },
        {
            "flags": {},
            "group_id": null,
            "label": "wz1",
            "points": [
                [
                    2832,
                    1808
                ],
                [
                    3019,
                    1897
                ]
            ],
            "shape_type": "rectangle"
        },
        {
            "flags": {},
            "group_id": null,
            "label": "wz1",
            "points": [
                [
                    2961,
                    2194
                ],
                [
                    3148,
                    2277
                ]
            ],
            "shape_type": "rectangle"
        },
        {
            "flags": {},
            "group_id": null,
            "label": "wz1",
            "points": [
                [
                    2381,
                    2048
                ],
                [
                    2568,
                    2135
                ]
            ],
            "shape_type": "rectangle"
        },
        {
            "flags": {},
            "group_id": null,
            "label": "wz1",
            "points": [
                [
                    1613,
                    3005
                ],
                [
                    1623,
                    3018
                ]
            ],
            "shape_type": "rectangle"
        },
        {
            "flags": {},
            "group_id": null,
            "label": "wz1",
            "points": [
                [
                    1681,
                    2859
                ],
                [
                    1706,
                    2891
                ]
            ],
            "shape_type": "rectangle"
        },
        {
            "flags": {},
            "group_id": null,
            "label": "wz1",
            "points": [
                [
                    1409,
                    2525
                ],
                [
                    1590,
                    2571
                ]
            ],
            "shape_type": "rectangle"
        },
        {
            "flags": {},
            "group_id": null,
            "label": "wz3",
            "points": [
                [
                    1356,
                    2226
                ],
                [
                    1533,
                    2267
                ]
            ],
            "shape_type": "rectangle"
        },
        {
            "flags": {},
            "group_id": null,
            "label": "wz3",
            "points": [
                [
                    1358,
                    2008
                ],
                [
                    1486,
                    2054
                ]
            ],
            "shape_type": "rectangle"
        },
        {
            "flags": {},
            "group_id": null,
            "label": "wz3",
            "points": [
                [
                    1357,
                    1748
                ],
                [
                    1485,
                    1792
                ]
            ],
            "shape_type": "rectangle"
        },
        {
            "flags": {},
            "group_id": null,
            "label": "wz1",
            "points": [
                [
                    1831,
                    1495
                ],
                [
                    1927,
                    1541
                ]
            ],
            "shape_type": "rectangle"
        },
        {
            "flags": {},
            "group_id": null,
            "label": "wz1",
            "points": [
                [
                    1701,
                    1685
                ],
                [
                    1744,
                    1720
                ]
            ],
            "shape_type": "rectangle"
        }
    ],
    "version": "4.5.7"
}