{
    "flags": {},
    "imageData": null,
    "imageHeight": 4205,
    "imagePath": "样本1_67_55.png",
    "imageWidth": 4205,
    "shapes": [
        {
            "flags": {},
            "group_id": null,
            "label": "vt4",
            "points": [
                [
                    399,
                    1944
                ],
                [
                    1084,
                    2627
                ]
            ],
            "shape_type": "rectangle"
        },
        {
            "flags": {},
            "group_id": null,
            "label": "v1",
            "points": [
                [
                    841,
                    2738
                ],
                [
                    1048,
                    2800
                ]
            ],
            "shape_type": "rectangle"
        },
        {
            "flags": {},
            "group_id": null,
            "label": "vb1",
            "points": [
                [
                    1141,
                    2122
                ],
                [
                    1491,
                    2672
                ]
            ],
            "shape_type": "rectangle"
        },
        {
            "flags": {},
            "group_id": null,
            "label": "d1",
            "points": [
                [
                    1469,
                    1810
                ],
                [
                    1553,
                    1948
                ]
            ],
            "shape_type": "rectangle"
        },
        {
            "flags": {},
            "group_id": null,
            "label": "v1",
            "points": [
                [
                    1851,
                    2779
                ],
                [
                    2081,
                    2871
                ]
            ],
            "shape_type": "rectangle"
        },
        {
            "flags": {},
            "group_id": null,
            "label": "vp1-1",
            "points": [
                [
                    1791,
                    2235
                ],
                [
                    2220,
                    2667
                ]
            ],
            "shape_type": "rectangle"
        },
        {
            "flags": {},
            "group_id": null,
            "label": "va1",
            "points": [
                [
                    1747,
                    2260
                ],
                [
                    1787,
                    2302
                ]
            ],
            "shape_type": "rectangle"
        },
        {
            "flags": {},
            "group_id": null,
            "label": "va1",
            "points": [
                [
                    1719,
                    2312
                ],
                [
                    1760,
                    2354
                ]
            ],
            "shape_type": "rectangle"
        },
        {
            "flags": {},
            "group_id": null,
            "label": "va1",
            "points": [
                [
                    2223,
                    2258
                ],
                [
                    2264,
                    2300
                ]
            ],
            "shape_type": "rectangle"
        },
        {
            "flags": {},
            "group_id": null,
            "label": "va1",
            "points": [
                [
                    2251,
                    2310
                ],
                [
                    2291,
                    2351
                ]
            ],
            "shape_type": "rectangle"
        },
        {
            "flags": {},
            "group_id": null,
            "label": "va1",
            "points": [
                [
                    2017,
                    2721
                ],
                [
                    2060,
                    2754
                ]
            ],
            "shape_type": "rectangle"
        },
        {
            "flags": {},
            "group_id": null,
            "label": "va1",
            "points": [
                [
                    1959,
                    2720
                ],
                [
                    2001,
                    2755
                ]
            ],
            "shape_type": "rectangle"
        },
        {
            "flags": {},
            "group_id": null,
            "label": "n1",
            "points": [
                [
                    1699,
                    1371
                ],
                [
                    2455,
                    1909
                ]
            ],
            "shape_type": "rectangle"
        },
        {
            "flags": {},
            "group_id": null,
            "label": "vp1-1",
            "points": [
                [
                    2626,
                    2210
                ],
                [
                    3057,
                    2641
                ]
            ],
            "shape_type": "rectangle"
        },
        {
            "flags": {},
            "group_id": null,
            "label": "va1",
            "points": [
                [
                    2585,
                    2234
                ],
                [
                    2624,
                    2274
                ]
            ],
            "shape_type": "rectangle"
        },
        {
            "flags": {},
            "group_id": null,
            "label": "va1",
            "points": [
                [
                    2555,
                    2287
                ],
                [
                    2594,
                    2329
                ]
            ],
            "shape_type": "rectangle"
        },
        {
            "flags": {},
            "group_id": null,
            "label": "va1",
            "points": [
                [
                    3059,
                    2235
                ],
                [
                    3100,
                    2275
                ]
            ],
            "shape_type": "rectangle"
        },
        {
            "flags": {},
            "group_id": null,
            "label": "va1",
            "points": [
                [
                    3088,
                    2289
                ],
                [
                    3126,
                    2329
                ]
            ],
            "shape_type": "rectangle"
        },
        {
            "flags": {},
            "group_id": null,
            "label": "va1",
            "points": [
                [
                    2853,
                    2696
                ],
                [
                    2896,
                    2729
                ]
            ],
            "shape_type": "rectangle"
        },
        {
            "flags": {},
            "group_id": null,
            "label": "va1",
            "points": [
                [
                    2797,
                    2691
                ],
                [
                    2838,
                    2723
                ]
            ],
            "shape_type": "rectangle"
        },
        {
            "flags": {},
            "group_id": null,
            "label": "v1",
            "points": [
                [
                    2729,
                    2779
                ],
                [
                    2959,
                    2871
                ]
            ],
            "shape_type": "rectangle"
        },
        {
            "flags": {},
            "group_id": null,
            "label": "b1",
            "points": [
                [
                    2789,
                    2961
                ],
                [
                    3140,
                    3287
                ]
            ],
            "shape_type": "rectangle"
        },
        {
            "flags": {},
            "group_id": null,
            "label": "v1",
            "points": [
                [
                    3478,
                    3357
                ],
                [
                    3808,
                    3448
                ]
            ],
            "shape_type": "rectangle"
        },
        {
            "flags": {},
            "group_id": null,
            "label": "t3-l",
            "points": [
                [
                    3324,
                    1425
                ],
                [
                    3972,
                    3286
                ]
            ],
            "shape_type": "rectangle"
        },
        {
            "flags": {},
            "group_id": null,
            "label": "h1",
            "points": [
                [
                    3988,
                    3228
                ],
                [
                    4139,
                    3286
                ]
            ],
            "shape_type": "rectangle"
        },
        {
            "flags": {},
            "group_id": null,
            "label": "h1",
            "points": [
                [
                    4010,
                    1912
                ],
                [
                    4140,
                    1975
                ]
            ],
            "shape_type": "rectangle"
        },
        {
            "flags": {},
            "group_id": null,
            "label": "d1",
            "points": [
                [
                    3885,
                    1820
                ],
                [
                    3969,
                    1956
                ]
            ],
            "shape_type": "rectangle"
        },
        {
            "flags": {},
            "group_id": null,
            "label": "h1",
            "points": [
                [
                    4012,
                    1674
                ],
                [
                    4143,
                    1737
                ]
            ],
            "shape_type": "rectangle"
        },
        {
            "flags": {},
            "group_id": null,
            "label": "d1",
            "points": [
                [
                    3886,
                    1556
                ],
                [
                    3969,
                    1694
                ]
            ],
            "shape_type": "rectangle"
        },
        {
            "flags": {},
            "group_id": null,
            "label": "h1",
            "points": [
                [
                    4009,
                    1559
                ],
                [
                    4140,
                    1621
                ]
            ],
            "shape_type": "rectangle"
        },
        {
            "flags": {},
            "group_id": null,
            "label": "c1",
            "points": [
                [
                    3687,
                    1426
                ],
                [
                    3692,
                    1620
                ]
            ],
            "shape_type": "rectangle"
        },
        {
            "flags": {},
            "group_id": null,
            "label": "d1",
            "points": [
                [
                    3279,
                    1557
                ],
                [
                    3363,
                    1693
                ]
            ],
            "shape_type": "rectangle"
        },
        {
            "flags": {},
            "group_id": null,
            "label": "d1",
            "points": [
                [
                    3280,
                    1820
                ],
                [
                    3362,
                    1956
                ]
            ],
            "shape_type": "rectangle"
        },
        {
            "flags": {},
            "group_id": null,
            "label": "g1",
            "points": [
                [
                    3455,
                    1606
                ],
                [
                    3459,
                    1754
                ]
            ],
            "shape_type": "rectangle"
        },
        {
            "flags": {},
            "group_id": null,
            "label": "a1-1",
            "points": [
                [
                    3434,
                    1635
                ],
                [
                    3454,
                    1722
                ]
            ],
            "shape_type": "rectangle"
        },
        {
            "flags": {},
            "group_id": null,
            "label": "g1",
            "points": [
                [
                    3640,
                    1607
                ],
                [
                    3642,
                    1754
                ]
            ],
            "shape_type": "rectangle"
        },
        {
            "flags": {},
            "group_id": null,
            "label": "a1-1",
            "points": [
                [
                    3618,
                    1636
                ],
                [
                    3638,
                    1721
                ]
            ],
            "shape_type": "rectangle"
        },
        {
            "flags": {},
            "group_id": null,
            "label": "g1",
            "points": [
                [
                    3818,
                    1606
                ],
                [
                    3821,
                    1753
                ]
            ],
            "shape_type": "rectangle"
        },
        {
            "flags": {},
            "group_id": null,
            "label": "a1-2",
            "points": [
                [
                    3823,
                    1636
                ],
                [
                    3844,
                    1721
                ]
            ],
            "shape_type": "rectangle"
        },
        {
            "flags": {},
            "group_id": null,
            "label": "a1-1",
            "points": [
                [
                    3431,
                    1873
                ],
                [
                    3451,
                    1959
                ]
            ],
            "shape_type": "rectangle"
        },
        {
            "flags": {},
            "group_id": null,
            "label": "g1",
            "points": [
                [
                    3453,
                    1843
                ],
                [
                    3456,
                    1991
                ]
            ],
            "shape_type": "rectangle"
        },
        {
            "flags": {},
            "group_id": null,
            "label": "a1-1",
            "points": [
                [
                    3465,
                    1873
                ],
                [
                    3485,
                    1959
                ]
            ],
            "shape_type": "rectangle"
        },
        {
            "flags": {},
            "group_id": null,
            "label": "g1",
            "points": [
                [
                    3487,
                    1842
                ],
                [
                    3490,
                    1991
                ]
            ],
            "shape_type": "rectangle"
        },
        {
            "flags": {},
            "group_id": null,
            "label": "a1-1",
            "points": [
                [
                    3615,
                    1872
                ],
                [
                    3635,
                    1958
                ]
            ],
            "shape_type": "rectangle"
        },
        {
            "flags": {},
            "group_id": null,
            "label": "g1",
            "points": [
                [
                    3638,
                    1841
                ],
                [
                    3640,
                    1991
                ]
            ],
            "shape_type": "rectangle"
        },
        {
            "flags": {},
            "group_id": null,
            "label": "a1-1",
            "points": [
                [
                    3646,
                    1873
                ],
                [
                    3667,
                    1959
                ]
            ],
            "shape_type": "rectangle"
        },
        {
            "flags": {},
            "group_id": null,
            "label": "g1",
            "points": [
                [
                    3668,
                    1843
                ],
                [
                    3672,
                    1991
                ]
            ],
            "shape_type": "rectangle"
        },
        {
            "flags": {},
            "group_id": null,
            "label": "g1",
            "points": [
                [
                    3790,
                    1842
                ],
                [
                    3792,
                    1991
                ]
            ],
            "shape_type": "rectangle"
        },
        {
            "flags": {},
            "group_id": null,
            "label": "a1-2",
            "points": [
                [
                    3795,
                    1873
                ],
                [
                    3815,
                    1961
                ]
            ],
            "shape_type": "rectangle"
        },
        {
            "flags": {},
            "group_id": null,
            "label": "g1",
            "points": [
                [
                    3816,
                    1843
                ],
                [
                    3819,
                    1991
                ]
            ],
            "shape_type": "rectangle"
        },
        {
            "flags": {},
            "group_id": null,
            "label": "a1-2",
            "points": [
                [
                    3821,
                    1872
                ],
                [
                    3841,
                    1959
                ]
            ],
            "shape_type": "rectangle"
        },
        {
            "flags": {},
            "group_id": null,
            "label": "seven",
            "points": [
                [
                    2790,
                    2962
                ]
            ],
            "shape_type": "point"
        },
        {
            "flags": {},
            "group_id": null,
            "label": "seven",
            "points": [
                [
                    2814,
                    2986
                ]
            ],
            "shape_type": "point"
        },
        {
            "flags": {},
            "group_id": null,
            "label": "eight",
            "points": [
                [
                    3114,
                    2987
                ]
            ],
            "shape_type": "point"
        },
        {
            "flags": {},
            "group_id": null,
            "label": "eight",
            "points": [
                [
                    3139,
                    2962
                ]
            ],
            "shape_type": "point"
        },
        {
            "flags": {},
            "group_id": null,
            "label": "fourteen",
            "points": [
                [
                    2790,
                    3287
                ]
            ],
            "shape_type": "point"
        },
        {
            "flags": {},
            "group_id": null,
            "label": "fourteen",
            "points": [
                [
                    2814,
                    3286
                ]
            ],
            "shape_type": "point"
        },
        {
            "flags": {},
            "group_id": null,
            "label": "fourteen",
            "points": [
                [
                    3116,
                    3287
                ]
            ],
            "shape_type": "point"
        },
        {
            "flags": {},
            "group_id": null,
            "label": "fourteen",
            "points": [
                [
                    3140,
                    3286
                ]
            ],
            "shape_type": "point"
        },
        {
            "flags": {},
            "group_id": null,
            "label": "twentytwo",
            "points": [
                [
                    3138,
                    3085
                ]
            ],
            "shape_type": "point"
        },
        {
            "flags": {},
            "group_id": null,
            "label": "twentythere",
            "points": [
                [
                    3115,
                    3116
                ]
            ],
            "shape_type": "point"
        },
        {
            "flags": {},
            "group_id": null,
            "label": "eleven",
            "points": [
                [
                    3115,
                    3085
                ]
            ],
            "shape_type": "point"
        },
        {
            "flags": {},
            "group_id": null,
            "label": "fifteen",
            "points": [
                [
                    3139,
                    3116
                ]
            ],
            "shape_type": "point"
        },
        {
            "flags": {},
            "group_id": null,
            "label": "d1",
            "points": [
                [
                    354,
                    1808
                ],
                [
                    438,
                    1945
                ]
            ],
            "shape_type": "rectangle"
        },
        {
            "flags": {},
            "group_id": null,
            "label": "three",
            "points": [
                [
                    441,
                    1909
                ]
            ],
            "shape_type": "point"
        },
        {
            "flags": {},
            "group_id": null,
            "label": "four",
            "points": [
                [
                    1042,
                    1909
                ]
            ],
            "shape_type": "point"
        },
        {
            "flags": {},
            "group_id": null,
            "label": "two",
            "points": [
                [
                    320,
                    1984
                ]
            ],
            "shape_type": "point"
        },
        {
            "flags": {},
            "group_id": null,
            "label": "one",
            "points": [
                [
                    320,
                    2585
                ]
            ],
            "shape_type": "point"
        },
        {
            "flags": {},
            "group_id": null,
            "label": "three",
            "points": [
                [
                    1168,
                    2077
                ]
            ],
            "shape_type": "point"
        },
        {
            "flags": {},
            "group_id": null,
            "label": "four",
            "points": [
                [
                    1469,
                    2077
                ]
            ],
            "shape_type": "point"
        },
        {
            "flags": {},
            "group_id": null,
            "label": "two",
            "points": [
                [
                    1554,
                    2141
                ]
            ],
            "shape_type": "point"
        },
        {
            "flags": {},
            "group_id": null,
            "label": "one",
            "points": [
                [
                    1554,
                    2642
                ]
            ],
            "shape_type": "point"
        },
        {
            "flags": {},
            "group_id": null,
            "label": "seven",
            "points": [
                [
                    1141,
                    2122
                ]
            ],
            "shape_type": "point"
        },
        {
            "flags": {},
            "group_id": null,
            "label": "seven",
            "points": [
                [
                    1166,
                    2146
                ]
            ],
            "shape_type": "point"
        },
        {
            "flags": {},
            "group_id": null,
            "label": "eight",
            "points": [
                [
                    1466,
                    2146
                ]
            ],
            "shape_type": "point"
        },
        {
            "flags": {},
            "group_id": null,
            "label": "eight",
            "points": [
                [
                    1490,
                    2122
                ]
            ],
            "shape_type": "point"
        },
        {
            "flags": {},
            "group_id": null,
            "label": "twentytwo",
            "points": [
                [
                    1142,
                    2246
                ]
            ],
            "shape_type": "point"
        },
        {
            "flags": {},
            "group_id": null,
            "label": "twentythere",
            "points": [
                [
                    1166,
                    2296
                ]
            ],
            "shape_type": "point"
        },
        {
            "flags": {},
            "group_id": null,
            "label": "twelve",
            "points": [
                [
                    1166,
                    2245
                ]
            ],
            "shape_type": "point"
        },
        {
            "flags": {},
            "group_id": null,
            "label": "eleven",
            "points": [
                [
                    1141,
                    2296
                ]
            ],
            "shape_type": "point"
        },
        {
            "flags": {},
            "group_id": null,
            "label": "nine",
            "points": [
                [
                    1166,
                    2647
                ]
            ],
            "shape_type": "point"
        },
        {
            "flags": {},
            "group_id": null,
            "label": "nine",
            "points": [
                [
                    1141,
                    2671
                ]
            ],
            "shape_type": "point"
        },
        {
            "flags": {},
            "group_id": null,
            "label": "ten",
            "points": [
                [
                    1466,
                    2647
                ]
            ],
            "shape_type": "point"
        },
        {
            "flags": {},
            "group_id": null,
            "label": "ten",
            "points": [
                [
                    1491,
                    2671
                ]
            ],
            "shape_type": "point"
        },
        {
            "flags": {},
            "group_id": null,
            "label": "p1-1",
            "points": [
                [
                    3431,
                    1842
                ],
                [
                    3842,
                    1992
                ]
            ],
            "shape_type": "rectangle"
        },
        {
            "flags": {},
            "group_id": null,
            "label": "p1-1",
            "points": [
                [
                    3433,
                    1605
                ],
                [
                    3844,
                    1753
                ]
            ],
            "shape_type": "rectangle"
        },
        {
            "flags": {},
            "group_id": null,
            "label": "btl",
            "points": [
                [
                    2348,
                    3868
                ],
                [
                    4153,
                    4164
                ]
            ],
            "shape_type": "rectangle"
        },
        {
            "flags": {},
            "group_id": null,
            "label": "sm",
            "points": [
                [
                    1796,
                    3051
                ],
                [
                    3432,
                    3721
                ]
            ],
            "shape_type": "rectangle"
        },
        {
            "flags": {},
            "group_id": null,
            "label": "wz4",
            "points": [
                [
                    2899,
                    3131
                ],
                [
                    3031,
                    3174
                ]
            ],
            "shape_type": "rectangle"
        },
        {
            "flags": {},
            "group_id": null,
            "label": "k1",
            "points": [
                [
                    3114,
                    3084
                ],
                [
                    3139,
                    3117
                ]
            ],
            "shape_type": "rectangle"
        },
        {
            "flags": {},
            "group_id": null,
            "label": "j1",
            "points": [
                [
                    2121,
                    1861
                ],
                [
                    2303,
                    1897
                ]
            ],
            "shape_type": "rectangle"
        },
        {
            "flags": {},
            "group_id": null,
            "label": "j1",
            "points": [
                [
                    2302,
                    1554
                ],
                [
                    2454,
                    1591
                ]
            ],
            "shape_type": "rectangle"
        },
        {
            "flags": {},
            "group_id": null,
            "label": "j1",
            "points": [
                [
                    2103,
                    1373
                ],
                [
                    2134,
                    1416
                ]
            ],
            "shape_type": "rectangle"
        },
        {
            "flags": {},
            "group_id": null,
            "label": "j1",
            "points": [
                [
                    1700,
                    1588
                ],
                [
                    1880,
                    1622
                ]
            ],
            "shape_type": "rectangle"
        },
        {
            "flags": {},
            "group_id": null,
            "label": "x2",
            "points": [
                [
                    1154,
                    2044
                ],
                [
                    1480,
                    2094
                ]
            ],
            "shape_type": "rectangle"
        },
        {
            "flags": {},
            "group_id": null,
            "label": "wz2",
            "points": [
                [
                    1273,
                    2045
                ],
                [
                    1363,
                    2073
                ]
            ],
            "shape_type": "rectangle"
        },
        {
            "flags": {},
            "group_id": null,
            "label": "x2",
            "points": [
                [
                    1519,
                    2128
                ],
                [
                    1567,
                    2655
                ]
            ],
            "shape_type": "rectangle"
        },
        {
            "flags": {},
            "group_id": null,
            "label": "wz2",
            "points": [
                [
                    1520,
                    2348
                ],
                [
                    1551,
                    2438
                ]
            ],
            "shape_type": "rectangle"
        },
        {
            "flags": {},
            "group_id": null,
            "label": "wz4",
            "points": [
                [
                    1260,
                    2363
                ],
                [
                    1386,
                    2409
                ]
            ],
            "shape_type": "rectangle"
        },
        {
            "flags": {},
            "group_id": null,
            "label": "k1",
            "points": [
                [
                    1140,
                    2246
                ],
                [
                    1164,
                    2295
                ]
            ],
            "shape_type": "rectangle"
        },
        {
            "flags": {},
            "group_id": null,
            "label": "x2",
            "points": [
                [
                    438,
                    1870
                ],
                [
                    1048,
                    1935
                ]
            ],
            "shape_type": "rectangle"
        },
        {
            "flags": {},
            "group_id": null,
            "label": "wz2",
            "points": [
                [
                    695,
                    1872
                ],
                [
                    787,
                    1902
                ]
            ],
            "shape_type": "rectangle"
        },
        {
            "flags": {},
            "group_id": null,
            "label": "x2",
            "points": [
                [
                    282,
                    1972
                ],
                [
                    355,
                    2594
                ]
            ],
            "shape_type": "rectangle"
        },
        {
            "flags": {},
            "group_id": null,
            "label": "wz2",
            "points": [
                [
                    283,
                    2238
                ],
                [
                    314,
                    2329
                ]
            ],
            "shape_type": "rectangle"
        },
        {
            "flags": {},
            "group_id": null,
            "label": "mask",
            "lineType": [
                "LLLLL"
            ],
            "points": [
                [
                    2338,
                    3858
                ],
                [
                    4163,
                    3858
                ],
                [
                    4163,
                    4174
                ],
                [
                    2338,
                    4174
                ]
            ],
            "shape_type": "polygon"
        },
        {
            "flags": {},
            "group_id": null,
            "label": "mask",
            "lineType": [
                "LLLLLLLLLLLLLLLLLLLLLLL"
            ],
            "points": [
                [
                    1786,
                    3041
                ],
                [
                    3442,
                    3041
                ],
                [
                    3442,
                    3731
                ],
                [
                    1786,
                    3731
                ]
            ],
            "shape_type": "polygon"
        },
        {
            "flags": {},
            "group_id": null,
            "label": "mask",
            "lineType": [
                "LLLLLLLLL"
            ],
            "points": [
                [
                    295,
                    3141
                ],
                [
                    1774,
                    3141
                ],
                [
                    1774,
                    4042
                ],
                [
                    295,
                    4042
                ]
            ],
            "shape_type": "polygon"
        },
        {
            "flags": {},
            "group_id": null,
            "label": "mask",
            "lineType": [
                "LLLLLLLLLLLLLLLLLLLLLLLLLLL"
            ],
            "points": [
                [
                    817,
                    2810
                ],
                [
                    1094,
                    2813
                ],
                [
                    1112,
                    2693
                ],
                [
                    1598,
                    2681
                ],
                [
                    1587,
                    2442
                ],
                [
                    1561,
                    2303
                ],
                [
                    1560,
                    2273
                ],
                [
                    1563,
                    2263
                ],
                [
                    1567,
                    2172
                ],
                [
                    1579,
                    2111
                ],
                [
                    1579,
                    2043
                ],
                [
                    1585,
                    1802
                ],
                [
                    1425,
                    1789
                ],
                [
                    1234,
                    1862
                ],
                [
                    1167,
                    1865
                ],
                [
                    1109,
                    1860
                ],
                [
                    1052,
                    1865
                ],
                [
                    984,
                    1865
                ],
                [
                    683,
                    1828
                ],
                [
                    492,
                    1847
                ],
                [
                    475,
                    1792
                ],
                [
                    342,
                    1781
                ],
                [
                    263,
                    1972
                ],
                [
                    262,
                    2212
                ],
                [
                    266,
                    2502
                ],
                [
                    294,
                    2632
                ],
                [
                    817,
                    2810
                ]
            ],
            "shape_type": "polygon"
        },
        {
            "flags": {},
            "group_id": null,
            "label": "mask",
            "lineType": [
                "LLLLLLLLLLLL"
            ],
            "points": [
                [
                    1689,
                    1361
                ],
                [
                    2465,
                    1361
                ],
                [
                    2465,
                    1919
                ],
                [
                    1689,
                    1919
                ]
            ],
            "shape_type": "polygon"
        },
        {
            "flags": {},
            "group_id": null,
            "label": "mask",
            "lineType": [
                "LLLLLLLLLLLLLLLLLLLLLLLLLLLLL"
            ],
            "points": [
                [
                    1837,
                    2839
                ],
                [
                    1866,
                    2903
                ],
                [
                    2159,
                    2905
                ],
                [
                    2212,
                    2818
                ],
                [
                    2376,
                    2778
                ],
                [
                    2419,
                    2725
                ],
                [
                    2428,
                    2645
                ],
                [
                    2412,
                    2522
                ],
                [
                    2405,
                    2416
                ],
                [
                    2403,
                    2319
                ],
                [
                    2408,
                    2259
                ],
                [
                    2463,
                    2226
                ],
                [
                    2505,
                    2219
                ],
                [
                    2506,
                    2163
                ],
                [
                    2491,
                    2126
                ],
                [
                    2075,
                    2122
                ],
                [
                    1771,
                    2139
                ],
                [
                    1591,
                    2178
                ],
                [
                    1572,
                    2223
                ],
                [
                    1568,
                    2231
                ],
                [
                    1566,
                    2247
                ],
                [
                    1566,
                    2260
                ],
                [
                    1587,
                    2331
                ],
                [
                    1625,
                    2376
                ],
                [
                    1689,
                    2419
                ],
                [
                    1731,
                    2465
                ],
                [
                    1807,
                    2622
                ],
                [
                    1824,
                    2717
                ],
                [
                    1837,
                    2839
                ]
            ],
            "shape_type": "polygon"
        },
        {
            "flags": {},
            "group_id": null,
            "label": "mask",
            "lineType": [
                "LLLLLLLLLLLLLLLLLLLLLLL"
            ],
            "points": [
                [
                    2706,
                    2887
                ],
                [
                    2956,
                    2900
                ],
                [
                    2999,
                    2873
                ],
                [
                    3018,
                    2802
                ],
                [
                    3056,
                    2626
                ],
                [
                    3146,
                    2456
                ],
                [
                    3199,
                    2391
                ],
                [
                    3297,
                    2361
                ],
                [
                    3306,
                    2311
                ],
                [
                    3293,
                    2251
                ],
                [
                    3178,
                    2192
                ],
                [
                    3083,
                    2153
                ],
                [
                    2858,
                    2102
                ],
                [
                    2683,
                    2103
                ],
                [
                    2598,
                    2142
                ],
                [
                    2547,
                    2203
                ],
                [
                    2526,
                    2260
                ],
                [
                    2478,
                    2302
                ],
                [
                    2532,
                    2488
                ],
                [
                    2603,
                    2551
                ],
                [
                    2619,
                    2630
                ],
                [
                    2602,
                    2750
                ],
                [
                    2706,
                    2887
                ]
            ],
            "shape_type": "polygon"
        },
        {
            "flags": {},
            "group_id": null,
            "label": "mask",
            "lineType": [
                "LLLLLLLLLLLLLLLLLLLLLLLLLLLLLLLLLLLLLLLLLLLLLLLLLLLLLL"
            ],
            "points": [
                [
                    1786,
                    3041
                ],
                [
                    3442,
                    3041
                ],
                [
                    3442,
                    3731
                ],
                [
                    1786,
                    3731
                ]
            ],
            "shape_type": "polygon"
        },
        {
            "flags": {},
            "group_id": null,
            "label": "Ns",
            "points": [
                [
                    2073,
                    1668
                ]
            ],
            "shape_type": "point"
        },
        {
            "flags": {},
            "group_id": null,
            "label": "Ne",
            "points": [
                [
                    2073,
                    1490
                ]
            ],
            "shape_type": "point"
        },
        {
            "flags": {},
            "group_id": null,
            "label": "wlb",
            "points": [
                [
                    305,
                    3151
                ],
                [
                    1764,
                    4032
                ]
            ],
            "shape_type": "rectangle"
        },
        {
            "flags": {},
            "group_id": null,
            "label": "wz3",
            "points": [
                [
                    3126,
                    1899
                ],
                [
                    3270,
                    1969
                ]
            ],
            "shape_type": "rectangle"
        },
        {
            "flags": {},
            "group_id": null,
            "label": "wz3",
            "points": [
                [
                    2914,
                    1688
                ],
                [
                    3273,
                    1733
                ]
            ],
            "shape_type": "rectangle"
        },
        {
            "flags": {},
            "group_id": null,
            "label": "wz1",
            "points": [
                [
                    3726,
                    1439
                ],
                [
                    3819,
                    1487
                ]
            ],
            "shape_type": "rectangle"
        },
        {
            "flags": {},
            "group_id": null,
            "label": "wz3",
            "points": [
                [
                    3076,
                    2202
                ],
                [
                    3116,
                    2228
                ]
            ],
            "shape_type": "rectangle"
        },
        {
            "flags": {},
            "group_id": null,
            "label": "wz1",
            "points": [
                [
                    3153,
                    2286
                ],
                [
                    3273,
                    2340
                ]
            ],
            "shape_type": "rectangle"
        },
        {
            "flags": {},
            "group_id": null,
            "label": "wz1",
            "points": [
                [
                    2638,
                    2695
                ],
                [
                    2756,
                    2749
                ]
            ],
            "shape_type": "rectangle"
        },
        {
            "flags": {},
            "group_id": null,
            "label": "wz3",
            "points": [
                [
                    2912,
                    2703
                ],
                [
                    2951,
                    2726
                ]
            ],
            "shape_type": "rectangle"
        },
        {
            "flags": {},
            "group_id": null,
            "label": "wz3",
            "points": [
                [
                    2495,
                    2322
                ],
                [
                    2533,
                    2345
                ]
            ],
            "shape_type": "rectangle"
        },
        {
            "flags": {},
            "group_id": null,
            "label": "wz1",
            "points": [
                [
                    2625,
                    2161
                ],
                [
                    2745,
                    2214
                ]
            ],
            "shape_type": "rectangle"
        },
        {
            "flags": {},
            "group_id": null,
            "label": "wz3",
            "points": [
                [
                    2187,
                    2171
                ],
                [
                    2483,
                    2248
                ]
            ],
            "shape_type": "rectangle"
        },
        {
            "flags": {},
            "group_id": null,
            "label": "wz3",
            "points": [
                [
                    2286,
                    2357
                ],
                [
                    2329,
                    2393
                ]
            ],
            "shape_type": "rectangle"
        },
        {
            "flags": {},
            "group_id": null,
            "label": "wz3",
            "points": [
                [
                    2081,
                    2701
                ],
                [
                    2373,
                    2771
                ]
            ],
            "shape_type": "rectangle"
        },
        {
            "flags": {},
            "group_id": null,
            "label": "wz3",
            "points": [
                [
                    1901,
                    2720
                ],
                [
                    1946,
                    2753
                ]
            ],
            "shape_type": "rectangle"
        },
        {
            "flags": {},
            "group_id": null,
            "label": "wz3",
            "points": [
                [
                    1569,
                    2226
                ],
                [
                    1863,
                    2261
                ]
            ],
            "shape_type": "rectangle"
        },
        {
            "flags": {},
            "group_id": null,
            "label": "wz3",
            "points": [
                [
                    1596,
                    2294
                ],
                [
                    1737,
                    2328
                ]
            ],
            "shape_type": "rectangle"
        },
        {
            "flags": {},
            "group_id": null,
            "label": "wz3",
            "points": [
                [
                    1796,
                    2265
                ],
                [
                    1842,
                    2297
                ]
            ],
            "shape_type": "rectangle"
        },
        {
            "flags": {},
            "group_id": null,
            "label": "wz3",
            "points": [
                [
                    1978,
                    1944
                ],
                [
                    2138,
                    1974
                ]
            ],
            "shape_type": "rectangle"
        }
    ],
    "version": "4.5.7"
}