{
    "flags": {},
    "imageData": null,
    "imageHeight": 4205,
    "imagePath": "样本5_61_19.png",
    "imageWidth": 4205,
    "shapes": [
        {
            "flags": {},
            "group_id": null,
            "label": "t1",
            "points": [
                [
                    3448,
                    1623
                ],
                [
                    3632,
                    3658
                ]
            ],
            "shape_type": "rectangle"
        },
        {
            "flags": {},
            "group_id": null,
            "label": "c1",
            "points": [
                [
                    3538,
                    1622
                ],
                [
                    3542,
                    1783
                ]
            ],
            "shape_type": "rectangle"
        },
        {
            "flags": {},
            "group_id": null,
            "label": "d1",
            "points": [
                [
                    3351,
                    1740
                ],
                [
                    3434,
                    1879
                ]
            ],
            "shape_type": "rectangle"
        },
        {
            "flags": {},
            "group_id": null,
            "label": "d1",
            "points": [
                [
                    3662,
                    1741
                ],
                [
                    3747,
                    1878
                ]
            ],
            "shape_type": "rectangle"
        },
        {
            "flags": {},
            "group_id": null,
            "label": "h1",
            "points": [
                [
                    3846,
                    1722
                ],
                [
                    3978,
                    1784
                ]
            ],
            "shape_type": "rectangle"
        },
        {
            "flags": {},
            "group_id": null,
            "label": "h1",
            "points": [
                [
                    3846,
                    1867
                ],
                [
                    3977,
                    1931
                ]
            ],
            "shape_type": "rectangle"
        },
        {
            "flags": {},
            "group_id": null,
            "label": "d1",
            "points": [
                [
                    3665,
                    1970
                ],
                [
                    3749,
                    2109
                ]
            ],
            "shape_type": "rectangle"
        },
        {
            "flags": {},
            "group_id": null,
            "label": "h1",
            "points": [
                [
                    3844,
                    2077
                ],
                [
                    3976,
                    2142
                ]
            ],
            "shape_type": "rectangle"
        },
        {
            "flags": {},
            "group_id": null,
            "label": "d1",
            "points": [
                [
                    3683,
                    2203
                ],
                [
                    3768,
                    2342
                ]
            ],
            "shape_type": "rectangle"
        },
        {
            "flags": {},
            "group_id": null,
            "label": "h1",
            "points": [
                [
                    3839,
                    2313
                ],
                [
                    3971,
                    2376
                ]
            ],
            "shape_type": "rectangle"
        },
        {
            "flags": {},
            "group_id": null,
            "label": "d1",
            "points": [
                [
                    3321,
                    2203
                ],
                [
                    3407,
                    2341
                ]
            ],
            "shape_type": "rectangle"
        },
        {
            "flags": {},
            "group_id": null,
            "label": "d1",
            "points": [
                [
                    3336,
                    1969
                ],
                [
                    3421,
                    2108
                ]
            ],
            "shape_type": "rectangle"
        },
        {
            "flags": {},
            "group_id": null,
            "label": "a1-1",
            "points": [
                [
                    3454,
                    1832
                ],
                [
                    3481,
                    1936
                ]
            ],
            "shape_type": "rectangle"
        },
        {
            "flags": {},
            "group_id": null,
            "label": "g1",
            "points": [
                [
                    3480,
                    1807
                ],
                [
                    3484,
                    1955
                ]
            ],
            "shape_type": "rectangle"
        },
        {
            "flags": {},
            "group_id": null,
            "label": "g1",
            "points": [
                [
                    3596,
                    1806
                ],
                [
                    3600,
                    1955
                ]
            ],
            "shape_type": "rectangle"
        },
        {
            "flags": {},
            "group_id": null,
            "label": "a1-2",
            "points": [
                [
                    3600,
                    1832
                ],
                [
                    3630,
                    1936
                ]
            ],
            "shape_type": "rectangle"
        },
        {
            "flags": {},
            "group_id": null,
            "label": "p1-1",
            "points": [
                [
                    3455,
                    1806
                ],
                [
                    3630,
                    1956
                ]
            ],
            "shape_type": "rectangle"
        },
        {
            "flags": {},
            "group_id": null,
            "label": "a1-1",
            "points": [
                [
                    3452,
                    2034
                ],
                [
                    3480,
                    2138
                ]
            ],
            "shape_type": "rectangle"
        },
        {
            "flags": {},
            "group_id": null,
            "label": "g1",
            "points": [
                [
                    3480,
                    2013
                ],
                [
                    3484,
                    2161
                ]
            ],
            "shape_type": "rectangle"
        },
        {
            "flags": {},
            "group_id": null,
            "label": "g1",
            "points": [
                [
                    3596,
                    2013
                ],
                [
                    3600,
                    2161
                ]
            ],
            "shape_type": "rectangle"
        },
        {
            "flags": {},
            "group_id": null,
            "label": "a1-2",
            "points": [
                [
                    3600,
                    2034
                ],
                [
                    3629,
                    2138
                ]
            ],
            "shape_type": "rectangle"
        },
        {
            "flags": {},
            "group_id": null,
            "label": "p1-1",
            "points": [
                [
                    3452,
                    2013
                ],
                [
                    3629,
                    2161
                ]
            ],
            "shape_type": "rectangle"
        },
        {
            "flags": {},
            "group_id": null,
            "label": "a1-1",
            "points": [
                [
                    3452,
                    2266
                ],
                [
                    3481,
                    2372
                ]
            ],
            "shape_type": "rectangle"
        },
        {
            "flags": {},
            "group_id": null,
            "label": "g1",
            "points": [
                [
                    3481,
                    2247
                ],
                [
                    3484,
                    2395
                ]
            ],
            "shape_type": "rectangle"
        },
        {
            "flags": {},
            "group_id": null,
            "label": "g1",
            "points": [
                [
                    3596,
                    2247
                ],
                [
                    3600,
                    2395
                ]
            ],
            "shape_type": "rectangle"
        },
        {
            "flags": {},
            "group_id": null,
            "label": "a1-2",
            "points": [
                [
                    3600,
                    2267
                ],
                [
                    3628,
                    2370
                ]
            ],
            "shape_type": "rectangle"
        },
        {
            "flags": {},
            "group_id": null,
            "label": "p1-1",
            "points": [
                [
                    3452,
                    2247
                ],
                [
                    3628,
                    2396
                ]
            ],
            "shape_type": "rectangle"
        },
        {
            "flags": {},
            "group_id": null,
            "label": "x1",
            "points": [
                [
                    3382,
                    2905
                ],
                [
                    3670,
                    2951
                ]
            ],
            "shape_type": "rectangle"
        },
        {
            "flags": {},
            "group_id": null,
            "label": "h1",
            "points": [
                [
                    3845,
                    3592
                ],
                [
                    3975,
                    3659
                ]
            ],
            "shape_type": "rectangle"
        },
        {
            "flags": {},
            "group_id": null,
            "label": "v1",
            "points": [
                [
                    3152,
                    3719
                ],
                [
                    3484,
                    3810
                ]
            ],
            "shape_type": "rectangle"
        },
        {
            "flags": {},
            "group_id": null,
            "label": "b1",
            "points": [
                [
                    2869,
                    3374
                ],
                [
                    3190,
                    3658
                ]
            ],
            "shape_type": "rectangle"
        },
        {
            "flags": {},
            "group_id": null,
            "label": "seven",
            "points": [
                [
                    2869,
                    3374
                ]
            ],
            "shape_type": "point"
        },
        {
            "flags": {},
            "group_id": null,
            "label": "thirteen",
            "points": [
                [
                    2976,
                    3374
                ]
            ],
            "shape_type": "point"
        },
        {
            "flags": {},
            "group_id": null,
            "label": "thirteen",
            "points": [
                [
                    3083,
                    3373
                ]
            ],
            "shape_type": "point"
        },
        {
            "flags": {},
            "group_id": null,
            "label": "eight",
            "points": [
                [
                    3190,
                    3373
                ]
            ],
            "shape_type": "point"
        },
        {
            "flags": {},
            "group_id": null,
            "label": "eleven",
            "points": [
                [
                    2869,
                    3384
                ]
            ],
            "shape_type": "point"
        },
        {
            "flags": {},
            "group_id": null,
            "label": "twelve",
            "points": [
                [
                    3190,
                    3384
                ]
            ],
            "shape_type": "point"
        },
        {
            "flags": {},
            "group_id": null,
            "label": "eleven",
            "points": [
                [
                    2869,
                    3595
                ]
            ],
            "shape_type": "point"
        },
        {
            "flags": {},
            "group_id": null,
            "label": "eleven",
            "points": [
                [
                    2869,
                    3604
                ]
            ],
            "shape_type": "point"
        },
        {
            "flags": {},
            "group_id": null,
            "label": "eleven",
            "points": [
                [
                    2869,
                    3621
                ]
            ],
            "shape_type": "point"
        },
        {
            "flags": {},
            "group_id": null,
            "label": "fourteen",
            "points": [
                [
                    2869,
                    3658
                ]
            ],
            "shape_type": "point"
        },
        {
            "flags": {},
            "group_id": null,
            "label": "fifteen",
            "points": [
                [
                    2976,
                    3604
                ]
            ],
            "shape_type": "point"
        },
        {
            "flags": {},
            "group_id": null,
            "label": "fourteen",
            "points": [
                [
                    2976,
                    3621
                ]
            ],
            "shape_type": "point"
        },
        {
            "flags": {},
            "group_id": null,
            "label": "fifteen",
            "points": [
                [
                    3083,
                    3604
                ]
            ],
            "shape_type": "point"
        },
        {
            "flags": {},
            "group_id": null,
            "label": "fourteen",
            "points": [
                [
                    3083,
                    3621
                ]
            ],
            "shape_type": "point"
        },
        {
            "flags": {},
            "group_id": null,
            "label": "twelve",
            "points": [
                [
                    3190,
                    3621
                ]
            ],
            "shape_type": "point"
        },
        {
            "flags": {},
            "group_id": null,
            "label": "twelve",
            "points": [
                [
                    3190,
                    3603
                ]
            ],
            "shape_type": "point"
        },
        {
            "flags": {},
            "group_id": null,
            "label": "v1",
            "points": [
                [
                    2219,
                    3469
                ],
                [
                    2553,
                    3561
                ]
            ],
            "shape_type": "rectangle"
        },
        {
            "flags": {},
            "group_id": null,
            "label": "va1",
            "points": [
                [
                    2504,
                    3403
                ],
                [
                    2545,
                    3444
                ]
            ],
            "shape_type": "rectangle"
        },
        {
            "flags": {},
            "group_id": null,
            "label": "va1",
            "points": [
                [
                    2223,
                    3399
                ],
                [
                    2260,
                    3443
                ]
            ],
            "shape_type": "rectangle"
        },
        {
            "flags": {},
            "group_id": null,
            "label": "va1",
            "points": [
                [
                    2361,
                    3164
                ],
                [
                    2405,
                    3198
                ]
            ],
            "shape_type": "rectangle"
        },
        {
            "flags": {},
            "group_id": null,
            "label": "vp1-1",
            "points": [
                [
                    2299,
                    3258
                ],
                [
                    2465,
                    3424
                ]
            ],
            "shape_type": "rectangle"
        },
        {
            "flags": {},
            "group_id": null,
            "label": "v1",
            "points": [
                [
                    2219,
                    2698
                ],
                [
                    2552,
                    2790
                ]
            ],
            "shape_type": "rectangle"
        },
        {
            "flags": {},
            "group_id": null,
            "label": "va1",
            "points": [
                [
                    2497,
                    2636
                ],
                [
                    2540,
                    2672
                ]
            ],
            "shape_type": "rectangle"
        },
        {
            "flags": {},
            "group_id": null,
            "label": "va1",
            "points": [
                [
                    2222,
                    2619
                ],
                [
                    2259,
                    2661
                ]
            ],
            "shape_type": "rectangle"
        },
        {
            "flags": {},
            "group_id": null,
            "label": "va1",
            "points": [
                [
                    2372,
                    2389
                ],
                [
                    2413,
                    2431
                ]
            ],
            "shape_type": "rectangle"
        },
        {
            "flags": {},
            "group_id": null,
            "label": "vp1-1",
            "points": [
                [
                    2299,
                    2486
                ],
                [
                    2465,
                    2652
                ]
            ],
            "shape_type": "rectangle"
        },
        {
            "flags": {},
            "group_id": null,
            "label": "v1",
            "points": [
                [
                    2217,
                    1916
                ],
                [
                    2551,
                    2009
                ]
            ],
            "shape_type": "rectangle"
        },
        {
            "flags": {},
            "group_id": null,
            "label": "va1",
            "points": [
                [
                    2497,
                    1854
                ],
                [
                    2540,
                    1890
                ]
            ],
            "shape_type": "rectangle"
        },
        {
            "flags": {},
            "group_id": null,
            "label": "va1",
            "points": [
                [
                    2223,
                    1837
                ],
                [
                    2259,
                    1881
                ]
            ],
            "shape_type": "rectangle"
        },
        {
            "flags": {},
            "group_id": null,
            "label": "va1",
            "points": [
                [
                    2372,
                    1607
                ],
                [
                    2413,
                    1651
                ]
            ],
            "shape_type": "rectangle"
        },
        {
            "flags": {},
            "group_id": null,
            "label": "vp1-1",
            "points": [
                [
                    2299,
                    1705
                ],
                [
                    2465,
                    1870
                ]
            ],
            "shape_type": "rectangle"
        },
        {
            "flags": {},
            "group_id": null,
            "label": "n1",
            "points": [
                [
                    1493,
                    1467
                ],
                [
                    1909,
                    1794
                ]
            ],
            "shape_type": "rectangle"
        },
        {
            "flags": {},
            "group_id": null,
            "label": "d1",
            "points": [
                [
                    1129,
                    1691
                ],
                [
                    1214,
                    1830
                ]
            ],
            "shape_type": "rectangle"
        },
        {
            "flags": {},
            "group_id": null,
            "label": "v1",
            "points": [
                [
                    723,
                    1806
                ],
                [
                    940,
                    1879
                ]
            ],
            "shape_type": "rectangle"
        },
        {
            "flags": {},
            "group_id": null,
            "label": "d1",
            "points": [
                [
                    449,
                    1693
                ],
                [
                    534,
                    1830
                ]
            ],
            "shape_type": "rectangle"
        },
        {
            "flags": {},
            "group_id": null,
            "label": "vt1",
            "points": [
                [
                    1037,
                    1580
                ],
                [
                    1146,
                    1690
                ]
            ],
            "shape_type": "rectangle"
        },
        {
            "flags": {},
            "group_id": null,
            "label": "vb1",
            "points": [
                [
                    524,
                    1573
                ],
                [
                    836,
                    1696
                ]
            ],
            "shape_type": "rectangle"
        },
        {
            "flags": {},
            "group_id": null,
            "label": "seven",
            "points": [
                [
                    545,
                    1590
                ]
            ],
            "shape_type": "point"
        },
        {
            "flags": {},
            "group_id": null,
            "label": "thirteen",
            "points": [
                [
                    636,
                    1590
                ]
            ],
            "shape_type": "point"
        },
        {
            "flags": {},
            "group_id": null,
            "label": "thirteen",
            "points": [
                [
                    726,
                    1590
                ]
            ],
            "shape_type": "point"
        },
        {
            "flags": {},
            "group_id": null,
            "label": "eight",
            "points": [
                [
                    816,
                    1590
                ]
            ],
            "shape_type": "point"
        },
        {
            "flags": {},
            "group_id": null,
            "label": "twelve",
            "points": [
                [
                    816,
                    1670
                ]
            ],
            "shape_type": "point"
        },
        {
            "flags": {},
            "group_id": null,
            "label": "ten",
            "points": [
                [
                    816,
                    1680
                ]
            ],
            "shape_type": "point"
        },
        {
            "flags": {},
            "group_id": null,
            "label": "fourteen",
            "points": [
                [
                    726,
                    1680
                ]
            ],
            "shape_type": "point"
        },
        {
            "flags": {},
            "group_id": null,
            "label": "fifteen",
            "points": [
                [
                    726,
                    1670
                ]
            ],
            "shape_type": "point"
        },
        {
            "flags": {},
            "group_id": null,
            "label": "fifteen",
            "points": [
                [
                    636,
                    1670
                ]
            ],
            "shape_type": "point"
        },
        {
            "flags": {},
            "group_id": null,
            "label": "fourteen",
            "points": [
                [
                    636,
                    1680
                ]
            ],
            "shape_type": "point"
        },
        {
            "flags": {},
            "group_id": null,
            "label": "nine",
            "points": [
                [
                    545,
                    1680
                ]
            ],
            "shape_type": "point"
        },
        {
            "flags": {},
            "group_id": null,
            "label": "eleven",
            "points": [
                [
                    545,
                    1670
                ]
            ],
            "shape_type": "point"
        },
        {
            "flags": {},
            "group_id": null,
            "label": "three",
            "points": [
                [
                    836,
                    1523
                ]
            ],
            "shape_type": "point"
        },
        {
            "flags": {},
            "group_id": null,
            "label": "four",
            "points": [
                [
                    1037,
                    1524
                ]
            ],
            "shape_type": "point"
        },
        {
            "flags": {},
            "group_id": null,
            "label": "nine",
            "points": [
                [
                    526,
                    1696
                ]
            ],
            "shape_type": "point"
        },
        {
            "flags": {},
            "group_id": null,
            "label": "ten",
            "points": [
                [
                    836,
                    1697
                ]
            ],
            "shape_type": "point"
        },
        {
            "flags": {},
            "group_id": null,
            "label": "eight",
            "points": [
                [
                    836,
                    1572
                ]
            ],
            "shape_type": "point"
        },
        {
            "flags": {},
            "group_id": null,
            "label": "seven",
            "points": [
                [
                    525,
                    1572
                ]
            ],
            "shape_type": "point"
        },
        {
            "flags": {},
            "group_id": null,
            "label": "fourteen",
            "points": [
                [
                    3190,
                    3658
                ]
            ],
            "shape_type": "point"
        },
        {
            "flags": {},
            "group_id": null,
            "label": "twelve",
            "points": [
                [
                    3190,
                    3596
                ]
            ],
            "shape_type": "point"
        },
        {
            "flags": {},
            "group_id": null,
            "label": "wz2",
            "points": [
                [
                    889,
                    1488
                ],
                [
                    983,
                    1517
                ]
            ],
            "shape_type": "rectangle"
        },
        {
            "flags": {},
            "group_id": null,
            "label": "x2",
            "points": [
                [
                    826,
                    1486
                ],
                [
                    1049,
                    1534
                ]
            ],
            "shape_type": "rectangle"
        },
        {
            "flags": {},
            "group_id": null,
            "label": "sm",
            "points": [
                [
                    396,
                    2003
                ],
                [
                    1669,
                    2691
                ]
            ],
            "shape_type": "rectangle"
        },
        {
            "flags": {},
            "group_id": null,
            "label": "j1",
            "points": [
                [
                    1797,
                    1651
                ],
                [
                    1907,
                    1735
                ]
            ],
            "shape_type": "rectangle"
        },
        {
            "flags": {},
            "group_id": null,
            "label": "j1",
            "points": [
                [
                    1699,
                    1534
                ],
                [
                    1764,
                    1614
                ]
            ],
            "shape_type": "rectangle"
        },
        {
            "flags": {},
            "group_id": null,
            "label": "j1",
            "points": [
                [
                    1492,
                    1673
                ],
                [
                    1604,
                    1754
                ]
            ],
            "shape_type": "rectangle"
        },
        {
            "flags": {},
            "group_id": null,
            "label": "j1",
            "points": [
                [
                    1642,
                    1469
                ],
                [
                    1666,
                    1513
                ]
            ],
            "shape_type": "rectangle"
        },
        {
            "flags": {},
            "group_id": null,
            "label": "btl",
            "points": [
                [
                    2347,
                    3863
                ],
                [
                    4153,
                    4170
                ]
            ],
            "shape_type": "rectangle"
        },
        {
            "flags": {},
            "group_id": null,
            "label": "mask",
            "lineType": [
                "LLLLLLLLLLLLLLLLLLLLLLL"
            ],
            "points": [
                [
                    833,
                    1906
                ],
                [
                    943,
                    1903
                ],
                [
                    985,
                    1866
                ],
                [
                    1222,
                    1845
                ],
                [
                    1226,
                    1825
                ],
                [
                    1233,
                    1778
                ],
                [
                    1234,
                    1691
                ],
                [
                    1167,
                    1571
                ],
                [
                    1146,
                    1544
                ],
                [
                    1100,
                    1504
                ],
                [
                    1029,
                    1482
                ],
                [
                    930,
                    1476
                ],
                [
                    854,
                    1475
                ],
                [
                    793,
                    1487
                ],
                [
                    740,
                    1508
                ],
                [
                    586,
                    1533
                ],
                [
                    490,
                    1545
                ],
                [
                    459,
                    1569
                ],
                [
                    438,
                    1652
                ],
                [
                    432,
                    1722
                ],
                [
                    420,
                    1794
                ],
                [
                    437,
                    1859
                ],
                [
                    833,
                    1906
                ]
            ],
            "shape_type": "polygon"
        },
        {
            "flags": {},
            "group_id": null,
            "label": "mask",
            "lineType": [
                "LLLLLLLLLLLLLLLLLLLLLL"
            ],
            "points": [
                [
                    386,
                    1993
                ],
                [
                    1679,
                    1993
                ],
                [
                    1679,
                    2701
                ],
                [
                    386,
                    2701
                ]
            ],
            "shape_type": "polygon"
        },
        {
            "flags": {},
            "group_id": null,
            "label": "mask",
            "lineType": [
                "LLLLLLLLL"
            ],
            "points": [
                [
                    466,
                    2768
                ],
                [
                    1878,
                    2768
                ],
                [
                    1878,
                    4111
                ],
                [
                    466,
                    4111
                ]
            ],
            "shape_type": "polygon"
        },
        {
            "flags": {},
            "group_id": null,
            "label": "mask",
            "lineType": [
                "LLLLLLLLLLLLLLLLLLLLLLLL"
            ],
            "points": [
                [
                    2545,
                    3585
                ],
                [
                    2582,
                    3569
                ],
                [
                    2609,
                    3483
                ],
                [
                    2659,
                    3435
                ],
                [
                    2683,
                    3413
                ],
                [
                    2697,
                    3393
                ],
                [
                    2695,
                    3355
                ],
                [
                    2695,
                    3313
                ],
                [
                    2666,
                    3260
                ],
                [
                    2514,
                    3217
                ],
                [
                    2484,
                    3097
                ],
                [
                    2474,
                    3068
                ],
                [
                    2429,
                    3057
                ],
                [
                    2323,
                    3057
                ],
                [
                    2306,
                    3077
                ],
                [
                    2293,
                    3133
                ],
                [
                    2291,
                    3198
                ],
                [
                    2197,
                    3273
                ],
                [
                    2087,
                    3299
                ],
                [
                    2061,
                    3313
                ],
                [
                    2054,
                    3376
                ],
                [
                    2060,
                    3440
                ],
                [
                    2153,
                    3575
                ],
                [
                    2545,
                    3585
                ]
            ],
            "shape_type": "polygon"
        },
        {
            "flags": {},
            "group_id": null,
            "label": "mask",
            "lineType": [
                "LLLLL"
            ],
            "points": [
                [
                    2337,
                    3853
                ],
                [
                    4163,
                    3853
                ],
                [
                    4163,
                    4180
                ],
                [
                    2337,
                    4180
                ]
            ],
            "shape_type": "polygon"
        },
        {
            "flags": {},
            "group_id": null,
            "label": "mask",
            "lineType": [
                "LLLLLLLLLLLLLLLLLLLLLLLLLLLLLLLLLLLLLLLLLLLLLLLLLLLL"
            ],
            "points": [
                [
                    3967,
                    3730
                ],
                [
                    4023,
                    3706
                ],
                [
                    4041,
                    3676
                ],
                [
                    4033,
                    3638
                ],
                [
                    4017,
                    3601
                ],
                [
                    3960,
                    3571
                ],
                [
                    3851,
                    3554
                ],
                [
                    3767,
                    3518
                ],
                [
                    3724,
                    3223
                ],
                [
                    3872,
                    3196
                ],
                [
                    3906,
                    3089
                ],
                [
                    3741,
                    3069
                ],
                [
                    3691,
                    3059
                ],
                [
                    3707,
                    2975
                ],
                [
                    3733,
                    2716
                ],
                [
                    3716,
                    2418
                ],
                [
                    3861,
                    2422
                ],
                [
                    3955,
                    2425
                ],
                [
                    3988,
                    2403
                ],
                [
                    3995,
                    2354
                ],
                [
                    4025,
                    2110
                ],
                [
                    4016,
                    1802
                ],
                [
                    4012,
                    1705
                ],
                [
                    3937,
                    1650
                ],
                [
                    3795,
                    1584
                ],
                [
                    3743,
                    1547
                ],
                [
                    3602,
                    1521
                ],
                [
                    3537,
                    1561
                ],
                [
                    3394,
                    1627
                ],
                [
                    3313,
                    1701
                ],
                [
                    3239,
                    1768
                ],
                [
                    3122,
                    1801
                ],
                [
                    3115,
                    1853
                ],
                [
                    3107,
                    2059
                ],
                [
                    3111,
                    2337
                ],
                [
                    3178,
                    2439
                ],
                [
                    3409,
                    2433
                ],
                [
                    3367,
                    2838
                ],
                [
                    3359,
                    2972
                ],
                [
                    3362,
                    3301
                ],
                [
                    3270,
                    3320
                ],
                [
                    2842,
                    3345
                ],
                [
                    2834,
                    3396
                ],
                [
                    2814,
                    3607
                ],
                [
                    2717,
                    3618
                ],
                [
                    2682,
                    3632
                ],
                [
                    2692,
                    3723
                ],
                [
                    2686,
                    3759
                ],
                [
                    3049,
                    3825
                ],
                [
                    3499,
                    3836
                ],
                [
                    3536,
                    3723
                ],
                [
                    3967,
                    3730
                ]
            ],
            "shape_type": "polygon"
        },
        {
            "flags": {},
            "group_id": null,
            "label": "mask",
            "lineType": [
                "LLLLLLLLLLLLLLLLLLL"
            ],
            "points": [
                [
                    2557,
                    2822
                ],
                [
                    2597,
                    2788
                ],
                [
                    2700,
                    2645
                ],
                [
                    2692,
                    2559
                ],
                [
                    2675,
                    2508
                ],
                [
                    2477,
                    2315
                ],
                [
                    2460,
                    2291
                ],
                [
                    2327,
                    2279
                ],
                [
                    2305,
                    2292
                ],
                [
                    2290,
                    2358
                ],
                [
                    2253,
                    2460
                ],
                [
                    2170,
                    2488
                ],
                [
                    2104,
                    2507
                ],
                [
                    2081,
                    2522
                ],
                [
                    2061,
                    2575
                ],
                [
                    2049,
                    2663
                ],
                [
                    2090,
                    2758
                ],
                [
                    2154,
                    2801
                ],
                [
                    2557,
                    2822
                ]
            ],
            "shape_type": "polygon"
        },
        {
            "flags": {},
            "group_id": null,
            "label": "mask",
            "lineType": [
                "LLLLLLLLLLLLLLLLLL"
            ],
            "points": [
                [
                    2510,
                    2059
                ],
                [
                    2572,
                    2041
                ],
                [
                    2645,
                    1971
                ],
                [
                    2699,
                    1877
                ],
                [
                    2714,
                    1795
                ],
                [
                    2697,
                    1729
                ],
                [
                    2630,
                    1681
                ],
                [
                    2507,
                    1508
                ],
                [
                    2431,
                    1484
                ],
                [
                    2330,
                    1502
                ],
                [
                    2277,
                    1518
                ],
                [
                    2242,
                    1662
                ],
                [
                    2067,
                    1738
                ],
                [
                    2052,
                    1820
                ],
                [
                    2068,
                    1894
                ],
                [
                    2095,
                    1969
                ],
                [
                    2150,
                    2017
                ],
                [
                    2510,
                    2059
                ]
            ],
            "shape_type": "polygon"
        },
        {
            "flags": {},
            "group_id": null,
            "label": "mask",
            "lineType": [
                "LLLLLLLLLLLLL"
            ],
            "points": [
                [
                    1483,
                    1457
                ],
                [
                    1919,
                    1457
                ],
                [
                    1919,
                    1804
                ],
                [
                    1483,
                    1804
                ]
            ],
            "shape_type": "polygon"
        },
        {
            "flags": {},
            "group_id": null,
            "label": "wlb",
            "points": [
                [
                    476,
                    2778
                ],
                [
                    1868,
                    4101
                ]
            ],
            "shape_type": "rectangle"
        },
        {
            "flags": {},
            "group_id": null,
            "label": "Ns",
            "points": [
                [
                    1684,
                    1731
                ]
            ],
            "shape_type": "point"
        },
        {
            "flags": {},
            "group_id": null,
            "label": "Ne",
            "points": [
                [
                    1683,
                    1551
                ]
            ],
            "shape_type": "point"
        },
        {
            "flags": {},
            "group_id": null,
            "label": "wz3",
            "points": [
                [
                    1563,
                    1807
                ],
                [
                    1778,
                    1857
                ]
            ],
            "shape_type": "rectangle"
        },
        {
            "flags": {},
            "group_id": null,
            "label": "wz3",
            "points": [
                [
                    2537,
                    3322
                ],
                [
                    2685,
                    3408
                ]
            ],
            "shape_type": "rectangle"
        },
        {
            "flags": {},
            "group_id": null,
            "label": "wz3",
            "points": [
                [
                    2311,
                    3076
                ],
                [
                    2458,
                    3155
                ]
            ],
            "shape_type": "rectangle"
        },
        {
            "flags": {},
            "group_id": null,
            "label": "wz3",
            "points": [
                [
                    2071,
                    3318
                ],
                [
                    2223,
                    3408
                ]
            ],
            "shape_type": "rectangle"
        },
        {
            "flags": {},
            "group_id": null,
            "label": "wz3",
            "points": [
                [
                    2542,
                    2536
                ],
                [
                    2686,
                    2639
                ]
            ],
            "shape_type": "rectangle"
        },
        {
            "flags": {},
            "group_id": null,
            "label": "wz3",
            "points": [
                [
                    2321,
                    2291
                ],
                [
                    2443,
                    2381
                ]
            ],
            "shape_type": "rectangle"
        },
        {
            "flags": {},
            "group_id": null,
            "label": "wz3",
            "points": [
                [
                    2074,
                    2536
                ],
                [
                    2223,
                    2637
                ]
            ],
            "shape_type": "rectangle"
        },
        {
            "flags": {},
            "group_id": null,
            "label": "wz3",
            "points": [
                [
                    2542,
                    1756
                ],
                [
                    2686,
                    1856
                ]
            ],
            "shape_type": "rectangle"
        },
        {
            "flags": {},
            "group_id": null,
            "label": "wz3",
            "points": [
                [
                    2321,
                    1511
                ],
                [
                    2443,
                    1603
                ]
            ],
            "shape_type": "rectangle"
        },
        {
            "flags": {},
            "group_id": null,
            "label": "wz3",
            "points": [
                [
                    2073,
                    1755
                ],
                [
                    2222,
                    1857
                ]
            ],
            "shape_type": "rectangle"
        },
        {
            "flags": {},
            "group_id": null,
            "label": "wz1",
            "points": [
                [
                    3665,
                    3110
                ],
                [
                    3849,
                    3157
                ]
            ],
            "shape_type": "rectangle"
        },
        {
            "flags": {},
            "group_id": null,
            "label": "wz1",
            "points": [
                [
                    3610,
                    2764
                ],
                [
                    3658,
                    2793
                ]
            ],
            "shape_type": "rectangle"
        },
        {
            "flags": {},
            "group_id": null,
            "label": "wz3",
            "points": [
                [
                    3131,
                    2302
                ],
                [
                    3251,
                    2350
                ]
            ],
            "shape_type": "rectangle"
        },
        {
            "flags": {},
            "group_id": null,
            "label": "wz3",
            "points": [
                [
                    3128,
                    2074
                ],
                [
                    3180,
                    2119
                ]
            ],
            "shape_type": "rectangle"
        },
        {
            "flags": {},
            "group_id": null,
            "label": "wz3",
            "points": [
                [
                    3130,
                    1833
                ],
                [
                    3183,
                    1878
                ]
            ],
            "shape_type": "rectangle"
        },
        {
            "flags": {},
            "group_id": null,
            "label": "wz1",
            "points": [
                [
                    3593,
                    1539
                ],
                [
                    3689,
                    1586
                ]
            ],
            "shape_type": "rectangle"
        }
    ],
    "version": "4.5.7"
}