{
    "flags": {},
    "imageData": null,
    "imageHeight": 4205,
    "imagePath": "样本5_61_47.png",
    "imageWidth": 4205,
    "shapes": [
        {
            "flags": {},
            "group_id": null,
            "label": "vt9",
            "points": [
                [
                    541,
                    1548
                ],
                [
                    819,
                    1827
                ]
            ],
            "shape_type": "rectangle"
        },
        {
            "flags": {},
            "group_id": null,
            "label": "vb1",
            "points": [
                [
                    879,
                    1633
                ],
                [
                    1132,
                    1767
                ]
            ],
            "shape_type": "rectangle"
        },
        {
            "flags": {},
            "group_id": null,
            "label": "d1",
            "points": [
                [
                    374,
                    1896
                ],
                [
                    457,
                    2034
                ]
            ],
            "shape_type": "rectangle"
        },
        {
            "flags": {},
            "group_id": null,
            "label": "v1",
            "points": [
                [
                    761,
                    1983
                ],
                [
                    951,
                    2052
                ]
            ],
            "shape_type": "rectangle"
        },
        {
            "flags": {},
            "group_id": null,
            "label": "d1",
            "points": [
                [
                    1300,
                    1897
                ],
                [
                    1383,
                    2033
                ]
            ],
            "shape_type": "rectangle"
        },
        {
            "flags": {},
            "group_id": null,
            "label": "n1",
            "points": [
                [
                    1885,
                    1499
                ],
                [
                    2390,
                    1921
                ]
            ],
            "shape_type": "rectangle"
        },
        {
            "flags": {},
            "group_id": null,
            "label": "vp1-1",
            "points": [
                [
                    2043,
                    2133
                ],
                [
                    2373,
                    2463
                ]
            ],
            "shape_type": "rectangle"
        },
        {
            "flags": {},
            "group_id": null,
            "label": "van",
            "points": [
                [
                    2274,
                    2204
                ],
                [
                    2343,
                    2254
                ]
            ],
            "shape_type": "rectangle"
        },
        {
            "flags": {},
            "group_id": null,
            "label": "van",
            "points": [
                [
                    2067,
                    2217
                ],
                [
                    2116,
                    2285
                ]
            ],
            "shape_type": "rectangle"
        },
        {
            "flags": {},
            "group_id": null,
            "label": "van",
            "points": [
                [
                    2195,
                    2386
                ],
                [
                    2248,
                    2455
                ]
            ],
            "shape_type": "rectangle"
        },
        {
            "flags": {},
            "group_id": null,
            "label": "v1",
            "points": [
                [
                    2081,
                    2514
                ],
                [
                    2313,
                    2606
                ]
            ],
            "shape_type": "rectangle"
        },
        {
            "flags": {},
            "group_id": null,
            "label": "vp1-1",
            "points": [
                [
                    2281,
                    2736
                ],
                [
                    2611,
                    3067
                ]
            ],
            "shape_type": "rectangle"
        },
        {
            "flags": {},
            "group_id": null,
            "label": "van",
            "points": [
                [
                    2512,
                    2808
                ],
                [
                    2581,
                    2857
                ]
            ],
            "shape_type": "rectangle"
        },
        {
            "flags": {},
            "group_id": null,
            "label": "van",
            "points": [
                [
                    2306,
                    2821
                ],
                [
                    2354,
                    2888
                ]
            ],
            "shape_type": "rectangle"
        },
        {
            "flags": {},
            "group_id": null,
            "label": "van",
            "points": [
                [
                    2434,
                    2990
                ],
                [
                    2486,
                    3058
                ]
            ],
            "shape_type": "rectangle"
        },
        {
            "flags": {},
            "group_id": null,
            "label": "v1",
            "points": [
                [
                    2336,
                    3109
                ],
                [
                    2566,
                    3201
                ]
            ],
            "shape_type": "rectangle"
        },
        {
            "flags": {},
            "group_id": null,
            "label": "vp1-1",
            "points": [
                [
                    2276,
                    3269
                ],
                [
                    2604,
                    3599
                ]
            ],
            "shape_type": "rectangle"
        },
        {
            "flags": {},
            "group_id": null,
            "label": "va1",
            "points": [
                [
                    2526,
                    3347
                ],
                [
                    2569,
                    3390
                ]
            ],
            "shape_type": "rectangle"
        },
        {
            "flags": {},
            "group_id": null,
            "label": "va1",
            "points": [
                [
                    2311,
                    3364
                ],
                [
                    2348,
                    3408
                ]
            ],
            "shape_type": "rectangle"
        },
        {
            "flags": {},
            "group_id": null,
            "label": "va1",
            "points": [
                [
                    2426,
                    3535
                ],
                [
                    2469,
                    3577
                ]
            ],
            "shape_type": "rectangle"
        },
        {
            "flags": {},
            "group_id": null,
            "label": "v1",
            "points": [
                [
                    2324,
                    3679
                ],
                [
                    2554,
                    3772
                ]
            ],
            "shape_type": "rectangle"
        },
        {
            "flags": {},
            "group_id": null,
            "label": "h1",
            "points": [
                [
                    3024,
                    3384
                ],
                [
                    3153,
                    3452
                ]
            ],
            "shape_type": "rectangle"
        },
        {
            "flags": {},
            "group_id": null,
            "label": "",
            "points": [],
            "shape_type": ""
        },
        {
            "flags": {},
            "group_id": null,
            "label": "v1",
            "points": [
                [
                    3446,
                    3581
                ],
                [
                    3778,
                    3673
                ]
            ],
            "shape_type": "rectangle"
        },
        {
            "flags": {},
            "group_id": null,
            "label": "b1",
            "points": [
                [
                    3617,
                    3168
                ],
                [
                    3832,
                    3453
                ]
            ],
            "shape_type": "rectangle"
        },
        {
            "flags": {},
            "group_id": null,
            "label": "x1",
            "points": [
                [
                    3329,
                    2818
                ],
                [
                    3497,
                    2856
                ]
            ],
            "shape_type": "rectangle"
        },
        {
            "flags": {},
            "group_id": null,
            "label": "c1",
            "points": [
                [
                    3423,
                    1486
                ],
                [
                    3429,
                    1606
                ]
            ],
            "shape_type": "rectangle"
        },
        {
            "flags": {},
            "group_id": null,
            "label": "h1",
            "points": [
                [
                    3007,
                    1597
                ],
                [
                    3153,
                    1666
                ]
            ],
            "shape_type": "rectangle"
        },
        {
            "flags": {},
            "group_id": null,
            "label": "h1",
            "points": [
                [
                    3008,
                    1774
                ],
                [
                    3153,
                    1843
                ]
            ],
            "shape_type": "rectangle"
        },
        {
            "flags": {},
            "group_id": null,
            "label": "h1",
            "points": [
                [
                    3010,
                    1941
                ],
                [
                    3150,
                    2009
                ]
            ],
            "shape_type": "rectangle"
        },
        {
            "flags": {},
            "group_id": null,
            "label": "h1",
            "points": [
                [
                    3007,
                    2128
                ],
                [
                    3154,
                    2196
                ]
            ],
            "shape_type": "rectangle"
        },
        {
            "flags": {},
            "group_id": null,
            "label": "d1",
            "points": [
                [
                    3235,
                    1635
                ],
                [
                    3318,
                    1774
                ]
            ],
            "shape_type": "rectangle"
        },
        {
            "flags": {},
            "group_id": null,
            "label": "d1",
            "points": [
                [
                    3527,
                    1636
                ],
                [
                    3611,
                    1774
                ]
            ],
            "shape_type": "rectangle"
        },
        {
            "flags": {},
            "group_id": null,
            "label": "d1",
            "points": [
                [
                    3235,
                    1869
                ],
                [
                    3318,
                    2007
                ]
            ],
            "shape_type": "rectangle"
        },
        {
            "flags": {},
            "group_id": null,
            "label": "d1",
            "points": [
                [
                    3235,
                    2072
                ],
                [
                    3319,
                    2209
                ]
            ],
            "shape_type": "rectangle"
        },
        {
            "flags": {},
            "group_id": null,
            "label": "d1",
            "points": [
                [
                    3526,
                    2071
                ],
                [
                    3610,
                    2209
                ]
            ],
            "shape_type": "rectangle"
        },
        {
            "flags": {},
            "group_id": null,
            "label": "d1",
            "points": [
                [
                    3527,
                    1869
                ],
                [
                    3610,
                    2006
                ]
            ],
            "shape_type": "rectangle"
        },
        {
            "flags": {},
            "group_id": null,
            "label": "g1",
            "points": [
                [
                    3384,
                    1691
                ],
                [
                    3388,
                    1859
                ]
            ],
            "shape_type": "rectangle"
        },
        {
            "flags": {},
            "group_id": null,
            "label": "g1",
            "points": [
                [
                    3420,
                    1690
                ],
                [
                    3424,
                    1861
                ]
            ],
            "shape_type": "rectangle"
        },
        {
            "flags": {},
            "group_id": null,
            "label": "g1",
            "points": [
                [
                    3462,
                    1690
                ],
                [
                    3465,
                    1861
                ]
            ],
            "shape_type": "rectangle"
        },
        {
            "flags": {},
            "group_id": null,
            "label": "a1-1",
            "points": [
                [
                    3354,
                    1711
                ],
                [
                    3380,
                    1821
                ]
            ],
            "shape_type": "rectangle"
        },
        {
            "flags": {},
            "group_id": null,
            "label": "a1-4",
            "points": [
                [
                    3419,
                    1713
                ],
                [
                    3436,
                    1816
                ]
            ],
            "shape_type": "rectangle"
        },
        {
            "flags": {},
            "group_id": null,
            "label": "a1-2",
            "points": [
                [
                    3472,
                    1709
                ],
                [
                    3499,
                    1819
                ]
            ],
            "shape_type": "rectangle"
        },
        {
            "flags": {},
            "group_id": null,
            "label": "p1-1",
            "points": [
                [
                    3353,
                    1690
                ],
                [
                    3499,
                    1861
                ]
            ],
            "shape_type": "rectangle"
        },
        {
            "flags": {},
            "group_id": null,
            "label": "z1",
            "points": [
                [
                    3347,
                    1674
                ],
                [
                    3511,
                    1876
                ]
            ],
            "shape_type": "rectangle"
        },
        {
            "flags": {},
            "group_id": null,
            "label": "g1",
            "points": [
                [
                    3383,
                    1896
                ],
                [
                    3386,
                    2065
                ]
            ],
            "shape_type": "rectangle"
        },
        {
            "flags": {},
            "group_id": null,
            "label": "g1",
            "points": [
                [
                    3425,
                    1896
                ],
                [
                    3428,
                    2065
                ]
            ],
            "shape_type": "rectangle"
        },
        {
            "flags": {},
            "group_id": null,
            "label": "g1",
            "points": [
                [
                    3465,
                    1896
                ],
                [
                    3469,
                    2065
                ]
            ],
            "shape_type": "rectangle"
        },
        {
            "flags": {},
            "group_id": null,
            "label": "a1-2",
            "points": [
                [
                    3473,
                    1911
                ],
                [
                    3498,
                    2021
                ]
            ],
            "shape_type": "rectangle"
        },
        {
            "flags": {},
            "group_id": null,
            "label": "a1-4",
            "points": [
                [
                    3418,
                    1915
                ],
                [
                    3437,
                    2018
                ]
            ],
            "shape_type": "rectangle"
        },
        {
            "flags": {},
            "group_id": null,
            "label": "a1-1",
            "points": [
                [
                    3353,
                    1913
                ],
                [
                    3380,
                    2023
                ]
            ],
            "shape_type": "rectangle"
        },
        {
            "flags": {},
            "group_id": null,
            "label": "p1-1",
            "points": [
                [
                    3353,
                    1895
                ],
                [
                    3499,
                    2065
                ]
            ],
            "shape_type": "rectangle"
        },
        {
            "flags": {},
            "group_id": null,
            "label": "z1",
            "points": [
                [
                    3347,
                    1876
                ],
                [
                    3511,
                    2078
                ]
            ],
            "shape_type": "rectangle"
        },
        {
            "flags": {},
            "group_id": null,
            "label": "g1",
            "points": [
                [
                    3382,
                    2098
                ],
                [
                    3386,
                    2267
                ]
            ],
            "shape_type": "rectangle"
        },
        {
            "flags": {},
            "group_id": null,
            "label": "g1",
            "points": [
                [
                    3425,
                    2098
                ],
                [
                    3429,
                    2267
                ]
            ],
            "shape_type": "rectangle"
        },
        {
            "flags": {},
            "group_id": null,
            "label": "g1",
            "points": [
                [
                    3465,
                    2097
                ],
                [
                    3469,
                    2267
                ]
            ],
            "shape_type": "rectangle"
        },
        {
            "flags": {},
            "group_id": null,
            "label": "a1-1",
            "points": [
                [
                    3353,
                    2125
                ],
                [
                    3379,
                    2235
                ]
            ],
            "shape_type": "rectangle"
        },
        {
            "flags": {},
            "group_id": null,
            "label": "a1-4",
            "points": [
                [
                    3419,
                    2127
                ],
                [
                    3435,
                    2230
                ]
            ],
            "shape_type": "rectangle"
        },
        {
            "flags": {},
            "group_id": null,
            "label": "a1-2",
            "points": [
                [
                    3472,
                    2123
                ],
                [
                    3498,
                    2233
                ]
            ],
            "shape_type": "rectangle"
        },
        {
            "flags": {},
            "group_id": null,
            "label": "p1-1",
            "points": [
                [
                    3353,
                    2097
                ],
                [
                    3499,
                    2268
                ]
            ],
            "shape_type": "rectangle"
        },
        {
            "flags": {},
            "group_id": null,
            "label": "z1",
            "points": [
                [
                    3347,
                    2078
                ],
                [
                    3512,
                    2280
                ]
            ],
            "shape_type": "rectangle"
        },
        {
            "flags": {},
            "group_id": null,
            "label": "seven",
            "points": [
                [
                    879,
                    1633
                ]
            ],
            "shape_type": "point"
        },
        {
            "flags": {},
            "group_id": null,
            "label": "thirteen",
            "points": [
                [
                    1005,
                    1633
                ]
            ],
            "shape_type": "point"
        },
        {
            "flags": {},
            "group_id": null,
            "label": "eight",
            "points": [
                [
                    1132,
                    1633
                ]
            ],
            "shape_type": "point"
        },
        {
            "flags": {},
            "group_id": null,
            "label": "eleven",
            "points": [
                [
                    879,
                    1738
                ]
            ],
            "shape_type": "point"
        },
        {
            "flags": {},
            "group_id": null,
            "label": "fifteen",
            "points": [
                [
                    1006,
                    1739
                ]
            ],
            "shape_type": "point"
        },
        {
            "flags": {},
            "group_id": null,
            "label": "twelve",
            "points": [
                [
                    1132,
                    1739
                ]
            ],
            "shape_type": "point"
        },
        {
            "flags": {},
            "group_id": null,
            "label": "nine",
            "points": [
                [
                    878,
                    1767
                ]
            ],
            "shape_type": "point"
        },
        {
            "flags": {},
            "group_id": null,
            "label": "fourteen",
            "points": [
                [
                    1005,
                    1767
                ]
            ],
            "shape_type": "point"
        },
        {
            "flags": {},
            "group_id": null,
            "label": "ten",
            "points": [
                [
                    1133,
                    1767
                ]
            ],
            "shape_type": "point"
        },
        {
            "flags": {},
            "group_id": null,
            "label": "two",
            "points": [
                [
                    1190,
                    1633
                ]
            ],
            "shape_type": "point"
        },
        {
            "flags": {},
            "group_id": null,
            "label": "one",
            "points": [
                [
                    1190,
                    1766
                ]
            ],
            "shape_type": "point"
        },
        {
            "flags": {},
            "group_id": null,
            "label": "seven",
            "points": [
                [
                    3618,
                    3168
                ]
            ],
            "shape_type": "point"
        },
        {
            "flags": {},
            "group_id": null,
            "label": "thirteen",
            "points": [
                [
                    3725,
                    3169
                ]
            ],
            "shape_type": "point"
        },
        {
            "flags": {},
            "group_id": null,
            "label": "eight",
            "points": [
                [
                    3832,
                    3168
                ]
            ],
            "shape_type": "point"
        },
        {
            "flags": {},
            "group_id": null,
            "label": "eleven",
            "points": [
                [
                    3618,
                    3178
                ]
            ],
            "shape_type": "point"
        },
        {
            "flags": {},
            "group_id": null,
            "label": "eleven",
            "points": [
                [
                    3618,
                    3390
                ]
            ],
            "shape_type": "point"
        },
        {
            "flags": {},
            "group_id": null,
            "label": "eleven",
            "points": [
                [
                    3618,
                    3398
                ]
            ],
            "shape_type": "point"
        },
        {
            "flags": {},
            "group_id": null,
            "label": "eleven",
            "points": [
                [
                    3618,
                    3414
                ]
            ],
            "shape_type": "point"
        },
        {
            "flags": {},
            "group_id": null,
            "label": "fourteen",
            "points": [
                [
                    3618,
                    3452
                ]
            ],
            "shape_type": "point"
        },
        {
            "flags": {},
            "group_id": null,
            "label": "fifteen",
            "points": [
                [
                    3725,
                    3398
                ]
            ],
            "shape_type": "point"
        },
        {
            "flags": {},
            "group_id": null,
            "label": "fourteen",
            "points": [
                [
                    3725,
                    3414
                ]
            ],
            "shape_type": "point"
        },
        {
            "flags": {},
            "group_id": null,
            "label": "fourteen",
            "points": [
                [
                    3832,
                    3452
                ]
            ],
            "shape_type": "point"
        },
        {
            "flags": {},
            "group_id": null,
            "label": "twelve",
            "points": [
                [
                    3832,
                    3414
                ]
            ],
            "shape_type": "point"
        },
        {
            "flags": {},
            "group_id": null,
            "label": "twelve",
            "points": [
                [
                    3832,
                    3398
                ]
            ],
            "shape_type": "point"
        },
        {
            "flags": {},
            "group_id": null,
            "label": "twelve",
            "points": [
                [
                    3832,
                    3390
                ]
            ],
            "shape_type": "point"
        },
        {
            "flags": {},
            "group_id": null,
            "label": "twelve",
            "points": [
                [
                    3832,
                    3178
                ]
            ],
            "shape_type": "point"
        },
        {
            "flags": {},
            "group_id": null,
            "label": "t9",
            "points": [
                [
                    3347,
                    1486
                ],
                [
                    3512,
                    3452
                ]
            ],
            "shape_type": "rectangle"
        },
        {
            "flags": {},
            "group_id": null,
            "label": "btl",
            "points": [
                [
                    2348,
                    3866
                ],
                [
                    4154,
                    4171
                ]
            ],
            "shape_type": "rectangle"
        },
        {
            "flags": {},
            "group_id": null,
            "label": "j1",
            "points": [
                [
                    2279,
                    1839
                ],
                [
                    2388,
                    1918
                ]
            ],
            "shape_type": "rectangle"
        },
        {
            "flags": {},
            "group_id": null,
            "label": "j1",
            "points": [
                [
                    2281,
                    1563
                ],
                [
                    2371,
                    1641
                ]
            ],
            "shape_type": "rectangle"
        },
        {
            "flags": {},
            "group_id": null,
            "label": "j1",
            "points": [
                [
                    2204,
                    1502
                ],
                [
                    2234,
                    1544
                ]
            ],
            "shape_type": "rectangle"
        },
        {
            "flags": {},
            "group_id": null,
            "label": "j1",
            "points": [
                [
                    1887,
                    1646
                ],
                [
                    1998,
                    1736
                ]
            ],
            "shape_type": "rectangle"
        },
        {
            "flags": {},
            "group_id": null,
            "label": "wz4",
            "points": [
                [
                    900,
                    1675
                ],
                [
                    975,
                    1713
                ]
            ],
            "shape_type": "rectangle"
        },
        {
            "flags": {},
            "group_id": null,
            "label": "wz4",
            "points": [
                [
                    1024,
                    1669
                ],
                [
                    1097,
                    1704
                ]
            ],
            "shape_type": "rectangle"
        },
        {
            "flags": {},
            "group_id": null,
            "label": "x2",
            "points": [
                [
                    1160,
                    1625
                ],
                [
                    1202,
                    1773
                ]
            ],
            "shape_type": "rectangle"
        },
        {
            "flags": {},
            "group_id": null,
            "label": "wz2",
            "points": [
                [
                    1162,
                    1673
                ],
                [
                    1190,
                    1726
                ]
            ],
            "shape_type": "rectangle"
        },
        {
            "flags": {},
            "group_id": null,
            "label": "sm",
            "points": [
                [
                    324,
                    2354
                ],
                [
                    1835,
                    3051
                ]
            ],
            "shape_type": "rectangle"
        },
        {
            "flags": {},
            "group_id": null,
            "label": "mask",
            "lineType": [
                "LLLLLLLLLLLLLLLLLLLLLL"
            ],
            "points": [
                [
                    1372,
                    2066
                ],
                [
                    1392,
                    2049
                ],
                [
                    1405,
                    1999
                ],
                [
                    1401,
                    1876
                ],
                [
                    1361,
                    1855
                ],
                [
                    1314,
                    1825
                ],
                [
                    1268,
                    1751
                ],
                [
                    1228,
                    1614
                ],
                [
                    1011,
                    1550
                ],
                [
                    991,
                    1507
                ],
                [
                    985,
                    1462
                ],
                [
                    956,
                    1446
                ],
                [
                    881,
                    1449
                ],
                [
                    798,
                    1459
                ],
                [
                    771,
                    1476
                ],
                [
                    565,
                    1570
                ],
                [
                    509,
                    1675
                ],
                [
                    364,
                    1881
                ],
                [
                    357,
                    2062
                ],
                [
                    434,
                    2065
                ],
                [
                    545,
                    2065
                ],
                [
                    1372,
                    2066
                ]
            ],
            "shape_type": "polygon"
        },
        {
            "flags": {},
            "group_id": null,
            "label": "mask",
            "lineType": [
                "LLLLLLLLLLLLLLLLLLLL"
            ],
            "points": [
                [
                    1875,
                    1489
                ],
                [
                    2400,
                    1489
                ],
                [
                    2400,
                    1931
                ],
                [
                    1875,
                    1931
                ]
            ],
            "shape_type": "polygon"
        },
        {
            "flags": {},
            "group_id": null,
            "label": "mask",
            "lineType": [
                "LLLLLLLLLLLLLLLLLLLLLLLLLLLLLLLLLLLLLLLLLLLLLLLLLLLLLL"
            ],
            "points": [
                [
                    3092,
                    1542
                ],
                [
                    3321,
                    1466
                ],
                [
                    3450,
                    1459
                ],
                [
                    3481,
                    1485
                ],
                [
                    3616,
                    1606
                ],
                [
                    3851,
                    1677
                ],
                [
                    3857,
                    1776
                ],
                [
                    3848,
                    1907
                ],
                [
                    3845,
                    2016
                ],
                [
                    3861,
                    2232
                ],
                [
                    3542,
                    2247
                ],
                [
                    3607,
                    2491
                ],
                [
                    3624,
                    2513
                ],
                [
                    3630,
                    2555
                ],
                [
                    3628,
                    2564
                ],
                [
                    3606,
                    2572
                ],
                [
                    3515,
                    2577
                ],
                [
                    3520,
                    3039
                ],
                [
                    3568,
                    3135
                ],
                [
                    3834,
                    3145
                ],
                [
                    3872,
                    3169
                ],
                [
                    4038,
                    3426
                ],
                [
                    4039,
                    3469
                ],
                [
                    4031,
                    3493
                ],
                [
                    3785,
                    3558
                ],
                [
                    3794,
                    3631
                ],
                [
                    3794,
                    3676
                ],
                [
                    3792,
                    3689
                ],
                [
                    3642,
                    3697
                ],
                [
                    3431,
                    3699
                ],
                [
                    3426,
                    3667
                ],
                [
                    3406,
                    3570
                ],
                [
                    3288,
                    3528
                ],
                [
                    3071,
                    3494
                ],
                [
                    3026,
                    3462
                ],
                [
                    3003,
                    3447
                ],
                [
                    3020,
                    3376
                ],
                [
                    3077,
                    3358
                ],
                [
                    3220,
                    3360
                ],
                [
                    3311,
                    3384
                ],
                [
                    3347,
                    3177
                ],
                [
                    3326,
                    2882
                ],
                [
                    3298,
                    2608
                ],
                [
                    3274,
                    2295
                ],
                [
                    3146,
                    2231
                ],
                [
                    2982,
                    2195
                ],
                [
                    2983,
                    2139
                ],
                [
                    2987,
                    2063
                ],
                [
                    2991,
                    1840
                ],
                [
                    2991,
                    1712
                ],
                [
                    2991,
                    1642
                ],
                [
                    2990,
                    1584
                ],
                [
                    2998,
                    1560
                ],
                [
                    3092,
                    1542
                ]
            ],
            "shape_type": "polygon"
        },
        {
            "flags": {},
            "group_id": null,
            "label": "mask",
            "lineType": [
                "LLLLLLLLLLLLLLLLLLL"
            ],
            "points": [
                [
                    2313,
                    2625
                ],
                [
                    2359,
                    2604
                ],
                [
                    2427,
                    2446
                ],
                [
                    2507,
                    2332
                ],
                [
                    2574,
                    2293
                ],
                [
                    2588,
                    2253
                ],
                [
                    2580,
                    2208
                ],
                [
                    2554,
                    2181
                ],
                [
                    2474,
                    2144
                ],
                [
                    2393,
                    2124
                ],
                [
                    2262,
                    2085
                ],
                [
                    2124,
                    2085
                ],
                [
                    2070,
                    2117
                ],
                [
                    2003,
                    2261
                ],
                [
                    2014,
                    2348
                ],
                [
                    2002,
                    2447
                ],
                [
                    2018,
                    2553
                ],
                [
                    2038,
                    2619
                ],
                [
                    2313,
                    2625
                ]
            ],
            "shape_type": "polygon"
        },
        {
            "flags": {},
            "group_id": null,
            "label": "mask",
            "lineType": [
                "LLLLLLLLLLLLLL"
            ],
            "points": [
                [
                    2562,
                    2719
                ],
                [
                    2827,
                    2803
                ],
                [
                    2828,
                    2915
                ],
                [
                    2795,
                    2923
                ],
                [
                    2651,
                    2974
                ],
                [
                    2621,
                    3069
                ],
                [
                    2605,
                    3205
                ],
                [
                    2572,
                    3216
                ],
                [
                    2334,
                    3225
                ],
                [
                    2304,
                    3205
                ],
                [
                    2282,
                    3126
                ],
                [
                    2245,
                    2997
                ],
                [
                    2319,
                    2726
                ],
                [
                    2562,
                    2719
                ]
            ],
            "shape_type": "polygon"
        },
        {
            "flags": {},
            "group_id": null,
            "label": "mask",
            "lineType": [
                "LLLLLLLLLLLLLLLLLLL"
            ],
            "points": [
                [
                    2643,
                    3285
                ],
                [
                    2708,
                    3294
                ],
                [
                    2760,
                    3325
                ],
                [
                    2757,
                    3416
                ],
                [
                    2612,
                    3547
                ],
                [
                    2629,
                    3655
                ],
                [
                    2617,
                    3783
                ],
                [
                    2549,
                    3800
                ],
                [
                    2392,
                    3802
                ],
                [
                    2289,
                    3796
                ],
                [
                    2282,
                    3758
                ],
                [
                    2271,
                    3696
                ],
                [
                    2194,
                    3644
                ],
                [
                    2193,
                    3506
                ],
                [
                    2154,
                    3378
                ],
                [
                    2145,
                    3282
                ],
                [
                    2227,
                    3255
                ],
                [
                    2465,
                    3254
                ],
                [
                    2643,
                    3285
                ]
            ],
            "shape_type": "polygon"
        },
        {
            "flags": {},
            "group_id": null,
            "label": "mask",
            "lineType": [
                "LLLLL"
            ],
            "points": [
                [
                    2338,
                    3856
                ],
                [
                    4164,
                    3856
                ],
                [
                    4164,
                    4181
                ],
                [
                    2338,
                    4181
                ]
            ],
            "shape_type": "polygon"
        },
        {
            "flags": {},
            "group_id": null,
            "label": "mask",
            "lineType": [
                "LLLLLLLLLLLLLL"
            ],
            "points": [
                [
                    286,
                    3016
                ],
                [
                    2133,
                    3016
                ],
                [
                    2133,
                    4141
                ],
                [
                    286,
                    4141
                ]
            ],
            "shape_type": "polygon"
        },
        {
            "flags": {},
            "group_id": null,
            "label": "mask",
            "lineType": [
                "LLLLLLLLLLLLLLLLLLLLLLLLLLLL"
            ],
            "points": [
                [
                    314,
                    2344
                ],
                [
                    1845,
                    2344
                ],
                [
                    1845,
                    3061
                ],
                [
                    314,
                    3061
                ]
            ],
            "shape_type": "polygon"
        },
        {
            "flags": {},
            "group_id": null,
            "label": "Ns",
            "points": [
                [
                    2181,
                    1743
                ]
            ],
            "shape_type": "point"
        },
        {
            "flags": {},
            "group_id": null,
            "label": "Ne",
            "points": [
                [
                    2182,
                    1562
                ]
            ],
            "shape_type": "point"
        },
        {
            "flags": {},
            "group_id": null,
            "label": "wlb",
            "points": [
                [
                    296,
                    3026
                ],
                [
                    2123,
                    4131
                ]
            ],
            "shape_type": "rectangle"
        },
        {
            "flags": {},
            "group_id": null,
            "label": "wz3",
            "points": [
                [
                    3675,
                    1705
                ],
                [
                    3836,
                    1759
                ]
            ],
            "shape_type": "rectangle"
        },
        {
            "flags": {},
            "group_id": null,
            "label": "wz3",
            "points": [
                [
                    3663,
                    1920
                ],
                [
                    3825,
                    1975
                ]
            ],
            "shape_type": "rectangle"
        },
        {
            "flags": {},
            "group_id": null,
            "label": "wz3",
            "points": [
                [
                    3659,
                    2139
                ],
                [
                    3838,
                    2170
                ]
            ],
            "shape_type": "rectangle"
        },
        {
            "flags": {},
            "group_id": null,
            "label": "wz1",
            "points": [
                [
                    3470,
                    2515
                ],
                [
                    3610,
                    2539
                ]
            ],
            "shape_type": "rectangle"
        },
        {
            "flags": {},
            "group_id": null,
            "label": "wz3",
            "points": [
                [
                    2609,
                    3323
                ],
                [
                    2746,
                    3389
                ]
            ],
            "shape_type": "rectangle"
        },
        {
            "flags": {},
            "group_id": null,
            "label": "wz3",
            "points": [
                [
                    2217,
                    3565
                ],
                [
                    2360,
                    3630
                ]
            ],
            "shape_type": "rectangle"
        },
        {
            "flags": {},
            "group_id": null,
            "label": "wz3",
            "points": [
                [
                    2157,
                    3301
                ],
                [
                    2299,
                    3363
                ]
            ],
            "shape_type": "rectangle"
        },
        {
            "flags": {},
            "group_id": null,
            "label": "wz3",
            "points": [
                [
                    2635,
                    2824
                ],
                [
                    2799,
                    2876
                ]
            ],
            "shape_type": "rectangle"
        },
        {
            "flags": {},
            "group_id": null,
            "label": "wz3",
            "points": [
                [
                    2401,
                    2219
                ],
                [
                    2562,
                    2273
                ]
            ],
            "shape_type": "rectangle"
        },
        {
            "flags": {},
            "group_id": null,
            "label": "wz3",
            "points": [
                [
                    1956,
                    1896
                ],
                [
                    2171,
                    1943
                ]
            ],
            "shape_type": "rectangle"
        },
        {
            "flags": {},
            "group_id": null,
            "label": "wz1",
            "points": [
                [
                    798,
                    1464
                ],
                [
                    956,
                    1507
                ]
            ],
            "shape_type": "rectangle"
        }
    ],
    "version": "4.5.7"
}