{
    "flags": {},
    "imageData": null,
    "imageHeight": 4205,
    "imagePath": "样本1_67_33.png",
    "imageWidth": 4205,
    "shapes": [
        {
            "flags": {},
            "group_id": null,
            "label": "d1",
            "points": [
                [
                    513,
                    1595
                ],
                [
                    651,
                    1680
                ]
            ],
            "shape_type": "rectangle"
        },
        {
            "flags": {},
            "group_id": null,
            "label": "vt1",
            "points": [
                [
                    714,
                    1637
                ],
                [
                    968,
                    1889
                ]
            ],
            "shape_type": "rectangle"
        },
        {
            "flags": {},
            "group_id": null,
            "label": "vb1",
            "points": [
                [
                    641,
                    2166
                ],
                [
                    1198,
                    2586
                ]
            ],
            "shape_type": "rectangle"
        },
        {
            "flags": {},
            "group_id": null,
            "label": "v1",
            "points": [
                [
                    469,
                    2234
                ],
                [
                    591,
                    2299
                ]
            ],
            "shape_type": "rectangle"
        },
        {
            "flags": {},
            "group_id": null,
            "label": "d1",
            "points": [
                [
                    514,
                    2632
                ],
                [
                    651,
                    2716
                ]
            ],
            "shape_type": "rectangle"
        },
        {
            "flags": {},
            "group_id": null,
            "label": "n1",
            "points": [
                [
                    1258,
                    1435
                ],
                [
                    1632,
                    1841
                ]
            ],
            "shape_type": "rectangle"
        },
        {
            "flags": {},
            "group_id": null,
            "label": "vp1-1",
            "points": [
                [
                    1964,
                    1673
                ],
                [
                    2372,
                    2081
                ]
            ],
            "shape_type": "rectangle"
        },
        {
            "flags": {},
            "group_id": null,
            "label": "va1",
            "points": [
                [
                    1927,
                    1702
                ],
                [
                    1961,
                    1747
                ]
            ],
            "shape_type": "rectangle"
        },
        {
            "flags": {},
            "group_id": null,
            "label": "va1",
            "points": [
                [
                    1899,
                    1749
                ],
                [
                    1934,
                    1793
                ]
            ],
            "shape_type": "rectangle"
        },
        {
            "flags": {},
            "group_id": null,
            "label": "va1",
            "points": [
                [
                    2367,
                    1692
                ],
                [
                    2410,
                    1731
                ]
            ],
            "shape_type": "rectangle"
        },
        {
            "flags": {},
            "group_id": null,
            "label": "va1",
            "points": [
                [
                    2395,
                    1740
                ],
                [
                    2438,
                    1780
                ]
            ],
            "shape_type": "rectangle"
        },
        {
            "flags": {},
            "group_id": null,
            "label": "va1",
            "points": [
                [
                    2123,
                    2147
                ],
                [
                    2166,
                    2187
                ]
            ],
            "shape_type": "rectangle"
        },
        {
            "flags": {},
            "group_id": null,
            "label": "va1",
            "points": [
                [
                    2182,
                    2147
                ],
                [
                    2224,
                    2187
                ]
            ],
            "shape_type": "rectangle"
        },
        {
            "flags": {},
            "group_id": null,
            "label": "v1",
            "points": [
                [
                    2078,
                    2244
                ],
                [
                    2268,
                    2309
                ]
            ],
            "shape_type": "rectangle"
        },
        {
            "flags": {},
            "group_id": null,
            "label": "vp1-1",
            "points": [
                [
                    1965,
                    2446
                ],
                [
                    2373,
                    2853
                ]
            ],
            "shape_type": "rectangle"
        },
        {
            "flags": {},
            "group_id": null,
            "label": "va1",
            "points": [
                [
                    1927,
                    2470
                ],
                [
                    1960,
                    2511
                ]
            ],
            "shape_type": "rectangle"
        },
        {
            "flags": {},
            "group_id": null,
            "label": "va1",
            "points": [
                [
                    1900,
                    2519
                ],
                [
                    1932,
                    2560
                ]
            ],
            "shape_type": "rectangle"
        },
        {
            "flags": {},
            "group_id": null,
            "label": "va1",
            "points": [
                [
                    2372,
                    2465
                ],
                [
                    2411,
                    2503
                ]
            ],
            "shape_type": "rectangle"
        },
        {
            "flags": {},
            "group_id": null,
            "label": "va1",
            "points": [
                [
                    2399,
                    2513
                ],
                [
                    2439,
                    2552
                ]
            ],
            "shape_type": "rectangle"
        },
        {
            "flags": {},
            "group_id": null,
            "label": "va1",
            "points": [
                [
                    2126,
                    2918
                ],
                [
                    2166,
                    2957
                ]
            ],
            "shape_type": "rectangle"
        },
        {
            "flags": {},
            "group_id": null,
            "label": "va1",
            "points": [
                [
                    2185,
                    2918
                ],
                [
                    2225,
                    2956
                ]
            ],
            "shape_type": "rectangle"
        },
        {
            "flags": {},
            "group_id": null,
            "label": "v1",
            "points": [
                [
                    2078,
                    3002
                ],
                [
                    2266,
                    3066
                ]
            ],
            "shape_type": "rectangle"
        },
        {
            "flags": {},
            "group_id": null,
            "label": "t1",
            "points": [
                [
                    3025,
                    1452
                ],
                [
                    3212,
                    3160
                ]
            ],
            "shape_type": "rectangle"
        },
        {
            "flags": {},
            "group_id": null,
            "label": "c1",
            "points": [
                [
                    3121,
                    1453
                ],
                [
                    3124,
                    1591
                ]
            ],
            "shape_type": "rectangle"
        },
        {
            "flags": {},
            "group_id": null,
            "label": "d1",
            "points": [
                [
                    2782,
                    1453
                ],
                [
                    2866,
                    1591
                ]
            ],
            "shape_type": "rectangle"
        },
        {
            "flags": {},
            "group_id": null,
            "label": "g1",
            "points": [
                [
                    2872,
                    1566
                ],
                [
                    2876,
                    1752
                ]
            ],
            "shape_type": "rectangle"
        },
        {
            "flags": {},
            "group_id": null,
            "label": "a1-1",
            "points": [
                [
                    2845,
                    1588
                ],
                [
                    2870,
                    1699
                ]
            ],
            "shape_type": "rectangle"
        },
        {
            "flags": {},
            "group_id": null,
            "label": "a1-1",
            "points": [
                [
                    2918,
                    1587
                ],
                [
                    2945,
                    1698
                ]
            ],
            "shape_type": "rectangle"
        },
        {
            "flags": {},
            "group_id": null,
            "label": "g1",
            "points": [
                [
                    2946,
                    1566
                ],
                [
                    2951,
                    1751
                ]
            ],
            "shape_type": "rectangle"
        },
        {
            "flags": {},
            "group_id": null,
            "label": "a1-3",
            "points": [
                [
                    3048,
                    1590
                ],
                [
                    3073,
                    1700
                ]
            ],
            "shape_type": "rectangle"
        },
        {
            "flags": {},
            "group_id": null,
            "label": "g1",
            "points": [
                [
                    3059,
                    1566
                ],
                [
                    3063,
                    1752
                ]
            ],
            "shape_type": "rectangle"
        },
        {
            "flags": {},
            "group_id": null,
            "label": "g1",
            "points": [
                [
                    3178,
                    1566
                ],
                [
                    3183,
                    1753
                ]
            ],
            "shape_type": "rectangle"
        },
        {
            "flags": {},
            "group_id": null,
            "label": "a1-3",
            "points": [
                [
                    3167,
                    1589
                ],
                [
                    3194,
                    1700
                ]
            ],
            "shape_type": "rectangle"
        },
        {
            "flags": {},
            "group_id": null,
            "label": "g1",
            "points": [
                [
                    3294,
                    1568
                ],
                [
                    3299,
                    1754
                ]
            ],
            "shape_type": "rectangle"
        },
        {
            "flags": {},
            "group_id": null,
            "label": "a1-2",
            "points": [
                [
                    3301,
                    1590
                ],
                [
                    3328,
                    1700
                ]
            ],
            "shape_type": "rectangle"
        },
        {
            "flags": {},
            "group_id": null,
            "label": "g1",
            "points": [
                [
                    3366,
                    1568
                ],
                [
                    3371,
                    1754
                ]
            ],
            "shape_type": "rectangle"
        },
        {
            "flags": {},
            "group_id": null,
            "label": "a1-2",
            "points": [
                [
                    3372,
                    1590
                ],
                [
                    3399,
                    1701
                ]
            ],
            "shape_type": "rectangle"
        },
        {
            "flags": {},
            "group_id": null,
            "label": "d1",
            "points": [
                [
                    2778,
                    1792
                ],
                [
                    2862,
                    1929
                ]
            ],
            "shape_type": "rectangle"
        },
        {
            "flags": {},
            "group_id": null,
            "label": "a1-1",
            "points": [
                [
                    2845,
                    1864
                ],
                [
                    2870,
                    1973
                ]
            ],
            "shape_type": "rectangle"
        },
        {
            "flags": {},
            "group_id": null,
            "label": "g1",
            "points": [
                [
                    2872,
                    1841
                ],
                [
                    2877,
                    2028
                ]
            ],
            "shape_type": "rectangle"
        },
        {
            "flags": {},
            "group_id": null,
            "label": "a1-1",
            "points": [
                [
                    2920,
                    1864
                ],
                [
                    2947,
                    1975
                ]
            ],
            "shape_type": "rectangle"
        },
        {
            "flags": {},
            "group_id": null,
            "label": "g1",
            "points": [
                [
                    2948,
                    1841
                ],
                [
                    2952,
                    2029
                ]
            ],
            "shape_type": "rectangle"
        },
        {
            "flags": {},
            "group_id": null,
            "label": "a1-4",
            "points": [
                [
                    3050,
                    1862
                ],
                [
                    3076,
                    1973
                ]
            ],
            "shape_type": "rectangle"
        },
        {
            "flags": {},
            "group_id": null,
            "label": "g1",
            "points": [
                [
                    3060,
                    1842
                ],
                [
                    3064,
                    2029
                ]
            ],
            "shape_type": "rectangle"
        },
        {
            "flags": {},
            "group_id": null,
            "label": "a1-3",
            "points": [
                [
                    3167,
                    1866
                ],
                [
                    3193,
                    1977
                ]
            ],
            "shape_type": "rectangle"
        },
        {
            "flags": {},
            "group_id": null,
            "label": "g1",
            "points": [
                [
                    3178,
                    1843
                ],
                [
                    3182,
                    2032
                ]
            ],
            "shape_type": "rectangle"
        },
        {
            "flags": {},
            "group_id": null,
            "label": "g1",
            "points": [
                [
                    3294,
                    1841
                ],
                [
                    3298,
                    2032
                ]
            ],
            "shape_type": "rectangle"
        },
        {
            "flags": {},
            "group_id": null,
            "label": "a1-2",
            "points": [
                [
                    3302,
                    1872
                ],
                [
                    3327,
                    1983
                ]
            ],
            "shape_type": "rectangle"
        },
        {
            "flags": {},
            "group_id": null,
            "label": "g1",
            "points": [
                [
                    3369,
                    1845
                ],
                [
                    3373,
                    2032
                ]
            ],
            "shape_type": "rectangle"
        },
        {
            "flags": {},
            "group_id": null,
            "label": "a1-2",
            "points": [
                [
                    3374,
                    1868
                ],
                [
                    3402,
                    1978
                ]
            ],
            "shape_type": "rectangle"
        },
        {
            "flags": {},
            "group_id": null,
            "label": "d1",
            "points": [
                [
                    3432,
                    1790
                ],
                [
                    3516,
                    1929
                ]
            ],
            "shape_type": "rectangle"
        },
        {
            "flags": {},
            "group_id": null,
            "label": "h1",
            "points": [
                [
                    3555,
                    1685
                ],
                [
                    3728,
                    1755
                ]
            ],
            "shape_type": "rectangle"
        },
        {
            "flags": {},
            "group_id": null,
            "label": "h1",
            "points": [
                [
                    3555,
                    1528
                ],
                [
                    3728,
                    1598
                ]
            ],
            "shape_type": "rectangle"
        },
        {
            "flags": {},
            "group_id": null,
            "label": "d1",
            "points": [
                [
                    3432,
                    1453
                ],
                [
                    3516,
                    1590
                ]
            ],
            "shape_type": "rectangle"
        },
        {
            "flags": {},
            "group_id": null,
            "label": "h1",
            "points": [
                [
                    3556,
                    1962
                ],
                [
                    3728,
                    2032
                ]
            ],
            "shape_type": "rectangle"
        },
        {
            "flags": {},
            "group_id": null,
            "label": "h1",
            "points": [
                [
                    3942,
                    3089
                ],
                [
                    4072,
                    3160
                ]
            ],
            "shape_type": "rectangle"
        },
        {
            "flags": {},
            "group_id": null,
            "label": "b1",
            "points": [
                [
                    3443,
                    2900
                ],
                [
                    3788,
                    3160
                ]
            ],
            "shape_type": "rectangle"
        },
        {
            "flags": {},
            "group_id": null,
            "label": "v1",
            "points": [
                [
                    3155,
                    3232
                ],
                [
                    3486,
                    3326
                ]
            ],
            "shape_type": "rectangle"
        },
        {
            "flags": {},
            "group_id": null,
            "label": "two",
            "points": [
                [
                    858,
                    1902
                ]
            ],
            "shape_type": "point"
        },
        {
            "flags": {},
            "group_id": null,
            "label": "one",
            "points": [
                [
                    1134,
                    2312
                ]
            ],
            "shape_type": "point"
        },
        {
            "flags": {},
            "group_id": null,
            "label": "seven",
            "points": [
                [
                    642,
                    2166
                ]
            ],
            "shape_type": "point"
        },
        {
            "flags": {},
            "group_id": null,
            "label": "seven",
            "points": [
                [
                    662,
                    2186
                ]
            ],
            "shape_type": "point"
        },
        {
            "flags": {},
            "group_id": null,
            "label": "eight",
            "points": [
                [
                    1075,
                    2166
                ]
            ],
            "shape_type": "point"
        },
        {
            "flags": {},
            "group_id": null,
            "label": "ten",
            "points": [
                [
                    1075,
                    2187
                ]
            ],
            "shape_type": "point"
        },
        {
            "flags": {},
            "group_id": null,
            "label": "seven",
            "points": [
                [
                    1156,
                    2165
                ]
            ],
            "shape_type": "point"
        },
        {
            "flags": {},
            "group_id": null,
            "label": "eight",
            "points": [
                [
                    1196,
                    2166
                ]
            ],
            "shape_type": "point"
        },
        {
            "flags": {},
            "group_id": null,
            "label": "nine",
            "points": [
                [
                    1156,
                    2186
                ]
            ],
            "shape_type": "point"
        },
        {
            "flags": {},
            "group_id": null,
            "label": "eight",
            "points": [
                [
                    1177,
                    2186
                ]
            ],
            "shape_type": "point"
        },
        {
            "flags": {},
            "group_id": null,
            "label": "twentytwo",
            "points": [
                [
                    1196,
                    2242
                ]
            ],
            "shape_type": "point"
        },
        {
            "flags": {},
            "group_id": null,
            "label": "twentythere",
            "points": [
                [
                    1177,
                    2282
                ]
            ],
            "shape_type": "point"
        },
        {
            "flags": {},
            "group_id": null,
            "label": "ten",
            "points": [
                [
                    1177,
                    2565
                ]
            ],
            "shape_type": "point"
        },
        {
            "flags": {},
            "group_id": null,
            "label": "ten",
            "points": [
                [
                    1197,
                    2585
                ]
            ],
            "shape_type": "point"
        },
        {
            "flags": {},
            "group_id": null,
            "label": "nine",
            "points": [
                [
                    662,
                    2565
                ]
            ],
            "shape_type": "point"
        },
        {
            "flags": {},
            "group_id": null,
            "label": "nine",
            "points": [
                [
                    641,
                    2585
                ]
            ],
            "shape_type": "point"
        },
        {
            "flags": {},
            "group_id": null,
            "label": "thirteen",
            "points": [
                [
                    3443,
                    2900
                ]
            ],
            "shape_type": "point"
        },
        {
            "flags": {},
            "group_id": null,
            "label": "thirteen",
            "points": [
                [
                    3464,
                    2900
                ]
            ],
            "shape_type": "point"
        },
        {
            "flags": {},
            "group_id": null,
            "label": "thirteen",
            "points": [
                [
                    3767,
                    2901
                ]
            ],
            "shape_type": "point"
        },
        {
            "flags": {},
            "group_id": null,
            "label": "eight",
            "points": [
                [
                    3787,
                    2900
                ]
            ],
            "shape_type": "point"
        },
        {
            "flags": {},
            "group_id": null,
            "label": "eleven",
            "points": [
                [
                    3464,
                    2921
                ]
            ],
            "shape_type": "point"
        },
        {
            "flags": {},
            "group_id": null,
            "label": "twelve",
            "points": [
                [
                    3767,
                    2921
                ]
            ],
            "shape_type": "point"
        },
        {
            "flags": {},
            "group_id": null,
            "label": "twentytwo",
            "points": [
                [
                    3518,
                    2954
                ]
            ],
            "shape_type": "point"
        },
        {
            "flags": {},
            "group_id": null,
            "label": "twentythere",
            "points": [
                [
                    3558,
                    2995
                ]
            ],
            "shape_type": "point"
        },
        {
            "flags": {},
            "group_id": null,
            "label": "fourteen",
            "points": [
                [
                    3443,
                    3159
                ]
            ],
            "shape_type": "point"
        },
        {
            "flags": {},
            "group_id": null,
            "label": "fourteen",
            "points": [
                [
                    3464,
                    3159
                ]
            ],
            "shape_type": "point"
        },
        {
            "flags": {},
            "group_id": null,
            "label": "fourteen",
            "points": [
                [
                    3767,
                    3159
                ]
            ],
            "shape_type": "point"
        },
        {
            "flags": {},
            "group_id": null,
            "label": "fourteen",
            "points": [
                [
                    3787,
                    3159
                ]
            ],
            "shape_type": "point"
        },
        {
            "flags": {},
            "group_id": null,
            "label": "eleven",
            "points": [
                [
                    1177,
                    2242
                ]
            ],
            "shape_type": "point"
        },
        {
            "flags": {},
            "group_id": null,
            "label": "twelve",
            "points": [
                [
                    1197,
                    2282
                ]
            ],
            "shape_type": "point"
        },
        {
            "flags": {},
            "group_id": null,
            "label": "twentyone",
            "points": [
                [
                    1076,
                    2176
                ]
            ],
            "shape_type": "point"
        },
        {
            "flags": {},
            "group_id": null,
            "label": "p1-1",
            "points": [
                [
                    2845,
                    1565
                ],
                [
                    3399,
                    1755
                ]
            ],
            "shape_type": "rectangle"
        },
        {
            "flags": {},
            "group_id": null,
            "label": "p1-1",
            "points": [
                [
                    2844,
                    1841
                ],
                [
                    3401,
                    2032
                ]
            ],
            "shape_type": "rectangle"
        },
        {
            "flags": {},
            "group_id": null,
            "label": "btl",
            "points": [
                [
                    2347,
                    3861
                ],
                [
                    4153,
                    4167
                ]
            ],
            "shape_type": "rectangle"
        },
        {
            "flags": {},
            "group_id": null,
            "label": "sm",
            "points": [
                [
                    2078,
                    3382
                ],
                [
                    3795,
                    3774
                ]
            ],
            "shape_type": "rectangle"
        },
        {
            "flags": {},
            "group_id": null,
            "label": "sm",
            "points": [
                [
                    594,
                    2777
                ],
                [
                    1532,
                    3033
                ]
            ],
            "shape_type": "rectangle"
        },
        {
            "flags": {},
            "group_id": null,
            "label": "wz4",
            "points": [
                [
                    3548,
                    3027
                ],
                [
                    3674,
                    3074
                ]
            ],
            "shape_type": "rectangle"
        },
        {
            "flags": {},
            "group_id": null,
            "label": "k1",
            "points": [
                [
                    3518,
                    2952
                ],
                [
                    3560,
                    2994
                ]
            ],
            "shape_type": "rectangle"
        },
        {
            "flags": {},
            "group_id": null,
            "label": "j1",
            "points": [
                [
                    1379,
                    1439
                ],
                [
                    1409,
                    1484
                ]
            ],
            "shape_type": "rectangle"
        },
        {
            "flags": {},
            "group_id": null,
            "label": "j1",
            "points": [
                [
                    1523,
                    1520
                ],
                [
                    1610,
                    1598
                ]
            ],
            "shape_type": "rectangle"
        },
        {
            "flags": {},
            "group_id": null,
            "label": "j1",
            "points": [
                [
                    1276,
                    1574
                ],
                [
                    1388,
                    1654
                ]
            ],
            "shape_type": "rectangle"
        },
        {
            "flags": {},
            "group_id": null,
            "label": "j1",
            "points": [
                [
                    1525,
                    1757
                ],
                [
                    1631,
                    1835
                ]
            ],
            "shape_type": "rectangle"
        },
        {
            "flags": {},
            "group_id": null,
            "label": "x2",
            "points": [
                [
                    844,
                    1887
                ],
                [
                    1150,
                    2321
                ]
            ],
            "shape_type": "rectangle"
        },
        {
            "flags": {},
            "group_id": null,
            "label": "wz2",
            "points": [
                [
                    940,
                    2076
                ],
                [
                    1008,
                    2164
                ]
            ],
            "shape_type": "rectangle"
        },
        {
            "flags": {},
            "group_id": null,
            "label": "k1",
            "points": [
                [
                    1177,
                    2241
                ],
                [
                    1198,
                    2283
                ]
            ],
            "shape_type": "rectangle"
        },
        {
            "flags": {},
            "group_id": null,
            "label": "wz4",
            "points": [
                [
                    842,
                    2341
                ],
                [
                    969,
                    2385
                ]
            ],
            "shape_type": "rectangle"
        },
        {
            "flags": {},
            "group_id": null,
            "label": "mask",
            "lineType": [
                "LLLLLLLLLLLLLLLLL"
            ],
            "points": [
                [
                    534,
                    1554
                ],
                [
                    486,
                    1583
                ],
                [
                    482,
                    1733
                ],
                [
                    688,
                    1878
                ],
                [
                    863,
                    2130
                ],
                [
                    570,
                    2141
                ],
                [
                    441,
                    2234
                ],
                [
                    436,
                    2335
                ],
                [
                    473,
                    2736
                ],
                [
                    686,
                    2737
                ],
                [
                    696,
                    2605
                ],
                [
                    1218,
                    2613
                ],
                [
                    1237,
                    2149
                ],
                [
                    960,
                    1850
                ],
                [
                    999,
                    1728
                ],
                [
                    923,
                    1606
                ],
                [
                    534,
                    1554
                ]
            ],
            "shape_type": "polygon"
        },
        {
            "flags": {},
            "group_id": null,
            "label": "mask",
            "lineType": [
                "LLLLLLLLLLLL"
            ],
            "points": [
                [
                    1248,
                    1425
                ],
                [
                    1642,
                    1425
                ],
                [
                    1642,
                    1851
                ],
                [
                    1248,
                    1851
                ]
            ],
            "shape_type": "polygon"
        },
        {
            "flags": {},
            "group_id": null,
            "label": "mask",
            "lineType": [
                "LLLLLLLLLLLLLLLLLLLLLLL"
            ],
            "points": [
                [
                    1876,
                    1654
                ],
                [
                    1780,
                    1700
                ],
                [
                    1781,
                    1850
                ],
                [
                    1910,
                    1857
                ],
                [
                    1978,
                    2024
                ],
                [
                    2009,
                    2079
                ],
                [
                    2008,
                    2193
                ],
                [
                    2055,
                    2330
                ],
                [
                    2292,
                    2333
                ],
                [
                    2353,
                    2176
                ],
                [
                    2352,
                    2123
                ],
                [
                    2295,
                    2078
                ],
                [
                    2408,
                    1899
                ],
                [
                    2413,
                    1831
                ],
                [
                    2525,
                    1823
                ],
                [
                    2525,
                    1765
                ],
                [
                    2455,
                    1737
                ],
                [
                    2429,
                    1704
                ],
                [
                    2449,
                    1670
                ],
                [
                    2411,
                    1628
                ],
                [
                    2200,
                    1635
                ],
                [
                    2182,
                    1651
                ],
                [
                    1876,
                    1654
                ]
            ],
            "shape_type": "polygon"
        },
        {
            "flags": {},
            "group_id": null,
            "label": "mask",
            "lineType": [
                "LLLLLLLLLLLLLLLLLLLLLLLLLLLLLLLLLLLLLLLLLL"
            ],
            "points": [
                [
                    2979,
                    1353
                ],
                [
                    2936,
                    1390
                ],
                [
                    2931,
                    1437
                ],
                [
                    2772,
                    1426
                ],
                [
                    2695,
                    1607
                ],
                [
                    2649,
                    1627
                ],
                [
                    2649,
                    1728
                ],
                [
                    2694,
                    1788
                ],
                [
                    2610,
                    1880
                ],
                [
                    2617,
                    1985
                ],
                [
                    2877,
                    2055
                ],
                [
                    3037,
                    2088
                ],
                [
                    3032,
                    2287
                ],
                [
                    2835,
                    2310
                ],
                [
                    2839,
                    2396
                ],
                [
                    3056,
                    2408
                ],
                [
                    3041,
                    3082
                ],
                [
                    2610,
                    3133
                ],
                [
                    2629,
                    3200
                ],
                [
                    3137,
                    3196
                ],
                [
                    3142,
                    3335
                ],
                [
                    3502,
                    3333
                ],
                [
                    3472,
                    3216
                ],
                [
                    3571,
                    3209
                ],
                [
                    4074,
                    3211
                ],
                [
                    4099,
                    3172
                ],
                [
                    4101,
                    3091
                ],
                [
                    4092,
                    3082
                ],
                [
                    3812,
                    3077
                ],
                [
                    3810,
                    2885
                ],
                [
                    3790,
                    2870
                ],
                [
                    3187,
                    2854
                ],
                [
                    3189,
                    2426
                ],
                [
                    3187,
                    2096
                ],
                [
                    3387,
                    2047
                ],
                [
                    3659,
                    2047
                ],
                [
                    3742,
                    2031
                ],
                [
                    3754,
                    2013
                ],
                [
                    3753,
                    1719
                ],
                [
                    3743,
                    1454
                ],
                [
                    3089,
                    1346
                ],
                [
                    2979,
                    1353
                ]
            ],
            "shape_type": "polygon"
        },
        {
            "flags": {},
            "group_id": null,
            "label": "mask",
            "lineType": [
                "LLLLLLLLLLLLLLLLLLLLLLL"
            ],
            "points": [
                [
                    2009,
                    2425
                ],
                [
                    1906,
                    2386
                ],
                [
                    1861,
                    2417
                ],
                [
                    1849,
                    2515
                ],
                [
                    1697,
                    2548
                ],
                [
                    1704,
                    2662
                ],
                [
                    1909,
                    2620
                ],
                [
                    2000,
                    2828
                ],
                [
                    2046,
                    2872
                ],
                [
                    1994,
                    2938
                ],
                [
                    1995,
                    2973
                ],
                [
                    2037,
                    3085
                ],
                [
                    2290,
                    3087
                ],
                [
                    2412,
                    2966
                ],
                [
                    2410,
                    2921
                ],
                [
                    2279,
                    2855
                ],
                [
                    2372,
                    2753
                ],
                [
                    2396,
                    2595
                ],
                [
                    2535,
                    2595
                ],
                [
                    2589,
                    2460
                ],
                [
                    2577,
                    2423
                ],
                [
                    2364,
                    2430
                ],
                [
                    2009,
                    2425
                ]
            ],
            "shape_type": "polygon"
        },
        {
            "flags": {},
            "group_id": null,
            "label": "mask",
            "lineType": [
                "LLLLLLLLLL"
            ],
            "points": [
                [
                    2068,
                    3372
                ],
                [
                    3805,
                    3372
                ],
                [
                    3805,
                    3784
                ],
                [
                    2068,
                    3784
                ]
            ],
            "shape_type": "polygon"
        },
        {
            "flags": {},
            "group_id": null,
            "label": "mask",
            "lineType": [
                "LLLLL"
            ],
            "points": [
                [
                    2337,
                    3851
                ],
                [
                    4163,
                    3851
                ],
                [
                    4163,
                    4177
                ],
                [
                    2337,
                    4177
                ]
            ],
            "shape_type": "polygon"
        },
        {
            "flags": {},
            "group_id": null,
            "label": "mask",
            "lineType": [
                "LLLLLLLL"
            ],
            "points": [
                [
                    584,
                    2767
                ],
                [
                    1542,
                    2767
                ],
                [
                    1542,
                    3043
                ],
                [
                    584,
                    3043
                ]
            ],
            "shape_type": "polygon"
        },
        {
            "flags": {},
            "group_id": null,
            "label": "mask",
            "lineType": [
                "LLLLLLL"
            ],
            "points": [
                [
                    343,
                    3147
                ],
                [
                    1968,
                    3147
                ],
                [
                    1968,
                    4137
                ],
                [
                    343,
                    4137
                ]
            ],
            "shape_type": "polygon"
        },
        {
            "flags": {},
            "group_id": null,
            "label": "Ns",
            "points": [
                [
                    1437,
                    1683
                ]
            ],
            "shape_type": "point"
        },
        {
            "flags": {},
            "group_id": null,
            "label": "Ne",
            "points": [
                [
                    1437,
                    1504
                ]
            ],
            "shape_type": "point"
        },
        {
            "flags": {},
            "group_id": null,
            "label": "wlb",
            "points": [
                [
                    353,
                    3157
                ],
                [
                    1958,
                    4127
                ]
            ],
            "shape_type": "rectangle"
        },
        {
            "flags": {},
            "group_id": null,
            "label": "wz1",
            "points": [
                [
                    2261,
                    2925
                ],
                [
                    2383,
                    2980
                ]
            ],
            "shape_type": "rectangle"
        },
        {
            "flags": {},
            "group_id": null,
            "label": "wz3",
            "points": [
                [
                    2010,
                    2934
                ],
                [
                    2110,
                    2962
                ]
            ],
            "shape_type": "rectangle"
        },
        {
            "flags": {},
            "group_id": null,
            "label": "wz1",
            "points": [
                [
                    1728,
                    2558
                ],
                [
                    1847,
                    2611
                ]
            ],
            "shape_type": "rectangle"
        },
        {
            "flags": {},
            "group_id": null,
            "label": "wz3",
            "points": [
                [
                    1892,
                    2427
                ],
                [
                    1994,
                    2457
                ]
            ],
            "shape_type": "rectangle"
        },
        {
            "flags": {},
            "group_id": null,
            "label": "wz1",
            "points": [
                [
                    2437,
                    2449
                ],
                [
                    2557,
                    2503
                ]
            ],
            "shape_type": "rectangle"
        },
        {
            "flags": {},
            "group_id": null,
            "label": "wz3",
            "points": [
                [
                    2421,
                    2548
                ],
                [
                    2523,
                    2577
                ]
            ],
            "shape_type": "rectangle"
        },
        {
            "flags": {},
            "group_id": null,
            "label": "wz1",
            "points": [
                [
                    2850,
                    2322
                ],
                [
                    3038,
                    2368
                ]
            ],
            "shape_type": "rectangle"
        },
        {
            "flags": {},
            "group_id": null,
            "label": "wz3",
            "points": [
                [
                    2239,
                    2146
                ],
                [
                    2336,
                    2178
                ]
            ],
            "shape_type": "rectangle"
        },
        {
            "flags": {},
            "group_id": null,
            "label": "wz3",
            "points": [
                [
                    2010,
                    2138
                ],
                [
                    2109,
                    2170
                ]
            ],
            "shape_type": "rectangle"
        },
        {
            "flags": {},
            "group_id": null,
            "label": "wz3",
            "points": [
                [
                    1810,
                    1793
                ],
                [
                    1906,
                    1828
                ]
            ],
            "shape_type": "rectangle"
        },
        {
            "flags": {},
            "group_id": null,
            "label": "wz3",
            "points": [
                [
                    1858,
                    1672
                ],
                [
                    1954,
                    1706
                ]
            ],
            "shape_type": "rectangle"
        },
        {
            "flags": {},
            "group_id": null,
            "label": "wz3",
            "points": [
                [
                    2333,
                    1654
                ],
                [
                    2430,
                    1686
                ]
            ],
            "shape_type": "rectangle"
        },
        {
            "flags": {},
            "group_id": null,
            "label": "wz3",
            "points": [
                [
                    2415,
                    1773
                ],
                [
                    2514,
                    1806
                ]
            ],
            "shape_type": "rectangle"
        },
        {
            "flags": {},
            "group_id": null,
            "label": "wz1",
            "points": [
                [
                    2977,
                    1365
                ],
                [
                    3069,
                    1408
                ]
            ],
            "shape_type": "rectangle"
        },
        {
            "flags": {},
            "group_id": null,
            "label": "wz3",
            "points": [
                [
                    2684,
                    1625
                ],
                [
                    2782,
                    1660
                ]
            ],
            "shape_type": "rectangle"
        },
        {
            "flags": {},
            "group_id": null,
            "label": "wz3",
            "points": [
                [
                    2687,
                    1677
                ],
                [
                    2783,
                    1709
                ]
            ],
            "shape_type": "rectangle"
        },
        {
            "flags": {},
            "group_id": null,
            "label": "wz3",
            "points": [
                [
                    2651,
                    1885
                ],
                [
                    2771,
                    1956
                ]
            ],
            "shape_type": "rectangle"
        },
        {
            "flags": {},
            "group_id": null,
            "label": "wz3",
            "points": [
                [
                    1324,
                    1859
                ],
                [
                    1538,
                    1905
                ]
            ],
            "shape_type": "rectangle"
        },
        {
            "flags": {},
            "group_id": null,
            "label": "wz3",
            "points": [
                [
                    2926,
                    1513
                ],
                [
                    2980,
                    1546
                ]
            ],
            "shape_type": "rectangle"
        },
        {
            "flags": {},
            "group_id": null,
            "label": "wz3",
            "points": [
                [
                    3042,
                    1515
                ],
                [
                    3096,
                    1546
                ]
            ],
            "shape_type": "rectangle"
        },
        {
            "flags": {},
            "group_id": null,
            "label": "wz3",
            "points": [
                [
                    3349,
                    1522
                ],
                [
                    3390,
                    1556
                ]
            ],
            "shape_type": "rectangle"
        }
    ],
    "version": "4.5.7"
}