{
    "flags": {},
    "imageData": null,
    "imageHeight": 4205,
    "imagePath": "样本2_93_33.png",
    "imageWidth": 4205,
    "shapes": [
        {
            "flags": {},
            "group_id": null,
            "label": "vb1",
            "points": [
                [
                    616,
                    1631
                ],
                [
                    798,
                    1732
                ]
            ],
            "shape_type": "rectangle"
        },
        {
            "flags": {},
            "group_id": null,
            "label": "vt1",
            "points": [
                [
                    887,
                    1554
                ],
                [
                    1141,
                    1808
                ]
            ],
            "shape_type": "rectangle"
        },
        {
            "flags": {},
            "group_id": null,
            "label": "d1",
            "points": [
                [
                    520,
                    1856
                ],
                [
                    603,
                    1994
                ]
            ],
            "shape_type": "rectangle"
        },
        {
            "flags": {},
            "group_id": null,
            "label": "v1",
            "points": [
                [
                    690,
                    1886
                ],
                [
                    1021,
                    1980
                ]
            ],
            "shape_type": "rectangle"
        },
        {
            "flags": {},
            "group_id": null,
            "label": "d1",
            "points": [
                [
                    1120,
                    1856
                ],
                [
                    1203,
                    1993
                ]
            ],
            "shape_type": "rectangle"
        },
        {
            "flags": {},
            "group_id": null,
            "label": "vp1-1",
            "points": [
                [
                    1165,
                    2296
                ],
                [
                    1331,
                    2463
                ]
            ],
            "shape_type": "rectangle"
        },
        {
            "flags": {},
            "group_id": null,
            "label": "n1",
            "points": [
                [
                    1608,
                    1416
                ],
                [
                    2122,
                    1861
                ]
            ],
            "shape_type": "rectangle"
        },
        {
            "flags": {},
            "group_id": null,
            "label": "v1",
            "points": [
                [
                    1052,
                    2569
                ],
                [
                    1384,
                    2660
                ]
            ],
            "shape_type": "rectangle"
        },
        {
            "flags": {},
            "group_id": null,
            "label": "vp1-1",
            "points": [
                [
                    1833,
                    2296
                ],
                [
                    2000,
                    2462
                ]
            ],
            "shape_type": "rectangle"
        },
        {
            "flags": {},
            "group_id": null,
            "label": "v1",
            "points": [
                [
                    1720,
                    2569
                ],
                [
                    2053,
                    2660
                ]
            ],
            "shape_type": "rectangle"
        },
        {
            "flags": {},
            "group_id": null,
            "label": "vp1-1",
            "points": [
                [
                    1190,
                    2820
                ],
                [
                    1357,
                    2987
                ]
            ],
            "shape_type": "rectangle"
        },
        {
            "flags": {},
            "group_id": null,
            "label": "v1",
            "points": [
                [
                    1076,
                    3093
                ],
                [
                    1409,
                    3184
                ]
            ],
            "shape_type": "rectangle"
        },
        {
            "flags": {},
            "group_id": null,
            "label": "vp1-1",
            "points": [
                [
                    1834,
                    2818
                ],
                [
                    2000,
                    2983
                ]
            ],
            "shape_type": "rectangle"
        },
        {
            "flags": {},
            "group_id": null,
            "label": "v1",
            "points": [
                [
                    1720,
                    3090
                ],
                [
                    2051,
                    3181
                ]
            ],
            "shape_type": "rectangle"
        },
        {
            "flags": {},
            "group_id": null,
            "label": "t1",
            "points": [
                [
                    3492,
                    1453
                ],
                [
                    3549,
                    3120
                ]
            ],
            "shape_type": "rectangle"
        },
        {
            "flags": {},
            "group_id": null,
            "label": "v1",
            "points": [
                [
                    3312,
                    3253
                ],
                [
                    3644,
                    3344
                ]
            ],
            "shape_type": "rectangle"
        },
        {
            "flags": {},
            "group_id": null,
            "label": "b1",
            "points": [
                [
                    3096,
                    2877
                ],
                [
                    3278,
                    3120
                ]
            ],
            "shape_type": "rectangle"
        },
        {
            "flags": {},
            "group_id": null,
            "label": "h1",
            "points": [
                [
                    3681,
                    3049
                ],
                [
                    3832,
                    3119
                ]
            ],
            "shape_type": "rectangle"
        },
        {
            "flags": {},
            "group_id": null,
            "label": "h1",
            "points": [
                [
                    3916,
                    1412
                ],
                [
                    4059,
                    1483
                ]
            ],
            "shape_type": "rectangle"
        },
        {
            "flags": {},
            "group_id": null,
            "label": "h1",
            "points": [
                [
                    3917,
                    1598
                ],
                [
                    4058,
                    1669
                ]
            ],
            "shape_type": "rectangle"
        },
        {
            "flags": {},
            "group_id": null,
            "label": "h1",
            "points": [
                [
                    3917,
                    1778
                ],
                [
                    4059,
                    1849
                ]
            ],
            "shape_type": "rectangle"
        },
        {
            "flags": {},
            "group_id": null,
            "label": "h1",
            "points": [
                [
                    3915,
                    1964
                ],
                [
                    4060,
                    2034
                ]
            ],
            "shape_type": "rectangle"
        },
        {
            "flags": {},
            "group_id": null,
            "label": "h1",
            "points": [
                [
                    3916,
                    2175
                ],
                [
                    4061,
                    2245
                ]
            ],
            "shape_type": "rectangle"
        },
        {
            "flags": {},
            "group_id": null,
            "label": "d1",
            "points": [
                [
                    3742,
                    1444
                ],
                [
                    3825,
                    1581
                ]
            ],
            "shape_type": "rectangle"
        },
        {
            "flags": {},
            "group_id": null,
            "label": "d1",
            "points": [
                [
                    3742,
                    1684
                ],
                [
                    3825,
                    1822
                ]
            ],
            "shape_type": "rectangle"
        },
        {
            "flags": {},
            "group_id": null,
            "label": "d1",
            "points": [
                [
                    3741,
                    1872
                ],
                [
                    3825,
                    2009
                ]
            ],
            "shape_type": "rectangle"
        },
        {
            "flags": {},
            "group_id": null,
            "label": "d1",
            "points": [
                [
                    3742,
                    2082
                ],
                [
                    3825,
                    2219
                ]
            ],
            "shape_type": "rectangle"
        },
        {
            "flags": {},
            "group_id": null,
            "label": "d1",
            "points": [
                [
                    3228,
                    1444
                ],
                [
                    3311,
                    1580
                ]
            ],
            "shape_type": "rectangle"
        },
        {
            "flags": {},
            "group_id": null,
            "label": "d1",
            "points": [
                [
                    3228,
                    1684
                ],
                [
                    3312,
                    1821
                ]
            ],
            "shape_type": "rectangle"
        },
        {
            "flags": {},
            "group_id": null,
            "label": "d1",
            "points": [
                [
                    3228,
                    1871
                ],
                [
                    3311,
                    2008
                ]
            ],
            "shape_type": "rectangle"
        },
        {
            "flags": {},
            "group_id": null,
            "label": "d1",
            "points": [
                [
                    3228,
                    2082
                ],
                [
                    3313,
                    2219
                ]
            ],
            "shape_type": "rectangle"
        },
        {
            "flags": {},
            "group_id": null,
            "label": "c1",
            "points": [
                [
                    3520,
                    1454
                ],
                [
                    3521,
                    1504
                ]
            ],
            "shape_type": "rectangle"
        },
        {
            "flags": {},
            "group_id": null,
            "label": "g1",
            "points": [
                [
                    3473,
                    1550
                ],
                [
                    3477,
                    1698
                ]
            ],
            "shape_type": "rectangle"
        },
        {
            "flags": {},
            "group_id": null,
            "label": "g1",
            "points": [
                [
                    3565,
                    1550
                ],
                [
                    3568,
                    1698
                ]
            ],
            "shape_type": "rectangle"
        },
        {
            "flags": {},
            "group_id": null,
            "label": "g1",
            "points": [
                [
                    3473,
                    1724
                ],
                [
                    3476,
                    1874
                ]
            ],
            "shape_type": "rectangle"
        },
        {
            "flags": {},
            "group_id": null,
            "label": "g1",
            "points": [
                [
                    3564,
                    1725
                ],
                [
                    3568,
                    1874
                ]
            ],
            "shape_type": "rectangle"
        },
        {
            "flags": {},
            "group_id": null,
            "label": "g1",
            "points": [
                [
                    3473,
                    1910
                ],
                [
                    3476,
                    2059
                ]
            ],
            "shape_type": "rectangle"
        },
        {
            "flags": {},
            "group_id": null,
            "label": "g1",
            "points": [
                [
                    3564,
                    1911
                ],
                [
                    3569,
                    2059
                ]
            ],
            "shape_type": "rectangle"
        },
        {
            "flags": {},
            "group_id": null,
            "label": "a1-1",
            "points": [
                [
                    3451,
                    1945
                ],
                [
                    3471,
                    2033
                ]
            ],
            "shape_type": "rectangle"
        },
        {
            "flags": {},
            "group_id": null,
            "label": "a1-2",
            "points": [
                [
                    3569,
                    1945
                ],
                [
                    3591,
                    2033
                ]
            ],
            "shape_type": "rectangle"
        },
        {
            "flags": {},
            "group_id": null,
            "label": "a1-4",
            "points": [
                [
                    3510,
                    1939
                ],
                [
                    3531,
                    2029
                ]
            ],
            "shape_type": "rectangle"
        },
        {
            "flags": {},
            "group_id": null,
            "label": "p1-1",
            "points": [
                [
                    3450,
                    1910
                ],
                [
                    3591,
                    2060
                ]
            ],
            "shape_type": "rectangle"
        },
        {
            "flags": {},
            "group_id": null,
            "label": "g1",
            "points": [
                [
                    3472,
                    2121
                ],
                [
                    3477,
                    2269
                ]
            ],
            "shape_type": "rectangle"
        },
        {
            "flags": {},
            "group_id": null,
            "label": "g1",
            "points": [
                [
                    3564,
                    2121
                ],
                [
                    3568,
                    2270
                ]
            ],
            "shape_type": "rectangle"
        },
        {
            "flags": {},
            "group_id": null,
            "label": "p1-1",
            "points": [
                [
                    3472,
                    2120
                ],
                [
                    3569,
                    2270
                ]
            ],
            "shape_type": "rectangle"
        },
        {
            "flags": {},
            "group_id": null,
            "label": "seven",
            "points": [
                [
                    3107,
                    2878
                ]
            ],
            "shape_type": "point"
        },
        {
            "flags": {},
            "group_id": null,
            "label": "eight",
            "points": [
                [
                    3267,
                    2878
                ]
            ],
            "shape_type": "point"
        },
        {
            "flags": {},
            "group_id": null,
            "label": "thirteen",
            "points": [
                [
                    3187,
                    2878
                ]
            ],
            "shape_type": "point"
        },
        {
            "flags": {},
            "group_id": null,
            "label": "fourteen",
            "points": [
                [
                    3107,
                    3079
                ]
            ],
            "shape_type": "point"
        },
        {
            "flags": {},
            "group_id": null,
            "label": "fourteen",
            "points": [
                [
                    3187,
                    3079
                ]
            ],
            "shape_type": "point"
        },
        {
            "flags": {},
            "group_id": null,
            "label": "fourteen",
            "points": [
                [
                    3267,
                    3079
                ]
            ],
            "shape_type": "point"
        },
        {
            "flags": {},
            "group_id": null,
            "label": "seven",
            "points": [
                [
                    3097,
                    3079
                ]
            ],
            "shape_type": "point"
        },
        {
            "flags": {},
            "group_id": null,
            "label": "eight",
            "points": [
                [
                    3277,
                    3079
                ]
            ],
            "shape_type": "point"
        },
        {
            "flags": {},
            "group_id": null,
            "label": "fourteen",
            "points": [
                [
                    3097,
                    3119
                ]
            ],
            "shape_type": "point"
        },
        {
            "flags": {},
            "group_id": null,
            "label": "fourteen",
            "points": [
                [
                    3277,
                    3119
                ]
            ],
            "shape_type": "point"
        },
        {
            "flags": {},
            "group_id": null,
            "label": "seven",
            "points": [
                [
                    617,
                    1631
                ]
            ],
            "shape_type": "point"
        },
        {
            "flags": {},
            "group_id": null,
            "label": "eight",
            "points": [
                [
                    797,
                    1631
                ]
            ],
            "shape_type": "point"
        },
        {
            "flags": {},
            "group_id": null,
            "label": "seven",
            "points": [
                [
                    627,
                    1641
                ]
            ],
            "shape_type": "point"
        },
        {
            "flags": {},
            "group_id": null,
            "label": "eight",
            "points": [
                [
                    787,
                    1641
                ]
            ],
            "shape_type": "point"
        },
        {
            "flags": {},
            "group_id": null,
            "label": "thirteen",
            "points": [
                [
                    707,
                    1641
                ]
            ],
            "shape_type": "point"
        },
        {
            "flags": {},
            "group_id": null,
            "label": "nine",
            "points": [
                [
                    627,
                    1721
                ]
            ],
            "shape_type": "point"
        },
        {
            "flags": {},
            "group_id": null,
            "label": "ten",
            "points": [
                [
                    787,
                    1721
                ]
            ],
            "shape_type": "point"
        },
        {
            "flags": {},
            "group_id": null,
            "label": "fourteen",
            "points": [
                [
                    707,
                    1721
                ]
            ],
            "shape_type": "point"
        },
        {
            "flags": {},
            "group_id": null,
            "label": "nine",
            "points": [
                [
                    617,
                    1730
                ]
            ],
            "shape_type": "point"
        },
        {
            "flags": {},
            "group_id": null,
            "label": "ten",
            "points": [
                [
                    797,
                    1731
                ]
            ],
            "shape_type": "point"
        },
        {
            "flags": {},
            "group_id": null,
            "label": "p1-1",
            "points": [
                [
                    3472,
                    1724
                ],
                [
                    3569,
                    1875
                ]
            ],
            "shape_type": "rectangle"
        },
        {
            "flags": {},
            "group_id": null,
            "label": "p1-1",
            "points": [
                [
                    3473,
                    1549
                ],
                [
                    3569,
                    1698
                ]
            ],
            "shape_type": "rectangle"
        },
        {
            "flags": {},
            "group_id": null,
            "label": "va1",
            "points": [
                [
                    1259,
                    2721
                ],
                [
                    1302,
                    2761
                ]
            ],
            "shape_type": "rectangle"
        },
        {
            "flags": {},
            "group_id": null,
            "label": "va1",
            "points": [
                [
                    1389,
                    2969
                ],
                [
                    1434,
                    3009
                ]
            ],
            "shape_type": "rectangle"
        },
        {
            "flags": {},
            "group_id": null,
            "label": "va1",
            "points": [
                [
                    1115,
                    2958
                ],
                [
                    1150,
                    3003
                ]
            ],
            "shape_type": "rectangle"
        },
        {
            "flags": {},
            "group_id": null,
            "label": "x1",
            "points": [
                [
                    3443,
                    2475
                ],
                [
                    3595,
                    2502
                ]
            ],
            "shape_type": "rectangle"
        },
        {
            "flags": {},
            "group_id": null,
            "label": "j1",
            "points": [
                [
                    1939,
                    1418
                ],
                [
                    1970,
                    1465
                ]
            ],
            "shape_type": "rectangle"
        },
        {
            "flags": {},
            "group_id": null,
            "label": "j1",
            "points": [
                [
                    2028,
                    1488
                ],
                [
                    2116,
                    1569
                ]
            ],
            "shape_type": "rectangle"
        },
        {
            "flags": {},
            "group_id": null,
            "label": "j1",
            "points": [
                [
                    2012,
                    1772
                ],
                [
                    2121,
                    1854
                ]
            ],
            "shape_type": "rectangle"
        },
        {
            "flags": {},
            "group_id": null,
            "label": "j1",
            "points": [
                [
                    1608,
                    1654
                ],
                [
                    1717,
                    1739
                ]
            ],
            "shape_type": "rectangle"
        },
        {
            "flags": {},
            "group_id": null,
            "label": "sm",
            "points": [
                [
                    1823,
                    3211
                ],
                [
                    3280,
                    3876
                ]
            ],
            "shape_type": "rectangle"
        },
        {
            "flags": {},
            "group_id": null,
            "label": "btl",
            "points": [
                [
                    2347,
                    3864
                ],
                [
                    4152,
                    4171
                ]
            ],
            "shape_type": "rectangle"
        },
        {
            "flags": {},
            "group_id": null,
            "label": "mask",
            "lineType": [
                "LLLLLLLLLLLLLLLLLLLLLLLLLLLLLLLLLLLL"
            ],
            "points": [
                [
                    3171,
                    1421
                ],
                [
                    3462,
                    1415
                ],
                [
                    3967,
                    1374
                ],
                [
                    4096,
                    1392
                ],
                [
                    4094,
                    1621
                ],
                [
                    4103,
                    1887
                ],
                [
                    4094,
                    2060
                ],
                [
                    4109,
                    2271
                ],
                [
                    4072,
                    2308
                ],
                [
                    3648,
                    2305
                ],
                [
                    3626,
                    2597
                ],
                [
                    3617,
                    3013
                ],
                [
                    3859,
                    3016
                ],
                [
                    3869,
                    3087
                ],
                [
                    3832,
                    3148
                ],
                [
                    3612,
                    3203
                ],
                [
                    3669,
                    3328
                ],
                [
                    3664,
                    3388
                ],
                [
                    3259,
                    3382
                ],
                [
                    3214,
                    3238
                ],
                [
                    3206,
                    3193
                ],
                [
                    2845,
                    3186
                ],
                [
                    2746,
                    3169
                ],
                [
                    2730,
                    3102
                ],
                [
                    2811,
                    3051
                ],
                [
                    3075,
                    2908
                ],
                [
                    3105,
                    2829
                ],
                [
                    3408,
                    2773
                ],
                [
                    3388,
                    2473
                ],
                [
                    3325,
                    2269
                ],
                [
                    3171,
                    2266
                ],
                [
                    3109,
                    2163
                ],
                [
                    2972,
                    2043
                ],
                [
                    2950,
                    1980
                ],
                [
                    3027,
                    1650
                ],
                [
                    3171,
                    1421
                ]
            ],
            "shape_type": "polygon"
        },
        {
            "flags": {},
            "group_id": null,
            "label": "mask",
            "lineType": [
                "LLLLL"
            ],
            "points": [
                [
                    2337,
                    3854
                ],
                [
                    4162,
                    3854
                ],
                [
                    4162,
                    4181
                ],
                [
                    2337,
                    4181
                ]
            ],
            "shape_type": "polygon"
        },
        {
            "flags": {},
            "group_id": null,
            "label": "mask",
            "lineType": [
                "LLLLLLLLLLLLLLLLLLLLLLLLL"
            ],
            "points": [
                [
                    1813,
                    3201
                ],
                [
                    3290,
                    3201
                ],
                [
                    3290,
                    3886
                ],
                [
                    1813,
                    3886
                ]
            ],
            "shape_type": "polygon"
        },
        {
            "flags": {},
            "group_id": null,
            "label": "mask",
            "lineType": [
                "LLLLLLLLLLLLLLLL"
            ],
            "points": [
                [
                    1695,
                    3186
                ],
                [
                    1771,
                    3187
                ],
                [
                    1951,
                    3183
                ],
                [
                    2054,
                    3184
                ],
                [
                    2060,
                    3142
                ],
                [
                    2056,
                    3066
                ],
                [
                    2070,
                    3018
                ],
                [
                    2077,
                    2910
                ],
                [
                    1987,
                    2732
                ],
                [
                    1914,
                    2722
                ],
                [
                    1840,
                    2774
                ],
                [
                    1787,
                    2850
                ],
                [
                    1761,
                    2918
                ],
                [
                    1749,
                    3015
                ],
                [
                    1707,
                    3082
                ],
                [
                    1695,
                    3186
                ]
            ],
            "shape_type": "polygon"
        },
        {
            "flags": {},
            "group_id": null,
            "label": "mask",
            "lineType": [
                "LLLLLLLLLLL"
            ],
            "points": [
                [
                    1709,
                    2684
                ],
                [
                    1921,
                    2684
                ],
                [
                    2077,
                    2680
                ],
                [
                    2083,
                    2605
                ],
                [
                    2097,
                    2430
                ],
                [
                    2045,
                    2333
                ],
                [
                    1963,
                    2199
                ],
                [
                    1883,
                    2200
                ],
                [
                    1825,
                    2272
                ],
                [
                    1726,
                    2419
                ],
                [
                    1709,
                    2684
                ]
            ],
            "shape_type": "polygon"
        },
        {
            "flags": {},
            "group_id": null,
            "label": "mask",
            "lineType": [
                "LLLLLLLLLLLLLLLLL"
            ],
            "points": [
                [
                    1039,
                    3212
                ],
                [
                    1374,
                    3212
                ],
                [
                    1457,
                    3201
                ],
                [
                    1511,
                    3129
                ],
                [
                    1597,
                    3077
                ],
                [
                    1630,
                    3029
                ],
                [
                    1620,
                    2958
                ],
                [
                    1493,
                    2681
                ],
                [
                    1432,
                    2680
                ],
                [
                    1364,
                    2683
                ],
                [
                    1254,
                    2699
                ],
                [
                    1156,
                    2848
                ],
                [
                    1093,
                    2893
                ],
                [
                    928,
                    2925
                ],
                [
                    928,
                    2994
                ],
                [
                    938,
                    3045
                ],
                [
                    1039,
                    3212
                ]
            ],
            "shape_type": "polygon"
        },
        {
            "flags": {},
            "group_id": null,
            "label": "mask",
            "lineType": [
                "LLLLLLLLLLL"
            ],
            "points": [
                [
                    334,
                    3289
                ],
                [
                    1742,
                    3289
                ],
                [
                    1742,
                    4034
                ],
                [
                    334,
                    4034
                ]
            ],
            "shape_type": "polygon"
        },
        {
            "flags": {},
            "group_id": null,
            "label": "mask",
            "lineType": [
                "LLLLLLLLLLLLLL"
            ],
            "points": [
                [
                    1022,
                    2665
                ],
                [
                    1100,
                    2679
                ],
                [
                    1327,
                    2674
                ],
                [
                    1392,
                    2662
                ],
                [
                    1405,
                    2610
                ],
                [
                    1421,
                    2505
                ],
                [
                    1385,
                    2347
                ],
                [
                    1343,
                    2239
                ],
                [
                    1263,
                    2204
                ],
                [
                    1213,
                    2205
                ],
                [
                    1069,
                    2476
                ],
                [
                    1040,
                    2512
                ],
                [
                    1028,
                    2552
                ],
                [
                    1022,
                    2665
                ]
            ],
            "shape_type": "polygon"
        },
        {
            "flags": {},
            "group_id": null,
            "label": "mask",
            "lineType": [
                "LLLLLLLLLLLL"
            ],
            "points": [
                [
                    473,
                    2025
                ],
                [
                    669,
                    2024
                ],
                [
                    888,
                    2029
                ],
                [
                    1211,
                    2031
                ],
                [
                    1231,
                    1963
                ],
                [
                    1230,
                    1819
                ],
                [
                    1185,
                    1552
                ],
                [
                    1017,
                    1530
                ],
                [
                    541,
                    1590
                ],
                [
                    479,
                    1661
                ],
                [
                    468,
                    1710
                ],
                [
                    473,
                    2025
                ]
            ],
            "shape_type": "polygon"
        },
        {
            "flags": {},
            "group_id": null,
            "label": "mask",
            "lineType": [
                "LLLLLLLLLLLLLLLLLL"
            ],
            "points": [
                [
                    1598,
                    1406
                ],
                [
                    2132,
                    1406
                ],
                [
                    2132,
                    1871
                ],
                [
                    1598,
                    1871
                ]
            ],
            "shape_type": "polygon"
        },
        {
            "flags": {},
            "group_id": null,
            "label": "Ns",
            "points": [
                [
                    1908,
                    1707
                ]
            ],
            "shape_type": "point"
        },
        {
            "flags": {},
            "group_id": null,
            "label": "Ne",
            "points": [
                [
                    1906,
                    1527
                ]
            ],
            "shape_type": "point"
        },
        {
            "flags": {},
            "group_id": null,
            "label": "wlb",
            "points": [
                [
                    344,
                    3299
                ],
                [
                    1732,
                    4024
                ]
            ],
            "shape_type": "rectangle"
        },
        {
            "flags": {},
            "group_id": null,
            "label": "wz3",
            "points": [
                [
                    1760,
                    1904
                ],
                [
                    1975,
                    1951
                ]
            ],
            "shape_type": "rectangle"
        },
        {
            "flags": {},
            "group_id": null,
            "label": "wz3",
            "points": [
                [
                    2968,
                    1952
                ],
                [
                    3101,
                    1977
                ]
            ],
            "shape_type": "rectangle"
        },
        {
            "flags": {},
            "group_id": null,
            "label": "wz3",
            "points": [
                [
                    1338,
                    2693
                ],
                [
                    1474,
                    2759
                ]
            ],
            "shape_type": "rectangle"
        },
        {
            "flags": {},
            "group_id": null,
            "label": "wz3",
            "points": [
                [
                    1449,
                    2995
                ],
                [
                    1599,
                    3059
                ]
            ],
            "shape_type": "rectangle"
        },
        {
            "flags": {},
            "group_id": null,
            "label": "wz3",
            "points": [
                [
                    944,
                    2940
                ],
                [
                    1098,
                    3004
                ]
            ],
            "shape_type": "rectangle"
        }
    ],
    "version": "4.5.7"
}