{
    "flags": {},
    "imageData": null,
    "imageHeight": 4210,
    "imagePath": "永平路普惠路(5G)-2.png",
    "imageWidth": 4210,
    "shapes": [
        {
            "flags": {},
            "group_id": null,
            "label": "wz4",
            "points": [
                [
                    751,
                    1830
                ],
                [
                    879,
                    1876
                ]
            ],
            "shape_type": "rectangle"
        },
        {
            "flags": {},
            "group_id": null,
            "label": "k1",
            "points": [
                [
                    1073,
                    1800
                ],
                [
                    1102,
                    1842
                ]
            ],
            "shape_type": "rectangle"
        },
        {
            "flags": {},
            "group_id": null,
            "label": "wz1",
            "points": [
                [
                    1018,
                    1565
                ],
                [
                    1277,
                    1607
                ]
            ],
            "shape_type": "rectangle"
        },
        {
            "flags": {},
            "group_id": null,
            "label": "va3",
            "points": [
                [
                    1297,
                    1848
                ],
                [
                    1325,
                    1877
                ]
            ],
            "shape_type": "rectangle"
        },
        {
            "flags": {},
            "group_id": null,
            "label": "wz1",
            "points": [
                [
                    1325,
                    1902
                ],
                [
                    1369,
                    1919
                ]
            ],
            "shape_type": "rectangle"
        },
        {
            "flags": {},
            "group_id": null,
            "label": "vt3",
            "points": [
                [
                    1293,
                    1767
                ],
                [
                    1420,
                    1911
                ]
            ],
            "shape_type": "rectangle"
        },
        {
            "flags": {},
            "group_id": null,
            "label": "d1",
            "points": [
                [
                    507,
                    2047
                ],
                [
                    595,
                    2188
                ]
            ],
            "shape_type": "rectangle"
        },
        {
            "flags": {},
            "group_id": null,
            "label": "v1",
            "points": [
                [
                    879,
                    2058
                ],
                [
                    1113,
                    2153
                ]
            ],
            "shape_type": "rectangle"
        },
        {
            "flags": {},
            "group_id": null,
            "label": "d1",
            "points": [
                [
                    1413,
                    2047
                ],
                [
                    1500,
                    2188
                ]
            ],
            "shape_type": "rectangle"
        },
        {
            "flags": {},
            "group_id": null,
            "label": "sm",
            "points": [
                [
                    486,
                    2538
                ],
                [
                    1942,
                    3196
                ]
            ],
            "shape_type": "rectangle"
        },
        {
            "flags": {},
            "group_id": null,
            "label": "j1",
            "points": [
                [
                    2026,
                    2502
                ],
                [
                    2127,
                    2583
                ]
            ],
            "shape_type": "rectangle"
        },
        {
            "flags": {},
            "group_id": null,
            "label": "j1",
            "points": [
                [
                    1610,
                    2529
                ],
                [
                    1720,
                    2613
                ]
            ],
            "shape_type": "rectangle"
        },
        {
            "flags": {},
            "group_id": null,
            "label": "j1",
            "points": [
                [
                    1634,
                    2298
                ],
                [
                    1745,
                    2378
                ]
            ],
            "shape_type": "rectangle"
        },
        {
            "flags": {},
            "group_id": null,
            "label": "j1",
            "points": [
                [
                    1826,
                    2183
                ],
                [
                    1859,
                    2227
                ]
            ],
            "shape_type": "rectangle"
        },
        {
            "flags": {},
            "group_id": null,
            "label": "n1",
            "points": [
                [
                    1609,
                    2180
                ],
                [
                    2128,
                    2615
                ]
            ],
            "shape_type": "rectangle"
        },
        {
            "flags": {},
            "group_id": null,
            "label": "wz3",
            "points": [
                [
                    2388,
                    1829
                ],
                [
                    2509,
                    1875
                ]
            ],
            "shape_type": "rectangle"
        },
        {
            "flags": {},
            "group_id": null,
            "label": "va1",
            "points": [
                [
                    2372,
                    1922
                ],
                [
                    2414,
                    1963
                ]
            ],
            "shape_type": "rectangle"
        },
        {
            "flags": {},
            "group_id": null,
            "label": "vp2-2",
            "points": [
                [
                    2397,
                    1952
                ],
                [
                    2507,
                    2075
                ]
            ],
            "shape_type": "rectangle"
        },
        {
            "flags": {},
            "group_id": null,
            "label": "vp2-2",
            "points": [
                [
                    2397,
                    2405
                ],
                [
                    2507,
                    2529
                ]
            ],
            "shape_type": "rectangle"
        },
        {
            "flags": {},
            "group_id": null,
            "label": "vp2-2",
            "points": [
                [
                    2408,
                    2826
                ],
                [
                    2519,
                    2950
                ]
            ],
            "shape_type": "rectangle"
        },
        {
            "flags": {},
            "group_id": null,
            "label": "vp2-2",
            "points": [
                [
                    2405,
                    3203
                ],
                [
                    2516,
                    3327
                ]
            ],
            "shape_type": "rectangle"
        },
        {
            "flags": {},
            "group_id": null,
            "label": "va1",
            "points": [
                [
                    2369,
                    2059
                ],
                [
                    2409,
                    2103
                ]
            ],
            "shape_type": "rectangle"
        },
        {
            "flags": {},
            "group_id": null,
            "label": "va1",
            "points": [
                [
                    2496,
                    1999
                ],
                [
                    2534,
                    2044
                ]
            ],
            "shape_type": "rectangle"
        },
        {
            "flags": {},
            "group_id": null,
            "label": "v1",
            "points": [
                [
                    2274,
                    2153
                ],
                [
                    2609,
                    2249
                ]
            ],
            "shape_type": "rectangle"
        },
        {
            "flags": {},
            "group_id": null,
            "label": "wz3",
            "points": [
                [
                    2367,
                    2303
                ],
                [
                    2490,
                    2348
                ]
            ],
            "shape_type": "rectangle"
        },
        {
            "flags": {},
            "group_id": null,
            "label": "va1",
            "points": [
                [
                    2373,
                    2376
                ],
                [
                    2413,
                    2417
                ]
            ],
            "shape_type": "rectangle"
        },
        {
            "flags": {},
            "group_id": null,
            "label": "va1",
            "points": [
                [
                    2369,
                    2512
                ],
                [
                    2410,
                    2556
                ]
            ],
            "shape_type": "rectangle"
        },
        {
            "flags": {},
            "group_id": null,
            "label": "va1",
            "points": [
                [
                    2495,
                    2451
                ],
                [
                    2535,
                    2497
                ]
            ],
            "shape_type": "rectangle"
        },
        {
            "flags": {},
            "group_id": null,
            "label": "v1",
            "points": [
                [
                    2259,
                    2585
                ],
                [
                    2595,
                    2681
                ]
            ],
            "shape_type": "rectangle"
        },
        {
            "flags": {},
            "group_id": null,
            "label": "wz3",
            "points": [
                [
                    2355,
                    2721
                ],
                [
                    2518,
                    2766
                ]
            ],
            "shape_type": "rectangle"
        },
        {
            "flags": {},
            "group_id": null,
            "label": "va1",
            "points": [
                [
                    2383,
                    2797
                ],
                [
                    2425,
                    2838
                ]
            ],
            "shape_type": "rectangle"
        },
        {
            "flags": {},
            "group_id": null,
            "label": "va1",
            "points": [
                [
                    2380,
                    2934
                ],
                [
                    2421,
                    2978
                ]
            ],
            "shape_type": "rectangle"
        },
        {
            "flags": {},
            "group_id": null,
            "label": "va1",
            "points": [
                [
                    2507,
                    2873
                ],
                [
                    2545,
                    2918
                ]
            ],
            "shape_type": "rectangle"
        },
        {
            "flags": {},
            "group_id": null,
            "label": "v1",
            "points": [
                [
                    2261,
                    3009
                ],
                [
                    2597,
                    3106
                ]
            ],
            "shape_type": "rectangle"
        },
        {
            "flags": {},
            "group_id": null,
            "label": "wz3",
            "points": [
                [
                    2221,
                    3159
                ],
                [
                    2362,
                    3224
                ]
            ],
            "shape_type": "rectangle"
        },
        {
            "flags": {},
            "group_id": null,
            "label": "va1",
            "points": [
                [
                    2380,
                    3174
                ],
                [
                    2422,
                    3216
                ]
            ],
            "shape_type": "rectangle"
        },
        {
            "flags": {},
            "group_id": null,
            "label": "va1",
            "points": [
                [
                    2503,
                    3251
                ],
                [
                    2543,
                    3296
                ]
            ],
            "shape_type": "rectangle"
        },
        {
            "flags": {},
            "group_id": null,
            "label": "wz3",
            "points": [
                [
                    2551,
                    3234
                ],
                [
                    2689,
                    3296
                ]
            ],
            "shape_type": "rectangle"
        },
        {
            "flags": {},
            "group_id": null,
            "label": "va1",
            "points": [
                [
                    2377,
                    3311
                ],
                [
                    2417,
                    3355
                ]
            ],
            "shape_type": "rectangle"
        },
        {
            "flags": {},
            "group_id": null,
            "label": "wz3",
            "points": [
                [
                    2222,
                    3313
                ],
                [
                    2368,
                    3373
                ]
            ],
            "shape_type": "rectangle"
        },
        {
            "flags": {},
            "group_id": null,
            "label": "v1",
            "points": [
                [
                    2276,
                    3420
                ],
                [
                    2612,
                    3516
                ]
            ],
            "shape_type": "rectangle"
        },
        {
            "flags": {},
            "group_id": null,
            "label": "wz3",
            "points": [
                [
                    3102,
                    1762
                ],
                [
                    3223,
                    1806
                ]
            ],
            "shape_type": "rectangle"
        },
        {
            "flags": {},
            "group_id": null,
            "label": "wz3",
            "points": [
                [
                    3103,
                    1934
                ],
                [
                    3227,
                    1978
                ]
            ],
            "shape_type": "rectangle"
        },
        {
            "flags": {},
            "group_id": null,
            "label": "wz3",
            "points": [
                [
                    3079,
                    2101
                ],
                [
                    3242,
                    2147
                ]
            ],
            "shape_type": "rectangle"
        },
        {
            "flags": {},
            "group_id": null,
            "label": "wz3",
            "points": [
                [
                    3103,
                    2259
                ],
                [
                    3225,
                    2305
                ]
            ],
            "shape_type": "rectangle"
        },
        {
            "flags": {},
            "group_id": null,
            "label": "wz1",
            "points": [
                [
                    3243,
                    2632
                ],
                [
                    3427,
                    2677
                ]
            ],
            "shape_type": "rectangle"
        },
        {
            "flags": {},
            "group_id": null,
            "label": "wz1",
            "points": [
                [
                    3429,
                    2574
                ],
                [
                    3474,
                    2591
                ]
            ],
            "shape_type": "rectangle"
        },
        {
            "flags": {},
            "group_id": null,
            "label": "a3",
            "points": [
                [
                    3472,
                    2600
                ],
                [
                    3498,
                    2661
                ]
            ],
            "shape_type": "rectangle"
        },
        {
            "flags": {},
            "group_id": null,
            "label": "x1",
            "points": [
                [
                    3498,
                    2781
                ],
                [
                    3598,
                    2810
                ]
            ],
            "shape_type": "rectangle"
        },
        {
            "flags": {},
            "group_id": null,
            "label": "k1",
            "points": [
                [
                    3378,
                    3166
                ],
                [
                    3402,
                    3210
                ]
            ],
            "shape_type": "rectangle"
        },
        {
            "flags": {},
            "group_id": null,
            "label": "wz4",
            "points": [
                [
                    3057,
                    3189
                ],
                [
                    3186,
                    3234
                ]
            ],
            "shape_type": "rectangle"
        },
        {
            "flags": {},
            "group_id": null,
            "label": "h1",
            "points": [
                [
                    3673,
                    3286
                ],
                [
                    3859,
                    3365
                ]
            ],
            "shape_type": "rectangle"
        },
        {
            "flags": {},
            "group_id": null,
            "label": "v1",
            "points": [
                [
                    3105,
                    3480
                ],
                [
                    3441,
                    3581
                ]
            ],
            "shape_type": "rectangle"
        },
        {
            "flags": {},
            "group_id": null,
            "label": "h1",
            "points": [
                [
                    3775,
                    1616
                ],
                [
                    3959,
                    1696
                ]
            ],
            "shape_type": "rectangle"
        },
        {
            "flags": {},
            "group_id": null,
            "label": "h1",
            "points": [
                [
                    3779,
                    1729
                ],
                [
                    3963,
                    1808
                ]
            ],
            "shape_type": "rectangle"
        },
        {
            "flags": {},
            "group_id": null,
            "label": "h1",
            "points": [
                [
                    3777,
                    1922
                ],
                [
                    3961,
                    2001
                ]
            ],
            "shape_type": "rectangle"
        },
        {
            "flags": {},
            "group_id": null,
            "label": "h1",
            "points": [
                [
                    3777,
                    2068
                ],
                [
                    3963,
                    2147
                ]
            ],
            "shape_type": "rectangle"
        },
        {
            "flags": {},
            "group_id": null,
            "label": "h1",
            "points": [
                [
                    3783,
                    2247
                ],
                [
                    3967,
                    2326
                ]
            ],
            "shape_type": "rectangle"
        },
        {
            "flags": {},
            "group_id": null,
            "label": "d1",
            "points": [
                [
                    3373,
                    1694
                ],
                [
                    3460,
                    1837
                ]
            ],
            "shape_type": "rectangle"
        },
        {
            "flags": {},
            "group_id": null,
            "label": "d1",
            "points": [
                [
                    3370,
                    1856
                ],
                [
                    3457,
                    1999
                ]
            ],
            "shape_type": "rectangle"
        },
        {
            "flags": {},
            "group_id": null,
            "label": "d1",
            "points": [
                [
                    3370,
                    2011
                ],
                [
                    3457,
                    2153
                ]
            ],
            "shape_type": "rectangle"
        },
        {
            "flags": {},
            "group_id": null,
            "label": "d1",
            "points": [
                [
                    3370,
                    2159
                ],
                [
                    3457,
                    2301
                ]
            ],
            "shape_type": "rectangle"
        },
        {
            "flags": {},
            "group_id": null,
            "label": "d1",
            "points": [
                [
                    3629,
                    2158
                ],
                [
                    3716,
                    2301
                ]
            ],
            "shape_type": "rectangle"
        },
        {
            "flags": {},
            "group_id": null,
            "label": "d1",
            "points": [
                [
                    3628,
                    2011
                ],
                [
                    3715,
                    2154
                ]
            ],
            "shape_type": "rectangle"
        },
        {
            "flags": {},
            "group_id": null,
            "label": "d1",
            "points": [
                [
                    3629,
                    1855
                ],
                [
                    3716,
                    1998
                ]
            ],
            "shape_type": "rectangle"
        },
        {
            "flags": {},
            "group_id": null,
            "label": "d1",
            "points": [
                [
                    3631,
                    1693
                ],
                [
                    3718,
                    1836
                ]
            ],
            "shape_type": "rectangle"
        },
        {
            "flags": {},
            "group_id": null,
            "label": "a1-1",
            "points": [
                [
                    3473,
                    1742
                ],
                [
                    3496,
                    1807
                ]
            ],
            "shape_type": "rectangle"
        },
        {
            "flags": {},
            "group_id": null,
            "label": "a1-2",
            "points": [
                [
                    3601,
                    1742
                ],
                [
                    3625,
                    1807
                ]
            ],
            "shape_type": "rectangle"
        },
        {
            "flags": {},
            "group_id": null,
            "label": "a1-1",
            "points": [
                [
                    3472,
                    1904
                ],
                [
                    3500,
                    2011
                ]
            ],
            "shape_type": "rectangle"
        },
        {
            "flags": {},
            "group_id": null,
            "label": "a1-2",
            "points": [
                [
                    3597,
                    1903
                ],
                [
                    3625,
                    2010
                ]
            ],
            "shape_type": "rectangle"
        },
        {
            "flags": {},
            "group_id": null,
            "label": "g1",
            "points": [
                [
                    3499,
                    1700
                ],
                [
                    3504,
                    1838
                ]
            ],
            "shape_type": "rectangle"
        },
        {
            "flags": {},
            "group_id": null,
            "label": "g1",
            "points": [
                [
                    3592,
                    1698
                ],
                [
                    3597,
                    1842
                ]
            ],
            "shape_type": "rectangle"
        },
        {
            "flags": {},
            "group_id": null,
            "label": "g1",
            "points": [
                [
                    3499,
                    1859
                ],
                [
                    3504,
                    2026
                ]
            ],
            "shape_type": "rectangle"
        },
        {
            "flags": {},
            "group_id": null,
            "label": "g1",
            "points": [
                [
                    3592,
                    1857
                ],
                [
                    3597,
                    2025
                ]
            ],
            "shape_type": "rectangle"
        },
        {
            "flags": {},
            "group_id": null,
            "label": "g1",
            "points": [
                [
                    3500,
                    2035
                ],
                [
                    3504,
                    2202
                ]
            ],
            "shape_type": "rectangle"
        },
        {
            "flags": {},
            "group_id": null,
            "label": "g1",
            "points": [
                [
                    3592,
                    2034
                ],
                [
                    3597,
                    2201
                ]
            ],
            "shape_type": "rectangle"
        },
        {
            "flags": {},
            "group_id": null,
            "label": "a1-1",
            "points": [
                [
                    3473,
                    2087
                ],
                [
                    3496,
                    2152
                ]
            ],
            "shape_type": "rectangle"
        },
        {
            "flags": {},
            "group_id": null,
            "label": "a1-2",
            "points": [
                [
                    3601,
                    2086
                ],
                [
                    3625,
                    2151
                ]
            ],
            "shape_type": "rectangle"
        },
        {
            "flags": {},
            "group_id": null,
            "label": "a1-1",
            "points": [
                [
                    3474,
                    2257
                ],
                [
                    3497,
                    2322
                ]
            ],
            "shape_type": "rectangle"
        },
        {
            "flags": {},
            "group_id": null,
            "label": "a1-2",
            "points": [
                [
                    3601,
                    2257
                ],
                [
                    3625,
                    2321
                ]
            ],
            "shape_type": "rectangle"
        },
        {
            "flags": {},
            "group_id": null,
            "label": "g1",
            "points": [
                [
                    3500,
                    2219
                ],
                [
                    3505,
                    2367
                ]
            ],
            "shape_type": "rectangle"
        },
        {
            "flags": {},
            "group_id": null,
            "label": "g1",
            "points": [
                [
                    3593,
                    2218
                ],
                [
                    3598,
                    2365
                ]
            ],
            "shape_type": "rectangle"
        },
        {
            "flags": {},
            "group_id": null,
            "label": "p1-1",
            "points": [
                [
                    3500,
                    2218
                ],
                [
                    3599,
                    2367
                ]
            ],
            "shape_type": "rectangle"
        },
        {
            "flags": {},
            "group_id": null,
            "label": "p1-1",
            "points": [
                [
                    3500,
                    2033
                ],
                [
                    3597,
                    2202
                ]
            ],
            "shape_type": "rectangle"
        },
        {
            "flags": {},
            "group_id": null,
            "label": "p1-1",
            "points": [
                [
                    3499,
                    1856
                ],
                [
                    3598,
                    2026
                ]
            ],
            "shape_type": "rectangle"
        },
        {
            "flags": {},
            "group_id": null,
            "label": "p1-1",
            "points": [
                [
                    3499,
                    1697
                ],
                [
                    3597,
                    1842
                ]
            ],
            "shape_type": "rectangle"
        },
        {
            "flags": {},
            "group_id": null,
            "label": "t10",
            "points": [
                [
                    3460,
                    1692
                ],
                [
                    3649,
                    3365
                ]
            ],
            "shape_type": "rectangle"
        },
        {
            "flags": {},
            "group_id": null,
            "label": "btl",
            "points": [
                [
                    2348,
                    3837
                ],
                [
                    4165,
                    4146
                ]
            ],
            "shape_type": "rectangle"
        },
        {
            "flags": {},
            "group_id": null,
            "label": "mask",
            "lineType": [
                "LLLLLLLLLLL"
            ],
            "points": [
                [
                    892,
                    2307
                ],
                [
                    1507,
                    2252
                ],
                [
                    1562,
                    2220
                ],
                [
                    1557,
                    1987
                ],
                [
                    1524,
                    1740
                ],
                [
                    1369,
                    1507
                ],
                [
                    1189,
                    1475
                ],
                [
                    627,
                    1520
                ],
                [
                    452,
                    1655
                ],
                [
                    464,
                    2232
                ],
                [
                    892,
                    2307
                ]
            ],
            "shape_type": "polygon"
        },
        {
            "flags": {},
            "group_id": null,
            "label": "mask",
            "lineType": [
                "LLLLLLLLLLL"
            ],
            "points": [
                [
                    1599,
                    2170
                ],
                [
                    2138,
                    2170
                ],
                [
                    2138,
                    2625
                ],
                [
                    1599,
                    2625
                ]
            ],
            "shape_type": "polygon"
        },
        {
            "flags": {},
            "group_id": null,
            "label": "mask",
            "lineType": [
                "LLLLLLLLLLLLL"
            ],
            "points": [
                [
                    476,
                    2528
                ],
                [
                    1952,
                    2528
                ],
                [
                    1952,
                    3206
                ],
                [
                    476,
                    3206
                ]
            ],
            "shape_type": "polygon"
        },
        {
            "flags": {},
            "group_id": null,
            "label": "mask",
            "lineType": [
                "LLLLLLLLLL"
            ],
            "points": [
                [
                    2259,
                    2290
                ],
                [
                    2237,
                    1967
                ],
                [
                    2269,
                    1852
                ],
                [
                    2327,
                    1785
                ],
                [
                    2579,
                    1792
                ],
                [
                    2629,
                    1892
                ],
                [
                    2674,
                    2097
                ],
                [
                    2659,
                    2285
                ],
                [
                    2622,
                    2272
                ],
                [
                    2259,
                    2290
                ]
            ],
            "shape_type": "polygon"
        },
        {
            "flags": {},
            "group_id": null,
            "label": "mask",
            "lineType": [
                "LLLLLLLLLLLLL"
            ],
            "points": [
                [
                    2284,
                    2378
                ],
                [
                    2316,
                    2318
                ],
                [
                    2376,
                    2293
                ],
                [
                    2519,
                    2307
                ],
                [
                    2574,
                    2349
                ],
                [
                    2618,
                    2447
                ],
                [
                    2648,
                    2585
                ],
                [
                    2636,
                    2682
                ],
                [
                    2604,
                    2695
                ],
                [
                    2257,
                    2700
                ],
                [
                    2238,
                    2680
                ],
                [
                    2238,
                    2647
                ],
                [
                    2284,
                    2378
                ]
            ],
            "shape_type": "polygon"
        },
        {
            "flags": {},
            "group_id": null,
            "label": "mask",
            "lineType": [
                "LLLLLLLLLLL"
            ],
            "points": [
                [
                    2332,
                    2713
                ],
                [
                    2377,
                    2710
                ],
                [
                    2555,
                    2713
                ],
                [
                    2585,
                    2752
                ],
                [
                    2612,
                    3049
                ],
                [
                    2606,
                    3118
                ],
                [
                    2256,
                    3123
                ],
                [
                    2240,
                    3118
                ],
                [
                    2227,
                    3072
                ],
                [
                    2227,
                    2999
                ],
                [
                    2332,
                    2713
                ]
            ],
            "shape_type": "polygon"
        },
        {
            "flags": {},
            "group_id": null,
            "label": "mask",
            "lineType": [
                "LLLLLLLLLL"
            ],
            "points": [
                [
                    2205,
                    3267
                ],
                [
                    2210,
                    3142
                ],
                [
                    2481,
                    3153
                ],
                [
                    2643,
                    3195
                ],
                [
                    2710,
                    3222
                ],
                [
                    2626,
                    3540
                ],
                [
                    2572,
                    3555
                ],
                [
                    2262,
                    3538
                ],
                [
                    2228,
                    3502
                ],
                [
                    2205,
                    3267
                ]
            ],
            "shape_type": "polygon"
        },
        {
            "flags": {},
            "group_id": null,
            "label": "mask",
            "lineType": [
                "LLLLLLLLL"
            ],
            "points": [
                [
                    509,
                    3309
                ],
                [
                    2035,
                    3309
                ],
                [
                    2035,
                    3994
                ],
                [
                    509,
                    3994
                ]
            ],
            "shape_type": "polygon"
        },
        {
            "flags": {},
            "group_id": null,
            "label": "mask",
            "lineType": [
                "LLLLL"
            ],
            "points": [
                [
                    2338,
                    3827
                ],
                [
                    4175,
                    3827
                ],
                [
                    4175,
                    4156
                ],
                [
                    2338,
                    4156
                ]
            ],
            "shape_type": "polygon"
        },
        {
            "flags": {},
            "group_id": null,
            "label": "mask",
            "lineType": [
                "LLLLLLLLLLLLLLLLLLLLLLLLLLLLLLLL"
            ],
            "points": [
                [
                    3381,
                    3620
                ],
                [
                    3487,
                    3610
                ],
                [
                    3614,
                    3450
                ],
                [
                    3742,
                    3442
                ],
                [
                    3827,
                    3413
                ],
                [
                    3858,
                    3388
                ],
                [
                    3879,
                    3343
                ],
                [
                    3873,
                    3283
                ],
                [
                    3834,
                    3258
                ],
                [
                    3743,
                    3229
                ],
                [
                    3716,
                    2684
                ],
                [
                    3823,
                    2464
                ],
                [
                    3951,
                    2404
                ],
                [
                    3991,
                    2351
                ],
                [
                    4001,
                    2159
                ],
                [
                    4001,
                    2009
                ],
                [
                    4063,
                    1704
                ],
                [
                    4038,
                    1541
                ],
                [
                    3931,
                    1531
                ],
                [
                    3538,
                    1554
                ],
                [
                    3061,
                    1706
                ],
                [
                    3036,
                    1871
                ],
                [
                    3028,
                    2574
                ],
                [
                    2946,
                    2769
                ],
                [
                    2846,
                    2908
                ],
                [
                    2803,
                    3034
                ],
                [
                    2758,
                    3231
                ],
                [
                    2718,
                    3331
                ],
                [
                    2713,
                    3374
                ],
                [
                    2708,
                    3446
                ],
                [
                    2781,
                    3599
                ],
                [
                    3381,
                    3620
                ]
            ],
            "shape_type": "polygon"
        },
        {
            "flags": {},
            "group_id": null,
            "label": "Ns",
            "points": [
                [
                    1861,
                    2467
                ]
            ],
            "shape_type": "point"
        },
        {
            "flags": {},
            "group_id": null,
            "label": "Ne",
            "points": [
                [
                    1861,
                    2286
                ]
            ],
            "shape_type": "point"
        },
        {
            "flags": {},
            "group_id": null,
            "label": "wlb",
            "points": [
                [
                    519,
                    3319
                ],
                [
                    2025,
                    3984
                ]
            ],
            "shape_type": "rectangle"
        }
    ],
    "version": "4.5.7"
}