{
    "imageHeight": 2977,
    "imageWidth": 4210,
    "imagePath": "崔庄东-2.png",
    "shapes": [
        {
            "label": "wlb",
            "shape_type": "rectangle",
            "points": [
                [
                    349,
                    1585
                ],
                [
                    1916,
                    2787
                ]
            ],
            "flags": {},
            "group_id": null
        },
        {
            "label": "wztl",
            "shape_type": "rectangle",
            "points": [
                [
                    739,
                    2827
                ],
                [
                    856,
                    2868
                ]
            ],
            "flags": {},
            "group_id": null
        },
        {
            "label": "xtl",
            "shape_type": "rectangle",
            "points": [
                [
                    902,
                    2836
                ],
                [
                    953,
                    2879
                ]
            ],
            "flags": {},
            "group_id": null
        },
        {
            "label": "wztl",
            "shape_type": "rectangle",
            "points": [
                [
                    973,
                    2832
                ],
                [
                    1092,
                    2874
                ]
            ],
            "flags": {},
            "group_id": null
        },
        {
            "label": "xtl",
            "shape_type": "rectangle",
            "points": [
                [
                    1129,
                    2836
                ],
                [
                    1181,
                    2879
                ]
            ],
            "flags": {},
            "group_id": null
        },
        {
            "label": "wztl",
            "shape_type": "rectangle",
            "points": [
                [
                    1222,
                    2838
                ],
                [
                    1341,
                    2878
                ]
            ],
            "flags": {},
            "group_id": null
        },
        {
            "label": "xtl",
            "shape_type": "rectangle",
            "points": [
                [
                    1391,
                    2839
                ],
                [
                    1443,
                    2881
                ]
            ],
            "flags": {},
            "group_id": null
        },
        {
            "label": "Ns",
            "shape_type": "point",
            "points": [
                [
                    2115,
                    494
                ]
            ],
            "flags": {},
            "group_id": null
        },
        {
            "label": "Ne",
            "shape_type": "point",
            "points": [
                [
                    2115,
                    282
                ]
            ],
            "flags": {},
            "group_id": null
        },
        {
            "label": "Ne-1",
            "shape_type": "point",
            "points": [
                [
                    2224,
                    309
                ]
            ],
            "flags": {},
            "group_id": null
        },
        {
            "label": "Ne-2",
            "shape_type": "point",
            "points": [
                [
                    2224,
                    681
                ]
            ],
            "flags": {},
            "group_id": null
        },
        {
            "label": "Ne-3",
            "shape_type": "point",
            "points": [
                [
                    1840,
                    496
                ]
            ],
            "flags": {},
            "group_id": null
        }
    ],
    "flags": {},
    "imageData": null,
    "version": "4.5.7"
}