{
    "imageHeight": 2977,
    "imageWidth": 4210,
    "imagePath": "新密助泉水寺大方山R-2.png",
    "shapes": [
        {
            "label": "wlb",
            "shape_type": "rectangle",
            "points": [
                [
                    246,
                    1479
                ],
                [
                    2105,
                    2603
                ]
            ],
            "flags": {},
            "group_id": null
        },
        {
            "label": "Ns",
            "shape_type": "point",
            "points": [
                [
                    1962,
                    443
                ]
            ],
            "flags": {},
            "group_id": null
        },
        {
            "label": "Ne",
            "shape_type": "point",
            "points": [
                [
                    1960,
                    258
                ]
            ],
            "flags": {},
            "group_id": null
        },
        {
            "label": "Ne-1",
            "shape_type": "point",
            "points": [
                [
                    1982,
                    321
                ]
            ],
            "flags": {},
            "group_id": null
        },
        {
            "label": "Ne-2",
            "shape_type": "point",
            "points": [
                [
                    2039,
                    536
                ]
            ],
            "flags": {},
            "group_id": null
        },
        {
            "label": "Ne-3",
            "shape_type": "point",
            "points": [
                [
                    1839,
                    421
                ]
            ],
            "flags": {},
            "group_id": null
        }
    ],
    "flags": {},
    "imageData": null,
    "version": "4.5.7"
}