{
    "imageHeight": 2977,
    "imageWidth": 4210,
    "imagePath": "新郑孟庄鸡王村R-2.png",
    "shapes": [
        {
            "label": "wlb",
            "shape_type": "rectangle",
            "points": [
                [
                    385,
                    1613
                ],
                [
                    2219,
                    2883
                ]
            ],
            "flags": {},
            "group_id": null
        },
        {
            "label": "Ns",
            "shape_type": "point",
            "points": [
                [
                    2748,
                    369
                ]
            ],
            "flags": {},
            "group_id": null
        },
        {
            "label": "Ne",
            "shape_type": "point",
            "points": [
                [
                    2929,
                    368
                ]
            ],
            "flags": {},
            "group_id": null
        },
        {
            "label": "Ne-2",
            "shape_type": "point",
            "points": [
                [
                    2688,
                    473
                ]
            ],
            "flags": {},
            "group_id": null
        },
        {
            "label": "Ne-3",
            "shape_type": "point",
            "points": [
                [
                    2688,
                    264
                ]
            ],
            "flags": {},
            "group_id": null
        },
        {
            "label": "Ne-1",
            "shape_type": "point",
            "points": [
                [
                    2869,
                    368
                ]
            ],
            "flags": {},
            "group_id": null
        }
    ],
    "flags": {},
    "imageData": null,
    "version": "4.5.7"
}