{
    "imageHeight": 2977,
    "imageWidth": 4210,
    "imagePath": "经开区野曹耿庄高铁.png",
    "shapes": [
        {
            "label": "Ns",
            "shape_type": "point",
            "points": [
                [
                    2428,
                    443
                ]
            ],
            "flags": {},
            "group_id": null
        },
        {
            "label": "Ne",
            "shape_type": "point",
            "points": [
                [
                    2428,
                    263
                ]
            ],
            "flags": {},
            "group_id": null
        },
        {
            "label": "wlb",
            "shape_type": "rectangle",
            "points": [
                [
                    262,
                    1637
                ],
                [
                    1829,
                    2841
                ]
            ],
            "flags": {},
            "group_id": null
        },
        {
            "label": "wztl",
            "shape_type": "rectangle",
            "points": [
                [
                    595,
                    2848
                ],
                [
                    714,
                    2890
                ]
            ],
            "flags": {},
            "group_id": null
        },
        {
            "label": "xtl",
            "shape_type": "rectangle",
            "points": [
                [
                    758,
                    2858
                ],
                [
                    810,
                    2901
                ]
            ],
            "flags": {},
            "group_id": null
        },
        {
            "label": "wztl",
            "shape_type": "rectangle",
            "points": [
                [
                    831,
                    2855
                ],
                [
                    948,
                    2896
                ]
            ],
            "flags": {},
            "group_id": null
        },
        {
            "label": "xtl",
            "shape_type": "rectangle",
            "points": [
                [
                    985,
                    2859
                ],
                [
                    1038,
                    2900
                ]
            ],
            "flags": {},
            "group_id": null
        },
        {
            "label": "wztl",
            "shape_type": "rectangle",
            "points": [
                [
                    1080,
                    2859
                ],
                [
                    1197,
                    2900
                ]
            ],
            "flags": {},
            "group_id": null
        },
        {
            "label": "xtl",
            "shape_type": "rectangle",
            "points": [
                [
                    1248,
                    2861
                ],
                [
                    1300,
                    2903
                ]
            ],
            "flags": {},
            "group_id": null
        },
        {
            "label": "Ne-1",
            "shape_type": "point",
            "points": [
                [
                    2542,
                    485
                ]
            ],
            "flags": {},
            "group_id": null
        },
        {
            "label": "Ne-2",
            "shape_type": "point",
            "points": [
                [
                    2387,
                    556
                ]
            ],
            "flags": {},
            "group_id": null
        },
        {
            "label": "Ne-3",
            "shape_type": "point",
            "points": [
                [
                    2407,
                    324
                ]
            ],
            "flags": {},
            "group_id": null
        }
    ],
    "flags": {},
    "imageData": null,
    "version": "4.5.7"
}