{
    "imageHeight": 2977,
    "imageWidth": 4210,
    "imagePath": "郑州任庄东机房(5G)-2.png",
    "shapes": [
        {
            "label": "Ns",
            "shape_type": "point",
            "points": [
                [
                    1821,
                    1158
                ]
            ],
            "flags": {},
            "group_id": null
        },
        {
            "label": "Ne",
            "shape_type": "point",
            "points": [
                [
                    1761,
                    989
                ]
            ],
            "flags": {},
            "group_id": null
        },
        {
            "label": "wlb",
            "shape_type": "rectangle",
            "points": [
                [
                    520,
                    2087
                ],
                [
                    2026,
                    2752
                ]
            ],
            "flags": {},
            "group_id": null
        },
        {
            "label": "Ne-1",
            "shape_type": "point",
            "points": [
                [
                    1760,
                    988
                ]
            ],
            "flags": {},
            "group_id": null
        },
        {
            "label": "Ne-2",
            "shape_type": "point",
            "points": [
                [
                    1882,
                    1264
                ]
            ],
            "flags": {},
            "group_id": null
        },
        {
            "label": "Ne-3",
            "shape_type": "point",
            "points": [
                [
                    1705,
                    1190
                ]
            ],
            "flags": {},
            "group_id": null
        }
    ],
    "flags": {},
    "imageData": null,
    "version": "4.5.7"
}