{
    "imageHeight": 2975,
    "imageWidth": 4210,
    "imagePath": "20201116-番禺-广州广深港东新南-5G-李兆华（局端：广深港东新，利旧机房，利旧35米通信杆第四平台，铁塔）_1.png",
    "shapes": [
        {
            "label": "x1",
            "shape_type": "rectangle",
            "points": [
                [
                    432,
                    410
                ],
                [
                    1949,
                    486
                ]
            ],
            "flags": {},
            "group_id": null
        },
        {
            "label": "b1",
            "shape_type": "rectangle",
            "points": [
                [
                    1090,
                    848
                ],
                [
                    1249,
                    1080
                ]
            ],
            "flags": {},
            "group_id": null
        },
        {
            "label": "vtn",
            "shape_type": "rectangle",
            "points": [
                [
                    863,
                    913
                ],
                [
                    963,
                    1015
                ]
            ],
            "flags": {},
            "group_id": null
        },
        {
            "label": "d1",
            "shape_type": "rectangle",
            "points": [
                [
                    361,
                    1433
                ],
                [
                    418,
                    1508
                ]
            ],
            "flags": {},
            "group_id": null
        },
        {
            "label": "v1",
            "shape_type": "rectangle",
            "points": [
                [
                    1102,
                    1486
                ],
                [
                    1218,
                    1558
                ]
            ],
            "flags": {},
            "group_id": null
        },
        {
            "label": "d1",
            "shape_type": "rectangle",
            "points": [
                [
                    1957,
                    1433
                ],
                [
                    2013,
                    1509
                ]
            ],
            "flags": {},
            "group_id": null
        },
        {
            "label": "x1",
            "shape_type": "rectangle",
            "points": [
                [
                    594,
                    217
                ],
                [
                    669,
                    1384
                ]
            ],
            "flags": {},
            "group_id": null
        },
        {
            "label": "three",
            "shape_type": "point",
            "points": [
                [
                    573,
                    529
                ]
            ],
            "flags": {},
            "group_id": null
        },
        {
            "label": "four",
            "shape_type": "point",
            "points": [
                [
                    863,
                    528
                ]
            ],
            "flags": {},
            "group_id": null
        },
        {
            "label": "three",
            "shape_type": "point",
            "points": [
                [
                    967,
                    529
                ]
            ],
            "flags": {},
            "group_id": null
        },
        {
            "label": "four",
            "shape_type": "point",
            "points": [
                [
                    1265,
                    529
                ]
            ],
            "flags": {},
            "group_id": null
        },
        {
            "label": "five",
            "shape_type": "point",
            "points": [
                [
                    1076,
                    529
                ]
            ],
            "flags": {},
            "group_id": null
        },
        {
            "label": "one",
            "shape_type": "point",
            "points": [
                [
                    547,
                    1093
                ]
            ],
            "flags": {},
            "group_id": null
        },
        {
            "label": "six",
            "shape_type": "point",
            "points": [
                [
                    545,
                    833
                ]
            ],
            "flags": {},
            "group_id": null
        },
        {
            "label": "two",
            "shape_type": "point",
            "points": [
                [
                    546,
                    399
                ]
            ],
            "flags": {},
            "group_id": null
        },
        {
            "label": "twentyone",
            "shape_type": "point",
            "points": [
                [
                    1131,
                    1077
                ]
            ],
            "flags": {},
            "group_id": null
        },
        {
            "label": "n1",
            "shape_type": "rectangle",
            "points": [
                [
                    3449,
                    186
                ],
                [
                    3979,
                    555
                ]
            ],
            "flags": {},
            "group_id": null
        },
        {
            "label": "v1",
            "shape_type": "rectangle",
            "points": [
                [
                    3568,
                    616
                ],
                [
                    3829,
                    682
                ]
            ],
            "flags": {},
            "group_id": null
        },
        {
            "label": "v1",
            "shape_type": "rectangle",
            "points": [
                [
                    403,
                    2046
                ],
                [
                    667,
                    2112
                ]
            ],
            "flags": {},
            "group_id": null
        },
        {
            "label": "v1",
            "shape_type": "rectangle",
            "points": [
                [
                    766,
                    2044
                ],
                [
                    1033,
                    2112
                ]
            ],
            "flags": {},
            "group_id": null
        },
        {
            "label": "v1",
            "shape_type": "rectangle",
            "points": [
                [
                    1128,
                    2042
                ],
                [
                    1394,
                    2111
                ]
            ],
            "flags": {},
            "group_id": null
        },
        {
            "label": "v1",
            "shape_type": "rectangle",
            "points": [
                [
                    1471,
                    2043
                ],
                [
                    1739,
                    2112
                ]
            ],
            "flags": {},
            "group_id": null
        },
        {
            "label": "vp2-1",
            "shape_type": "rectangle",
            "points": [
                [
                    498,
                    1866
                ],
                [
                    567,
                    1932
                ]
            ],
            "flags": {},
            "group_id": null
        },
        {
            "label": "vp2-1",
            "shape_type": "rectangle",
            "points": [
                [
                    862,
                    1868
                ],
                [
                    930,
                    1932
                ]
            ],
            "flags": {},
            "group_id": null
        },
        {
            "label": "vp2-1",
            "shape_type": "rectangle",
            "points": [
                [
                    1225,
                    1868
                ],
                [
                    1293,
                    1931
                ]
            ],
            "flags": {},
            "group_id": null
        },
        {
            "label": "van",
            "shape_type": "rectangle",
            "points": [
                [
                    1569,
                    1824
                ],
                [
                    1640,
                    1868
                ]
            ],
            "flags": {},
            "group_id": null
        },
        {
            "label": "van",
            "shape_type": "rectangle",
            "points": [
                [
                    1632,
                    1896
                ],
                [
                    1678,
                    1965
                ]
            ],
            "flags": {},
            "group_id": null
        },
        {
            "label": "vp2-1",
            "shape_type": "rectangle",
            "points": [
                [
                    1567,
                    1868
                ],
                [
                    1635,
                    1932
                ]
            ],
            "flags": {},
            "group_id": null
        },
        {
            "label": "seven",
            "shape_type": "point",
            "points": [
                [
                    1090,
                    849
                ]
            ],
            "flags": {},
            "group_id": null
        },
        {
            "label": "eight",
            "shape_type": "point",
            "points": [
                [
                    1249,
                    849
                ]
            ],
            "flags": {},
            "group_id": null
        },
        {
            "label": "nine",
            "shape_type": "point",
            "points": [
                [
                    1089,
                    1081
                ]
            ],
            "flags": {},
            "group_id": null
        },
        {
            "label": "ten",
            "shape_type": "point",
            "points": [
                [
                    1249,
                    1081
                ]
            ],
            "flags": {},
            "group_id": null
        },
        {
            "label": "twentytwo",
            "shape_type": "point",
            "points": [
                [
                    1091,
                    908
                ]
            ],
            "flags": {},
            "group_id": null
        },
        {
            "label": "twentythere",
            "shape_type": "point",
            "points": [
                [
                    1098,
                    936
                ]
            ],
            "flags": {},
            "group_id": null
        },
        {
            "label": "x1",
            "shape_type": "rectangle",
            "points": [
                [
                    431,
                    227
                ],
                [
                    469,
                    1424
                ]
            ],
            "flags": {},
            "group_id": null
        },
        {
            "label": "x1",
            "shape_type": "rectangle",
            "points": [
                [
                    1898,
                    227
                ],
                [
                    1935,
                    1426
                ]
            ],
            "flags": {},
            "group_id": null
        },
        {
            "label": "x1",
            "shape_type": "rectangle",
            "points": [
                [
                    422,
                    1343
                ],
                [
                    1964,
                    1378
                ]
            ],
            "flags": {},
            "group_id": null
        },
        {
            "label": "twelve",
            "shape_type": "point",
            "points": [
                [
                    1097,
                    907
                ]
            ],
            "flags": {},
            "group_id": null
        },
        {
            "label": "eleven",
            "shape_type": "point",
            "points": [
                [
                    1090,
                    937
                ]
            ],
            "flags": {},
            "group_id": null
        },
        {
            "label": "thirteen",
            "shape_type": "point",
            "points": [
                [
                    1097,
                    849
                ]
            ],
            "flags": {},
            "group_id": null
        },
        {
            "label": "eleven",
            "shape_type": "point",
            "points": [
                [
                    1097,
                    856
                ]
            ],
            "flags": {},
            "group_id": null
        },
        {
            "label": "thirteen",
            "shape_type": "point",
            "points": [
                [
                    1135,
                    849
                ]
            ],
            "flags": {},
            "group_id": null
        },
        {
            "label": "fourteen",
            "shape_type": "point",
            "points": [
                [
                    1135,
                    856
                ]
            ],
            "flags": {},
            "group_id": null
        },
        {
            "label": "thirteen",
            "shape_type": "point",
            "points": [
                [
                    1242,
                    849
                ]
            ],
            "flags": {},
            "group_id": null
        },
        {
            "label": "twelve",
            "shape_type": "point",
            "points": [
                [
                    1242,
                    852
                ]
            ],
            "flags": {},
            "group_id": null
        },
        {
            "label": "twelve",
            "shape_type": "point",
            "points": [
                [
                    1242,
                    856
                ]
            ],
            "flags": {},
            "group_id": null
        },
        {
            "label": "twelve",
            "shape_type": "point",
            "points": [
                [
                    1242,
                    1073
                ]
            ],
            "flags": {},
            "group_id": null
        },
        {
            "label": "fourteen",
            "shape_type": "point",
            "points": [
                [
                    1242,
                    1080
                ]
            ],
            "flags": {},
            "group_id": null
        },
        {
            "label": "thirteen",
            "shape_type": "point",
            "points": [
                [
                    1188,
                    1073
                ]
            ],
            "flags": {},
            "group_id": null
        },
        {
            "label": "fourteen",
            "shape_type": "point",
            "points": [
                [
                    1188,
                    1080
                ]
            ],
            "flags": {},
            "group_id": null
        },
        {
            "label": "thirteen",
            "shape_type": "point",
            "points": [
                [
                    1130,
                    1073
                ]
            ],
            "flags": {},
            "group_id": null
        },
        {
            "label": "fourteen",
            "shape_type": "point",
            "points": [
                [
                    1130,
                    1080
                ]
            ],
            "flags": {},
            "group_id": null
        },
        {
            "label": "eleven",
            "shape_type": "point",
            "points": [
                [
                    1097,
                    1073
                ]
            ],
            "flags": {},
            "group_id": null
        },
        {
            "label": "fourteen",
            "shape_type": "point",
            "points": [
                [
                    1097,
                    1080
                ]
            ],
            "flags": {},
            "group_id": null
        },
        {
            "label": "tl",
            "shape_type": "rectangle",
            "points": [
                [
                    2422,
                    136
                ],
                [
                    3331,
                    693
                ]
            ],
            "flags": {},
            "group_id": null
        },
        {
            "label": "j1",
            "shape_type": "rectangle",
            "points": [
                [
                    3654,
                    185
                ],
                [
                    3831,
                    226
                ]
            ],
            "flags": {},
            "group_id": null
        },
        {
            "label": "j1",
            "shape_type": "rectangle",
            "points": [
                [
                    3450,
                    414
                ],
                [
                    3488,
                    460
                ]
            ],
            "flags": {},
            "group_id": null
        },
        {
            "label": "j1",
            "shape_type": "rectangle",
            "points": [
                [
                    3794,
                    511
                ],
                [
                    3978,
                    552
                ]
            ],
            "flags": {},
            "group_id": null
        },
        {
            "label": "btl",
            "shape_type": "rectangle",
            "points": [
                [
                    2324,
                    2580
                ],
                [
                    4065,
                    2872
                ]
            ],
            "flags": {},
            "group_id": null
        },
        {
            "label": "wz4",
            "shape_type": "rectangle",
            "points": [
                [
                    1130,
                    312
                ],
                [
                    1262,
                    359
                ]
            ],
            "flags": {},
            "group_id": null
        },
        {
            "label": "wz4",
            "shape_type": "rectangle",
            "points": [
                [
                    1125,
                    577
                ],
                [
                    1192,
                    624
                ]
            ],
            "flags": {},
            "group_id": null
        },
        {
            "label": "wz2",
            "shape_type": "rectangle",
            "points": [
                [
                    1150,
                    508
                ],
                [
                    1189,
                    525
                ]
            ],
            "flags": {},
            "group_id": null
        },
        {
            "label": "wz2",
            "shape_type": "rectangle",
            "points": [
                [
                    1004,
                    510
                ],
                [
                    1038,
                    525
                ]
            ],
            "flags": {},
            "group_id": null
        },
        {
            "label": "wz2",
            "shape_type": "rectangle",
            "points": [
                [
                    695,
                    510
                ],
                [
                    735,
                    525
                ]
            ],
            "flags": {},
            "group_id": null
        },
        {
            "label": "x2",
            "shape_type": "rectangle",
            "points": [
                [
                    562,
                    511
                ],
                [
                    875,
                    541
                ]
            ],
            "flags": {},
            "group_id": null
        },
        {
            "label": "x2",
            "shape_type": "rectangle",
            "points": [
                [
                    955,
                    508
                ],
                [
                    1277,
                    541
                ]
            ],
            "flags": {},
            "group_id": null
        },
        {
            "label": "wz4",
            "shape_type": "rectangle",
            "points": [
                [
                    724,
                    831
                ],
                [
                    787,
                    879
                ]
            ],
            "flags": {},
            "group_id": null
        },
        {
            "label": "wz2",
            "shape_type": "rectangle",
            "points": [
                [
                    526,
                    947
                ],
                [
                    544,
                    986
                ]
            ],
            "flags": {},
            "group_id": null
        },
        {
            "label": "wz2",
            "shape_type": "rectangle",
            "points": [
                [
                    527,
                    598
                ],
                [
                    544,
                    639
                ]
            ],
            "flags": {},
            "group_id": null
        },
        {
            "label": "x2",
            "shape_type": "rectangle",
            "points": [
                [
                    526,
                    387
                ],
                [
                    557,
                    1105
                ]
            ],
            "flags": {},
            "group_id": null
        },
        {
            "label": "wz4",
            "shape_type": "rectangle",
            "points": [
                [
                    468,
                    884
                ],
                [
                    527,
                    929
                ]
            ],
            "flags": {},
            "group_id": null
        },
        {
            "label": "wz4",
            "shape_type": "rectangle",
            "points": [
                [
                    1111,
                    915
                ],
                [
                    1237,
                    1008
                ]
            ],
            "flags": {},
            "group_id": null
        },
        {
            "label": "wz4",
            "shape_type": "rectangle",
            "points": [
                [
                    1129,
                    1221
                ],
                [
                    1192,
                    1265
                ]
            ],
            "flags": {},
            "group_id": null
        },
        {
            "label": "wz4",
            "shape_type": "rectangle",
            "points": [
                [
                    1733,
                    913
                ],
                [
                    1795,
                    958
                ]
            ],
            "flags": {},
            "group_id": null
        },
        {
            "label": "sm",
            "shape_type": "rectangle",
            "points": [
                [
                    232,
                    2373
                ],
                [
                    1969,
                    2793
                ]
            ],
            "flags": {},
            "group_id": null
        },
        {
            "label": "mask",
            "lineType": [
                "LLLLLLLLLLLLLLLLLLLL"
            ],
            "shape_type": "polygon",
            "points": [
                [
                    1171,
                    1631
                ],
                [
                    1407,
                    1627
                ],
                [
                    1861,
                    1605
                ],
                [
                    2023,
                    1581
                ],
                [
                    2057,
                    1549
                ],
                [
                    2091,
                    1113
                ],
                [
                    2109,
                    825
                ],
                [
                    2115,
                    459
                ],
                [
                    1998,
                    205
                ],
                [
                    1795,
                    184
                ],
                [
                    1278,
                    181
                ],
                [
                    969,
                    200
                ],
                [
                    508,
                    194
                ],
                [
                    369,
                    210
                ],
                [
                    344,
                    360
                ],
                [
                    354,
                    871
                ],
                [
                    328,
                    1345
                ],
                [
                    329,
                    1485
                ],
                [
                    341,
                    1551
                ],
                [
                    1171,
                    1631
                ]
            ],
            "flags": {},
            "group_id": null
        },
        {
            "label": "mask",
            "lineType": [
                "LLLLLLLLLLLL"
            ],
            "shape_type": "polygon",
            "points": [
                [
                    402,
                    1877
                ],
                [
                    455,
                    1833
                ],
                [
                    521,
                    1817
                ],
                [
                    564,
                    1817
                ],
                [
                    601,
                    1837
                ],
                [
                    639,
                    1894
                ],
                [
                    676,
                    1983
                ],
                [
                    696,
                    2080
                ],
                [
                    694,
                    2135
                ],
                [
                    672,
                    2145
                ],
                [
                    382,
                    2128
                ],
                [
                    402,
                    1877
                ]
            ],
            "flags": {},
            "group_id": null
        },
        {
            "label": "mask",
            "lineType": [
                "LLLLLLLLL"
            ],
            "shape_type": "polygon",
            "points": [
                [
                    742,
                    2020
                ],
                [
                    811,
                    1840
                ],
                [
                    872,
                    1817
                ],
                [
                    919,
                    1833
                ],
                [
                    966,
                    1865
                ],
                [
                    1042,
                    2127
                ],
                [
                    1036,
                    2141
                ],
                [
                    745,
                    2130
                ],
                [
                    742,
                    2020
                ]
            ],
            "flags": {},
            "group_id": null
        },
        {
            "label": "mask",
            "lineType": [
                "LLLLLLLLLL"
            ],
            "shape_type": "polygon",
            "points": [
                [
                    1108,
                    2123
                ],
                [
                    1099,
                    2038
                ],
                [
                    1121,
                    1930
                ],
                [
                    1154,
                    1845
                ],
                [
                    1208,
                    1817
                ],
                [
                    1286,
                    1820
                ],
                [
                    1336,
                    1841
                ],
                [
                    1402,
                    2055
                ],
                [
                    1405,
                    2145
                ],
                [
                    1108,
                    2123
                ]
            ],
            "flags": {},
            "group_id": null
        },
        {
            "label": "mask",
            "lineType": [
                "LLLLLLLLLLL"
            ],
            "shape_type": "polygon",
            "points": [
                [
                    1462,
                    2147
                ],
                [
                    1459,
                    1964
                ],
                [
                    1475,
                    1728
                ],
                [
                    1566,
                    1667
                ],
                [
                    1671,
                    1627
                ],
                [
                    1779,
                    1627
                ],
                [
                    1884,
                    1643
                ],
                [
                    1998,
                    1685
                ],
                [
                    2118,
                    1984
                ],
                [
                    2109,
                    2115
                ],
                [
                    1462,
                    2147
                ]
            ],
            "flags": {},
            "group_id": null
        },
        {
            "label": "mask",
            "lineType": [
                "LLLLLLLLLL"
            ],
            "shape_type": "polygon",
            "points": [
                [
                    199,
                    2345
                ],
                [
                    629,
                    2351
                ],
                [
                    1664,
                    2408
                ],
                [
                    1886,
                    2453
                ],
                [
                    1989,
                    2534
                ],
                [
                    2018,
                    2645
                ],
                [
                    1899,
                    2794
                ],
                [
                    1232,
                    2834
                ],
                [
                    199,
                    2803
                ],
                [
                    199,
                    2345
                ]
            ],
            "flags": {},
            "group_id": null
        },
        {
            "label": "mask",
            "lineType": [
                "LLLLL"
            ],
            "shape_type": "polygon",
            "points": [
                [
                    2322,
                    2579
                ],
                [
                    2323,
                    2873
                ],
                [
                    4065,
                    2873
                ],
                [
                    4065,
                    2580
                ],
                [
                    2322,
                    2579
                ]
            ],
            "flags": {},
            "group_id": null
        },
        {
            "label": "mask",
            "lineType": [
                "LLLLLL"
            ],
            "shape_type": "polygon",
            "points": [
                [
                    2360,
                    1930
                ],
                [
                    3942,
                    1946
                ],
                [
                    3974,
                    1090
                ],
                [
                    3492,
                    1050
                ],
                [
                    2340,
                    1052
                ],
                [
                    2360,
                    1930
                ]
            ],
            "flags": {},
            "group_id": null
        },
        {
            "label": "mask",
            "lineType": [
                "LLLLLLLLLLLLL"
            ],
            "shape_type": "polygon",
            "points": [
                [
                    2708,
                    796
                ],
                [
                    3100,
                    788
                ],
                [
                    3316,
                    718
                ],
                [
                    3354,
                    652
                ],
                [
                    3376,
                    340
                ],
                [
                    3328,
                    130
                ],
                [
                    3202,
                    120
                ],
                [
                    2594,
                    124
                ],
                [
                    2412,
                    108
                ],
                [
                    2372,
                    174
                ],
                [
                    2372,
                    524
                ],
                [
                    2428,
                    714
                ],
                [
                    2708,
                    796
                ]
            ],
            "flags": {},
            "group_id": null
        },
        {
            "label": "mask",
            "lineType": [
                "LLLLLLLLLL"
            ],
            "shape_type": "polygon",
            "points": [
                [
                    3514,
                    708
                ],
                [
                    3396,
                    446
                ],
                [
                    3402,
                    334
                ],
                [
                    3452,
                    206
                ],
                [
                    3520,
                    154
                ],
                [
                    3890,
                    164
                ],
                [
                    3956,
                    254
                ],
                [
                    4028,
                    408
                ],
                [
                    4018,
                    700
                ],
                [
                    3514,
                    708
                ]
            ],
            "flags": {},
            "group_id": null
        },
        {
            "label": "xtl",
            "shape_type": "rectangle",
            "points": [
                [
                    2529,
                    164
                ],
                [
                    2600,
                    205
                ]
            ],
            "flags": {},
            "group_id": null
        },
        {
            "label": "xtl",
            "shape_type": "rectangle",
            "points": [
                [
                    2531,
                    231
                ],
                [
                    2601,
                    274
                ]
            ],
            "flags": {},
            "group_id": null
        },
        {
            "label": "xtl",
            "shape_type": "rectangle",
            "points": [
                [
                    2530,
                    299
                ],
                [
                    2601,
                    341
                ]
            ],
            "flags": {},
            "group_id": null
        },
        {
            "label": "xtl",
            "shape_type": "rectangle",
            "points": [
                [
                    2530,
                    367
                ],
                [
                    2601,
                    407
                ]
            ],
            "flags": {},
            "group_id": null
        },
        {
            "label": "xtl",
            "shape_type": "rectangle",
            "points": [
                [
                    2530,
                    432
                ],
                [
                    2601,
                    475
                ]
            ],
            "flags": {},
            "group_id": null
        },
        {
            "label": "xtl",
            "shape_type": "rectangle",
            "points": [
                [
                    2531,
                    503
                ],
                [
                    2601,
                    543
                ]
            ],
            "flags": {},
            "group_id": null
        },
        {
            "label": "xtl",
            "shape_type": "rectangle",
            "points": [
                [
                    2529,
                    581
                ],
                [
                    2601,
                    622
                ]
            ],
            "flags": {},
            "group_id": null
        },
        {
            "label": "xtl",
            "shape_type": "rectangle",
            "points": [
                [
                    2533,
                    639
                ],
                [
                    2598,
                    692
                ]
            ],
            "flags": {},
            "group_id": null
        },
        {
            "label": "wztl",
            "shape_type": "rectangle",
            "points": [
                [
                    2630,
                    638
                ],
                [
                    2743,
                    690
                ]
            ],
            "flags": {},
            "group_id": null
        },
        {
            "label": "wztl",
            "shape_type": "rectangle",
            "points": [
                [
                    2631,
                    568
                ],
                [
                    2795,
                    620
                ]
            ],
            "flags": {},
            "group_id": null
        },
        {
            "label": "wztl",
            "shape_type": "rectangle",
            "points": [
                [
                    2629,
                    492
                ],
                [
                    2818,
                    542
                ]
            ],
            "flags": {},
            "group_id": null
        },
        {
            "label": "wztl",
            "shape_type": "rectangle",
            "points": [
                [
                    2627,
                    417
                ],
                [
                    2778,
                    470
                ]
            ],
            "flags": {},
            "group_id": null
        },
        {
            "label": "wztl",
            "shape_type": "rectangle",
            "points": [
                [
                    2627,
                    347
                ],
                [
                    2776,
                    397
                ]
            ],
            "flags": {},
            "group_id": null
        },
        {
            "label": "wztl",
            "shape_type": "rectangle",
            "points": [
                [
                    2624,
                    282
                ],
                [
                    2878,
                    335
                ]
            ],
            "flags": {},
            "group_id": null
        },
        {
            "label": "wztl",
            "shape_type": "rectangle",
            "points": [
                [
                    2625,
                    215
                ],
                [
                    2918,
                    268
                ]
            ],
            "flags": {},
            "group_id": null
        },
        {
            "label": "wztl",
            "shape_type": "rectangle",
            "points": [
                [
                    2625,
                    154
                ],
                [
                    2903,
                    208
                ]
            ],
            "flags": {},
            "group_id": null
        },
        {
            "label": "xtl",
            "shape_type": "rectangle",
            "points": [
                [
                    2975,
                    178
                ],
                [
                    3038,
                    207
                ]
            ],
            "flags": {},
            "group_id": null
        },
        {
            "label": "xtl",
            "shape_type": "rectangle",
            "points": [
                [
                    2974,
                    238
                ],
                [
                    3036,
                    265
                ]
            ],
            "flags": {},
            "group_id": null
        },
        {
            "label": "xtl",
            "shape_type": "rectangle",
            "points": [
                [
                    2975,
                    319
                ],
                [
                    3038,
                    326
                ]
            ],
            "flags": {},
            "group_id": null
        },
        {
            "label": "xtl",
            "shape_type": "rectangle",
            "points": [
                [
                    2976,
                    367
                ],
                [
                    3035,
                    410
                ]
            ],
            "flags": {},
            "group_id": null
        },
        {
            "label": "xtl",
            "shape_type": "rectangle",
            "points": [
                [
                    2973,
                    434
                ],
                [
                    3043,
                    477
                ]
            ],
            "flags": {},
            "group_id": null
        },
        {
            "label": "xtl",
            "shape_type": "rectangle",
            "points": [
                [
                    2975,
                    502
                ],
                [
                    3043,
                    545
                ]
            ],
            "flags": {},
            "group_id": null
        },
        {
            "label": "xtl",
            "shape_type": "rectangle",
            "points": [
                [
                    2985,
                    575
                ],
                [
                    3035,
                    625
                ]
            ],
            "flags": {},
            "group_id": null
        },
        {
            "label": "xtl",
            "shape_type": "rectangle",
            "points": [
                [
                    2973,
                    647
                ],
                [
                    3043,
                    689
                ]
            ],
            "flags": {},
            "group_id": null
        },
        {
            "label": "wztl",
            "shape_type": "rectangle",
            "points": [
                [
                    3064,
                    638
                ],
                [
                    3207,
                    689
                ]
            ],
            "flags": {},
            "group_id": null
        },
        {
            "label": "wztl",
            "shape_type": "rectangle",
            "points": [
                [
                    3064,
                    571
                ],
                [
                    3330,
                    625
                ]
            ],
            "flags": {},
            "group_id": null
        },
        {
            "label": "wztl",
            "shape_type": "rectangle",
            "points": [
                [
                    3064,
                    500
                ],
                [
                    3292,
                    553
                ]
            ],
            "flags": {},
            "group_id": null
        },
        {
            "label": "wztl",
            "shape_type": "rectangle",
            "points": [
                [
                    3063,
                    425
                ],
                [
                    3290,
                    478
                ]
            ],
            "flags": {},
            "group_id": null
        },
        {
            "label": "wztl",
            "shape_type": "rectangle",
            "points": [
                [
                    3063,
                    359
                ],
                [
                    3292,
                    410
                ]
            ],
            "flags": {},
            "group_id": null
        },
        {
            "label": "wztl",
            "shape_type": "rectangle",
            "points": [
                [
                    3067,
                    285
                ],
                [
                    3237,
                    340
                ]
            ],
            "flags": {},
            "group_id": null
        },
        {
            "label": "wztl",
            "shape_type": "rectangle",
            "points": [
                [
                    3065,
                    217
                ],
                [
                    3252,
                    269
                ]
            ],
            "flags": {},
            "group_id": null
        },
        {
            "label": "wztl",
            "shape_type": "rectangle",
            "points": [
                [
                    3065,
                    154
                ],
                [
                    3253,
                    206
                ]
            ],
            "flags": {},
            "group_id": null
        },
        {
            "label": "Ns",
            "shape_type": "point",
            "points": [
                [
                    3701,
                    435
                ]
            ],
            "flags": {},
            "group_id": null
        },
        {
            "label": "Ne",
            "shape_type": "point",
            "points": [
                [
                    3556,
                    435
                ]
            ],
            "flags": {},
            "group_id": null
        },
        {
            "label": "wlb",
            "shape_type": "rectangle",
            "points": [
                [
                    2379,
                    1058
                ],
                [
                    3913,
                    1904
                ]
            ],
            "flags": {},
            "group_id": null
        },
        {
            "label": "wz1",
            "shape_type": "rectangle",
            "points": [
                [
                    1166,
                    736
                ],
                [
                    1282,
                    781
                ]
            ],
            "flags": {},
            "group_id": null
        },
        {
            "label": "wz1",
            "shape_type": "rectangle",
            "points": [
                [
                    1055,
                    671
                ],
                [
                    1278,
                    716
                ]
            ],
            "flags": {},
            "group_id": null
        },
        {
            "label": "wz1-l",
            "lineType": "LL",
            "shape_type": "line",
            "points": [
                [
                    1196,
                    772
                ],
                [
                    1113,
                    810
                ]
            ],
            "flags": {},
            "group_id": null
        },
        {
            "label": "wz1-l",
            "lineType": "LL",
            "shape_type": "line",
            "points": [
                [
                    926,
                    923
                ],
                [
                    1086,
                    700
                ]
            ],
            "flags": {},
            "group_id": null
        },
        {
            "label": "wz1",
            "shape_type": "rectangle",
            "points": [
                [
                    1791,
                    1931
                ],
                [
                    2077,
                    2066
                ]
            ],
            "flags": {},
            "group_id": null
        },
        {
            "label": "wz1",
            "shape_type": "rectangle",
            "points": [
                [
                    1707,
                    1659
                ],
                [
                    1994,
                    1795
                ]
            ],
            "flags": {},
            "group_id": null
        },
        {
            "label": "wz1-l",
            "lineType": "LL",
            "shape_type": "line",
            "points": [
                [
                    1837,
                    2023
                ],
                [
                    1666,
                    1951
                ]
            ],
            "flags": {},
            "group_id": null
        },
        {
            "label": "wz1-l",
            "lineType": "LL",
            "shape_type": "line",
            "points": [
                [
                    1743,
                    1748
                ],
                [
                    1612,
                    1850
                ]
            ],
            "flags": {},
            "group_id": null
        }
    ],
    "flags": {},
    "imageData": null,
    "version": "4.5.7"
}