{
    "imageHeight": 2978,
    "imageWidth": 4210,
    "imagePath": "CQ0782-公租房（安置四区）东（铁塔公司）5G无线基站天馈线安装示意图.png",
    "shapes": [
        {
            "label": "vt4",
            "shape_type": "rectangle",
            "points": [
                [
                    1500,
                    738
                ],
                [
                    2093,
                    1333
                ]
            ],
            "flags": {},
            "group_id": null
        },
        {
            "label": "vb1",
            "shape_type": "rectangle",
            "points": [
                [
                    1583,
                    898
                ],
                [
                    1993,
                    1168
                ]
            ],
            "flags": {},
            "group_id": null
        },
        {
            "label": "v1",
            "shape_type": "rectangle",
            "points": [
                [
                    1693,
                    1386
                ],
                [
                    1929,
                    1452
                ]
            ],
            "flags": {},
            "group_id": null
        },
        {
            "label": "d1",
            "shape_type": "rectangle",
            "points": [
                [
                    2063,
                    1407
                ],
                [
                    2139,
                    1464
                ]
            ],
            "flags": {},
            "group_id": null
        },
        {
            "label": "d1",
            "shape_type": "rectangle",
            "points": [
                [
                    1472,
                    1356
                ],
                [
                    1548,
                    1481
                ]
            ],
            "flags": {},
            "group_id": null
        },
        {
            "label": "vp2-3",
            "shape_type": "rectangle",
            "points": [
                [
                    1723,
                    1668
                ],
                [
                    2006,
                    1920
                ]
            ],
            "flags": {},
            "group_id": null
        },
        {
            "label": "va1",
            "shape_type": "rectangle",
            "points": [
                [
                    1824,
                    1540
                ],
                [
                    1889,
                    1589
                ]
            ],
            "flags": {},
            "group_id": null
        },
        {
            "label": "va1",
            "shape_type": "rectangle",
            "points": [
                [
                    1607,
                    1941
                ],
                [
                    1657,
                    2007
                ]
            ],
            "flags": {},
            "group_id": null
        },
        {
            "label": "va1",
            "shape_type": "rectangle",
            "points": [
                [
                    2072,
                    1954
                ],
                [
                    2137,
                    2002
                ]
            ],
            "flags": {},
            "group_id": null
        },
        {
            "label": "v1",
            "shape_type": "rectangle",
            "points": [
                [
                    1709,
                    2050
                ],
                [
                    2102,
                    2124
                ]
            ],
            "flags": {},
            "group_id": null
        },
        {
            "label": "v1",
            "shape_type": "rectangle",
            "points": [
                [
                    987,
                    2690
                ],
                [
                    1176,
                    2763
                ]
            ],
            "flags": {},
            "group_id": null
        },
        {
            "label": "b1",
            "shape_type": "rectangle",
            "points": [
                [
                    963,
                    2404
                ],
                [
                    1342,
                    2624
                ]
            ],
            "flags": {},
            "group_id": null
        },
        {
            "label": "t3-r",
            "shape_type": "rectangle",
            "points": [
                [
                    759,
                    481
                ],
                [
                    1531,
                    2624
                ]
            ],
            "flags": {},
            "group_id": null
        },
        {
            "label": "h1",
            "shape_type": "rectangle",
            "points": [
                [
                    551,
                    2526
                ],
                [
                    760,
                    2624
                ]
            ],
            "flags": {},
            "group_id": null
        },
        {
            "label": "h1",
            "shape_type": "rectangle",
            "points": [
                [
                    567,
                    1520
                ],
                [
                    795,
                    1619
                ]
            ],
            "flags": {},
            "group_id": null
        },
        {
            "label": "h1",
            "shape_type": "rectangle",
            "points": [
                [
                    566,
                    1076
                ],
                [
                    795,
                    1175
                ]
            ],
            "flags": {},
            "group_id": null
        },
        {
            "label": "h1",
            "shape_type": "rectangle",
            "points": [
                [
                    566,
                    818
                ],
                [
                    795,
                    917
                ]
            ],
            "flags": {},
            "group_id": null
        },
        {
            "label": "h1",
            "shape_type": "rectangle",
            "points": [
                [
                    566,
                    664
                ],
                [
                    795,
                    762
                ]
            ],
            "flags": {},
            "group_id": null
        },
        {
            "label": "c1",
            "shape_type": "rectangle",
            "points": [
                [
                    1132,
                    481
                ],
                [
                    1140,
                    787
                ]
            ],
            "flags": {},
            "group_id": null
        },
        {
            "label": "g1",
            "shape_type": "rectangle",
            "points": [
                [
                    993,
                    750
                ],
                [
                    1001,
                    945
                ]
            ],
            "flags": {},
            "group_id": null
        },
        {
            "label": "g1",
            "shape_type": "rectangle",
            "points": [
                [
                    1058,
                    750
                ],
                [
                    1068,
                    944
                ]
            ],
            "flags": {},
            "group_id": null
        },
        {
            "label": "g1",
            "shape_type": "rectangle",
            "points": [
                [
                    1113,
                    750
                ],
                [
                    1123,
                    943
                ]
            ],
            "flags": {},
            "group_id": null
        },
        {
            "label": "g1",
            "shape_type": "rectangle",
            "points": [
                [
                    1165,
                    750
                ],
                [
                    1173,
                    944
                ]
            ],
            "flags": {},
            "group_id": null
        },
        {
            "label": "g1",
            "shape_type": "rectangle",
            "points": [
                [
                    1243,
                    750
                ],
                [
                    1253,
                    944
                ]
            ],
            "flags": {},
            "group_id": null
        },
        {
            "label": "g1",
            "shape_type": "rectangle",
            "points": [
                [
                    1328,
                    754
                ],
                [
                    1336,
                    947
                ]
            ],
            "flags": {},
            "group_id": null
        },
        {
            "label": "a1-2",
            "shape_type": "rectangle",
            "points": [
                [
                    1341,
                    778
                ],
                [
                    1373,
                    894
                ]
            ],
            "flags": {},
            "group_id": null
        },
        {
            "label": "a1-2",
            "shape_type": "rectangle",
            "points": [
                [
                    1256,
                    778
                ],
                [
                    1288,
                    895
                ]
            ],
            "flags": {},
            "group_id": null
        },
        {
            "label": "a1-2",
            "shape_type": "rectangle",
            "points": [
                [
                    1178,
                    779
                ],
                [
                    1209,
                    895
                ]
            ],
            "flags": {},
            "group_id": null
        },
        {
            "label": "a1-1",
            "shape_type": "rectangle",
            "points": [
                [
                    1079,
                    779
                ],
                [
                    1110,
                    895
                ]
            ],
            "flags": {},
            "group_id": null
        },
        {
            "label": "a1-4",
            "shape_type": "rectangle",
            "points": [
                [
                    1051,
                    777
                ],
                [
                    1075,
                    894
                ]
            ],
            "flags": {},
            "group_id": null
        },
        {
            "label": "a1-1",
            "shape_type": "rectangle",
            "points": [
                [
                    958,
                    778
                ],
                [
                    989,
                    895
                ]
            ],
            "flags": {},
            "group_id": null
        },
        {
            "label": "p1-2",
            "shape_type": "rectangle",
            "points": [
                [
                    958,
                    749
                ],
                [
                    1374,
                    948
                ]
            ],
            "flags": {},
            "group_id": null
        },
        {
            "label": "g1",
            "shape_type": "rectangle",
            "points": [
                [
                    1045,
                    1035
                ],
                [
                    1054,
                    1196
                ]
            ],
            "flags": {},
            "group_id": null
        },
        {
            "label": "g1",
            "shape_type": "rectangle",
            "points": [
                [
                    1134,
                    1036
                ],
                [
                    1144,
                    1197
                ]
            ],
            "flags": {},
            "group_id": null
        },
        {
            "label": "g1",
            "shape_type": "rectangle",
            "points": [
                [
                    1229,
                    1038
                ],
                [
                    1238,
                    1200
                ]
            ],
            "flags": {},
            "group_id": null
        },
        {
            "label": "a1-2",
            "shape_type": "rectangle",
            "points": [
                [
                    1243,
                    1048
                ],
                [
                    1274,
                    1163
                ]
            ],
            "flags": {},
            "group_id": null
        },
        {
            "label": "a1-4",
            "shape_type": "rectangle",
            "points": [
                [
                    1125,
                    1045
                ],
                [
                    1151,
                    1161
                ]
            ],
            "flags": {},
            "group_id": null
        },
        {
            "label": "a1-1",
            "shape_type": "rectangle",
            "points": [
                [
                    1010,
                    1047
                ],
                [
                    1042,
                    1165
                ]
            ],
            "flags": {},
            "group_id": null
        },
        {
            "label": "p1-2",
            "shape_type": "rectangle",
            "points": [
                [
                    1010,
                    1034
                ],
                [
                    1275,
                    1201
                ]
            ],
            "flags": {},
            "group_id": null
        },
        {
            "label": "g1",
            "shape_type": "rectangle",
            "points": [
                [
                    1019,
                    1256
                ],
                [
                    1027,
                    1415
                ]
            ],
            "flags": {},
            "group_id": null
        },
        {
            "label": "g1",
            "shape_type": "rectangle",
            "points": [
                [
                    1130,
                    1257
                ],
                [
                    1138,
                    1415
                ]
            ],
            "flags": {},
            "group_id": null
        },
        {
            "label": "g1",
            "shape_type": "rectangle",
            "points": [
                [
                    1254,
                    1257
                ],
                [
                    1262,
                    1415
                ]
            ],
            "flags": {},
            "group_id": null
        },
        {
            "label": "a1-2",
            "shape_type": "rectangle",
            "points": [
                [
                    1267,
                    1277
                ],
                [
                    1299,
                    1393
                ]
            ],
            "flags": {},
            "group_id": null
        },
        {
            "label": "a1-4",
            "shape_type": "rectangle",
            "points": [
                [
                    1122,
                    1279
                ],
                [
                    1147,
                    1394
                ]
            ],
            "flags": {},
            "group_id": null
        },
        {
            "label": "a1-1",
            "shape_type": "rectangle",
            "points": [
                [
                    984,
                    1277
                ],
                [
                    1016,
                    1393
                ]
            ],
            "flags": {},
            "group_id": null
        },
        {
            "label": "p1-2",
            "shape_type": "rectangle",
            "points": [
                [
                    984,
                    1256
                ],
                [
                    1299,
                    1416
                ]
            ],
            "flags": {},
            "group_id": null
        },
        {
            "label": "g1",
            "shape_type": "rectangle",
            "points": [
                [
                    1007,
                    1469
                ],
                [
                    1016,
                    1627
                ]
            ],
            "flags": {},
            "group_id": null
        },
        {
            "label": "g1",
            "shape_type": "rectangle",
            "points": [
                [
                    1139,
                    1470
                ],
                [
                    1147,
                    1628
                ]
            ],
            "flags": {},
            "group_id": null
        },
        {
            "label": "g1",
            "shape_type": "rectangle",
            "points": [
                [
                    1294,
                    1476
                ],
                [
                    1302,
                    1634
                ]
            ],
            "flags": {},
            "group_id": null
        },
        {
            "label": "a1-2",
            "shape_type": "rectangle",
            "points": [
                [
                    1308,
                    1497
                ],
                [
                    1339,
                    1613
                ]
            ],
            "flags": {},
            "group_id": null
        },
        {
            "label": "a1-4",
            "shape_type": "rectangle",
            "points": [
                [
                    1131,
                    1492
                ],
                [
                    1156,
                    1608
                ]
            ],
            "flags": {},
            "group_id": null
        },
        {
            "label": "a1-1",
            "shape_type": "rectangle",
            "points": [
                [
                    974,
                    1489
                ],
                [
                    1005,
                    1606
                ]
            ],
            "flags": {},
            "group_id": null
        },
        {
            "label": "p1-2",
            "shape_type": "rectangle",
            "points": [
                [
                    973,
                    1469
                ],
                [
                    1339,
                    1635
                ]
            ],
            "flags": {},
            "group_id": null
        },
        {
            "label": "x1",
            "shape_type": "rectangle",
            "points": [
                [
                    1007,
                    1663
                ],
                [
                    1283,
                    1712
                ]
            ],
            "flags": {},
            "group_id": null
        },
        {
            "label": "n1",
            "shape_type": "rectangle",
            "points": [
                [
                    3183,
                    328
                ],
                [
                    3909,
                    738
                ]
            ],
            "flags": {},
            "group_id": null
        },
        {
            "label": "v1",
            "shape_type": "rectangle",
            "points": [
                [
                    3445,
                    762
                ],
                [
                    3701,
                    832
                ]
            ],
            "flags": {},
            "group_id": null
        },
        {
            "label": "seven",
            "shape_type": "point",
            "points": [
                [
                    1584,
                    899
                ]
            ],
            "flags": {},
            "group_id": null
        },
        {
            "label": "seven",
            "shape_type": "point",
            "points": [
                [
                    1592,
                    907
                ]
            ],
            "flags": {},
            "group_id": null
        },
        {
            "label": "eight",
            "shape_type": "point",
            "points": [
                [
                    1985,
                    907
                ]
            ],
            "flags": {},
            "group_id": null
        },
        {
            "label": "eight",
            "shape_type": "point",
            "points": [
                [
                    1993,
                    900
                ]
            ],
            "flags": {},
            "group_id": null
        },
        {
            "label": "twentytwo",
            "shape_type": "point",
            "points": [
                [
                    1985,
                    1020
                ]
            ],
            "flags": {},
            "group_id": null
        },
        {
            "label": "twentythere",
            "shape_type": "point",
            "points": [
                [
                    1993,
                    1050
                ]
            ],
            "flags": {},
            "group_id": null
        },
        {
            "label": "fifteen",
            "shape_type": "point",
            "points": [
                [
                    1993,
                    1020
                ]
            ],
            "flags": {},
            "group_id": null
        },
        {
            "label": "eleven",
            "shape_type": "point",
            "points": [
                [
                    1985,
                    1049
                ]
            ],
            "flags": {},
            "group_id": null
        },
        {
            "label": "ten",
            "shape_type": "point",
            "points": [
                [
                    1985,
                    1161
                ]
            ],
            "flags": {},
            "group_id": null
        },
        {
            "label": "ten",
            "shape_type": "point",
            "points": [
                [
                    1993,
                    1168
                ]
            ],
            "flags": {},
            "group_id": null
        },
        {
            "label": "seven",
            "shape_type": "point",
            "points": [
                [
                    1870,
                    1161
                ]
            ],
            "flags": {},
            "group_id": null
        },
        {
            "label": "nine",
            "shape_type": "point",
            "points": [
                [
                    1870,
                    1168
                ]
            ],
            "flags": {},
            "group_id": null
        },
        {
            "label": "eight",
            "shape_type": "point",
            "points": [
                [
                    1801,
                    1161
                ]
            ],
            "flags": {},
            "group_id": null
        },
        {
            "label": "ten",
            "shape_type": "point",
            "points": [
                [
                    1801,
                    1168
                ]
            ],
            "flags": {},
            "group_id": null
        },
        {
            "label": "nine",
            "shape_type": "point",
            "points": [
                [
                    1591,
                    1160
                ]
            ],
            "flags": {},
            "group_id": null
        },
        {
            "label": "nine",
            "shape_type": "point",
            "points": [
                [
                    1584,
                    1167
                ]
            ],
            "flags": {},
            "group_id": null
        },
        {
            "label": "seven",
            "shape_type": "point",
            "points": [
                [
                    963,
                    2406
                ]
            ],
            "flags": {},
            "group_id": null
        },
        {
            "label": "seven",
            "shape_type": "point",
            "points": [
                [
                    971,
                    2414
                ]
            ],
            "flags": {},
            "group_id": null
        },
        {
            "label": "eight",
            "shape_type": "point",
            "points": [
                [
                    1334,
                    2414
                ]
            ],
            "flags": {},
            "group_id": null
        },
        {
            "label": "eight",
            "shape_type": "point",
            "points": [
                [
                    1342,
                    2406
                ]
            ],
            "flags": {},
            "group_id": null
        },
        {
            "label": "nine",
            "shape_type": "point",
            "points": [
                [
                    972,
                    2616
                ]
            ],
            "flags": {},
            "group_id": null
        },
        {
            "label": "fourteen",
            "shape_type": "point",
            "points": [
                [
                    964,
                    2624
                ]
            ],
            "flags": {},
            "group_id": null
        },
        {
            "label": "ten",
            "shape_type": "point",
            "points": [
                [
                    1334,
                    2616
                ]
            ],
            "flags": {},
            "group_id": null
        },
        {
            "label": "fourteen",
            "shape_type": "point",
            "points": [
                [
                    1342,
                    2624
                ]
            ],
            "flags": {},
            "group_id": null
        },
        {
            "label": "twentytwo",
            "shape_type": "point",
            "points": [
                [
                    1334,
                    2475
                ]
            ],
            "flags": {},
            "group_id": null
        },
        {
            "label": "twentythere",
            "shape_type": "point",
            "points": [
                [
                    1342,
                    2494
                ]
            ],
            "flags": {},
            "group_id": null
        },
        {
            "label": "eleven",
            "shape_type": "point",
            "points": [
                [
                    1334,
                    2494
                ]
            ],
            "flags": {},
            "group_id": null
        },
        {
            "label": "twelve",
            "shape_type": "point",
            "points": [
                [
                    1342,
                    2475
                ]
            ],
            "flags": {},
            "group_id": null
        },
        {
            "label": "wz4",
            "shape_type": "rectangle",
            "points": [
                [
                    1124,
                    2497
                ],
                [
                    1187,
                    2542
                ]
            ],
            "flags": {},
            "group_id": null
        },
        {
            "label": "wz4",
            "shape_type": "rectangle",
            "points": [
                [
                    1706,
                    2143
                ],
                [
                    2111,
                    2187
                ]
            ],
            "flags": {},
            "group_id": null
        },
        {
            "label": "tl",
            "shape_type": "rectangle",
            "points": [
                [
                    2191,
                    302
                ],
                [
                    3090,
                    840
                ]
            ],
            "flags": {},
            "group_id": null
        },
        {
            "label": "j1",
            "shape_type": "rectangle",
            "points": [
                [
                    3185,
                    330
                ],
                [
                    3454,
                    388
                ]
            ],
            "flags": {},
            "group_id": null
        },
        {
            "label": "j1",
            "shape_type": "rectangle",
            "points": [
                [
                    3542,
                    367
                ],
                [
                    3578,
                    407
                ]
            ],
            "flags": {},
            "group_id": null
        },
        {
            "label": "j1",
            "shape_type": "rectangle",
            "points": [
                [
                    3639,
                    619
                ],
                [
                    3908,
                    677
                ]
            ],
            "flags": {},
            "group_id": null
        },
        {
            "label": "j1",
            "shape_type": "rectangle",
            "points": [
                [
                    3189,
                    666
                ],
                [
                    3472,
                    724
                ]
            ],
            "flags": {},
            "group_id": null
        },
        {
            "label": "sm",
            "shape_type": "rectangle",
            "points": [
                [
                    2344,
                    2084
                ],
                [
                    3956,
                    2437
                ]
            ],
            "flags": {},
            "group_id": null
        },
        {
            "label": "btl",
            "shape_type": "rectangle",
            "points": [
                [
                    2326,
                    2538
                ],
                [
                    4041,
                    2828
                ]
            ],
            "flags": {},
            "group_id": null
        },
        {
            "label": "mask",
            "lineType": [
                "LLLLLLLLLLLL"
            ],
            "shape_type": "polygon",
            "points": [
                [
                    2163,
                    284
                ],
                [
                    2588,
                    279
                ],
                [
                    3059,
                    286
                ],
                [
                    3093,
                    386
                ],
                [
                    3135,
                    501
                ],
                [
                    3118,
                    669
                ],
                [
                    3107,
                    709
                ],
                [
                    2582,
                    709
                ],
                [
                    2528,
                    851
                ],
                [
                    2385,
                    875
                ],
                [
                    2179,
                    840
                ],
                [
                    2163,
                    284
                ]
            ],
            "flags": {},
            "group_id": null
        },
        {
            "label": "mask",
            "lineType": [
                "LLLLLLLLLLLLLLLLL"
            ],
            "shape_type": "polygon",
            "points": [
                [
                    3163,
                    740
                ],
                [
                    3197,
                    586
                ],
                [
                    3183,
                    427
                ],
                [
                    3163,
                    342
                ],
                [
                    3184,
                    315
                ],
                [
                    3389,
                    290
                ],
                [
                    3589,
                    322
                ],
                [
                    3655,
                    351
                ],
                [
                    3678,
                    491
                ],
                [
                    3827,
                    562
                ],
                [
                    3935,
                    600
                ],
                [
                    3922,
                    670
                ],
                [
                    3817,
                    721
                ],
                [
                    3747,
                    851
                ],
                [
                    3610,
                    869
                ],
                [
                    3314,
                    824
                ],
                [
                    3163,
                    740
                ]
            ],
            "flags": {},
            "group_id": null
        },
        {
            "label": "mask",
            "lineType": [
                "LLLLLLL"
            ],
            "shape_type": "polygon",
            "points": [
                [
                    2180,
                    962
                ],
                [
                    2733,
                    975
                ],
                [
                    3828,
                    1016
                ],
                [
                    3973,
                    1021
                ],
                [
                    3964,
                    1686
                ],
                [
                    2179,
                    1755
                ],
                [
                    2180,
                    962
                ]
            ],
            "flags": {},
            "group_id": null
        },
        {
            "label": "mask",
            "lineType": [
                "LLLLLL"
            ],
            "shape_type": "polygon",
            "points": [
                [
                    2297,
                    2071
                ],
                [
                    3908,
                    2097
                ],
                [
                    3987,
                    2444
                ],
                [
                    3758,
                    2466
                ],
                [
                    2309,
                    2437
                ],
                [
                    2297,
                    2071
                ]
            ],
            "flags": {},
            "group_id": null
        },
        {
            "label": "mask",
            "lineType": [
                "LLLLL"
            ],
            "shape_type": "polygon",
            "points": [
                [
                    2294,
                    2519
                ],
                [
                    4040,
                    2541
                ],
                [
                    4039,
                    2822
                ],
                [
                    2287,
                    2822
                ],
                [
                    2294,
                    2519
                ]
            ],
            "flags": {},
            "group_id": null
        },
        {
            "label": "mask",
            "lineType": [
                "LLLLLLLLLLLLLLLLLLLLL"
            ],
            "shape_type": "polygon",
            "points": [
                [
                    1424,
                    2074
                ],
                [
                    1473,
                    2117
                ],
                [
                    1600,
                    2135
                ],
                [
                    1703,
                    2206
                ],
                [
                    1863,
                    2224
                ],
                [
                    2064,
                    2236
                ],
                [
                    2114,
                    2199
                ],
                [
                    2143,
                    2125
                ],
                [
                    2219,
                    2030
                ],
                [
                    2314,
                    1962
                ],
                [
                    2288,
                    1882
                ],
                [
                    2263,
                    1847
                ],
                [
                    2168,
                    1830
                ],
                [
                    2107,
                    1809
                ],
                [
                    2128,
                    1706
                ],
                [
                    2140,
                    1532
                ],
                [
                    2008,
                    1515
                ],
                [
                    1769,
                    1511
                ],
                [
                    1663,
                    1565
                ],
                [
                    1413,
                    2017
                ],
                [
                    1424,
                    2074
                ]
            ],
            "flags": {},
            "group_id": null
        },
        {
            "label": "mask",
            "lineType": [
                "LLLLLLLLLL"
            ],
            "shape_type": "polygon",
            "points": [
                [
                    1455,
                    1490
                ],
                [
                    1557,
                    1477
                ],
                [
                    1863,
                    1467
                ],
                [
                    2008,
                    1476
                ],
                [
                    2129,
                    1486
                ],
                [
                    2149,
                    1476
                ],
                [
                    2133,
                    1216
                ],
                [
                    2113,
                    709
                ],
                [
                    1454,
                    724
                ],
                [
                    1455,
                    1490
                ]
            ],
            "flags": {},
            "group_id": null
        },
        {
            "label": "mask",
            "lineType": [
                "LLLLLLLLLLLLLLLLLLLLLL"
            ],
            "shape_type": "polygon",
            "points": [
                [
                    918,
                    491
                ],
                [
                    1153,
                    490
                ],
                [
                    1310,
                    596
                ],
                [
                    1388,
                    717
                ],
                [
                    1398,
                    840
                ],
                [
                    1367,
                    1152
                ],
                [
                    1358,
                    1606
                ],
                [
                    1339,
                    1976
                ],
                [
                    1358,
                    2092
                ],
                [
                    1415,
                    2224
                ],
                [
                    1525,
                    2411
                ],
                [
                    1759,
                    2556
                ],
                [
                    1738,
                    2684
                ],
                [
                    1144,
                    2784
                ],
                [
                    880,
                    2784
                ],
                [
                    554,
                    2690
                ],
                [
                    513,
                    2629
                ],
                [
                    788,
                    1853
                ],
                [
                    581,
                    1858
                ],
                [
                    537,
                    1569
                ],
                [
                    555,
                    626
                ],
                [
                    918,
                    491
                ]
            ],
            "flags": {},
            "group_id": null
        },
        {
            "label": "wlb",
            "shape_type": "rectangle",
            "points": [
                [
                    2223,
                    986
                ],
                [
                    3938,
                    1727
                ]
            ],
            "flags": {},
            "group_id": null
        },
        {
            "label": "xtl",
            "shape_type": "rectangle",
            "points": [
                [
                    2304,
                    319
                ],
                [
                    2370,
                    358
                ]
            ],
            "flags": {},
            "group_id": null
        },
        {
            "label": "xtl",
            "shape_type": "rectangle",
            "points": [
                [
                    2304,
                    386
                ],
                [
                    2369,
                    423
                ]
            ],
            "flags": {},
            "group_id": null
        },
        {
            "label": "xtl",
            "shape_type": "rectangle",
            "points": [
                [
                    2304,
                    452
                ],
                [
                    2370,
                    490
                ]
            ],
            "flags": {},
            "group_id": null
        },
        {
            "label": "xtl",
            "shape_type": "rectangle",
            "points": [
                [
                    2304,
                    519
                ],
                [
                    2371,
                    555
                ]
            ],
            "flags": {},
            "group_id": null
        },
        {
            "label": "xtl",
            "shape_type": "rectangle",
            "points": [
                [
                    2304,
                    584
                ],
                [
                    2370,
                    622
                ]
            ],
            "flags": {},
            "group_id": null
        },
        {
            "label": "xtl",
            "shape_type": "rectangle",
            "points": [
                [
                    2306,
                    669
                ],
                [
                    2379,
                    675
                ]
            ],
            "flags": {},
            "group_id": null
        },
        {
            "label": "xtl",
            "shape_type": "rectangle",
            "points": [
                [
                    2309,
                    740
                ],
                [
                    2382,
                    746
                ]
            ],
            "flags": {},
            "group_id": null
        },
        {
            "label": "xtl",
            "shape_type": "rectangle",
            "points": [
                [
                    2331,
                    795
                ],
                [
                    2363,
                    827
                ]
            ],
            "flags": {},
            "group_id": null
        },
        {
            "label": "wztl",
            "shape_type": "rectangle",
            "points": [
                [
                    2418,
                    789
                ],
                [
                    2489,
                    836
                ]
            ],
            "flags": {},
            "group_id": null
        },
        {
            "label": "wztl",
            "shape_type": "rectangle",
            "points": [
                [
                    2416,
                    712
                ],
                [
                    2523,
                    763
                ]
            ],
            "flags": {},
            "group_id": null
        },
        {
            "label": "wztl",
            "shape_type": "rectangle",
            "points": [
                [
                    2415,
                    641
                ],
                [
                    2520,
                    690
                ]
            ],
            "flags": {},
            "group_id": null
        },
        {
            "label": "wztl",
            "shape_type": "rectangle",
            "points": [
                [
                    2407,
                    566
                ],
                [
                    2618,
                    617
                ]
            ],
            "flags": {},
            "group_id": null
        },
        {
            "label": "wztl",
            "shape_type": "rectangle",
            "points": [
                [
                    2406,
                    500
                ],
                [
                    2540,
                    549
                ]
            ],
            "flags": {},
            "group_id": null
        },
        {
            "label": "wztl",
            "shape_type": "rectangle",
            "points": [
                [
                    2396,
                    434
                ],
                [
                    2642,
                    484
                ]
            ],
            "flags": {},
            "group_id": null
        },
        {
            "label": "wztl",
            "shape_type": "rectangle",
            "points": [
                [
                    2396,
                    370
                ],
                [
                    2680,
                    418
                ]
            ],
            "flags": {},
            "group_id": null
        },
        {
            "label": "wztl",
            "shape_type": "rectangle",
            "points": [
                [
                    2396,
                    308
                ],
                [
                    2705,
                    363
                ]
            ],
            "flags": {},
            "group_id": null
        },
        {
            "label": "xtl",
            "shape_type": "rectangle",
            "points": [
                [
                    2779,
                    327
                ],
                [
                    2839,
                    351
                ]
            ],
            "flags": {},
            "group_id": null
        },
        {
            "label": "xtl",
            "shape_type": "rectangle",
            "points": [
                [
                    2780,
                    386
                ],
                [
                    2838,
                    412
                ]
            ],
            "flags": {},
            "group_id": null
        },
        {
            "label": "xtl",
            "shape_type": "rectangle",
            "points": [
                [
                    2779,
                    464
                ],
                [
                    2837,
                    470
                ]
            ],
            "flags": {},
            "group_id": null
        },
        {
            "label": "xtl",
            "shape_type": "rectangle",
            "points": [
                [
                    2770,
                    511
                ],
                [
                    2825,
                    552
                ]
            ],
            "flags": {},
            "group_id": null
        },
        {
            "label": "xtl",
            "shape_type": "rectangle",
            "points": [
                [
                    2771,
                    576
                ],
                [
                    2835,
                    618
                ]
            ],
            "flags": {},
            "group_id": null
        },
        {
            "label": "xtl",
            "shape_type": "rectangle",
            "points": [
                [
                    2771,
                    643
                ],
                [
                    2835,
                    684
                ]
            ],
            "flags": {},
            "group_id": null
        },
        {
            "label": "wztl",
            "shape_type": "rectangle",
            "points": [
                [
                    2867,
                    643
                ],
                [
                    3087,
                    692
                ]
            ],
            "flags": {},
            "group_id": null
        },
        {
            "label": "wztl",
            "shape_type": "rectangle",
            "points": [
                [
                    2867,
                    569
                ],
                [
                    3086,
                    618
                ]
            ],
            "flags": {},
            "group_id": null
        },
        {
            "label": "wztl",
            "shape_type": "rectangle",
            "points": [
                [
                    2867,
                    502
                ],
                [
                    3086,
                    551
                ]
            ],
            "flags": {},
            "group_id": null
        },
        {
            "label": "wztl",
            "shape_type": "rectangle",
            "points": [
                [
                    2870,
                    432
                ],
                [
                    3036,
                    480
                ]
            ],
            "flags": {},
            "group_id": null
        },
        {
            "label": "wztl",
            "shape_type": "rectangle",
            "points": [
                [
                    2869,
                    365
                ],
                [
                    3048,
                    414
                ]
            ],
            "flags": {},
            "group_id": null
        },
        {
            "label": "wztl",
            "shape_type": "rectangle",
            "points": [
                [
                    2869,
                    303
                ],
                [
                    3048,
                    352
                ]
            ],
            "flags": {},
            "group_id": null
        },
        {
            "label": "Ns",
            "shape_type": "point",
            "points": [
                [
                    3559,
                    588
                ]
            ],
            "flags": {},
            "group_id": null
        },
        {
            "label": "Ne",
            "shape_type": "point",
            "points": [
                [
                    3560,
                    455
                ]
            ],
            "flags": {},
            "group_id": null
        },
        {
            "label": "wz1",
            "shape_type": "rectangle",
            "points": [
                [
                    974,
                    514
                ],
                [
                    1061,
                    556
                ]
            ],
            "flags": {},
            "group_id": null
        },
        {
            "label": "wz1-l",
            "lineType": "LL",
            "shape_type": "line",
            "points": [
                [
                    1039,
                    537
                ],
                [
                    1135,
                    657
                ]
            ],
            "flags": {},
            "group_id": null
        },
        {
            "label": "wz1",
            "shape_type": "rectangle",
            "points": [
                [
                    652,
                    1375
                ],
                [
                    898,
                    1459
                ]
            ],
            "flags": {},
            "group_id": null
        },
        {
            "label": "wz1-l",
            "lineType": "LL",
            "shape_type": "line",
            "points": [
                [
                    856,
                    1427
                ],
                [
                    1020,
                    1500
                ]
            ],
            "flags": {},
            "group_id": null
        },
        {
            "label": "wz3",
            "shape_type": "rectangle",
            "points": [
                [
                    1437,
                    2000
                ],
                [
                    1630,
                    2078
                ]
            ],
            "flags": {},
            "group_id": null
        },
        {
            "label": "wz3",
            "shape_type": "rectangle",
            "points": [
                [
                    2095,
                    1858
                ],
                [
                    2289,
                    1935
                ]
            ],
            "flags": {},
            "group_id": null
        },
        {
            "label": "wz3",
            "shape_type": "rectangle",
            "points": [
                [
                    1917,
                    1550
                ],
                [
                    2109,
                    1626
                ]
            ],
            "flags": {},
            "group_id": null
        },
        {
            "label": "wz3-l",
            "lineType": "LL",
            "shape_type": "line",
            "points": [
                [
                    1952,
                    1606
                ],
                [
                    1858,
                    1568
                ]
            ],
            "flags": {},
            "group_id": null
        },
        {
            "label": "wz3-l",
            "lineType": "LL",
            "shape_type": "line",
            "points": [
                [
                    1581,
                    2033
                ],
                [
                    1639,
                    1980
                ]
            ],
            "flags": {},
            "group_id": null
        },
        {
            "label": "wz3-l",
            "lineType": "LL",
            "shape_type": "line",
            "points": [
                [
                    2117,
                    1976
                ],
                [
                    2131,
                    1913
                ]
            ],
            "flags": {},
            "group_id": null
        }
    ],
    "flags": {},
    "imageData": null,
    "version": "4.5.7"
}