{
    "imageHeight": 3055,
    "imageWidth": 4210,
    "imagePath": "GX0226-彭庄西（铁塔公司）5G无线基站天馈线安装示意图.png",
    "shapes": [
        {
            "label": "d1",
            "shape_type": "rectangle",
            "points": [
                [
                    260,
                    2615
                ],
                [
                    341,
                    2752
                ]
            ],
            "flags": {},
            "group_id": null
        },
        {
            "label": "v1",
            "shape_type": "rectangle",
            "points": [
                [
                    441,
                    2754
                ],
                [
                    699,
                    2824
                ]
            ],
            "flags": {},
            "group_id": null
        },
        {
            "label": "d1",
            "shape_type": "rectangle",
            "points": [
                [
                    817,
                    2626
                ],
                [
                    899,
                    2761
                ]
            ],
            "flags": {},
            "group_id": null
        },
        {
            "label": "c1",
            "shape_type": "rectangle",
            "points": [
                [
                    1530,
                    238
                ],
                [
                    1533,
                    412
                ]
            ],
            "flags": {},
            "group_id": null
        },
        {
            "label": "a1-1",
            "shape_type": "rectangle",
            "points": [
                [
                    1396,
                    387
                ],
                [
                    1435,
                    555
                ]
            ],
            "flags": {},
            "group_id": null
        },
        {
            "label": "g1",
            "shape_type": "rectangle",
            "points": [
                [
                    1440,
                    388
                ],
                [
                    1446,
                    577
                ]
            ],
            "flags": {},
            "group_id": null
        },
        {
            "label": "a1-1",
            "shape_type": "rectangle",
            "points": [
                [
                    1456,
                    387
                ],
                [
                    1495,
                    555
                ]
            ],
            "flags": {},
            "group_id": null
        },
        {
            "label": "g1",
            "shape_type": "rectangle",
            "points": [
                [
                    1499,
                    388
                ],
                [
                    1506,
                    578
                ]
            ],
            "flags": {},
            "group_id": null
        },
        {
            "label": "g1",
            "shape_type": "rectangle",
            "points": [
                [
                    1537,
                    388
                ],
                [
                    1543,
                    578
                ]
            ],
            "flags": {},
            "group_id": null
        },
        {
            "label": "g1",
            "shape_type": "rectangle",
            "points": [
                [
                    1609,
                    388
                ],
                [
                    1615,
                    578
                ]
            ],
            "flags": {},
            "group_id": null
        },
        {
            "label": "g1",
            "shape_type": "rectangle",
            "points": [
                [
                    1676,
                    388
                ],
                [
                    1681,
                    578
                ]
            ],
            "flags": {},
            "group_id": null
        },
        {
            "label": "a1-2",
            "shape_type": "rectangle",
            "points": [
                [
                    1685,
                    386
                ],
                [
                    1724,
                    555
                ]
            ],
            "flags": {},
            "group_id": null
        },
        {
            "label": "h1",
            "shape_type": "rectangle",
            "points": [
                [
                    1825,
                    536
                ],
                [
                    2061,
                    609
                ]
            ],
            "flags": {},
            "group_id": null
        },
        {
            "label": "a1-1",
            "shape_type": "rectangle",
            "points": [
                [
                    1393,
                    697
                ],
                [
                    1434,
                    865
                ]
            ],
            "flags": {},
            "group_id": null
        },
        {
            "label": "g1",
            "shape_type": "rectangle",
            "points": [
                [
                    1438,
                    699
                ],
                [
                    1443,
                    889
                ]
            ],
            "flags": {},
            "group_id": null
        },
        {
            "label": "g1",
            "shape_type": "rectangle",
            "points": [
                [
                    1509,
                    699
                ],
                [
                    1515,
                    889
                ]
            ],
            "flags": {},
            "group_id": null
        },
        {
            "label": "g1",
            "shape_type": "rectangle",
            "points": [
                [
                    1537,
                    699
                ],
                [
                    1544,
                    889
                ]
            ],
            "flags": {},
            "group_id": null
        },
        {
            "label": "a1-2",
            "shape_type": "rectangle",
            "points": [
                [
                    1546,
                    697
                ],
                [
                    1586,
                    865
                ]
            ],
            "flags": {},
            "group_id": null
        },
        {
            "label": "g1",
            "shape_type": "rectangle",
            "points": [
                [
                    1613,
                    700
                ],
                [
                    1619,
                    888
                ]
            ],
            "flags": {},
            "group_id": null
        },
        {
            "label": "a1-2",
            "shape_type": "rectangle",
            "points": [
                [
                    1623,
                    696
                ],
                [
                    1662,
                    864
                ]
            ],
            "flags": {},
            "group_id": null
        },
        {
            "label": "g1",
            "shape_type": "rectangle",
            "points": [
                [
                    1676,
                    699
                ],
                [
                    1682,
                    888
                ]
            ],
            "flags": {},
            "group_id": null
        },
        {
            "label": "a1-2",
            "shape_type": "rectangle",
            "points": [
                [
                    1685,
                    697
                ],
                [
                    1724,
                    865
                ]
            ],
            "flags": {},
            "group_id": null
        },
        {
            "label": "h1",
            "shape_type": "rectangle",
            "points": [
                [
                    1818,
                    848
                ],
                [
                    2052,
                    921
                ]
            ],
            "flags": {},
            "group_id": null
        },
        {
            "label": "g1",
            "shape_type": "rectangle",
            "points": [
                [
                    1381,
                    389
                ],
                [
                    1387,
                    577
                ]
            ],
            "flags": {},
            "group_id": null
        },
        {
            "label": "g1",
            "shape_type": "rectangle",
            "points": [
                [
                    1381,
                    699
                ],
                [
                    1387,
                    889
                ]
            ],
            "flags": {},
            "group_id": null
        },
        {
            "label": "p1-1",
            "shape_type": "rectangle",
            "points": [
                [
                    1381,
                    696
                ],
                [
                    1724,
                    889
                ]
            ],
            "flags": {},
            "group_id": null
        },
        {
            "label": "p1-1",
            "shape_type": "rectangle",
            "points": [
                [
                    1380,
                    386
                ],
                [
                    1724,
                    578
                ]
            ],
            "flags": {},
            "group_id": null
        },
        {
            "label": "v1",
            "shape_type": "rectangle",
            "points": [
                [
                    515,
                    1037
                ],
                [
                    964,
                    1116
                ]
            ],
            "flags": {},
            "group_id": null
        },
        {
            "label": "va1",
            "shape_type": "rectangle",
            "points": [
                [
                    491,
                    1415
                ],
                [
                    566,
                    1459
                ]
            ],
            "flags": {},
            "group_id": null
        },
        {
            "label": "va1",
            "shape_type": "rectangle",
            "points": [
                [
                    968,
                    1410
                ],
                [
                    1012,
                    1484
                ]
            ],
            "flags": {},
            "group_id": null
        },
        {
            "label": "va1",
            "shape_type": "rectangle",
            "points": [
                [
                    1020,
                    1499
                ],
                [
                    1063,
                    1574
                ]
            ],
            "flags": {},
            "group_id": null
        },
        {
            "label": "va1",
            "shape_type": "rectangle",
            "points": [
                [
                    795,
                    1889
                ],
                [
                    847,
                    1960
                ]
            ],
            "flags": {},
            "group_id": null
        },
        {
            "label": "vp1-2",
            "shape_type": "rectangle",
            "points": [
                [
                    546,
                    1421
                ],
                [
                    967,
                    1844
                ]
            ],
            "flags": {},
            "group_id": null
        },
        {
            "label": "v1",
            "shape_type": "rectangle",
            "points": [
                [
                    568,
                    2028
                ],
                [
                    910,
                    2099
                ]
            ],
            "flags": {},
            "group_id": null
        },
        {
            "label": "vt4",
            "shape_type": "rectangle",
            "points": [
                [
                    362,
                    2260
                ],
                [
                    780,
                    2676
                ]
            ],
            "flags": {},
            "group_id": null
        },
        {
            "label": "t3-m",
            "shape_type": "rectangle",
            "points": [
                [
                    1306,
                    238
                ],
                [
                    1756,
                    2537
                ]
            ],
            "flags": {},
            "group_id": null
        },
        {
            "label": "va1",
            "shape_type": "rectangle",
            "points": [
                [
                    486,
                    382
                ],
                [
                    565,
                    431
                ]
            ],
            "flags": {},
            "group_id": null
        },
        {
            "label": "va1",
            "shape_type": "rectangle",
            "points": [
                [
                    1020,
                    472
                ],
                [
                    1063,
                    546
                ]
            ],
            "flags": {},
            "group_id": null
        },
        {
            "label": "va1",
            "shape_type": "rectangle",
            "points": [
                [
                    658,
                    862
                ],
                [
                    716,
                    939
                ]
            ],
            "flags": {},
            "group_id": null
        },
        {
            "label": "v1",
            "shape_type": "rectangle",
            "points": [
                [
                    1394,
                    2603
                ],
                [
                    1599,
                    2682
                ]
            ],
            "flags": {},
            "group_id": null
        },
        {
            "label": "h1",
            "shape_type": "rectangle",
            "points": [
                [
                    1968,
                    2463
                ],
                [
                    2091,
                    2535
                ]
            ],
            "flags": {},
            "group_id": null
        },
        {
            "label": "b1",
            "shape_type": "rectangle",
            "points": [
                [
                    1375,
                    2339
                ],
                [
                    1680,
                    2535
                ]
            ],
            "flags": {},
            "group_id": null
        },
        {
            "label": "x1",
            "shape_type": "rectangle",
            "points": [
                [
                    1383,
                    1555
                ],
                [
                    1671,
                    1584
                ]
            ],
            "flags": {},
            "group_id": null
        },
        {
            "label": "v1",
            "shape_type": "rectangle",
            "points": [
                [
                    3536,
                    691
                ],
                [
                    3810,
                    756
                ]
            ],
            "flags": {},
            "group_id": null
        },
        {
            "label": "n1",
            "shape_type": "rectangle",
            "points": [
                [
                    3253,
                    192
                ],
                [
                    4033,
                    624
                ]
            ],
            "flags": {},
            "group_id": null
        },
        {
            "label": "vp1-2",
            "shape_type": "rectangle",
            "points": [
                [
                    542,
                    395
                ],
                [
                    966,
                    816
                ]
            ],
            "flags": {},
            "group_id": null
        },
        {
            "label": "seven",
            "shape_type": "point",
            "points": [
                [
                    1376,
                    2339
                ]
            ],
            "flags": {},
            "group_id": null
        },
        {
            "label": "eight",
            "shape_type": "point",
            "points": [
                [
                    1680,
                    2339
                ]
            ],
            "flags": {},
            "group_id": null
        },
        {
            "label": "seven",
            "shape_type": "point",
            "points": [
                [
                    1386,
                    2349
                ]
            ],
            "flags": {},
            "group_id": null
        },
        {
            "label": "eight",
            "shape_type": "point",
            "points": [
                [
                    1668,
                    2350
                ]
            ],
            "flags": {},
            "group_id": null
        },
        {
            "label": "fourteen",
            "shape_type": "point",
            "points": [
                [
                    1376,
                    2535
                ]
            ],
            "flags": {},
            "group_id": null
        },
        {
            "label": "fourteen",
            "shape_type": "point",
            "points": [
                [
                    1681,
                    2536
                ]
            ],
            "flags": {},
            "group_id": null
        },
        {
            "label": "fourteen",
            "shape_type": "point",
            "points": [
                [
                    1668,
                    2535
                ]
            ],
            "flags": {},
            "group_id": null
        },
        {
            "label": "fourteen",
            "shape_type": "point",
            "points": [
                [
                    1385,
                    2535
                ]
            ],
            "flags": {},
            "group_id": null
        },
        {
            "label": "wz4",
            "shape_type": "rectangle",
            "points": [
                [
                    1487,
                    2455
                ],
                [
                    1609,
                    2486
                ]
            ],
            "flags": {},
            "group_id": null
        },
        {
            "label": "tl",
            "shape_type": "rectangle",
            "points": [
                [
                    2209,
                    104
                ],
                [
                    3182,
                    800
                ]
            ],
            "flags": {},
            "group_id": null
        },
        {
            "label": "sm",
            "shape_type": "rectangle",
            "points": [
                [
                    2299,
                    2124
                ],
                [
                    4047,
                    2508
                ]
            ],
            "flags": {},
            "group_id": null
        },
        {
            "label": "btl",
            "shape_type": "rectangle",
            "points": [
                [
                    2255,
                    2667
                ],
                [
                    4102,
                    2978
                ]
            ],
            "flags": {},
            "group_id": null
        },
        {
            "label": "j1",
            "shape_type": "rectangle",
            "points": [
                [
                    3307,
                    192
                ],
                [
                    3599,
                    258
                ]
            ],
            "flags": {},
            "group_id": null
        },
        {
            "label": "j1",
            "shape_type": "rectangle",
            "points": [
                [
                    3637,
                    197
                ],
                [
                    3676,
                    242
                ]
            ],
            "flags": {},
            "group_id": null
        },
        {
            "label": "j1",
            "shape_type": "rectangle",
            "points": [
                [
                    3766,
                    365
                ],
                [
                    4032,
                    431
                ]
            ],
            "flags": {},
            "group_id": null
        },
        {
            "label": "j1",
            "shape_type": "rectangle",
            "points": [
                [
                    3254,
                    560
                ],
                [
                    3558,
                    625
                ]
            ],
            "flags": {},
            "group_id": null
        },
        {
            "label": "mask",
            "lineType": [
                "LLLLLLLLL"
            ],
            "shape_type": "polygon",
            "points": [
                [
                    2159,
                    102
                ],
                [
                    3209,
                    99
                ],
                [
                    3195,
                    565
                ],
                [
                    2672,
                    609
                ],
                [
                    2652,
                    772
                ],
                [
                    2575,
                    835
                ],
                [
                    2377,
                    823
                ],
                [
                    2200,
                    702
                ],
                [
                    2159,
                    102
                ]
            ],
            "flags": {},
            "group_id": null
        },
        {
            "label": "mask",
            "lineType": [
                "LLLLLLLLLLLLLLLL"
            ],
            "shape_type": "polygon",
            "points": [
                [
                    3213,
                    645
                ],
                [
                    3255,
                    519
                ],
                [
                    3267,
                    401
                ],
                [
                    3276,
                    231
                ],
                [
                    3282,
                    148
                ],
                [
                    3510,
                    145
                ],
                [
                    3705,
                    181
                ],
                [
                    3832,
                    232
                ],
                [
                    4042,
                    325
                ],
                [
                    4053,
                    355
                ],
                [
                    4075,
                    452
                ],
                [
                    4019,
                    548
                ],
                [
                    3995,
                    725
                ],
                [
                    3832,
                    791
                ],
                [
                    3490,
                    788
                ],
                [
                    3213,
                    645
                ]
            ],
            "flags": {},
            "group_id": null
        },
        {
            "label": "mask",
            "lineType": [
                "LLLLLLLL"
            ],
            "shape_type": "polygon",
            "points": [
                [
                    2207,
                    875
                ],
                [
                    2663,
                    881
                ],
                [
                    3200,
                    961
                ],
                [
                    3587,
                    959
                ],
                [
                    4099,
                    983
                ],
                [
                    4100,
                    1771
                ],
                [
                    2216,
                    1752
                ],
                [
                    2207,
                    875
                ]
            ],
            "flags": {},
            "group_id": null
        },
        {
            "label": "mask",
            "lineType": [
                "LLLLLLLL"
            ],
            "shape_type": "polygon",
            "points": [
                [
                    2279,
                    2123
                ],
                [
                    3950,
                    2142
                ],
                [
                    4006,
                    2323
                ],
                [
                    4044,
                    2409
                ],
                [
                    4082,
                    2516
                ],
                [
                    3887,
                    2562
                ],
                [
                    2293,
                    2526
                ],
                [
                    2279,
                    2123
                ]
            ],
            "flags": {},
            "group_id": null
        },
        {
            "label": "mask",
            "lineType": [
                "LLLLL"
            ],
            "shape_type": "polygon",
            "points": [
                [
                    2249,
                    2658
                ],
                [
                    4102,
                    2665
                ],
                [
                    4100,
                    2979
                ],
                [
                    2229,
                    2978
                ],
                [
                    2249,
                    2658
                ]
            ],
            "flags": {},
            "group_id": null
        },
        {
            "label": "mask",
            "lineType": [
                "LLLLLLLLLLLL"
            ],
            "shape_type": "polygon",
            "points": [
                [
                    223,
                    2238
                ],
                [
                    432,
                    2243
                ],
                [
                    709,
                    2251
                ],
                [
                    866,
                    2263
                ],
                [
                    910,
                    2363
                ],
                [
                    947,
                    2523
                ],
                [
                    972,
                    2789
                ],
                [
                    954,
                    2828
                ],
                [
                    804,
                    2872
                ],
                [
                    376,
                    2846
                ],
                [
                    230,
                    2845
                ],
                [
                    223,
                    2238
                ]
            ],
            "flags": {},
            "group_id": null
        },
        {
            "label": "mask",
            "lineType": [
                "LLLLLLLLLLLLLLLLLLLLLLLLLLLLLL"
            ],
            "shape_type": "polygon",
            "points": [
                [
                    1136,
                    2705
                ],
                [
                    1012,
                    2586
                ],
                [
                    1027,
                    2452
                ],
                [
                    1219,
                    2023
                ],
                [
                    1234,
                    1736
                ],
                [
                    1277,
                    1291
                ],
                [
                    1249,
                    992
                ],
                [
                    1239,
                    578
                ],
                [
                    1333,
                    488
                ],
                [
                    1353,
                    396
                ],
                [
                    1359,
                    266
                ],
                [
                    1343,
                    182
                ],
                [
                    1323,
                    109
                ],
                [
                    1417,
                    108
                ],
                [
                    1569,
                    115
                ],
                [
                    1779,
                    219
                ],
                [
                    1927,
                    278
                ],
                [
                    2089,
                    461
                ],
                [
                    2107,
                    608
                ],
                [
                    2117,
                    759
                ],
                [
                    2090,
                    968
                ],
                [
                    1799,
                    1161
                ],
                [
                    1829,
                    1622
                ],
                [
                    1807,
                    2239
                ],
                [
                    2005,
                    2379
                ],
                [
                    2131,
                    2509
                ],
                [
                    2109,
                    2567
                ],
                [
                    1971,
                    2619
                ],
                [
                    1751,
                    2743
                ],
                [
                    1136,
                    2705
                ]
            ],
            "flags": {},
            "group_id": null
        },
        {
            "label": "mask",
            "lineType": [
                "LLLLLLLLLLLLL"
            ],
            "shape_type": "polygon",
            "points": [
                [
                    520,
                    2128
                ],
                [
                    776,
                    2157
                ],
                [
                    1087,
                    2097
                ],
                [
                    1109,
                    1932
                ],
                [
                    1134,
                    1612
                ],
                [
                    1142,
                    1355
                ],
                [
                    1099,
                    1256
                ],
                [
                    1014,
                    1237
                ],
                [
                    327,
                    1237
                ],
                [
                    302,
                    1358
                ],
                [
                    415,
                    1652
                ],
                [
                    500,
                    1927
                ],
                [
                    520,
                    2128
                ]
            ],
            "flags": {},
            "group_id": null
        },
        {
            "label": "mask",
            "lineType": [
                "LLLLLLLLLLLLLLLLLLLLLLL"
            ],
            "shape_type": "polygon",
            "points": [
                [
                    451,
                    1126
                ],
                [
                    732,
                    1176
                ],
                [
                    909,
                    1132
                ],
                [
                    981,
                    1095
                ],
                [
                    1061,
                    723
                ],
                [
                    1105,
                    603
                ],
                [
                    1144,
                    500
                ],
                [
                    1312,
                    442
                ],
                [
                    1325,
                    435
                ],
                [
                    1324,
                    376
                ],
                [
                    1305,
                    332
                ],
                [
                    1232,
                    291
                ],
                [
                    960,
                    291
                ],
                [
                    636,
                    253
                ],
                [
                    490,
                    200
                ],
                [
                    427,
                    197
                ],
                [
                    221,
                    225
                ],
                [
                    351,
                    585
                ],
                [
                    450,
                    687
                ],
                [
                    409,
                    867
                ],
                [
                    344,
                    917
                ],
                [
                    351,
                    1010
                ],
                [
                    451,
                    1126
                ]
            ],
            "flags": {},
            "group_id": null
        },
        {
            "label": "wlb",
            "shape_type": "rectangle",
            "points": [
                [
                    2244,
                    897
                ],
                [
                    4100,
                    1717
                ]
            ],
            "flags": {},
            "group_id": null
        },
        {
            "label": "Ns",
            "shape_type": "point",
            "points": [
                [
                    3655,
                    453
                ]
            ],
            "flags": {},
            "group_id": null
        },
        {
            "label": "Ne",
            "shape_type": "point",
            "points": [
                [
                    3655,
                    310
                ]
            ],
            "flags": {},
            "group_id": null
        },
        {
            "label": "wztl",
            "shape_type": "rectangle",
            "points": [
                [
                    2941,
                    475
                ],
                [
                    3178,
                    527
                ]
            ],
            "flags": {},
            "group_id": null
        },
        {
            "label": "wztl",
            "shape_type": "rectangle",
            "points": [
                [
                    2940,
                    395
                ],
                [
                    3178,
                    446
                ]
            ],
            "flags": {},
            "group_id": null
        },
        {
            "label": "wztl",
            "shape_type": "rectangle",
            "points": [
                [
                    2940,
                    322
                ],
                [
                    3177,
                    374
                ]
            ],
            "flags": {},
            "group_id": null
        },
        {
            "label": "wztl",
            "shape_type": "rectangle",
            "points": [
                [
                    2942,
                    246
                ],
                [
                    3124,
                    300
                ]
            ],
            "flags": {},
            "group_id": null
        },
        {
            "label": "wztl",
            "shape_type": "rectangle",
            "points": [
                [
                    2943,
                    173
                ],
                [
                    3137,
                    225
                ]
            ],
            "flags": {},
            "group_id": null
        },
        {
            "label": "wztl",
            "shape_type": "rectangle",
            "points": [
                [
                    2943,
                    108
                ],
                [
                    3136,
                    158
                ]
            ],
            "flags": {},
            "group_id": null
        },
        {
            "label": "xtl",
            "shape_type": "rectangle",
            "points": [
                [
                    2845,
                    133
                ],
                [
                    2909,
                    159
                ]
            ],
            "flags": {},
            "group_id": null
        },
        {
            "label": "xtl",
            "shape_type": "rectangle",
            "points": [
                [
                    2845,
                    196
                ],
                [
                    2909,
                    223
                ]
            ],
            "flags": {},
            "group_id": null
        },
        {
            "label": "xtl",
            "shape_type": "rectangle",
            "points": [
                [
                    2845,
                    281
                ],
                [
                    2909,
                    286
                ]
            ],
            "flags": {},
            "group_id": null
        },
        {
            "label": "xtl",
            "shape_type": "rectangle",
            "points": [
                [
                    2836,
                    332
                ],
                [
                    2895,
                    375
                ]
            ],
            "flags": {},
            "group_id": null
        },
        {
            "label": "xtl",
            "shape_type": "rectangle",
            "points": [
                [
                    2838,
                    402
                ],
                [
                    2906,
                    445
                ]
            ],
            "flags": {},
            "group_id": null
        },
        {
            "label": "xtl",
            "shape_type": "rectangle",
            "points": [
                [
                    2835,
                    476
                ],
                [
                    2905,
                    519
                ]
            ],
            "flags": {},
            "group_id": null
        },
        {
            "label": "xtl",
            "shape_type": "rectangle",
            "points": [
                [
                    2330,
                    125
                ],
                [
                    2403,
                    165
                ]
            ],
            "flags": {},
            "group_id": null
        },
        {
            "label": "wztl",
            "shape_type": "rectangle",
            "points": [
                [
                    2433,
                    115
                ],
                [
                    2722,
                    167
                ]
            ],
            "flags": {},
            "group_id": null
        },
        {
            "label": "xtl",
            "shape_type": "rectangle",
            "points": [
                [
                    2331,
                    196
                ],
                [
                    2402,
                    237
                ]
            ],
            "flags": {},
            "group_id": null
        },
        {
            "label": "wztl",
            "shape_type": "rectangle",
            "points": [
                [
                    2431,
                    180
                ],
                [
                    2739,
                    232
                ]
            ],
            "flags": {},
            "group_id": null
        },
        {
            "label": "xtl",
            "shape_type": "rectangle",
            "points": [
                [
                    2330,
                    268
                ],
                [
                    2403,
                    309
                ]
            ],
            "flags": {},
            "group_id": null
        },
        {
            "label": "wztl",
            "shape_type": "rectangle",
            "points": [
                [
                    2433,
                    248
                ],
                [
                    2697,
                    301
                ]
            ],
            "flags": {},
            "group_id": null
        },
        {
            "label": "xtl",
            "shape_type": "rectangle",
            "points": [
                [
                    2330,
                    339
                ],
                [
                    2403,
                    380
                ]
            ],
            "flags": {},
            "group_id": null
        },
        {
            "label": "wztl",
            "shape_type": "rectangle",
            "points": [
                [
                    2440,
                    319
                ],
                [
                    2614,
                    372
                ]
            ],
            "flags": {},
            "group_id": null
        },
        {
            "label": "xtl",
            "shape_type": "rectangle",
            "points": [
                [
                    2331,
                    411
                ],
                [
                    2403,
                    452
                ]
            ],
            "flags": {},
            "group_id": null
        },
        {
            "label": "wztl",
            "shape_type": "rectangle",
            "points": [
                [
                    2443,
                    393
                ],
                [
                    2671,
                    446
                ]
            ],
            "flags": {},
            "group_id": null
        },
        {
            "label": "xtl",
            "shape_type": "rectangle",
            "points": [
                [
                    2331,
                    483
                ],
                [
                    2403,
                    524
                ]
            ],
            "flags": {},
            "group_id": null
        },
        {
            "label": "wztl",
            "shape_type": "rectangle",
            "points": [
                [
                    2444,
                    465
                ],
                [
                    2599,
                    517
                ]
            ],
            "flags": {},
            "group_id": null
        },
        {
            "label": "xtl",
            "shape_type": "rectangle",
            "points": [
                [
                    2342,
                    613
                ],
                [
                    2421,
                    619
                ]
            ],
            "flags": {},
            "group_id": null
        },
        {
            "label": "wztl",
            "shape_type": "rectangle",
            "points": [
                [
                    2461,
                    584
                ],
                [
                    2575,
                    636
                ]
            ],
            "flags": {},
            "group_id": null
        },
        {
            "label": "xtl",
            "shape_type": "rectangle",
            "points": [
                [
                    2346,
                    691
                ],
                [
                    2425,
                    696
                ]
            ],
            "flags": {},
            "group_id": null
        },
        {
            "label": "wztl",
            "shape_type": "rectangle",
            "points": [
                [
                    2462,
                    660
                ],
                [
                    2578,
                    714
                ]
            ],
            "flags": {},
            "group_id": null
        },
        {
            "label": "xtl",
            "shape_type": "rectangle",
            "points": [
                [
                    2370,
                    751
                ],
                [
                    2404,
                    784
                ]
            ],
            "flags": {},
            "group_id": null
        },
        {
            "label": "wztl",
            "shape_type": "rectangle",
            "points": [
                [
                    2465,
                    743
                ],
                [
                    2540,
                    794
                ]
            ],
            "flags": {},
            "group_id": null
        },
        {
            "label": "wz1",
            "shape_type": "rectangle",
            "points": [
                [
                    268,
                    229
                ],
                [
                    515,
                    344
                ]
            ],
            "flags": {},
            "group_id": null
        },
        {
            "label": "wz1-l",
            "lineType": "LL",
            "shape_type": "line",
            "points": [
                [
                    453,
                    317
                ],
                [
                    507,
                    395
                ]
            ],
            "flags": {},
            "group_id": null
        },
        {
            "label": "wz1",
            "shape_type": "rectangle",
            "points": [
                [
                    1080,
                    321
                ],
                [
                    1311,
                    436
                ]
            ],
            "flags": {},
            "group_id": null
        },
        {
            "label": "wz1-l",
            "lineType": "LL",
            "shape_type": "line",
            "points": [
                [
                    1123,
                    399
                ],
                [
                    1052,
                    492
                ]
            ],
            "flags": {},
            "group_id": null
        },
        {
            "label": "wz1",
            "shape_type": "rectangle",
            "points": [
                [
                    381,
                    877
                ],
                [
                    637,
                    994
                ]
            ],
            "flags": {},
            "group_id": null
        },
        {
            "label": "wz1-l",
            "lineType": "LL",
            "shape_type": "line",
            "points": [
                [
                    670,
                    921
                ],
                [
                    618,
                    945
                ]
            ],
            "flags": {},
            "group_id": null
        },
        {
            "label": "wz3",
            "shape_type": "rectangle",
            "points": [
                [
                    395,
                    1270
                ],
                [
                    595,
                    1389
                ]
            ],
            "flags": {},
            "group_id": null
        },
        {
            "label": "wz3",
            "shape_type": "rectangle",
            "points": [
                [
                    894,
                    1281
                ],
                [
                    1087,
                    1398
                ]
            ],
            "flags": {},
            "group_id": null
        },
        {
            "label": "wz3",
            "shape_type": "rectangle",
            "points": [
                [
                    876,
                    1892
                ],
                [
                    1076,
                    2012
                ]
            ],
            "flags": {},
            "group_id": null
        },
        {
            "label": "wz3-l",
            "lineType": "LL",
            "shape_type": "line",
            "points": [
                [
                    912,
                    1965
                ],
                [
                    822,
                    1933
                ]
            ],
            "flags": {},
            "group_id": null
        },
        {
            "label": "wz3-l",
            "lineType": "LL",
            "shape_type": "line",
            "points": [
                [
                    549,
                    1363
                ],
                [
                    529,
                    1429
                ]
            ],
            "flags": {},
            "group_id": null
        },
        {
            "label": "wz3-l",
            "lineType": "LL",
            "shape_type": "line",
            "points": [
                [
                    998,
                    1364
                ],
                [
                    994,
                    1429
                ]
            ],
            "flags": {},
            "group_id": null
        },
        {
            "label": "wz1",
            "shape_type": "rectangle",
            "points": [
                [
                    1351,
                    129
                ],
                [
                    1447,
                    176
                ]
            ],
            "flags": {},
            "group_id": null
        },
        {
            "label": "wz1-l",
            "lineType": "LL",
            "shape_type": "line",
            "points": [
                [
                    1419,
                    166
                ],
                [
                    1531,
                    276
                ]
            ],
            "flags": {},
            "group_id": null
        }
    ],
    "flags": {},
    "imageData": null,
    "version": "4.5.7"
}