{
    "imageHeight": 3055,
    "imageWidth": 4210,
    "imagePath": "GX0730-英才学院北（铁塔公司）5G无线基站天馈线安装示意图.png",
    "shapes": [
        {
            "label": "b1",
            "shape_type": "rectangle",
            "points": [
                [
                    994,
                    2410
                ],
                [
                    1455,
                    2674
                ]
            ],
            "flags": {},
            "group_id": null
        },
        {
            "label": "c1",
            "shape_type": "rectangle",
            "points": [
                [
                    613,
                    786
                ],
                [
                    614,
                    974
                ]
            ],
            "flags": {},
            "group_id": null
        },
        {
            "label": "a1-1",
            "shape_type": "rectangle",
            "points": [
                [
                    459,
                    954
                ],
                [
                    491,
                    1088
                ]
            ],
            "flags": {},
            "group_id": null
        },
        {
            "label": "g1",
            "shape_type": "rectangle",
            "points": [
                [
                    493,
                    954
                ],
                [
                    499,
                    1106
                ]
            ],
            "flags": {},
            "group_id": null
        },
        {
            "label": "g1",
            "shape_type": "rectangle",
            "points": [
                [
                    618,
                    955
                ],
                [
                    624,
                    1106
                ]
            ],
            "flags": {},
            "group_id": null
        },
        {
            "label": "a1-2",
            "shape_type": "rectangle",
            "points": [
                [
                    626,
                    953
                ],
                [
                    658,
                    1088
                ]
            ],
            "flags": {},
            "group_id": null
        },
        {
            "label": "g1",
            "shape_type": "rectangle",
            "points": [
                [
                    729,
                    955
                ],
                [
                    734,
                    1106
                ]
            ],
            "flags": {},
            "group_id": null
        },
        {
            "label": "a1-2",
            "shape_type": "rectangle",
            "points": [
                [
                    737,
                    954
                ],
                [
                    769,
                    1087
                ]
            ],
            "flags": {},
            "group_id": null
        },
        {
            "label": "h1",
            "shape_type": "rectangle",
            "points": [
                [
                    819,
                    871
                ],
                [
                    1016,
                    955
                ]
            ],
            "flags": {},
            "group_id": null
        },
        {
            "label": "d1",
            "shape_type": "rectangle",
            "points": [
                [
                    1357,
                    748
                ],
                [
                    1413,
                    844
                ]
            ],
            "flags": {},
            "group_id": null
        },
        {
            "label": "v1",
            "shape_type": "rectangle",
            "points": [
                [
                    1563,
                    782
                ],
                [
                    1743,
                    832
                ]
            ],
            "flags": {},
            "group_id": null
        },
        {
            "label": "d1",
            "shape_type": "rectangle",
            "points": [
                [
                    1904,
                    748
                ],
                [
                    1962,
                    844
                ]
            ],
            "flags": {},
            "group_id": null
        },
        {
            "label": "n1",
            "shape_type": "rectangle",
            "points": [
                [
                    3115,
                    145
                ],
                [
                    4068,
                    616
                ]
            ],
            "flags": {},
            "group_id": null
        },
        {
            "label": "v1",
            "shape_type": "rectangle",
            "points": [
                [
                    3547,
                    680
                ],
                [
                    3822,
                    752
                ]
            ],
            "flags": {},
            "group_id": null
        },
        {
            "label": "a1-1",
            "shape_type": "rectangle",
            "points": [
                [
                    474,
                    1215
                ],
                [
                    506,
                    1350
                ]
            ],
            "flags": {},
            "group_id": null
        },
        {
            "label": "g1",
            "shape_type": "rectangle",
            "points": [
                [
                    508,
                    1216
                ],
                [
                    514,
                    1368
                ]
            ],
            "flags": {},
            "group_id": null
        },
        {
            "label": "g1",
            "shape_type": "rectangle",
            "points": [
                [
                    704,
                    1212
                ],
                [
                    709,
                    1365
                ]
            ],
            "flags": {},
            "group_id": null
        },
        {
            "label": "a1-2",
            "shape_type": "rectangle",
            "points": [
                [
                    712,
                    1211
                ],
                [
                    743,
                    1345
                ]
            ],
            "flags": {},
            "group_id": null
        },
        {
            "label": "a1-1",
            "shape_type": "rectangle",
            "points": [
                [
                    474,
                    1395
                ],
                [
                    506,
                    1530
                ]
            ],
            "flags": {},
            "group_id": null
        },
        {
            "label": "g1",
            "shape_type": "rectangle",
            "points": [
                [
                    508,
                    1396
                ],
                [
                    514,
                    1547
                ]
            ],
            "flags": {},
            "group_id": null
        },
        {
            "label": "g1",
            "shape_type": "rectangle",
            "points": [
                [
                    701,
                    1392
                ],
                [
                    705,
                    1543
                ]
            ],
            "flags": {},
            "group_id": null
        },
        {
            "label": "a1-2",
            "shape_type": "rectangle",
            "points": [
                [
                    709,
                    1390
                ],
                [
                    740,
                    1525
                ]
            ],
            "flags": {},
            "group_id": null
        },
        {
            "label": "a1-1",
            "shape_type": "rectangle",
            "points": [
                [
                    473,
                    1562
                ],
                [
                    505,
                    1697
                ]
            ],
            "flags": {},
            "group_id": null
        },
        {
            "label": "g1",
            "shape_type": "rectangle",
            "points": [
                [
                    508,
                    1564
                ],
                [
                    513,
                    1715
                ]
            ],
            "flags": {},
            "group_id": null
        },
        {
            "label": "g1",
            "shape_type": "rectangle",
            "points": [
                [
                    610,
                    1565
                ],
                [
                    613,
                    1716
                ]
            ],
            "flags": {},
            "group_id": null
        },
        {
            "label": "a1-2",
            "shape_type": "rectangle",
            "points": [
                [
                    617,
                    1563
                ],
                [
                    648,
                    1697
                ]
            ],
            "flags": {},
            "group_id": null
        },
        {
            "label": "g1",
            "shape_type": "rectangle",
            "points": [
                [
                    700,
                    1560
                ],
                [
                    706,
                    1710
                ]
            ],
            "flags": {},
            "group_id": null
        },
        {
            "label": "a1-2",
            "shape_type": "rectangle",
            "points": [
                [
                    709,
                    1558
                ],
                [
                    740,
                    1692
                ]
            ],
            "flags": {},
            "group_id": null
        },
        {
            "label": "a1-1",
            "shape_type": "rectangle",
            "points": [
                [
                    469,
                    1723
                ],
                [
                    501,
                    1857
                ]
            ],
            "flags": {},
            "group_id": null
        },
        {
            "label": "g1",
            "shape_type": "rectangle",
            "points": [
                [
                    504,
                    1725
                ],
                [
                    508,
                    1876
                ]
            ],
            "flags": {},
            "group_id": null
        },
        {
            "label": "g1",
            "shape_type": "rectangle",
            "points": [
                [
                    605,
                    1726
                ],
                [
                    610,
                    1878
                ]
            ],
            "flags": {},
            "group_id": null
        },
        {
            "label": "a1-2",
            "shape_type": "rectangle",
            "points": [
                [
                    612,
                    1724
                ],
                [
                    645,
                    1859
                ]
            ],
            "flags": {},
            "group_id": null
        },
        {
            "label": "g1",
            "shape_type": "rectangle",
            "points": [
                [
                    697,
                    1721
                ],
                [
                    702,
                    1872
                ]
            ],
            "flags": {},
            "group_id": null
        },
        {
            "label": "a1-2",
            "shape_type": "rectangle",
            "points": [
                [
                    705,
                    1718
                ],
                [
                    737,
                    1854
                ]
            ],
            "flags": {},
            "group_id": null
        },
        {
            "label": "x1",
            "shape_type": "rectangle",
            "points": [
                [
                    496,
                    1888
                ],
                [
                    725,
                    1911
                ]
            ],
            "flags": {},
            "group_id": null
        },
        {
            "label": "h1",
            "shape_type": "rectangle",
            "points": [
                [
                    819,
                    1778
                ],
                [
                    1015,
                    1862
                ]
            ],
            "flags": {},
            "group_id": null
        },
        {
            "label": "h1",
            "shape_type": "rectangle",
            "points": [
                [
                    819,
                    1600
                ],
                [
                    1016,
                    1686
                ]
            ],
            "flags": {},
            "group_id": null
        },
        {
            "label": "v1",
            "shape_type": "rectangle",
            "points": [
                [
                    1342,
                    1507
                ],
                [
                    1712,
                    1582
                ]
            ],
            "flags": {},
            "group_id": null
        },
        {
            "label": "van",
            "shape_type": "rectangle",
            "points": [
                [
                    1640,
                    1406
                ],
                [
                    1695,
                    1466
                ]
            ],
            "flags": {},
            "group_id": null
        },
        {
            "label": "van",
            "shape_type": "rectangle",
            "points": [
                [
                    1357,
                    1391
                ],
                [
                    1396,
                    1461
                ]
            ],
            "flags": {},
            "group_id": null
        },
        {
            "label": "van",
            "shape_type": "rectangle",
            "points": [
                [
                    1634,
                    1157
                ],
                [
                    1695,
                    1211
                ]
            ],
            "flags": {},
            "group_id": null
        },
        {
            "label": "vpn",
            "shape_type": "rectangle",
            "points": [
                [
                    1430,
                    1221
                ],
                [
                    1611,
                    1401
                ]
            ],
            "flags": {},
            "group_id": null
        },
        {
            "label": "va1",
            "shape_type": "rectangle",
            "points": [
                [
                    1635,
                    1828
                ],
                [
                    1700,
                    1888
                ]
            ],
            "flags": {},
            "group_id": null
        },
        {
            "label": "va1",
            "shape_type": "rectangle",
            "points": [
                [
                    1640,
                    2082
                ],
                [
                    1700,
                    2148
                ]
            ],
            "flags": {},
            "group_id": null
        },
        {
            "label": "va1",
            "shape_type": "rectangle",
            "points": [
                [
                    1357,
                    2068
                ],
                [
                    1396,
                    2137
                ]
            ],
            "flags": {},
            "group_id": null
        },
        {
            "label": "vpn",
            "shape_type": "rectangle",
            "points": [
                [
                    1429,
                    1897
                ],
                [
                    1611,
                    2079
                ]
            ],
            "flags": {},
            "group_id": null
        },
        {
            "label": "v1",
            "shape_type": "rectangle",
            "points": [
                [
                    1344,
                    2183
                ],
                [
                    1821,
                    2259
                ]
            ],
            "flags": {},
            "group_id": null
        },
        {
            "label": "v1",
            "shape_type": "rectangle",
            "points": [
                [
                    542,
                    2718
                ],
                [
                    707,
                    2782
                ]
            ],
            "flags": {},
            "group_id": null
        },
        {
            "label": "vt4",
            "shape_type": "rectangle",
            "points": [
                [
                    1422,
                    264
                ],
                [
                    1825,
                    668
                ]
            ],
            "flags": {},
            "group_id": null
        },
        {
            "label": "t3-l",
            "shape_type": "rectangle",
            "points": [
                [
                    433,
                    785
                ],
                [
                    796,
                    2673
                ]
            ],
            "flags": {},
            "group_id": null
        },
        {
            "label": "p1-2",
            "shape_type": "rectangle",
            "points": [
                [
                    459,
                    953
                ],
                [
                    769,
                    1106
                ]
            ],
            "flags": {},
            "group_id": null
        },
        {
            "label": "p1-1",
            "shape_type": "rectangle",
            "points": [
                [
                    475,
                    1211
                ],
                [
                    743,
                    1365
                ]
            ],
            "flags": {},
            "group_id": null
        },
        {
            "label": "p1-1",
            "shape_type": "rectangle",
            "points": [
                [
                    475,
                    1390
                ],
                [
                    740,
                    1544
                ]
            ],
            "flags": {},
            "group_id": null
        },
        {
            "label": "p1-1",
            "shape_type": "rectangle",
            "points": [
                [
                    473,
                    1557
                ],
                [
                    740,
                    1716
                ]
            ],
            "flags": {},
            "group_id": null
        },
        {
            "label": "p1-1",
            "shape_type": "rectangle",
            "points": [
                [
                    470,
                    1719
                ],
                [
                    737,
                    1878
                ]
            ],
            "flags": {},
            "group_id": null
        },
        {
            "label": "seven",
            "shape_type": "point",
            "points": [
                [
                    994,
                    2410
                ]
            ],
            "flags": {},
            "group_id": null
        },
        {
            "label": "eight",
            "shape_type": "point",
            "points": [
                [
                    1455,
                    2409
                ]
            ],
            "flags": {},
            "group_id": null
        },
        {
            "label": "fourteen",
            "shape_type": "point",
            "points": [
                [
                    994,
                    2674
                ]
            ],
            "flags": {},
            "group_id": null
        },
        {
            "label": "fourteen",
            "shape_type": "point",
            "points": [
                [
                    1456,
                    2674
                ]
            ],
            "flags": {},
            "group_id": null
        },
        {
            "label": "n1",
            "shape_type": "rectangle",
            "points": [
                [
                    168,
                    186
                ],
                [
                    207,
                    440
                ]
            ],
            "flags": {},
            "group_id": null
        },
        {
            "label": "wz4",
            "shape_type": "rectangle",
            "points": [
                [
                    1135,
                    2498
                ],
                [
                    1269,
                    2545
                ]
            ],
            "flags": {},
            "group_id": null
        },
        {
            "label": "btl",
            "shape_type": "rectangle",
            "points": [
                [
                    2254,
                    2665
                ],
                [
                    4104,
                    2979
                ]
            ],
            "flags": {},
            "group_id": null
        },
        {
            "label": "sm",
            "shape_type": "rectangle",
            "points": [
                [
                    2269,
                    2201
                ],
                [
                    4014,
                    2582
                ]
            ],
            "flags": {},
            "group_id": null
        },
        {
            "label": "tl",
            "shape_type": "rectangle",
            "points": [
                [
                    2210,
                    107
                ],
                [
                    3182,
                    801
                ]
            ],
            "flags": {},
            "group_id": null
        },
        {
            "label": "j1",
            "shape_type": "rectangle",
            "points": [
                [
                    3116,
                    479
                ],
                [
                    3419,
                    545
                ]
            ],
            "flags": {},
            "group_id": null
        },
        {
            "label": "j1",
            "shape_type": "rectangle",
            "points": [
                [
                    3776,
                    551
                ],
                [
                    4068,
                    615
                ]
            ],
            "flags": {},
            "group_id": null
        },
        {
            "label": "j1",
            "shape_type": "rectangle",
            "points": [
                [
                    3727,
                    178
                ],
                [
                    3985,
                    241
                ]
            ],
            "flags": {},
            "group_id": null
        },
        {
            "label": "j1",
            "shape_type": "rectangle",
            "points": [
                [
                    3619,
                    145
                ],
                [
                    3656,
                    188
                ]
            ],
            "flags": {},
            "group_id": null
        },
        {
            "label": "mask",
            "lineType": [
                "LLLLLLLLLLLLLL"
            ],
            "shape_type": "polygon",
            "points": [
                [
                    2178,
                    104
                ],
                [
                    3185,
                    102
                ],
                [
                    3225,
                    329
                ],
                [
                    3284,
                    414
                ],
                [
                    3393,
                    459
                ],
                [
                    3439,
                    483
                ],
                [
                    3430,
                    527
                ],
                [
                    3415,
                    564
                ],
                [
                    2638,
                    585
                ],
                [
                    2623,
                    707
                ],
                [
                    2595,
                    822
                ],
                [
                    2526,
                    853
                ],
                [
                    2239,
                    857
                ],
                [
                    2178,
                    104
                ]
            ],
            "flags": {},
            "group_id": null
        },
        {
            "label": "mask",
            "lineType": [
                "LLLLLLLLLLLLLLLL"
            ],
            "shape_type": "polygon",
            "points": [
                [
                    3446,
                    468
                ],
                [
                    3380,
                    321
                ],
                [
                    3535,
                    153
                ],
                [
                    3578,
                    118
                ],
                [
                    3706,
                    115
                ],
                [
                    3846,
                    129
                ],
                [
                    4049,
                    189
                ],
                [
                    4042,
                    268
                ],
                [
                    4034,
                    399
                ],
                [
                    4079,
                    599
                ],
                [
                    4069,
                    638
                ],
                [
                    4010,
                    684
                ],
                [
                    3873,
                    781
                ],
                [
                    3672,
                    793
                ],
                [
                    3476,
                    761
                ],
                [
                    3446,
                    468
                ]
            ],
            "flags": {},
            "group_id": null
        },
        {
            "label": "mask",
            "lineType": [
                "LLLLL"
            ],
            "shape_type": "polygon",
            "points": [
                [
                    2213,
                    1002
                ],
                [
                    2209,
                    1839
                ],
                [
                    4104,
                    1831
                ],
                [
                    4103,
                    1087
                ],
                [
                    2213,
                    1002
                ]
            ],
            "flags": {},
            "group_id": null
        },
        {
            "label": "mask",
            "lineType": [
                "LLLLLLLL"
            ],
            "shape_type": "polygon",
            "points": [
                [
                    2235,
                    2166
                ],
                [
                    2275,
                    2589
                ],
                [
                    4043,
                    2577
                ],
                [
                    4025,
                    2443
                ],
                [
                    3978,
                    2243
                ],
                [
                    3892,
                    2224
                ],
                [
                    2990,
                    2218
                ],
                [
                    2235,
                    2166
                ]
            ],
            "flags": {},
            "group_id": null
        },
        {
            "label": "mask",
            "lineType": [
                "LLLLL"
            ],
            "shape_type": "polygon",
            "points": [
                [
                    2238,
                    2658
                ],
                [
                    2250,
                    2982
                ],
                [
                    4104,
                    2976
                ],
                [
                    4106,
                    2639
                ],
                [
                    2238,
                    2658
                ]
            ],
            "flags": {},
            "group_id": null
        },
        {
            "label": "mask",
            "lineType": [
                "LLLLLLLLLLLLLLLLLLLLLLLLLLLLLLLLLL"
            ],
            "shape_type": "polygon",
            "points": [
                [
                    316,
                    2604
                ],
                [
                    476,
                    2831
                ],
                [
                    713,
                    2834
                ],
                [
                    876,
                    2831
                ],
                [
                    1486,
                    2760
                ],
                [
                    1602,
                    2700
                ],
                [
                    1690,
                    2557
                ],
                [
                    1534,
                    2417
                ],
                [
                    1450,
                    2387
                ],
                [
                    1001,
                    2344
                ],
                [
                    931,
                    2314
                ],
                [
                    836,
                    2055
                ],
                [
                    1075,
                    1933
                ],
                [
                    1130,
                    1551
                ],
                [
                    1029,
                    1444
                ],
                [
                    990,
                    1049
                ],
                [
                    1059,
                    946
                ],
                [
                    1040,
                    770
                ],
                [
                    752,
                    735
                ],
                [
                    656,
                    743
                ],
                [
                    502,
                    740
                ],
                [
                    435,
                    768
                ],
                [
                    344,
                    1146
                ],
                [
                    354,
                    1404
                ],
                [
                    334,
                    1623
                ],
                [
                    252,
                    1622
                ],
                [
                    170,
                    1631
                ],
                [
                    132,
                    1646
                ],
                [
                    122,
                    1657
                ],
                [
                    119,
                    1716
                ],
                [
                    196,
                    1773
                ],
                [
                    365,
                    2116
                ],
                [
                    372,
                    2409
                ],
                [
                    316,
                    2604
                ]
            ],
            "flags": {},
            "group_id": null
        },
        {
            "label": "mask",
            "lineType": [
                "LLLLLLLLLLLLLLL"
            ],
            "shape_type": "polygon",
            "points": [
                [
                    1116,
                    2042
                ],
                [
                    1181,
                    1963
                ],
                [
                    1363,
                    1929
                ],
                [
                    1431,
                    1865
                ],
                [
                    1571,
                    1795
                ],
                [
                    1653,
                    1732
                ],
                [
                    1890,
                    1724
                ],
                [
                    1896,
                    1765
                ],
                [
                    1890,
                    1849
                ],
                [
                    1908,
                    2098
                ],
                [
                    1891,
                    2263
                ],
                [
                    1870,
                    2300
                ],
                [
                    1758,
                    2317
                ],
                [
                    1240,
                    2290
                ],
                [
                    1116,
                    2042
                ]
            ],
            "flags": {},
            "group_id": null
        },
        {
            "label": "mask",
            "lineType": [
                "LLLLLLLLLLLLLL"
            ],
            "shape_type": "polygon",
            "points": [
                [
                    1268,
                    1610
                ],
                [
                    1651,
                    1628
                ],
                [
                    1833,
                    1592
                ],
                [
                    1971,
                    1489
                ],
                [
                    1960,
                    1341
                ],
                [
                    1907,
                    1072
                ],
                [
                    1777,
                    1029
                ],
                [
                    1645,
                    1050
                ],
                [
                    1477,
                    1089
                ],
                [
                    1366,
                    1143
                ],
                [
                    1244,
                    1195
                ],
                [
                    1161,
                    1247
                ],
                [
                    1151,
                    1329
                ],
                [
                    1268,
                    1610
                ]
            ],
            "flags": {},
            "group_id": null
        },
        {
            "label": "mask",
            "lineType": [
                "LLLLLLLLLLLLLLLLLL"
            ],
            "shape_type": "polygon",
            "points": [
                [
                    1256,
                    874
                ],
                [
                    1589,
                    909
                ],
                [
                    1827,
                    898
                ],
                [
                    2006,
                    892
                ],
                [
                    2006,
                    790
                ],
                [
                    1984,
                    662
                ],
                [
                    1943,
                    384
                ],
                [
                    1875,
                    297
                ],
                [
                    1843,
                    265
                ],
                [
                    1781,
                    250
                ],
                [
                    1613,
                    240
                ],
                [
                    1461,
                    244
                ],
                [
                    1401,
                    252
                ],
                [
                    1384,
                    327
                ],
                [
                    1377,
                    452
                ],
                [
                    1337,
                    638
                ],
                [
                    1353,
                    715
                ],
                [
                    1256,
                    874
                ]
            ],
            "flags": {},
            "group_id": null
        },
        {
            "label": "mask",
            "lineType": [
                "LLLLLL"
            ],
            "shape_type": "polygon",
            "points": [
                [
                    146,
                    452
                ],
                [
                    151,
                    152
                ],
                [
                    226,
                    161
                ],
                [
                    239,
                    291
                ],
                [
                    229,
                    461
                ],
                [
                    146,
                    452
                ]
            ],
            "flags": {},
            "group_id": null
        },
        {
            "label": "wlb",
            "shape_type": "rectangle",
            "points": [
                [
                    2240,
                    1032
                ],
                [
                    4103,
                    1811
                ]
            ],
            "flags": {},
            "group_id": null
        },
        {
            "label": "xtl",
            "shape_type": "rectangle",
            "points": [
                [
                    2370,
                    753
                ],
                [
                    2404,
                    787
                ]
            ],
            "flags": {},
            "group_id": null
        },
        {
            "label": "wztl",
            "shape_type": "rectangle",
            "points": [
                [
                    2465,
                    745
                ],
                [
                    2540,
                    796
                ]
            ],
            "flags": {},
            "group_id": null
        },
        {
            "label": "wztl",
            "shape_type": "rectangle",
            "points": [
                [
                    2462,
                    664
                ],
                [
                    2577,
                    715
                ]
            ],
            "flags": {},
            "group_id": null
        },
        {
            "label": "xtl",
            "shape_type": "rectangle",
            "points": [
                [
                    2345,
                    692
                ],
                [
                    2424,
                    699
                ]
            ],
            "flags": {},
            "group_id": null
        },
        {
            "label": "xtl",
            "shape_type": "rectangle",
            "points": [
                [
                    2343,
                    616
                ],
                [
                    2422,
                    622
                ]
            ],
            "flags": {},
            "group_id": null
        },
        {
            "label": "wztl",
            "shape_type": "rectangle",
            "points": [
                [
                    2461,
                    587
                ],
                [
                    2574,
                    638
                ]
            ],
            "flags": {},
            "group_id": null
        },
        {
            "label": "wztl",
            "shape_type": "rectangle",
            "points": [
                [
                    2443,
                    467
                ],
                [
                    2599,
                    519
                ]
            ],
            "flags": {},
            "group_id": null
        },
        {
            "label": "xtl",
            "shape_type": "rectangle",
            "points": [
                [
                    2332,
                    486
                ],
                [
                    2402,
                    527
                ]
            ],
            "flags": {},
            "group_id": null
        },
        {
            "label": "xtl",
            "shape_type": "rectangle",
            "points": [
                [
                    2332,
                    414
                ],
                [
                    2402,
                    455
                ]
            ],
            "flags": {},
            "group_id": null
        },
        {
            "label": "wztl",
            "shape_type": "rectangle",
            "points": [
                [
                    2444,
                    395
                ],
                [
                    2671,
                    447
                ]
            ],
            "flags": {},
            "group_id": null
        },
        {
            "label": "wztl",
            "shape_type": "rectangle",
            "points": [
                [
                    2442,
                    322
                ],
                [
                    2613,
                    373
                ]
            ],
            "flags": {},
            "group_id": null
        },
        {
            "label": "xtl",
            "shape_type": "rectangle",
            "points": [
                [
                    2332,
                    342
                ],
                [
                    2403,
                    383
                ]
            ],
            "flags": {},
            "group_id": null
        },
        {
            "label": "xtl",
            "shape_type": "rectangle",
            "points": [
                [
                    2332,
                    271
                ],
                [
                    2403,
                    312
                ]
            ],
            "flags": {},
            "group_id": null
        },
        {
            "label": "xtl",
            "shape_type": "rectangle",
            "points": [
                [
                    2331,
                    199
                ],
                [
                    2402,
                    240
                ]
            ],
            "flags": {},
            "group_id": null
        },
        {
            "label": "wztl",
            "shape_type": "rectangle",
            "points": [
                [
                    2432,
                    252
                ],
                [
                    2697,
                    303
                ]
            ],
            "flags": {},
            "group_id": null
        },
        {
            "label": "wztl",
            "shape_type": "rectangle",
            "points": [
                [
                    2432,
                    182
                ],
                [
                    2739,
                    233
                ]
            ],
            "flags": {},
            "group_id": null
        },
        {
            "label": "wztl",
            "shape_type": "rectangle",
            "points": [
                [
                    2432,
                    117
                ],
                [
                    2722,
                    168
                ]
            ],
            "flags": {},
            "group_id": null
        },
        {
            "label": "xtl",
            "shape_type": "rectangle",
            "points": [
                [
                    2331,
                    128
                ],
                [
                    2402,
                    168
                ]
            ],
            "flags": {},
            "group_id": null
        },
        {
            "label": "xtl",
            "shape_type": "rectangle",
            "points": [
                [
                    2845,
                    136
                ],
                [
                    2908,
                    161
                ]
            ],
            "flags": {},
            "group_id": null
        },
        {
            "label": "xtl",
            "shape_type": "rectangle",
            "points": [
                [
                    2845,
                    199
                ],
                [
                    2909,
                    225
                ]
            ],
            "flags": {},
            "group_id": null
        },
        {
            "label": "xtl",
            "shape_type": "rectangle",
            "points": [
                [
                    2845,
                    283
                ],
                [
                    2909,
                    289
                ]
            ],
            "flags": {},
            "group_id": null
        },
        {
            "label": "xtl",
            "shape_type": "rectangle",
            "points": [
                [
                    2836,
                    335
                ],
                [
                    2894,
                    378
                ]
            ],
            "flags": {},
            "group_id": null
        },
        {
            "label": "xtl",
            "shape_type": "rectangle",
            "points": [
                [
                    2837,
                    406
                ],
                [
                    2905,
                    449
                ]
            ],
            "flags": {},
            "group_id": null
        },
        {
            "label": "xtl",
            "shape_type": "rectangle",
            "points": [
                [
                    2837,
                    479
                ],
                [
                    2905,
                    521
                ]
            ],
            "flags": {},
            "group_id": null
        },
        {
            "label": "wztl",
            "shape_type": "rectangle",
            "points": [
                [
                    2941,
                    476
                ],
                [
                    3177,
                    529
                ]
            ],
            "flags": {},
            "group_id": null
        },
        {
            "label": "wztl",
            "shape_type": "rectangle",
            "points": [
                [
                    2941,
                    396
                ],
                [
                    3177,
                    449
                ]
            ],
            "flags": {},
            "group_id": null
        },
        {
            "label": "wztl",
            "shape_type": "rectangle",
            "points": [
                [
                    2940,
                    325
                ],
                [
                    3177,
                    377
                ]
            ],
            "flags": {},
            "group_id": null
        },
        {
            "label": "wztl",
            "shape_type": "rectangle",
            "points": [
                [
                    2944,
                    248
                ],
                [
                    3123,
                    299
                ]
            ],
            "flags": {},
            "group_id": null
        },
        {
            "label": "wztl",
            "shape_type": "rectangle",
            "points": [
                [
                    2942,
                    175
                ],
                [
                    3136,
                    228
                ]
            ],
            "flags": {},
            "group_id": null
        },
        {
            "label": "wztl",
            "shape_type": "rectangle",
            "points": [
                [
                    2942,
                    109
                ],
                [
                    3136,
                    160
                ]
            ],
            "flags": {},
            "group_id": null
        },
        {
            "label": "Ns",
            "shape_type": "point",
            "points": [
                [
                    3638,
                    399
                ]
            ],
            "flags": {},
            "group_id": null
        },
        {
            "label": "Ne",
            "shape_type": "point",
            "points": [
                [
                    3638,
                    257
                ]
            ],
            "flags": {},
            "group_id": null
        },
        {
            "label": "wz1",
            "shape_type": "rectangle",
            "points": [
                [
                    471,
                    770
                ],
                [
                    548,
                    806
                ]
            ],
            "flags": {},
            "group_id": null
        },
        {
            "label": "wz1-l",
            "lineType": "LL",
            "shape_type": "line",
            "points": [
                [
                    530,
                    794
                ],
                [
                    613,
                    865
                ]
            ],
            "flags": {},
            "group_id": null
        },
        {
            "label": "wz1",
            "shape_type": "rectangle",
            "points": [
                [
                    142,
                    1650
                ],
                [
                    369,
                    1692
                ]
            ],
            "flags": {},
            "group_id": null
        },
        {
            "label": "wz1-l",
            "lineType": "LL",
            "shape_type": "line",
            "points": [
                [
                    318,
                    1677
                ],
                [
                    474,
                    1737
                ]
            ],
            "flags": {},
            "group_id": null
        },
        {
            "label": "wz3",
            "shape_type": "rectangle",
            "points": [
                [
                    1693,
                    1076
                ],
                [
                    1845,
                    1151
                ]
            ],
            "flags": {},
            "group_id": null
        },
        {
            "label": "wz3",
            "shape_type": "rectangle",
            "points": [
                [
                    1205,
                    1316
                ],
                [
                    1382,
                    1390
                ]
            ],
            "flags": {},
            "group_id": null
        },
        {
            "label": "wz3",
            "shape_type": "rectangle",
            "points": [
                [
                    1709,
                    1375
                ],
                [
                    1899,
                    1449
                ]
            ],
            "flags": {},
            "group_id": null
        },
        {
            "label": "wz3-l",
            "lineType": "LL",
            "shape_type": "line",
            "points": [
                [
                    1353,
                    1366
                ],
                [
                    1372,
                    1409
                ]
            ],
            "flags": {},
            "group_id": null
        },
        {
            "label": "wz3-l",
            "lineType": "LL",
            "shape_type": "line",
            "points": [
                [
                    1750,
                    1409
                ],
                [
                    1682,
                    1432
                ]
            ],
            "flags": {},
            "group_id": null
        },
        {
            "label": "wz3-l",
            "lineType": "LL",
            "shape_type": "line",
            "points": [
                [
                    1715,
                    1131
                ],
                [
                    1675,
                    1180
                ]
            ],
            "flags": {},
            "group_id": null
        },
        {
            "label": "wz3",
            "shape_type": "rectangle",
            "points": [
                [
                    1206,
                    1993
                ],
                [
                    1384,
                    2068
                ]
            ],
            "flags": {},
            "group_id": null
        },
        {
            "label": "wz3",
            "shape_type": "rectangle",
            "points": [
                [
                    1709,
                    2051
                ],
                [
                    1880,
                    2125
                ]
            ],
            "flags": {},
            "group_id": null
        },
        {
            "label": "wz3",
            "shape_type": "rectangle",
            "points": [
                [
                    1705,
                    1760
                ],
                [
                    1859,
                    1833
                ]
            ],
            "flags": {},
            "group_id": null
        },
        {
            "label": "wz3-l",
            "lineType": "LL",
            "shape_type": "line",
            "points": [
                [
                    1730,
                    1822
                ],
                [
                    1688,
                    1854
                ]
            ],
            "flags": {},
            "group_id": null
        },
        {
            "label": "wz3-l",
            "lineType": "LL",
            "shape_type": "line",
            "points": [
                [
                    1344,
                    2045
                ],
                [
                    1376,
                    2083
                ]
            ],
            "flags": {},
            "group_id": null
        },
        {
            "label": "wz3-l",
            "lineType": "LL",
            "shape_type": "line",
            "points": [
                [
                    1737,
                    2097
                ],
                [
                    1685,
                    2116
                ]
            ],
            "flags": {},
            "group_id": null
        }
    ],
    "flags": {},
    "imageData": null,
    "version": "4.5.7"
}