{
    "imageHeight": 2978,
    "imageWidth": 4210,
    "imagePath": "HY0581-长途汽车西站(添臣聚融)5G无线基站天馈线安装示意图.png",
    "shapes": [
        {
            "label": "vt9",
            "shape_type": "rectangle",
            "points": [
                [
                    693,
                    376
                ],
                [
                    747,
                    434
                ]
            ],
            "flags": {},
            "group_id": null
        },
        {
            "label": "vp2-1",
            "shape_type": "rectangle",
            "points": [
                [
                    1230,
                    413
                ],
                [
                    1289,
                    472
                ]
            ],
            "flags": {},
            "group_id": null
        },
        {
            "label": "va1",
            "shape_type": "rectangle",
            "points": [
                [
                    1225,
                    371
                ],
                [
                    1290,
                    410
                ]
            ],
            "flags": {},
            "group_id": null
        },
        {
            "label": "va1",
            "shape_type": "rectangle",
            "points": [
                [
                    1288,
                    438
                ],
                [
                    1332,
                    501
                ]
            ],
            "flags": {},
            "group_id": null
        },
        {
            "label": "va1",
            "shape_type": "rectangle",
            "points": [
                [
                    1187,
                    445
                ],
                [
                    1237,
                    501
                ]
            ],
            "flags": {},
            "group_id": null
        },
        {
            "label": "l1",
            "shape_type": "rectangle",
            "points": [
                [
                    1493,
                    1124
                ],
                [
                    1797,
                    1194
                ]
            ],
            "flags": {},
            "group_id": null
        },
        {
            "label": "t9",
            "shape_type": "rectangle",
            "points": [
                [
                    1493,
                    983
                ],
                [
                    1797,
                    2607
                ]
            ],
            "flags": {},
            "group_id": null
        },
        {
            "label": "z1",
            "shape_type": "rectangle",
            "points": [
                [
                    1569,
                    1203
                ],
                [
                    1721,
                    1742
                ]
            ],
            "flags": {},
            "group_id": null
        },
        {
            "label": "a1-2",
            "shape_type": "rectangle",
            "points": [
                [
                    1688,
                    1778
                ],
                [
                    1711,
                    1882
                ]
            ],
            "flags": {},
            "group_id": null
        },
        {
            "label": "a1-1",
            "shape_type": "rectangle",
            "points": [
                [
                    1579,
                    1780
                ],
                [
                    1604,
                    1882
                ]
            ],
            "flags": {},
            "group_id": null
        },
        {
            "label": "g1",
            "shape_type": "rectangle",
            "points": [
                [
                    1605,
                    1773
                ],
                [
                    1612,
                    1890
                ]
            ],
            "flags": {},
            "group_id": null
        },
        {
            "label": "vp1-1",
            "shape_type": "rectangle",
            "points": [
                [
                    859,
                    1805
                ],
                [
                    1049,
                    1990
                ]
            ],
            "flags": {},
            "group_id": null
        },
        {
            "label": "a1-2",
            "shape_type": "rectangle",
            "points": [
                [
                    1687,
                    1583
                ],
                [
                    1711,
                    1684
                ]
            ],
            "flags": {},
            "group_id": null
        },
        {
            "label": "a1-2",
            "shape_type": "rectangle",
            "points": [
                [
                    1686,
                    1465
                ],
                [
                    1711,
                    1569
                ]
            ],
            "flags": {},
            "group_id": null
        },
        {
            "label": "a1-2",
            "shape_type": "rectangle",
            "points": [
                [
                    1686,
                    1348
                ],
                [
                    1711,
                    1453
                ]
            ],
            "flags": {},
            "group_id": null
        },
        {
            "label": "a1-2",
            "shape_type": "rectangle",
            "points": [
                [
                    1687,
                    1233
                ],
                [
                    1710,
                    1335
                ]
            ],
            "flags": {},
            "group_id": null
        },
        {
            "label": "a1-1",
            "shape_type": "rectangle",
            "points": [
                [
                    1579,
                    1233
                ],
                [
                    1605,
                    1338
                ]
            ],
            "flags": {},
            "group_id": null
        },
        {
            "label": "a1-1",
            "shape_type": "rectangle",
            "points": [
                [
                    1579,
                    1348
                ],
                [
                    1606,
                    1453
                ]
            ],
            "flags": {},
            "group_id": null
        },
        {
            "label": "a1-1",
            "shape_type": "rectangle",
            "points": [
                [
                    1579,
                    1465
                ],
                [
                    1608,
                    1571
                ]
            ],
            "flags": {},
            "group_id": null
        },
        {
            "label": "a1-1",
            "shape_type": "rectangle",
            "points": [
                [
                    1579,
                    1583
                ],
                [
                    1606,
                    1687
                ]
            ],
            "flags": {},
            "group_id": null
        },
        {
            "label": "x1",
            "shape_type": "rectangle",
            "points": [
                [
                    1596,
                    2188
                ],
                [
                    1698,
                    2250
                ]
            ],
            "flags": {},
            "group_id": null
        },
        {
            "label": "va1",
            "shape_type": "rectangle",
            "points": [
                [
                    915,
                    1681
                ],
                [
                    982,
                    1726
                ]
            ],
            "flags": {},
            "group_id": null
        },
        {
            "label": "h1",
            "shape_type": "rectangle",
            "points": [
                [
                    1885,
                    1062
                ],
                [
                    2036,
                    1127
                ]
            ],
            "flags": {},
            "group_id": null
        },
        {
            "label": "h1",
            "shape_type": "rectangle",
            "points": [
                [
                    1886,
                    1270
                ],
                [
                    2034,
                    1335
                ]
            ],
            "flags": {},
            "group_id": null
        },
        {
            "label": "h1",
            "shape_type": "rectangle",
            "points": [
                [
                    1885,
                    1378
                ],
                [
                    2038,
                    1446
                ]
            ],
            "flags": {},
            "group_id": null
        },
        {
            "label": "h1",
            "shape_type": "rectangle",
            "points": [
                [
                    1885,
                    1513
                ],
                [
                    2036,
                    1581
                ]
            ],
            "flags": {},
            "group_id": null
        },
        {
            "label": "h1",
            "shape_type": "rectangle",
            "points": [
                [
                    1884,
                    1622
                ],
                [
                    2036,
                    1688
                ]
            ],
            "flags": {},
            "group_id": null
        },
        {
            "label": "h1",
            "shape_type": "rectangle",
            "points": [
                [
                    1884,
                    1822
                ],
                [
                    2037,
                    1888
                ]
            ],
            "flags": {},
            "group_id": null
        },
        {
            "label": "g1",
            "shape_type": "rectangle",
            "points": [
                [
                    1677,
                    1228
                ],
                [
                    1683,
                    1344
                ]
            ],
            "flags": {},
            "group_id": null
        },
        {
            "label": "g1",
            "shape_type": "rectangle",
            "points": [
                [
                    1676,
                    1344
                ],
                [
                    1684,
                    1462
                ]
            ],
            "flags": {},
            "group_id": null
        },
        {
            "label": "g1",
            "shape_type": "rectangle",
            "points": [
                [
                    1677,
                    1462
                ],
                [
                    1683,
                    1576
                ]
            ],
            "flags": {},
            "group_id": null
        },
        {
            "label": "g1",
            "shape_type": "rectangle",
            "points": [
                [
                    1677,
                    1577
                ],
                [
                    1683,
                    1693
                ]
            ],
            "flags": {},
            "group_id": null
        },
        {
            "label": "g1",
            "shape_type": "rectangle",
            "points": [
                [
                    1606,
                    1577
                ],
                [
                    1611,
                    1693
                ]
            ],
            "flags": {},
            "group_id": null
        },
        {
            "label": "g1",
            "shape_type": "rectangle",
            "points": [
                [
                    1606,
                    1461
                ],
                [
                    1612,
                    1576
                ]
            ],
            "flags": {},
            "group_id": null
        },
        {
            "label": "g1",
            "shape_type": "rectangle",
            "points": [
                [
                    1605,
                    1345
                ],
                [
                    1612,
                    1460
                ]
            ],
            "flags": {},
            "group_id": null
        },
        {
            "label": "g1",
            "shape_type": "rectangle",
            "points": [
                [
                    1606,
                    1228
                ],
                [
                    1611,
                    1344
                ]
            ],
            "flags": {},
            "group_id": null
        },
        {
            "label": "d1",
            "shape_type": "rectangle",
            "points": [
                [
                    1336,
                    633
                ],
                [
                    1412,
                    759
                ]
            ],
            "flags": {},
            "group_id": null
        },
        {
            "label": "d1",
            "shape_type": "rectangle",
            "points": [
                [
                    479,
                    632
                ],
                [
                    556,
                    757
                ]
            ],
            "flags": {},
            "group_id": null
        },
        {
            "label": "n1",
            "shape_type": "rectangle",
            "points": [
                [
                    3112,
                    239
                ],
                [
                    3821,
                    644
                ]
            ],
            "flags": {},
            "group_id": null
        },
        {
            "label": "va1",
            "shape_type": "rectangle",
            "points": [
                [
                    1073,
                    1973
                ],
                [
                    1141,
                    2017
                ]
            ],
            "flags": {},
            "group_id": null
        },
        {
            "label": "v1",
            "shape_type": "rectangle",
            "points": [
                [
                    1674,
                    2670
                ],
                [
                    1865,
                    2743
                ]
            ],
            "flags": {},
            "group_id": null
        },
        {
            "label": "v1",
            "shape_type": "rectangle",
            "points": [
                [
                    785,
                    2326
                ],
                [
                    1182,
                    2392
                ]
            ],
            "flags": {},
            "group_id": null
        },
        {
            "label": "v1",
            "shape_type": "rectangle",
            "points": [
                [
                    657,
                    614
                ],
                [
                    784,
                    680
                ]
            ],
            "flags": {},
            "group_id": null
        },
        {
            "label": "c1",
            "shape_type": "rectangle",
            "points": [
                [
                    1642,
                    984
                ],
                [
                    1648,
                    1125
                ]
            ],
            "flags": {},
            "group_id": null
        },
        {
            "label": "",
            "shape_type": "",
            "points": [],
            "flags": {},
            "group_id": null
        },
        {
            "label": "g1",
            "shape_type": "rectangle",
            "points": [
                [
                    1677,
                    1773
                ],
                [
                    1683,
                    1890
                ]
            ],
            "flags": {},
            "group_id": null
        },
        {
            "label": "h1",
            "shape_type": "rectangle",
            "points": [
                [
                    1883,
                    2544
                ],
                [
                    2036,
                    2607
                ]
            ],
            "flags": {},
            "group_id": null
        },
        {
            "label": "p1-1",
            "shape_type": "rectangle",
            "points": [
                [
                    1578,
                    1228
                ],
                [
                    1710,
                    1344
                ]
            ],
            "flags": {},
            "group_id": null
        },
        {
            "label": "vb1",
            "shape_type": "rectangle",
            "points": [
                [
                    773,
                    407
                ],
                [
                    844,
                    435
                ]
            ],
            "flags": {},
            "group_id": null
        },
        {
            "label": "seven",
            "shape_type": "point",
            "points": [
                [
                    773,
                    408
                ]
            ],
            "flags": {},
            "group_id": null
        },
        {
            "label": "eight",
            "shape_type": "point",
            "points": [
                [
                    844,
                    407
                ]
            ],
            "flags": {},
            "group_id": null
        },
        {
            "label": "nine",
            "shape_type": "point",
            "points": [
                [
                    773,
                    435
                ]
            ],
            "flags": {},
            "group_id": null
        },
        {
            "label": "ten",
            "shape_type": "point",
            "points": [
                [
                    844,
                    435
                ]
            ],
            "flags": {},
            "group_id": null
        },
        {
            "label": "thirteen",
            "shape_type": "point",
            "points": [
                [
                    808,
                    407
                ]
            ],
            "flags": {},
            "group_id": null
        },
        {
            "label": "fourteen",
            "shape_type": "point",
            "points": [
                [
                    808,
                    434
                ]
            ],
            "flags": {},
            "group_id": null
        },
        {
            "label": "b1",
            "shape_type": "rectangle",
            "points": [
                [
                    1697,
                    2444
                ],
                [
                    1778,
                    2532
                ]
            ],
            "flags": {},
            "group_id": null
        },
        {
            "label": "b1",
            "shape_type": "rectangle",
            "points": [
                [
                    1697,
                    2532
                ],
                [
                    1779,
                    2606
                ]
            ],
            "flags": {},
            "group_id": null
        },
        {
            "label": "seven",
            "shape_type": "point",
            "points": [
                [
                    1697,
                    2443
                ]
            ],
            "flags": {},
            "group_id": null
        },
        {
            "label": "eight",
            "shape_type": "point",
            "points": [
                [
                    1778,
                    2444
                ]
            ],
            "flags": {},
            "group_id": null
        },
        {
            "label": "fourteen",
            "shape_type": "point",
            "points": [
                [
                    1697,
                    2606
                ]
            ],
            "flags": {},
            "group_id": null
        },
        {
            "label": "fourteen",
            "shape_type": "point",
            "points": [
                [
                    1778,
                    2606
                ]
            ],
            "flags": {},
            "group_id": null
        },
        {
            "label": "eleven",
            "shape_type": "point",
            "points": [
                [
                    1697,
                    2531
                ]
            ],
            "flags": {},
            "group_id": null
        },
        {
            "label": "twelve",
            "shape_type": "point",
            "points": [
                [
                    1778,
                    2532
                ]
            ],
            "flags": {},
            "group_id": null
        },
        {
            "label": "v1",
            "shape_type": "rectangle",
            "points": [
                [
                    3377,
                    689
                ],
                [
                    3630,
                    756
                ]
            ],
            "flags": {},
            "group_id": null
        },
        {
            "label": "p1-1",
            "shape_type": "rectangle",
            "points": [
                [
                    1577,
                    1344
                ],
                [
                    1711,
                    1461
                ]
            ],
            "flags": {},
            "group_id": null
        },
        {
            "label": "p1-1",
            "shape_type": "rectangle",
            "points": [
                [
                    1577,
                    1461
                ],
                [
                    1711,
                    1577
                ]
            ],
            "flags": {},
            "group_id": null
        },
        {
            "label": "p1-1",
            "shape_type": "rectangle",
            "points": [
                [
                    1577,
                    1577
                ],
                [
                    1711,
                    1694
                ]
            ],
            "flags": {},
            "group_id": null
        },
        {
            "label": "p1-1",
            "shape_type": "rectangle",
            "points": [
                [
                    1578,
                    1772
                ],
                [
                    1711,
                    1891
                ]
            ],
            "flags": {},
            "group_id": null
        },
        {
            "label": "tl",
            "shape_type": "rectangle",
            "points": [
                [
                    2039,
                    235
                ],
                [
                    2945,
                    881
                ]
            ],
            "flags": {},
            "group_id": null
        },
        {
            "label": "j1",
            "shape_type": "rectangle",
            "points": [
                [
                    3113,
                    258
                ],
                [
                    3392,
                    325
                ]
            ],
            "flags": {},
            "group_id": null
        },
        {
            "label": "j1",
            "shape_type": "rectangle",
            "points": [
                [
                    3486,
                    239
                ],
                [
                    3527,
                    283
                ]
            ],
            "flags": {},
            "group_id": null
        },
        {
            "label": "j1",
            "shape_type": "rectangle",
            "points": [
                [
                    3540,
                    557
                ],
                [
                    3817,
                    620
                ]
            ],
            "flags": {},
            "group_id": null
        },
        {
            "label": "sm",
            "shape_type": "rectangle",
            "points": [
                [
                    2245,
                    1908
                ],
                [
                    3857,
                    2263
                ]
            ],
            "flags": {},
            "group_id": null
        },
        {
            "label": "btl",
            "shape_type": "rectangle",
            "points": [
                [
                    2328,
                    2539
                ],
                [
                    4039,
                    2825
                ]
            ],
            "flags": {},
            "group_id": null
        },
        {
            "label": "mask",
            "lineType": [
                "LLLLLLL"
            ],
            "shape_type": "polygon",
            "points": [
                [
                    2011,
                    213
                ],
                [
                    2984,
                    219
                ],
                [
                    2971,
                    652
                ],
                [
                    2413,
                    683
                ],
                [
                    2413,
                    911
                ],
                [
                    2049,
                    886
                ],
                [
                    2011,
                    213
                ]
            ],
            "flags": {},
            "group_id": null
        },
        {
            "label": "mask",
            "lineType": [
                "LLLLLLLLLLLLLLLLL"
            ],
            "shape_type": "polygon",
            "points": [
                [
                    3120,
                    798
                ],
                [
                    3670,
                    803
                ],
                [
                    3866,
                    716
                ],
                [
                    3868,
                    602
                ],
                [
                    3809,
                    494
                ],
                [
                    3724,
                    398
                ],
                [
                    3625,
                    293
                ],
                [
                    3554,
                    229
                ],
                [
                    3503,
                    211
                ],
                [
                    3369,
                    212
                ],
                [
                    3115,
                    217
                ],
                [
                    3064,
                    261
                ],
                [
                    3073,
                    331
                ],
                [
                    3311,
                    371
                ],
                [
                    3408,
                    378
                ],
                [
                    3288,
                    724
                ],
                [
                    3120,
                    798
                ]
            ],
            "flags": {},
            "group_id": null
        },
        {
            "label": "mask",
            "lineType": [
                "LLLLLLL"
            ],
            "shape_type": "polygon",
            "points": [
                [
                    2230,
                    907
                ],
                [
                    2366,
                    923
                ],
                [
                    2505,
                    927
                ],
                [
                    4008,
                    949
                ],
                [
                    3996,
                    1701
                ],
                [
                    2220,
                    1696
                ],
                [
                    2230,
                    907
                ]
            ],
            "flags": {},
            "group_id": null
        },
        {
            "label": "mask",
            "lineType": [
                "LLLLLLLLL"
            ],
            "shape_type": "polygon",
            "points": [
                [
                    2230,
                    1892
                ],
                [
                    2224,
                    2279
                ],
                [
                    3885,
                    2263
                ],
                [
                    3886,
                    2198
                ],
                [
                    3794,
                    2112
                ],
                [
                    3664,
                    1984
                ],
                [
                    3573,
                    1936
                ],
                [
                    2786,
                    1914
                ],
                [
                    2230,
                    1892
                ]
            ],
            "flags": {},
            "group_id": null
        },
        {
            "label": "mask",
            "lineType": [
                "LLLLL"
            ],
            "shape_type": "polygon",
            "points": [
                [
                    2301,
                    2522
                ],
                [
                    2300,
                    2829
                ],
                [
                    4040,
                    2826
                ],
                [
                    4035,
                    2503
                ],
                [
                    2301,
                    2522
                ]
            ],
            "flags": {},
            "group_id": null
        },
        {
            "label": "mask",
            "lineType": [
                "LLLLLLLLLLLLLLLLLLLLLLLLLLLLL"
            ],
            "shape_type": "polygon",
            "points": [
                [
                    1444,
                    2662
                ],
                [
                    1447,
                    2720
                ],
                [
                    1594,
                    2743
                ],
                [
                    1748,
                    2762
                ],
                [
                    1990,
                    2748
                ],
                [
                    2120,
                    2718
                ],
                [
                    2160,
                    2635
                ],
                [
                    2118,
                    2542
                ],
                [
                    1999,
                    2418
                ],
                [
                    1907,
                    2200
                ],
                [
                    1985,
                    2067
                ],
                [
                    2017,
                    1935
                ],
                [
                    2054,
                    1867
                ],
                [
                    2088,
                    1258
                ],
                [
                    2076,
                    1067
                ],
                [
                    1985,
                    1021
                ],
                [
                    1792,
                    953
                ],
                [
                    1664,
                    930
                ],
                [
                    1582,
                    971
                ],
                [
                    1380,
                    981
                ],
                [
                    1345,
                    1085
                ],
                [
                    1335,
                    1273
                ],
                [
                    1323,
                    1572
                ],
                [
                    1266,
                    1690
                ],
                [
                    1324,
                    1815
                ],
                [
                    1524,
                    1843
                ],
                [
                    1487,
                    2218
                ],
                [
                    1492,
                    2604
                ],
                [
                    1444,
                    2662
                ]
            ],
            "flags": {},
            "group_id": null
        },
        {
            "label": "mask",
            "lineType": [
                "LLLLLLLLLLLLLLLLLLLLLLLLLL"
            ],
            "shape_type": "polygon",
            "points": [
                [
                    676,
                    2440
                ],
                [
                    972,
                    2427
                ],
                [
                    1159,
                    2413
                ],
                [
                    1223,
                    2397
                ],
                [
                    1212,
                    2295
                ],
                [
                    1172,
                    2235
                ],
                [
                    1122,
                    2107
                ],
                [
                    1186,
                    2030
                ],
                [
                    1184,
                    1938
                ],
                [
                    1088,
                    1757
                ],
                [
                    1050,
                    1644
                ],
                [
                    982,
                    1607
                ],
                [
                    866,
                    1420
                ],
                [
                    781,
                    1394
                ],
                [
                    632,
                    1390
                ],
                [
                    608,
                    1395
                ],
                [
                    593,
                    1460
                ],
                [
                    586,
                    1563
                ],
                [
                    578,
                    1623
                ],
                [
                    666,
                    1646
                ],
                [
                    748,
                    1649
                ],
                [
                    801,
                    1770
                ],
                [
                    778,
                    1863
                ],
                [
                    741,
                    2034
                ],
                [
                    697,
                    2177
                ],
                [
                    676,
                    2440
                ]
            ],
            "flags": {},
            "group_id": null
        },
        {
            "label": "mask",
            "lineType": [
                "LLLLLLLLLLLLLLLL"
            ],
            "shape_type": "polygon",
            "points": [
                [
                    446,
                    783
                ],
                [
                    608,
                    783
                ],
                [
                    806,
                    765
                ],
                [
                    896,
                    760
                ],
                [
                    1451,
                    777
                ],
                [
                    1512,
                    618
                ],
                [
                    1458,
                    321
                ],
                [
                    902,
                    278
                ],
                [
                    843,
                    253
                ],
                [
                    755,
                    221
                ],
                [
                    682,
                    221
                ],
                [
                    626,
                    243
                ],
                [
                    475,
                    289
                ],
                [
                    441,
                    346
                ],
                [
                    422,
                    423
                ],
                [
                    446,
                    783
                ]
            ],
            "flags": {},
            "group_id": null
        },
        {
            "label": "wlb",
            "shape_type": "rectangle",
            "points": [
                [
                    2265,
                    930
                ],
                [
                    3979,
                    1673
                ]
            ],
            "flags": {},
            "group_id": null
        },
        {
            "label": "xtl",
            "shape_type": "rectangle",
            "points": [
                [
                    2157,
                    254
                ],
                [
                    2223,
                    292
                ]
            ],
            "flags": {},
            "group_id": null
        },
        {
            "label": "wztl",
            "shape_type": "rectangle",
            "points": [
                [
                    2249,
                    244
                ],
                [
                    2518,
                    293
                ]
            ],
            "flags": {},
            "group_id": null
        },
        {
            "label": "xtl",
            "shape_type": "rectangle",
            "points": [
                [
                    2631,
                    262
                ],
                [
                    2690,
                    286
                ]
            ],
            "flags": {},
            "group_id": null
        },
        {
            "label": "wztl",
            "shape_type": "rectangle",
            "points": [
                [
                    2722,
                    238
                ],
                [
                    2901,
                    286
                ]
            ],
            "flags": {},
            "group_id": null
        },
        {
            "label": "wztl",
            "shape_type": "rectangle",
            "points": [
                [
                    2723,
                    300
                ],
                [
                    2901,
                    347
                ]
            ],
            "flags": {},
            "group_id": null
        },
        {
            "label": "xtl",
            "shape_type": "rectangle",
            "points": [
                [
                    2632,
                    320
                ],
                [
                    2691,
                    345
                ]
            ],
            "flags": {},
            "group_id": null
        },
        {
            "label": "wztl",
            "shape_type": "rectangle",
            "points": [
                [
                    2249,
                    305
                ],
                [
                    2533,
                    352
                ]
            ],
            "flags": {},
            "group_id": null
        },
        {
            "label": "xtl",
            "shape_type": "rectangle",
            "points": [
                [
                    2157,
                    321
                ],
                [
                    2222,
                    358
                ]
            ],
            "flags": {},
            "group_id": null
        },
        {
            "label": "xtl",
            "shape_type": "rectangle",
            "points": [
                [
                    2156,
                    386
                ],
                [
                    2223,
                    424
                ]
            ],
            "flags": {},
            "group_id": null
        },
        {
            "label": "wztl",
            "shape_type": "rectangle",
            "points": [
                [
                    2251,
                    369
                ],
                [
                    2495,
                    417
                ]
            ],
            "flags": {},
            "group_id": null
        },
        {
            "label": "xtl",
            "shape_type": "rectangle",
            "points": [
                [
                    2632,
                    398
                ],
                [
                    2691,
                    404
                ]
            ],
            "flags": {},
            "group_id": null
        },
        {
            "label": "wztl",
            "shape_type": "rectangle",
            "points": [
                [
                    2723,
                    366
                ],
                [
                    2889,
                    414
                ]
            ],
            "flags": {},
            "group_id": null
        },
        {
            "label": "wztl",
            "shape_type": "rectangle",
            "points": [
                [
                    2721,
                    438
                ],
                [
                    2938,
                    484
                ]
            ],
            "flags": {},
            "group_id": null
        },
        {
            "label": "xtl",
            "shape_type": "rectangle",
            "points": [
                [
                    2624,
                    447
                ],
                [
                    2679,
                    486
                ]
            ],
            "flags": {},
            "group_id": null
        },
        {
            "label": "wztl",
            "shape_type": "rectangle",
            "points": [
                [
                    2258,
                    435
                ],
                [
                    2418,
                    482
                ]
            ],
            "flags": {},
            "group_id": null
        },
        {
            "label": "xtl",
            "shape_type": "rectangle",
            "points": [
                [
                    2157,
                    452
                ],
                [
                    2223,
                    491
                ]
            ],
            "flags": {},
            "group_id": null
        },
        {
            "label": "xtl",
            "shape_type": "rectangle",
            "points": [
                [
                    2157,
                    520
                ],
                [
                    2223,
                    557
                ]
            ],
            "flags": {},
            "group_id": null
        },
        {
            "label": "wztl",
            "shape_type": "rectangle",
            "points": [
                [
                    2260,
                    502
                ],
                [
                    2472,
                    550
                ]
            ],
            "flags": {},
            "group_id": null
        },
        {
            "label": "xtl",
            "shape_type": "rectangle",
            "points": [
                [
                    2624,
                    511
                ],
                [
                    2687,
                    552
                ]
            ],
            "flags": {},
            "group_id": null
        },
        {
            "label": "wztl",
            "shape_type": "rectangle",
            "points": [
                [
                    2721,
                    504
                ],
                [
                    2938,
                    551
                ]
            ],
            "flags": {},
            "group_id": null
        },
        {
            "label": "wztl",
            "shape_type": "rectangle",
            "points": [
                [
                    2721,
                    577
                ],
                [
                    2937,
                    624
                ]
            ],
            "flags": {},
            "group_id": null
        },
        {
            "label": "xtl",
            "shape_type": "rectangle",
            "points": [
                [
                    2624,
                    579
                ],
                [
                    2686,
                    618
                ]
            ],
            "flags": {},
            "group_id": null
        },
        {
            "label": "wztl",
            "shape_type": "rectangle",
            "points": [
                [
                    2264,
                    576
                ],
                [
                    2408,
                    624
                ]
            ],
            "flags": {},
            "group_id": null
        },
        {
            "label": "xtl",
            "shape_type": "rectangle",
            "points": [
                [
                    2157,
                    585
                ],
                [
                    2223,
                    622
                ]
            ],
            "flags": {},
            "group_id": null
        },
        {
            "label": "xtl",
            "shape_type": "rectangle",
            "points": [
                [
                    2167,
                    706
                ],
                [
                    2239,
                    711
                ]
            ],
            "flags": {},
            "group_id": null
        },
        {
            "label": "wztl",
            "shape_type": "rectangle",
            "points": [
                [
                    2276,
                    680
                ],
                [
                    2381,
                    727
                ]
            ],
            "flags": {},
            "group_id": null
        },
        {
            "label": "wztl",
            "shape_type": "rectangle",
            "points": [
                [
                    2277,
                    750
                ],
                [
                    2384,
                    798
                ]
            ],
            "flags": {},
            "group_id": null
        },
        {
            "label": "xtl",
            "shape_type": "rectangle",
            "points": [
                [
                    2170,
                    778
                ],
                [
                    2242,
                    783
                ]
            ],
            "flags": {},
            "group_id": null
        },
        {
            "label": "xtl",
            "shape_type": "rectangle",
            "points": [
                [
                    2192,
                    833
                ],
                [
                    2222,
                    864
                ]
            ],
            "flags": {},
            "group_id": null
        },
        {
            "label": "wztl",
            "shape_type": "rectangle",
            "points": [
                [
                    2280,
                    826
                ],
                [
                    2350,
                    874
                ]
            ],
            "flags": {},
            "group_id": null
        },
        {
            "label": "Ns",
            "shape_type": "point",
            "points": [
                [
                    3506,
                    473
                ]
            ],
            "flags": {},
            "group_id": null
        },
        {
            "label": "Ne",
            "shape_type": "point",
            "points": [
                [
                    3506,
                    344
                ]
            ],
            "flags": {},
            "group_id": null
        },
        {
            "label": "wz1",
            "shape_type": "rectangle",
            "points": [
                [
                    1714,
                    2033
                ],
                [
                    1912,
                    2078
                ]
            ],
            "flags": {},
            "group_id": null
        },
        {
            "label": "wz1",
            "shape_type": "rectangle",
            "points": [
                [
                    735,
                    2116
                ],
                [
                    977,
                    2276
                ]
            ],
            "flags": {},
            "group_id": null
        },
        {
            "label": "wz1",
            "shape_type": "rectangle",
            "points": [
                [
                    1335,
                    1651
                ],
                [
                    1511,
                    1787
                ]
            ],
            "flags": {},
            "group_id": null
        },
        {
            "label": "wz3",
            "shape_type": "rectangle",
            "points": [
                [
                    1381,
                    1445
                ],
                [
                    1542,
                    1480
                ]
            ],
            "flags": {},
            "group_id": null
        },
        {
            "label": "wz1",
            "shape_type": "rectangle",
            "points": [
                [
                    612,
                    1420
                ],
                [
                    852,
                    1586
                ]
            ],
            "flags": {},
            "group_id": null
        },
        {
            "label": "wz1",
            "shape_type": "rectangle",
            "points": [
                [
                    1399,
                    1198
                ],
                [
                    1513,
                    1239
                ]
            ],
            "flags": {},
            "group_id": null
        },
        {
            "label": "wz1",
            "shape_type": "rectangle",
            "points": [
                [
                    1394,
                    1039
                ],
                [
                    1450,
                    1083
                ]
            ],
            "flags": {},
            "group_id": null
        },
        {
            "label": "wz3",
            "shape_type": "rectangle",
            "points": [
                [
                    1674,
                    1003
                ],
                [
                    1733,
                    1036
                ]
            ],
            "flags": {},
            "group_id": null
        },
        {
            "label": "wz3-l",
            "lineType": "LL",
            "shape_type": "line",
            "points": [
                [
                    1684,
                    1030
                ],
                [
                    1645,
                    1056
                ]
            ],
            "flags": {},
            "group_id": null
        },
        {
            "label": "wz1-l",
            "lineType": "LL",
            "shape_type": "line",
            "points": [
                [
                    1434,
                    1072
                ],
                [
                    1504,
                    1138
                ]
            ],
            "flags": {},
            "group_id": null
        },
        {
            "label": "wz1-l",
            "lineType": "LL",
            "shape_type": "line",
            "points": [
                [
                    1483,
                    1227
                ],
                [
                    1570,
                    1298
                ]
            ],
            "flags": {},
            "group_id": null
        },
        {
            "label": "wz3-l",
            "lineType": "LL",
            "shape_type": "line",
            "points": [
                [
                    1511,
                    1465
                ],
                [
                    1579,
                    1501
                ]
            ],
            "flags": {},
            "group_id": null
        },
        {
            "label": "wz1-l",
            "lineType": "LL",
            "shape_type": "line",
            "points": [
                [
                    1500,
                    1717
                ],
                [
                    1588,
                    1797
                ]
            ],
            "flags": {},
            "group_id": null
        },
        {
            "label": "wz1-l",
            "lineType": "LL",
            "shape_type": "line",
            "points": [
                [
                    1738,
                    2062
                ],
                [
                    1659,
                    2133
                ]
            ],
            "flags": {},
            "group_id": null
        },
        {
            "label": "wz1-l",
            "lineType": "LL",
            "shape_type": "line",
            "points": [
                [
                    1103,
                    2008
                ],
                [
                    963,
                    2165
                ]
            ],
            "flags": {},
            "group_id": null
        },
        {
            "label": "wz1-l",
            "lineType": "LL",
            "shape_type": "line",
            "points": [
                [
                    834,
                    1535
                ],
                [
                    939,
                    1693
                ]
            ],
            "flags": {},
            "group_id": null
        },
        {
            "label": "wz1",
            "shape_type": "rectangle",
            "points": [
                [
                    1054,
                    310
                ],
                [
                    1134,
                    352
                ]
            ],
            "flags": {},
            "group_id": null
        },
        {
            "label": "wz1",
            "shape_type": "rectangle",
            "points": [
                [
                    463,
                    390
                ],
                [
                    516,
                    428
                ]
            ],
            "flags": {},
            "group_id": null
        },
        {
            "label": "wz1-l",
            "lineType": "LL",
            "shape_type": "line",
            "points": [
                [
                    509,
                    412
                ],
                [
                    574,
                    483
                ]
            ],
            "flags": {},
            "group_id": null
        },
        {
            "label": "wz1-l",
            "lineType": "LL",
            "shape_type": "line",
            "points": [
                [
                    1126,
                    342
                ],
                [
                    1192,
                    406
                ]
            ],
            "flags": {},
            "group_id": null
        },
        {
            "label": "wz1-l",
            "lineType": "LL",
            "shape_type": "line",
            "points": [
                [
                    1482,
                    1713
                ],
                [
                    1711,
                    1798
                ]
            ],
            "flags": {},
            "group_id": null
        }
    ],
    "flags": {},
    "imageData": null,
    "version": "4.5.7"
}