{
    "imageHeight": 2978,
    "imageWidth": 4210,
    "imagePath": "NJ0583-华润别墅区北共享移动（铁塔公司）5G无线基站天馈线安装示意图.png",
    "shapes": [
        {
            "label": "h1",
            "shape_type": "rectangle",
            "points": [
                [
                    407,
                    1055
                ],
                [
                    636,
                    1153
                ]
            ],
            "flags": {},
            "group_id": null
        },
        {
            "label": "h1",
            "shape_type": "rectangle",
            "points": [
                [
                    402,
                    1206
                ],
                [
                    631,
                    1305
                ]
            ],
            "flags": {},
            "group_id": null
        },
        {
            "label": "h1",
            "shape_type": "rectangle",
            "points": [
                [
                    403,
                    1359
                ],
                [
                    631,
                    1457
                ]
            ],
            "flags": {},
            "group_id": null
        },
        {
            "label": "h1",
            "shape_type": "rectangle",
            "points": [
                [
                    402,
                    1505
                ],
                [
                    631,
                    1604
                ]
            ],
            "flags": {},
            "group_id": null
        },
        {
            "label": "h1",
            "shape_type": "rectangle",
            "points": [
                [
                    402,
                    1660
                ],
                [
                    630,
                    1757
                ]
            ],
            "flags": {},
            "group_id": null
        },
        {
            "label": "v1",
            "shape_type": "rectangle",
            "points": [
                [
                    770,
                    2713
                ],
                [
                    960,
                    2786
                ]
            ],
            "flags": {},
            "group_id": null
        },
        {
            "label": "seven",
            "shape_type": "point",
            "points": [
                [
                    1088,
                    2493
                ]
            ],
            "flags": {},
            "group_id": null
        },
        {
            "label": "eight",
            "shape_type": "point",
            "points": [
                [
                    1219,
                    2493
                ]
            ],
            "flags": {},
            "group_id": null
        },
        {
            "label": "fourteen",
            "shape_type": "point",
            "points": [
                [
                    1088,
                    2671
                ]
            ],
            "flags": {},
            "group_id": null
        },
        {
            "label": "fourteen",
            "shape_type": "point",
            "points": [
                [
                    1219,
                    2671
                ]
            ],
            "flags": {},
            "group_id": null
        },
        {
            "label": "b1",
            "shape_type": "rectangle",
            "points": [
                [
                    1088,
                    2493
                ],
                [
                    1220,
                    2672
                ]
            ],
            "flags": {},
            "group_id": null
        },
        {
            "label": "x1",
            "shape_type": "rectangle",
            "points": [
                [
                    836,
                    2252
                ],
                [
                    939,
                    2316
                ]
            ],
            "flags": {},
            "group_id": null
        },
        {
            "label": "c1",
            "shape_type": "rectangle",
            "points": [
                [
                    883,
                    1048
                ],
                [
                    888,
                    1191
                ]
            ],
            "flags": {},
            "group_id": null
        },
        {
            "label": "a1-1",
            "shape_type": "rectangle",
            "points": [
                [
                    789,
                    1204
                ],
                [
                    815,
                    1309
                ]
            ],
            "flags": {},
            "group_id": null
        },
        {
            "label": "a1-3",
            "shape_type": "rectangle",
            "points": [
                [
                    874,
                    1202
                ],
                [
                    899,
                    1315
                ]
            ],
            "flags": {},
            "group_id": null
        },
        {
            "label": "a1-2",
            "shape_type": "rectangle",
            "points": [
                [
                    958,
                    1205
                ],
                [
                    984,
                    1308
                ]
            ],
            "flags": {},
            "group_id": null
        },
        {
            "label": "g1",
            "shape_type": "rectangle",
            "points": [
                [
                    815,
                    1200
                ],
                [
                    820,
                    1319
                ]
            ],
            "flags": {},
            "group_id": null
        },
        {
            "label": "g1",
            "shape_type": "rectangle",
            "points": [
                [
                    883,
                    1198
                ],
                [
                    888,
                    1319
                ]
            ],
            "flags": {},
            "group_id": null
        },
        {
            "label": "g1",
            "shape_type": "rectangle",
            "points": [
                [
                    951,
                    1199
                ],
                [
                    955,
                    1319
                ]
            ],
            "flags": {},
            "group_id": null
        },
        {
            "label": "p1-1",
            "shape_type": "rectangle",
            "points": [
                [
                    789,
                    1199
                ],
                [
                    984,
                    1319
                ]
            ],
            "flags": {},
            "group_id": null
        },
        {
            "label": "a1-1",
            "shape_type": "rectangle",
            "points": [
                [
                    790,
                    1360
                ],
                [
                    815,
                    1465
                ]
            ],
            "flags": {},
            "group_id": null
        },
        {
            "label": "g1",
            "shape_type": "rectangle",
            "points": [
                [
                    815,
                    1356
                ],
                [
                    820,
                    1475
                ]
            ],
            "flags": {},
            "group_id": null
        },
        {
            "label": "a1-4",
            "shape_type": "rectangle",
            "points": [
                [
                    874,
                    1359
                ],
                [
                    899,
                    1471
                ]
            ],
            "flags": {},
            "group_id": null
        },
        {
            "label": "g1",
            "shape_type": "rectangle",
            "points": [
                [
                    951,
                    1356
                ],
                [
                    955,
                    1474
                ]
            ],
            "flags": {},
            "group_id": null
        },
        {
            "label": "a1-3",
            "shape_type": "rectangle",
            "points": [
                [
                    958,
                    1360
                ],
                [
                    983,
                    1465
                ]
            ],
            "flags": {},
            "group_id": null
        },
        {
            "label": "p1-1",
            "shape_type": "rectangle",
            "points": [
                [
                    789,
                    1355
                ],
                [
                    984,
                    1475
                ]
            ],
            "flags": {},
            "group_id": null
        },
        {
            "label": "a1-1",
            "shape_type": "rectangle",
            "points": [
                [
                    789,
                    1519
                ],
                [
                    815,
                    1624
                ]
            ],
            "flags": {},
            "group_id": null
        },
        {
            "label": "g1",
            "shape_type": "rectangle",
            "points": [
                [
                    815,
                    1514
                ],
                [
                    821,
                    1633
                ]
            ],
            "flags": {},
            "group_id": null
        },
        {
            "label": "a1-4",
            "shape_type": "rectangle",
            "points": [
                [
                    873,
                    1517
                ],
                [
                    899,
                    1630
                ]
            ],
            "flags": {},
            "group_id": null
        },
        {
            "label": "g1",
            "shape_type": "rectangle",
            "points": [
                [
                    950,
                    1514
                ],
                [
                    956,
                    1633
                ]
            ],
            "flags": {},
            "group_id": null
        },
        {
            "label": "a1-2",
            "shape_type": "rectangle",
            "points": [
                [
                    959,
                    1519
                ],
                [
                    984,
                    1624
                ]
            ],
            "flags": {},
            "group_id": null
        },
        {
            "label": "p1-1",
            "shape_type": "rectangle",
            "points": [
                [
                    789,
                    1514
                ],
                [
                    984,
                    1633
                ]
            ],
            "flags": {},
            "group_id": null
        },
        {
            "label": "a1-1",
            "shape_type": "rectangle",
            "points": [
                [
                    789,
                    1667
                ],
                [
                    815,
                    1771
                ]
            ],
            "flags": {},
            "group_id": null
        },
        {
            "label": "g1",
            "shape_type": "rectangle",
            "points": [
                [
                    815,
                    1662
                ],
                [
                    820,
                    1782
                ]
            ],
            "flags": {},
            "group_id": null
        },
        {
            "label": "a1-4",
            "shape_type": "rectangle",
            "points": [
                [
                    873,
                    1666
                ],
                [
                    898,
                    1778
                ]
            ],
            "flags": {},
            "group_id": null
        },
        {
            "label": "g1",
            "shape_type": "rectangle",
            "points": [
                [
                    950,
                    1663
                ],
                [
                    956,
                    1782
                ]
            ],
            "flags": {},
            "group_id": null
        },
        {
            "label": "a1-2",
            "shape_type": "rectangle",
            "points": [
                [
                    958,
                    1668
                ],
                [
                    984,
                    1771
                ]
            ],
            "flags": {},
            "group_id": null
        },
        {
            "label": "p1-1",
            "shape_type": "rectangle",
            "points": [
                [
                    789,
                    1662
                ],
                [
                    984,
                    1781
                ]
            ],
            "flags": {},
            "group_id": null
        },
        {
            "label": "t1",
            "shape_type": "rectangle",
            "points": [
                [
                    857,
                    1048
                ],
                [
                    915,
                    2671
                ]
            ],
            "flags": {},
            "group_id": null
        },
        {
            "label": "v1",
            "shape_type": "rectangle",
            "points": [
                [
                    1423,
                    2197
                ],
                [
                    1894,
                    2262
                ]
            ],
            "flags": {},
            "group_id": null
        },
        {
            "label": "vp1-1",
            "shape_type": "rectangle",
            "points": [
                [
                    1601,
                    1799
                ],
                [
                    1697,
                    1895
                ]
            ],
            "flags": {},
            "group_id": null
        },
        {
            "label": "v1",
            "shape_type": "rectangle",
            "points": [
                [
                    755,
                    722
                ],
                [
                    993,
                    789
                ]
            ],
            "flags": {},
            "group_id": null
        },
        {
            "label": "d1",
            "shape_type": "rectangle",
            "points": [
                [
                    590,
                    539
                ],
                [
                    667,
                    666
                ]
            ],
            "flags": {},
            "group_id": null
        },
        {
            "label": "d1",
            "shape_type": "rectangle",
            "points": [
                [
                    1089,
                    533
                ],
                [
                    1165,
                    657
                ]
            ],
            "flags": {},
            "group_id": null
        },
        {
            "label": "vt1",
            "shape_type": "rectangle",
            "points": [
                [
                    774,
                    353
                ],
                [
                    869,
                    448
                ]
            ],
            "flags": {},
            "group_id": null
        },
        {
            "label": "seven",
            "shape_type": "point",
            "points": [
                [
                    945,
                    422
                ]
            ],
            "flags": {},
            "group_id": null
        },
        {
            "label": "eight",
            "shape_type": "point",
            "points": [
                [
                    1054,
                    422
                ]
            ],
            "flags": {},
            "group_id": null
        },
        {
            "label": "nine",
            "shape_type": "point",
            "points": [
                [
                    946,
                    487
                ]
            ],
            "flags": {},
            "group_id": null
        },
        {
            "label": "ten",
            "shape_type": "point",
            "points": [
                [
                    1054,
                    487
                ]
            ],
            "flags": {},
            "group_id": null
        },
        {
            "label": "vb1",
            "shape_type": "rectangle",
            "points": [
                [
                    945,
                    422
                ],
                [
                    1054,
                    488
                ]
            ],
            "flags": {},
            "group_id": null
        },
        {
            "label": "v1",
            "shape_type": "rectangle",
            "points": [
                [
                    3572,
                    651
                ],
                [
                    3827,
                    719
                ]
            ],
            "flags": {},
            "group_id": null
        },
        {
            "label": "n1",
            "shape_type": "rectangle",
            "points": [
                [
                    3327,
                    177
                ],
                [
                    3986,
                    598
                ]
            ],
            "flags": {},
            "group_id": null
        },
        {
            "label": "va1",
            "shape_type": "rectangle",
            "points": [
                [
                    1763,
                    1739
                ],
                [
                    1805,
                    1807
                ]
            ],
            "flags": {},
            "group_id": null
        },
        {
            "label": "va1",
            "shape_type": "rectangle",
            "points": [
                [
                    1486,
                    1766
                ],
                [
                    1553,
                    1813
                ]
            ],
            "flags": {},
            "group_id": null
        },
        {
            "label": "va1",
            "shape_type": "rectangle",
            "points": [
                [
                    1630,
                    1976
                ],
                [
                    1690,
                    2032
                ]
            ],
            "flags": {},
            "group_id": null
        },
        {
            "label": "tl",
            "shape_type": "rectangle",
            "points": [
                [
                    2291,
                    178
                ],
                [
                    3190,
                    816
                ]
            ],
            "flags": {},
            "group_id": null
        },
        {
            "label": "j1",
            "shape_type": "rectangle",
            "points": [
                [
                    3670,
                    177
                ],
                [
                    3707,
                    218
                ]
            ],
            "flags": {},
            "group_id": null
        },
        {
            "label": "j1",
            "shape_type": "rectangle",
            "points": [
                [
                    3755,
                    310
                ],
                [
                    3949,
                    369
                ]
            ],
            "flags": {},
            "group_id": null
        },
        {
            "label": "j1",
            "shape_type": "rectangle",
            "points": [
                [
                    3711,
                    524
                ],
                [
                    3984,
                    582
                ]
            ],
            "flags": {},
            "group_id": null
        },
        {
            "label": "j1",
            "shape_type": "rectangle",
            "points": [
                [
                    3328,
                    539
                ],
                [
                    3607,
                    596
                ]
            ],
            "flags": {},
            "group_id": null
        },
        {
            "label": "sm",
            "shape_type": "rectangle",
            "points": [
                [
                    2329,
                    1909
                ],
                [
                    3941,
                    2257
                ]
            ],
            "flags": {},
            "group_id": null
        },
        {
            "label": "btl",
            "shape_type": "rectangle",
            "points": [
                [
                    2326,
                    2539
                ],
                [
                    4041,
                    2827
                ]
            ],
            "flags": {},
            "group_id": null
        },
        {
            "label": "mask",
            "lineType": [
                "LLLLLLLLLLLLL"
            ],
            "shape_type": "polygon",
            "points": [
                [
                    2259,
                    176
                ],
                [
                    3172,
                    161
                ],
                [
                    3230,
                    310
                ],
                [
                    3229,
                    440
                ],
                [
                    3207,
                    587
                ],
                [
                    2983,
                    622
                ],
                [
                    2766,
                    630
                ],
                [
                    2692,
                    633
                ],
                [
                    2664,
                    855
                ],
                [
                    2528,
                    857
                ],
                [
                    2369,
                    840
                ],
                [
                    2293,
                    668
                ],
                [
                    2259,
                    176
                ]
            ],
            "flags": {},
            "group_id": null
        },
        {
            "label": "mask",
            "lineType": [
                "LLLLLLLLLLLLLLLLL"
            ],
            "shape_type": "polygon",
            "points": [
                [
                    3319,
                    631
                ],
                [
                    3299,
                    511
                ],
                [
                    3623,
                    379
                ],
                [
                    3651,
                    230
                ],
                [
                    3659,
                    161
                ],
                [
                    3776,
                    178
                ],
                [
                    3883,
                    211
                ],
                [
                    3979,
                    351
                ],
                [
                    4001,
                    419
                ],
                [
                    4005,
                    484
                ],
                [
                    4006,
                    560
                ],
                [
                    3987,
                    601
                ],
                [
                    3872,
                    712
                ],
                [
                    3852,
                    746
                ],
                [
                    3780,
                    747
                ],
                [
                    3523,
                    738
                ],
                [
                    3319,
                    631
                ]
            ],
            "flags": {},
            "group_id": null
        },
        {
            "label": "mask",
            "lineType": [
                "LLLLL"
            ],
            "shape_type": "polygon",
            "points": [
                [
                    2296,
                    874
                ],
                [
                    2312,
                    1666
                ],
                [
                    4043,
                    1652
                ],
                [
                    4044,
                    915
                ],
                [
                    2296,
                    874
                ]
            ],
            "flags": {},
            "group_id": null
        },
        {
            "label": "mask",
            "lineType": [
                "LLLLLLLLL"
            ],
            "shape_type": "polygon",
            "points": [
                [
                    2312,
                    1891
                ],
                [
                    2336,
                    2282
                ],
                [
                    3977,
                    2263
                ],
                [
                    3961,
                    2211
                ],
                [
                    3889,
                    2160
                ],
                [
                    3739,
                    2119
                ],
                [
                    3749,
                    2022
                ],
                [
                    3732,
                    1919
                ],
                [
                    2312,
                    1891
                ]
            ],
            "flags": {},
            "group_id": null
        },
        {
            "label": "mask",
            "lineType": [
                "LLLLL"
            ],
            "shape_type": "polygon",
            "points": [
                [
                    2310,
                    2519
                ],
                [
                    2301,
                    2822
                ],
                [
                    4045,
                    2831
                ],
                [
                    4041,
                    2516
                ],
                [
                    2310,
                    2519
                ]
            ],
            "flags": {},
            "group_id": null
        },
        {
            "label": "mask",
            "lineType": [
                "LLLLLLLLLLLLLLLLLLLLLLLLLLLLLLLLLLLLLLLLLLLLLLLL"
            ],
            "shape_type": "polygon",
            "points": [
                [
                    426,
                    2657
                ],
                [
                    458,
                    2751
                ],
                [
                    571,
                    2777
                ],
                [
                    744,
                    2801
                ],
                [
                    1059,
                    2795
                ],
                [
                    1214,
                    2760
                ],
                [
                    1610,
                    2763
                ],
                [
                    1757,
                    2735
                ],
                [
                    1897,
                    2669
                ],
                [
                    1860,
                    2642
                ],
                [
                    1709,
                    2618
                ],
                [
                    1509,
                    2600
                ],
                [
                    1323,
                    2569
                ],
                [
                    1281,
                    2500
                ],
                [
                    1138,
                    2427
                ],
                [
                    995,
                    2433
                ],
                [
                    1001,
                    2157
                ],
                [
                    1053,
                    1734
                ],
                [
                    1058,
                    1416
                ],
                [
                    1283,
                    1460
                ],
                [
                    1507,
                    1452
                ],
                [
                    1586,
                    1428
                ],
                [
                    1635,
                    1284
                ],
                [
                    1708,
                    1227
                ],
                [
                    1754,
                    1202
                ],
                [
                    1771,
                    1172
                ],
                [
                    1767,
                    1125
                ],
                [
                    1719,
                    1101
                ],
                [
                    1560,
                    1070
                ],
                [
                    1476,
                    1048
                ],
                [
                    1383,
                    1032
                ],
                [
                    1237,
                    1034
                ],
                [
                    1156,
                    1039
                ],
                [
                    951,
                    1019
                ],
                [
                    829,
                    1011
                ],
                [
                    697,
                    1014
                ],
                [
                    376,
                    1028
                ],
                [
                    392,
                    1227
                ],
                [
                    376,
                    1788
                ],
                [
                    643,
                    1805
                ],
                [
                    804,
                    1906
                ],
                [
                    778,
                    2073
                ],
                [
                    788,
                    2416
                ],
                [
                    770,
                    2527
                ],
                [
                    765,
                    2594
                ],
                [
                    762,
                    2602
                ],
                [
                    484,
                    2626
                ],
                [
                    426,
                    2657
                ]
            ],
            "flags": {},
            "group_id": null
        },
        {
            "label": "mask",
            "lineType": [
                "LLLLLLLLLLLLLLLLLLLLLLLLLLL"
            ],
            "shape_type": "polygon",
            "points": [
                [
                    1382,
                    2304
                ],
                [
                    1628,
                    2301
                ],
                [
                    1910,
                    2310
                ],
                [
                    1975,
                    2280
                ],
                [
                    2037,
                    2164
                ],
                [
                    2023,
                    1970
                ],
                [
                    1964,
                    1814
                ],
                [
                    2126,
                    1793
                ],
                [
                    2150,
                    1745
                ],
                [
                    2116,
                    1690
                ],
                [
                    2064,
                    1661
                ],
                [
                    1975,
                    1631
                ],
                [
                    1778,
                    1631
                ],
                [
                    1700,
                    1701
                ],
                [
                    1568,
                    1710
                ],
                [
                    1382,
                    1613
                ],
                [
                    1237,
                    1641
                ],
                [
                    1166,
                    1656
                ],
                [
                    1129,
                    1745
                ],
                [
                    1138,
                    1785
                ],
                [
                    1208,
                    1839
                ],
                [
                    1358,
                    1848
                ],
                [
                    1476,
                    1893
                ],
                [
                    1559,
                    2066
                ],
                [
                    1466,
                    2132
                ],
                [
                    1401,
                    2149
                ],
                [
                    1382,
                    2304
                ]
            ],
            "flags": {},
            "group_id": null
        },
        {
            "label": "mask",
            "lineType": [
                "LLLLLLLLLLLLLLL"
            ],
            "shape_type": "polygon",
            "points": [
                [
                    546,
                    717
                ],
                [
                    636,
                    782
                ],
                [
                    727,
                    817
                ],
                [
                    878,
                    831
                ],
                [
                    1022,
                    844
                ],
                [
                    1076,
                    783
                ],
                [
                    1193,
                    721
                ],
                [
                    1187,
                    507
                ],
                [
                    1044,
                    316
                ],
                [
                    915,
                    276
                ],
                [
                    774,
                    248
                ],
                [
                    634,
                    248
                ],
                [
                    614,
                    374
                ],
                [
                    532,
                    543
                ],
                [
                    546,
                    717
                ]
            ],
            "flags": {},
            "group_id": null
        },
        {
            "label": "Ns",
            "shape_type": "point",
            "points": [
                [
                    3687,
                    404
                ]
            ],
            "flags": {},
            "group_id": null
        },
        {
            "label": "Ne",
            "shape_type": "point",
            "points": [
                [
                    3686,
                    272
                ]
            ],
            "flags": {},
            "group_id": null
        },
        {
            "label": "xtl",
            "shape_type": "rectangle",
            "points": [
                [
                    2404,
                    197
                ],
                [
                    2470,
                    235
                ]
            ],
            "flags": {},
            "group_id": null
        },
        {
            "label": "xtl",
            "shape_type": "rectangle",
            "points": [
                [
                    2405,
                    262
                ],
                [
                    2470,
                    300
                ]
            ],
            "flags": {},
            "group_id": null
        },
        {
            "label": "xtl",
            "shape_type": "rectangle",
            "points": [
                [
                    2404,
                    328
                ],
                [
                    2470,
                    367
                ]
            ],
            "flags": {},
            "group_id": null
        },
        {
            "label": "xtl",
            "shape_type": "rectangle",
            "points": [
                [
                    2404,
                    394
                ],
                [
                    2469,
                    432
                ]
            ],
            "flags": {},
            "group_id": null
        },
        {
            "label": "xtl",
            "shape_type": "rectangle",
            "points": [
                [
                    2404,
                    461
                ],
                [
                    2470,
                    499
                ]
            ],
            "flags": {},
            "group_id": null
        },
        {
            "label": "xtl",
            "shape_type": "rectangle",
            "points": [
                [
                    2404,
                    527
                ],
                [
                    2469,
                    565
                ]
            ],
            "flags": {},
            "group_id": null
        },
        {
            "label": "xtl",
            "shape_type": "rectangle",
            "points": [
                [
                    2415,
                    647
                ],
                [
                    2487,
                    654
                ]
            ],
            "flags": {},
            "group_id": null
        },
        {
            "label": "xtl",
            "shape_type": "rectangle",
            "points": [
                [
                    2417,
                    719
                ],
                [
                    2490,
                    725
                ]
            ],
            "flags": {},
            "group_id": null
        },
        {
            "label": "xtl",
            "shape_type": "rectangle",
            "points": [
                [
                    2440,
                    774
                ],
                [
                    2472,
                    807
                ]
            ],
            "flags": {},
            "group_id": null
        },
        {
            "label": "wztl",
            "shape_type": "rectangle",
            "points": [
                [
                    2523,
                    767
                ],
                [
                    2598,
                    815
                ]
            ],
            "flags": {},
            "group_id": null
        },
        {
            "label": "wztl",
            "shape_type": "rectangle",
            "points": [
                [
                    2523,
                    692
                ],
                [
                    2633,
                    741
                ]
            ],
            "flags": {},
            "group_id": null
        },
        {
            "label": "wztl",
            "shape_type": "rectangle",
            "points": [
                [
                    2523,
                    621
                ],
                [
                    2630,
                    671
                ]
            ],
            "flags": {},
            "group_id": null
        },
        {
            "label": "wztl",
            "shape_type": "rectangle",
            "points": [
                [
                    2508,
                    508
                ],
                [
                    2653,
                    558
                ]
            ],
            "flags": {},
            "group_id": null
        },
        {
            "label": "wztl",
            "shape_type": "rectangle",
            "points": [
                [
                    2507,
                    443
                ],
                [
                    2720,
                    495
                ]
            ],
            "flags": {},
            "group_id": null
        },
        {
            "label": "wztl",
            "shape_type": "rectangle",
            "points": [
                [
                    2504,
                    376
                ],
                [
                    2668,
                    428
                ]
            ],
            "flags": {},
            "group_id": null
        },
        {
            "label": "wztl",
            "shape_type": "rectangle",
            "points": [
                [
                    2496,
                    309
                ],
                [
                    2744,
                    361
                ]
            ],
            "flags": {},
            "group_id": null
        },
        {
            "label": "wztl",
            "shape_type": "rectangle",
            "points": [
                [
                    2494,
                    246
                ],
                [
                    2782,
                    296
                ]
            ],
            "flags": {},
            "group_id": null
        },
        {
            "label": "wztl",
            "shape_type": "rectangle",
            "points": [
                [
                    2498,
                    184
                ],
                [
                    2767,
                    237
                ]
            ],
            "flags": {},
            "group_id": null
        },
        {
            "label": "xtl",
            "shape_type": "rectangle",
            "points": [
                [
                    2878,
                    204
                ],
                [
                    2939,
                    228
                ]
            ],
            "flags": {},
            "group_id": null
        },
        {
            "label": "xtl",
            "shape_type": "rectangle",
            "points": [
                [
                    2879,
                    261
                ],
                [
                    2938,
                    288
                ]
            ],
            "flags": {},
            "group_id": null
        },
        {
            "label": "xtl",
            "shape_type": "rectangle",
            "points": [
                [
                    2878,
                    341
                ],
                [
                    2938,
                    346
                ]
            ],
            "flags": {},
            "group_id": null
        },
        {
            "label": "xtl",
            "shape_type": "rectangle",
            "points": [
                [
                    2871,
                    388
                ],
                [
                    2925,
                    428
                ]
            ],
            "flags": {},
            "group_id": null
        },
        {
            "label": "xtl",
            "shape_type": "rectangle",
            "points": [
                [
                    2871,
                    454
                ],
                [
                    2936,
                    494
                ]
            ],
            "flags": {},
            "group_id": null
        },
        {
            "label": "xtl",
            "shape_type": "rectangle",
            "points": [
                [
                    2869,
                    520
                ],
                [
                    2936,
                    561
                ]
            ],
            "flags": {},
            "group_id": null
        },
        {
            "label": "wztl",
            "shape_type": "rectangle",
            "points": [
                [
                    2966,
                    519
                ],
                [
                    3187,
                    569
                ]
            ],
            "flags": {},
            "group_id": null
        },
        {
            "label": "wztl",
            "shape_type": "rectangle",
            "points": [
                [
                    2962,
                    445
                ],
                [
                    3188,
                    494
                ]
            ],
            "flags": {},
            "group_id": null
        },
        {
            "label": "wztl",
            "shape_type": "rectangle",
            "points": [
                [
                    2965,
                    378
                ],
                [
                    3187,
                    429
                ]
            ],
            "flags": {},
            "group_id": null
        },
        {
            "label": "wztl",
            "shape_type": "rectangle",
            "points": [
                [
                    2969,
                    307
                ],
                [
                    3137,
                    361
                ]
            ],
            "flags": {},
            "group_id": null
        },
        {
            "label": "wztl",
            "shape_type": "rectangle",
            "points": [
                [
                    2968,
                    240
                ],
                [
                    3149,
                    290
                ]
            ],
            "flags": {},
            "group_id": null
        },
        {
            "label": "wztl",
            "shape_type": "rectangle",
            "points": [
                [
                    2967,
                    179
                ],
                [
                    3149,
                    228
                ]
            ],
            "flags": {},
            "group_id": null
        },
        {
            "label": "wlb",
            "shape_type": "rectangle",
            "points": [
                [
                    2316,
                    892
                ],
                [
                    4042,
                    1632
                ]
            ],
            "flags": {},
            "group_id": null
        },
        {
            "label": "wz1",
            "shape_type": "rectangle",
            "points": [
                [
                    1174,
                    1062
                ],
                [
                    1753,
                    1183
                ]
            ],
            "flags": {},
            "group_id": null
        },
        {
            "label": "wz1",
            "shape_type": "rectangle",
            "points": [
                [
                    1171,
                    1299
                ],
                [
                    1569,
                    1416
                ]
            ],
            "flags": {},
            "group_id": null
        },
        {
            "label": "wz1-l",
            "lineType": "LL",
            "shape_type": "line",
            "points": [
                [
                    807,
                    1293
                ],
                [
                    1216,
                    1369
                ]
            ],
            "flags": {},
            "group_id": null
        },
        {
            "label": "wz1-l",
            "lineType": "LL",
            "shape_type": "line",
            "points": [
                [
                    970,
                    1225
                ],
                [
                    1192,
                    1140
                ]
            ],
            "flags": {},
            "group_id": null
        },
        {
            "label": "wz1",
            "shape_type": "rectangle",
            "points": [
                [
                    1243,
                    1667
                ],
                [
                    1415,
                    1771
                ]
            ],
            "flags": {},
            "group_id": null
        },
        {
            "label": "wz1",
            "shape_type": "rectangle",
            "points": [
                [
                    1876,
                    1667
                ],
                [
                    2093,
                    1773
                ]
            ],
            "flags": {},
            "group_id": null
        },
        {
            "label": "wz1",
            "shape_type": "rectangle",
            "points": [
                [
                    1758,
                    2045
                ],
                [
                    1978,
                    2152
                ]
            ],
            "flags": {},
            "group_id": null
        },
        {
            "label": "wz1-l",
            "lineType": "LL",
            "shape_type": "line",
            "points": [
                [
                    1397,
                    1734
                ],
                [
                    1514,
                    1795
                ]
            ],
            "flags": {},
            "group_id": null
        },
        {
            "label": "wz1-l",
            "lineType": "LL",
            "shape_type": "line",
            "points": [
                [
                    1895,
                    1727
                ],
                [
                    1794,
                    1775
                ]
            ],
            "flags": {},
            "group_id": null
        },
        {
            "label": "wz1-l",
            "lineType": "LL",
            "shape_type": "line",
            "points": [
                [
                    1658,
                    2011
                ],
                [
                    1781,
                    2112
                ]
            ],
            "flags": {},
            "group_id": null
        },
        {
            "label": "wz1-l",
            "lineType": "LL",
            "shape_type": "line",
            "points": [
                [
                    1223,
                    1100
                ],
                [
                    891,
                    1235
                ]
            ],
            "flags": {},
            "group_id": null
        }
    ],
    "flags": {},
    "imageData": null,
    "version": "4.5.7"
}