{
    "imageHeight": 2911,
    "imageWidth": 4210,
    "imagePath": "ZQ0536-圣井诺贝尔城西（铁塔公司）5G无线基站天馈线安装示意图.png",
    "shapes": [
        {
            "label": "t3-r",
            "shape_type": "rectangle",
            "points": [
                [
                    432,
                    950
                ],
                [
                    1069,
                    2716
                ]
            ],
            "flags": {},
            "group_id": null
        },
        {
            "label": "c1",
            "shape_type": "rectangle",
            "points": [
                [
                    742,
                    950
                ],
                [
                    743,
                    1142
                ]
            ],
            "flags": {},
            "group_id": null
        },
        {
            "label": "a1-1",
            "shape_type": "rectangle",
            "points": [
                [
                    595,
                    1188
                ],
                [
                    619,
                    1302
                ]
            ],
            "flags": {},
            "group_id": null
        },
        {
            "label": "a1-1",
            "shape_type": "rectangle",
            "points": [
                [
                    649,
                    1188
                ],
                [
                    674,
                    1302
                ]
            ],
            "flags": {},
            "group_id": null
        },
        {
            "label": "a1-1",
            "shape_type": "rectangle",
            "points": [
                [
                    714,
                    1188
                ],
                [
                    737,
                    1301
                ]
            ],
            "flags": {},
            "group_id": null
        },
        {
            "label": "a1-2",
            "shape_type": "rectangle",
            "points": [
                [
                    799,
                    1181
                ],
                [
                    822,
                    1298
                ]
            ],
            "flags": {},
            "group_id": null
        },
        {
            "label": "a1-2",
            "shape_type": "rectangle",
            "points": [
                [
                    857,
                    1181
                ],
                [
                    881,
                    1298
                ]
            ],
            "flags": {},
            "group_id": null
        },
        {
            "label": "a1-2",
            "shape_type": "rectangle",
            "points": [
                [
                    910,
                    1181
                ],
                [
                    934,
                    1298
                ]
            ],
            "flags": {},
            "group_id": null
        },
        {
            "label": "g1",
            "shape_type": "rectangle",
            "points": [
                [
                    901,
                    1176
                ],
                [
                    908,
                    1335
                ]
            ],
            "flags": {},
            "group_id": null
        },
        {
            "label": "g1",
            "shape_type": "rectangle",
            "points": [
                [
                    848,
                    1173
                ],
                [
                    854,
                    1332
                ]
            ],
            "flags": {},
            "group_id": null
        },
        {
            "label": "g1",
            "shape_type": "rectangle",
            "points": [
                [
                    789,
                    1176
                ],
                [
                    795,
                    1335
                ]
            ],
            "flags": {},
            "group_id": null
        },
        {
            "label": "g1",
            "shape_type": "rectangle",
            "points": [
                [
                    744,
                    1173
                ],
                [
                    750,
                    1332
                ]
            ],
            "flags": {},
            "group_id": null
        },
        {
            "label": "g1",
            "shape_type": "rectangle",
            "points": [
                [
                    679,
                    1173
                ],
                [
                    686,
                    1332
                ]
            ],
            "flags": {},
            "group_id": null
        },
        {
            "label": "g1",
            "shape_type": "rectangle",
            "points": [
                [
                    625,
                    1173
                ],
                [
                    631,
                    1333
                ]
            ],
            "flags": {},
            "group_id": null
        },
        {
            "label": "p1-1",
            "shape_type": "rectangle",
            "points": [
                [
                    595,
                    1173
                ],
                [
                    934,
                    1336
                ]
            ],
            "flags": {},
            "group_id": null
        },
        {
            "label": "a1-1",
            "shape_type": "rectangle",
            "points": [
                [
                    588,
                    1374
                ],
                [
                    612,
                    1488
                ]
            ],
            "flags": {},
            "group_id": null
        },
        {
            "label": "a1-1",
            "shape_type": "rectangle",
            "points": [
                [
                    641,
                    1374
                ],
                [
                    667,
                    1488
                ]
            ],
            "flags": {},
            "group_id": null
        },
        {
            "label": "a1-1",
            "shape_type": "rectangle",
            "points": [
                [
                    707,
                    1374
                ],
                [
                    730,
                    1489
                ]
            ],
            "flags": {},
            "group_id": null
        },
        {
            "label": "a1-2",
            "shape_type": "rectangle",
            "points": [
                [
                    791,
                    1367
                ],
                [
                    815,
                    1484
                ]
            ],
            "flags": {},
            "group_id": null
        },
        {
            "label": "a1-2",
            "shape_type": "rectangle",
            "points": [
                [
                    849,
                    1368
                ],
                [
                    873,
                    1484
                ]
            ],
            "flags": {},
            "group_id": null
        },
        {
            "label": "a1-2",
            "shape_type": "rectangle",
            "points": [
                [
                    902,
                    1368
                ],
                [
                    926,
                    1484
                ]
            ],
            "flags": {},
            "group_id": null
        },
        {
            "label": "g1",
            "shape_type": "rectangle",
            "points": [
                [
                    894,
                    1362
                ],
                [
                    900,
                    1521
                ]
            ],
            "flags": {},
            "group_id": null
        },
        {
            "label": "g1",
            "shape_type": "rectangle",
            "points": [
                [
                    840,
                    1360
                ],
                [
                    847,
                    1519
                ]
            ],
            "flags": {},
            "group_id": null
        },
        {
            "label": "g1",
            "shape_type": "rectangle",
            "points": [
                [
                    782,
                    1362
                ],
                [
                    789,
                    1522
                ]
            ],
            "flags": {},
            "group_id": null
        },
        {
            "label": "g1",
            "shape_type": "rectangle",
            "points": [
                [
                    736,
                    1360
                ],
                [
                    743,
                    1519
                ]
            ],
            "flags": {},
            "group_id": null
        },
        {
            "label": "g1",
            "shape_type": "rectangle",
            "points": [
                [
                    671,
                    1359
                ],
                [
                    678,
                    1519
                ]
            ],
            "flags": {},
            "group_id": null
        },
        {
            "label": "g1",
            "shape_type": "rectangle",
            "points": [
                [
                    617,
                    1360
                ],
                [
                    625,
                    1519
                ]
            ],
            "flags": {},
            "group_id": null
        },
        {
            "label": "p1-1",
            "shape_type": "rectangle",
            "points": [
                [
                    587,
                    1360
                ],
                [
                    927,
                    1522
                ]
            ],
            "flags": {},
            "group_id": null
        },
        {
            "label": "x1",
            "shape_type": "rectangle",
            "points": [
                [
                    635,
                    1925
                ],
                [
                    864,
                    1964
                ]
            ],
            "flags": {},
            "group_id": null
        },
        {
            "label": "v1",
            "shape_type": "rectangle",
            "points": [
                [
                    892,
                    2777
                ],
                [
                    1049,
                    2828
                ]
            ],
            "flags": {},
            "group_id": null
        },
        {
            "label": "b1",
            "shape_type": "rectangle",
            "points": [
                [
                    1124,
                    2543
                ],
                [
                    1445,
                    2716
                ]
            ],
            "flags": {},
            "group_id": null
        },
        {
            "label": "seven",
            "shape_type": "point",
            "points": [
                [
                    1124,
                    2544
                ]
            ],
            "flags": {},
            "group_id": null
        },
        {
            "label": "twentytwo",
            "shape_type": "point",
            "points": [
                [
                    1135,
                    2572
                ]
            ],
            "flags": {},
            "group_id": null
        },
        {
            "label": "twentythere",
            "shape_type": "point",
            "points": [
                [
                    1113,
                    2618
                ]
            ],
            "flags": {},
            "group_id": null
        },
        {
            "label": "fourteen",
            "shape_type": "point",
            "points": [
                [
                    1124,
                    2716
                ]
            ],
            "flags": {},
            "group_id": null
        },
        {
            "label": "fourteen",
            "shape_type": "point",
            "points": [
                [
                    1352,
                    2716
                ]
            ],
            "flags": {},
            "group_id": null
        },
        {
            "label": "fourteen",
            "shape_type": "point",
            "points": [
                [
                    1407,
                    2716
                ]
            ],
            "flags": {},
            "group_id": null
        },
        {
            "label": "fourteen",
            "shape_type": "point",
            "points": [
                [
                    1445,
                    2716
                ]
            ],
            "flags": {},
            "group_id": null
        },
        {
            "label": "eight",
            "shape_type": "point",
            "points": [
                [
                    1446,
                    2544
                ]
            ],
            "flags": {},
            "group_id": null
        },
        {
            "label": "h1",
            "shape_type": "rectangle",
            "points": [
                [
                    1934,
                    2636
                ],
                [
                    2019,
                    2718
                ]
            ],
            "flags": {},
            "group_id": null
        },
        {
            "label": "v1",
            "shape_type": "rectangle",
            "points": [
                [
                    1608,
                    2173
                ],
                [
                    1804,
                    2229
                ]
            ],
            "flags": {},
            "group_id": null
        },
        {
            "label": "d1",
            "shape_type": "rectangle",
            "points": [
                [
                    2025,
                    2154
                ],
                [
                    2093,
                    2233
                ]
            ],
            "flags": {},
            "group_id": null
        },
        {
            "label": "d1",
            "shape_type": "rectangle",
            "points": [
                [
                    1356,
                    2153
                ],
                [
                    1424,
                    2233
                ]
            ],
            "flags": {},
            "group_id": null
        },
        {
            "label": "vt4",
            "shape_type": "rectangle",
            "points": [
                [
                    1379,
                    1640
                ],
                [
                    1807,
                    2066
                ]
            ],
            "flags": {},
            "group_id": null
        },
        {
            "label": "vb1",
            "shape_type": "rectangle",
            "points": [
                [
                    1884,
                    1790
                ],
                [
                    2117,
                    1927
                ]
            ],
            "flags": {},
            "group_id": null
        },
        {
            "label": "seven",
            "shape_type": "point",
            "points": [
                [
                    1884,
                    1790
                ]
            ],
            "flags": {},
            "group_id": null
        },
        {
            "label": "twentytwo",
            "shape_type": "point",
            "points": [
                [
                    1894,
                    1828
                ]
            ],
            "flags": {},
            "group_id": null
        },
        {
            "label": "twentythere",
            "shape_type": "point",
            "points": [
                [
                    1873,
                    1873
                ]
            ],
            "flags": {},
            "group_id": null
        },
        {
            "label": "twentytwo",
            "shape_type": "point",
            "points": [
                [
                    2094,
                    1922
                ]
            ],
            "flags": {},
            "group_id": null
        },
        {
            "label": "twentythere",
            "shape_type": "point",
            "points": [
                [
                    2048,
                    1933
                ]
            ],
            "flags": {},
            "group_id": null
        },
        {
            "label": "ten",
            "shape_type": "point",
            "points": [
                [
                    2117,
                    1927
                ]
            ],
            "flags": {},
            "group_id": null
        },
        {
            "label": "nine",
            "shape_type": "point",
            "points": [
                [
                    1884,
                    1927
                ]
            ],
            "flags": {},
            "group_id": null
        },
        {
            "label": "eight",
            "shape_type": "point",
            "points": [
                [
                    2117,
                    1790
                ]
            ],
            "flags": {},
            "group_id": null
        },
        {
            "label": "h1",
            "shape_type": "rectangle",
            "points": [
                [
                    983,
                    1426
                ],
                [
                    1173,
                    1508
                ]
            ],
            "flags": {},
            "group_id": null
        },
        {
            "label": "h1",
            "shape_type": "rectangle",
            "points": [
                [
                    983,
                    1229
                ],
                [
                    1172,
                    1311
                ]
            ],
            "flags": {},
            "group_id": null
        },
        {
            "label": "h1",
            "shape_type": "rectangle",
            "points": [
                [
                    1035,
                    1123
                ],
                [
                    1224,
                    1204
                ]
            ],
            "flags": {},
            "group_id": null
        },
        {
            "label": "v1",
            "shape_type": "rectangle",
            "points": [
                [
                    1481,
                    1146
                ],
                [
                    1841,
                    1206
                ]
            ],
            "flags": {},
            "group_id": null
        },
        {
            "label": "vp1-2",
            "shape_type": "rectangle",
            "points": [
                [
                    1500,
                    690
                ],
                [
                    1822,
                    1013
                ]
            ],
            "flags": {},
            "group_id": null
        },
        {
            "label": "va1",
            "shape_type": "rectangle",
            "points": [
                [
                    1610,
                    597
                ],
                [
                    1674,
                    642
                ]
            ],
            "flags": {},
            "group_id": null
        },
        {
            "label": "van",
            "shape_type": "rectangle",
            "points": [
                [
                    1684,
                    596
                ],
                [
                    1748,
                    643
                ]
            ],
            "flags": {},
            "group_id": null
        },
        {
            "label": "va1",
            "shape_type": "rectangle",
            "points": [
                [
                    1851,
                    916
                ],
                [
                    1897,
                    983
                ]
            ],
            "flags": {},
            "group_id": null
        },
        {
            "label": "van",
            "shape_type": "rectangle",
            "points": [
                [
                    1808,
                    990
                ],
                [
                    1855,
                    1055
                ]
            ],
            "flags": {},
            "group_id": null
        },
        {
            "label": "va1",
            "shape_type": "rectangle",
            "points": [
                [
                    1441,
                    973
                ],
                [
                    1509,
                    1017
                ]
            ],
            "flags": {},
            "group_id": null
        },
        {
            "label": "van",
            "shape_type": "rectangle",
            "points": [
                [
                    1408,
                    905
                ],
                [
                    1473,
                    952
                ]
            ],
            "flags": {},
            "group_id": null
        },
        {
            "label": "n1",
            "shape_type": "rectangle",
            "points": [
                [
                    3204,
                    206
                ],
                [
                    3933,
                    553
                ]
            ],
            "flags": {},
            "group_id": null
        },
        {
            "label": "v1",
            "shape_type": "rectangle",
            "points": [
                [
                    3499,
                    631
                ],
                [
                    3763,
                    702
                ]
            ],
            "flags": {},
            "group_id": null
        },
        {
            "label": "twelve",
            "shape_type": "point",
            "points": [
                [
                    2048,
                    1927
                ]
            ],
            "flags": {},
            "group_id": null
        },
        {
            "label": "eleven",
            "shape_type": "point",
            "points": [
                [
                    2095,
                    1927
                ]
            ],
            "flags": {},
            "group_id": null
        },
        {
            "label": "wz4",
            "shape_type": "rectangle",
            "points": [
                [
                    1207,
                    2629
                ],
                [
                    1318,
                    2667
                ]
            ],
            "flags": {},
            "group_id": null
        },
        {
            "label": "k1",
            "shape_type": "rectangle",
            "points": [
                [
                    1113,
                    2572
                ],
                [
                    1136,
                    2619
                ]
            ],
            "flags": {},
            "group_id": null
        },
        {
            "label": "wz4",
            "shape_type": "rectangle",
            "points": [
                [
                    1972,
                    1836
                ],
                [
                    2027,
                    1874
                ]
            ],
            "flags": {},
            "group_id": null
        },
        {
            "label": "k1",
            "shape_type": "rectangle",
            "points": [
                [
                    1873,
                    1828
                ],
                [
                    1894,
                    1874
                ]
            ],
            "flags": {},
            "group_id": null
        },
        {
            "label": "wz4",
            "shape_type": "rectangle",
            "points": [
                [
                    1406,
                    383
                ],
                [
                    1933,
                    433
                ]
            ],
            "flags": {},
            "group_id": null
        },
        {
            "label": "sm",
            "shape_type": "rectangle",
            "points": [
                [
                    2238,
                    1840
                ],
                [
                    3896,
                    2267
                ]
            ],
            "flags": {},
            "group_id": null
        },
        {
            "label": "btl",
            "shape_type": "rectangle",
            "points": [
                [
                    2341,
                    2537
                ],
                [
                    4101,
                    2835
                ]
            ],
            "flags": {},
            "group_id": null
        },
        {
            "label": "tl",
            "shape_type": "rectangle",
            "points": [
                [
                    2275,
                    141
                ],
                [
                    3087,
                    772
                ]
            ],
            "flags": {},
            "group_id": null
        },
        {
            "label": "j1",
            "shape_type": "rectangle",
            "points": [
                [
                    3660,
                    207
                ],
                [
                    3699,
                    250
                ]
            ],
            "flags": {},
            "group_id": null
        },
        {
            "label": "j1",
            "shape_type": "rectangle",
            "points": [
                [
                    3660,
                    301
                ],
                [
                    3931,
                    362
                ]
            ],
            "flags": {},
            "group_id": null
        },
        {
            "label": "j1",
            "shape_type": "rectangle",
            "points": [
                [
                    3255,
                    278
                ],
                [
                    3533,
                    340
                ]
            ],
            "flags": {},
            "group_id": null
        },
        {
            "label": "j1",
            "shape_type": "rectangle",
            "points": [
                [
                    3206,
                    489
                ],
                [
                    3494,
                    551
                ]
            ],
            "flags": {},
            "group_id": null
        },
        {
            "label": "mask",
            "lineType": [
                "LLLLLLLLLLLLLLLLLLLL"
            ],
            "shape_type": "polygon",
            "points": [
                [
                    1911,
                    1265
                ],
                [
                    1998,
                    1213
                ],
                [
                    2096,
                    1129
                ],
                [
                    2136,
                    1079
                ],
                [
                    2152,
                    928
                ],
                [
                    2113,
                    746
                ],
                [
                    2044,
                    558
                ],
                [
                    2019,
                    398
                ],
                [
                    1957,
                    354
                ],
                [
                    1827,
                    329
                ],
                [
                    1647,
                    328
                ],
                [
                    1469,
                    328
                ],
                [
                    1366,
                    330
                ],
                [
                    1349,
                    438
                ],
                [
                    1301,
                    780
                ],
                [
                    1176,
                    863
                ],
                [
                    1162,
                    925
                ],
                [
                    1173,
                    1030
                ],
                [
                    1413,
                    1221
                ],
                [
                    1911,
                    1265
                ]
            ],
            "flags": {},
            "group_id": null
        },
        {
            "label": "mask",
            "lineType": [
                "LLLLLLLLLLLLLLLLLLLLLLLLLLLLLLLLL"
            ],
            "shape_type": "polygon",
            "points": [
                [
                    528,
                    970
                ],
                [
                    632,
                    899
                ],
                [
                    753,
                    899
                ],
                [
                    1099,
                    991
                ],
                [
                    1163,
                    1068
                ],
                [
                    1222,
                    1110
                ],
                [
                    1251,
                    1150
                ],
                [
                    1277,
                    1291
                ],
                [
                    1246,
                    1479
                ],
                [
                    1174,
                    1544
                ],
                [
                    969,
                    1580
                ],
                [
                    1009,
                    2169
                ],
                [
                    1070,
                    2441
                ],
                [
                    1213,
                    2454
                ],
                [
                    1409,
                    2489
                ],
                [
                    1523,
                    2519
                ],
                [
                    2065,
                    2592
                ],
                [
                    2038,
                    2738
                ],
                [
                    1671,
                    2790
                ],
                [
                    1597,
                    2801
                ],
                [
                    1209,
                    2821
                ],
                [
                    1042,
                    2831
                ],
                [
                    814,
                    2830
                ],
                [
                    426,
                    2799
                ],
                [
                    356,
                    2736
                ],
                [
                    467,
                    2251
                ],
                [
                    533,
                    1949
                ],
                [
                    523,
                    1569
                ],
                [
                    384,
                    1458
                ],
                [
                    376,
                    1436
                ],
                [
                    383,
                    1198
                ],
                [
                    419,
                    1146
                ],
                [
                    528,
                    970
                ]
            ],
            "flags": {},
            "group_id": null
        },
        {
            "label": "mask",
            "lineType": [
                "LLLLLLLLLLLLLLLLLLL"
            ],
            "shape_type": "polygon",
            "points": [
                [
                    2271,
                    768
                ],
                [
                    2374,
                    771
                ],
                [
                    2431,
                    774
                ],
                [
                    2493,
                    772
                ],
                [
                    2605,
                    715
                ],
                [
                    2893,
                    595
                ],
                [
                    3044,
                    598
                ],
                [
                    3092,
                    588
                ],
                [
                    3119,
                    567
                ],
                [
                    3130,
                    438
                ],
                [
                    3128,
                    207
                ],
                [
                    3081,
                    121
                ],
                [
                    2988,
                    108
                ],
                [
                    2784,
                    111
                ],
                [
                    2453,
                    132
                ],
                [
                    2199,
                    137
                ],
                [
                    2186,
                    293
                ],
                [
                    2232,
                    664
                ],
                [
                    2271,
                    768
                ]
            ],
            "flags": {},
            "group_id": null
        },
        {
            "label": "mask",
            "lineType": [
                "LLLLLLLLLLLLLLLLL"
            ],
            "shape_type": "polygon",
            "points": [
                [
                    3344,
                    735
                ],
                [
                    3499,
                    758
                ],
                [
                    3758,
                    766
                ],
                [
                    3813,
                    730
                ],
                [
                    3870,
                    573
                ],
                [
                    3919,
                    460
                ],
                [
                    3963,
                    381
                ],
                [
                    3950,
                    316
                ],
                [
                    3929,
                    254
                ],
                [
                    3863,
                    213
                ],
                [
                    3769,
                    182
                ],
                [
                    3644,
                    180
                ],
                [
                    3523,
                    182
                ],
                [
                    3329,
                    222
                ],
                [
                    3233,
                    261
                ],
                [
                    3179,
                    575
                ],
                [
                    3344,
                    735
                ]
            ],
            "flags": {},
            "group_id": null
        },
        {
            "label": "mask",
            "lineType": [
                "LLLLLLLLLLLLLLLLLLL"
            ],
            "shape_type": "polygon",
            "points": [
                [
                    3188,
                    840
                ],
                [
                    3966,
                    847
                ],
                [
                    4038,
                    854
                ],
                [
                    4051,
                    1075
                ],
                [
                    4057,
                    1411
                ],
                [
                    4046,
                    1708
                ],
                [
                    3277,
                    1724
                ],
                [
                    2473,
                    1729
                ],
                [
                    2246,
                    1711
                ],
                [
                    2231,
                    1602
                ],
                [
                    2215,
                    1143
                ],
                [
                    2226,
                    849
                ],
                [
                    2242,
                    789
                ],
                [
                    2260,
                    777
                ],
                [
                    2424,
                    778
                ],
                [
                    2487,
                    779
                ],
                [
                    2535,
                    789
                ],
                [
                    2543,
                    798
                ],
                [
                    3188,
                    840
                ]
            ],
            "flags": {},
            "group_id": null
        },
        {
            "label": "mask",
            "lineType": [
                "LLLLLLLLLLLLLL"
            ],
            "shape_type": "polygon",
            "points": [
                [
                    2015,
                    2286
                ],
                [
                    2096,
                    2284
                ],
                [
                    2135,
                    2237
                ],
                [
                    2165,
                    1890
                ],
                [
                    2158,
                    1754
                ],
                [
                    1990,
                    1677
                ],
                [
                    1897,
                    1632
                ],
                [
                    1803,
                    1605
                ],
                [
                    1666,
                    1604
                ],
                [
                    1510,
                    1600
                ],
                [
                    1321,
                    1613
                ],
                [
                    1308,
                    2068
                ],
                [
                    1316,
                    2282
                ],
                [
                    2015,
                    2286
                ]
            ],
            "flags": {},
            "group_id": null
        },
        {
            "label": "mask",
            "lineType": [
                "LLLLLLLLLLLLLLL"
            ],
            "shape_type": "polygon",
            "points": [
                [
                    2214,
                    1815
                ],
                [
                    2290,
                    1825
                ],
                [
                    2458,
                    1852
                ],
                [
                    2594,
                    1853
                ],
                [
                    3011,
                    1847
                ],
                [
                    3800,
                    1851
                ],
                [
                    3856,
                    1877
                ],
                [
                    3911,
                    1976
                ],
                [
                    3916,
                    2276
                ],
                [
                    3830,
                    2296
                ],
                [
                    2804,
                    2292
                ],
                [
                    2276,
                    2316
                ],
                [
                    2243,
                    2288
                ],
                [
                    2228,
                    2251
                ],
                [
                    2214,
                    1815
                ]
            ],
            "flags": {},
            "group_id": null
        },
        {
            "label": "mask",
            "lineType": [
                "LLLLL"
            ],
            "shape_type": "polygon",
            "points": [
                [
                    2340,
                    2535
                ],
                [
                    2341,
                    2838
                ],
                [
                    4101,
                    2836
                ],
                [
                    4103,
                    2536
                ],
                [
                    2340,
                    2535
                ]
            ],
            "flags": {},
            "group_id": null
        },
        {
            "label": "wlb",
            "shape_type": "rectangle",
            "points": [
                [
                    2259,
                    780
                ],
                [
                    4027,
                    1697
                ]
            ],
            "flags": {},
            "group_id": null
        },
        {
            "label": "Ns",
            "shape_type": "point",
            "points": [
                [
                    3628,
                    391
                ]
            ],
            "flags": {},
            "group_id": null
        },
        {
            "label": "Ne",
            "shape_type": "point",
            "points": [
                [
                    3629,
                    257
                ]
            ],
            "flags": {},
            "group_id": null
        },
        {
            "label": "wztl",
            "shape_type": "rectangle",
            "points": [
                [
                    2857,
                    493
                ],
                [
                    3085,
                    547
                ]
            ],
            "flags": {},
            "group_id": null
        },
        {
            "label": "wztl",
            "shape_type": "rectangle",
            "points": [
                [
                    2857,
                    416
                ],
                [
                    3087,
                    470
                ]
            ],
            "flags": {},
            "group_id": null
        },
        {
            "label": "wztl",
            "shape_type": "rectangle",
            "points": [
                [
                    2859,
                    347
                ],
                [
                    3087,
                    401
                ]
            ],
            "flags": {},
            "group_id": null
        },
        {
            "label": "wztl",
            "shape_type": "rectangle",
            "points": [
                [
                    2864,
                    276
                ],
                [
                    3029,
                    328
                ]
            ],
            "flags": {},
            "group_id": null
        },
        {
            "label": "wztl",
            "shape_type": "rectangle",
            "points": [
                [
                    2860,
                    208
                ],
                [
                    3046,
                    258
                ]
            ],
            "flags": {},
            "group_id": null
        },
        {
            "label": "wztl",
            "shape_type": "rectangle",
            "points": [
                [
                    2861,
                    142
                ],
                [
                    3046,
                    194
                ]
            ],
            "flags": {},
            "group_id": null
        },
        {
            "label": "xtl",
            "shape_type": "rectangle",
            "points": [
                [
                    2768,
                    166
                ],
                [
                    2829,
                    194
                ]
            ],
            "flags": {},
            "group_id": null
        },
        {
            "label": "xtl",
            "shape_type": "rectangle",
            "points": [
                [
                    2764,
                    228
                ],
                [
                    2830,
                    254
                ]
            ],
            "flags": {},
            "group_id": null
        },
        {
            "label": "xtl",
            "shape_type": "rectangle",
            "points": [
                [
                    2767,
                    308
                ],
                [
                    2829,
                    315
                ]
            ],
            "flags": {},
            "group_id": null
        },
        {
            "label": "xtl",
            "shape_type": "rectangle",
            "points": [
                [
                    2757,
                    356
                ],
                [
                    2814,
                    402
                ]
            ],
            "flags": {},
            "group_id": null
        },
        {
            "label": "xtl",
            "shape_type": "rectangle",
            "points": [
                [
                    2756,
                    422
                ],
                [
                    2824,
                    466
                ]
            ],
            "flags": {},
            "group_id": null
        },
        {
            "label": "xtl",
            "shape_type": "rectangle",
            "points": [
                [
                    2757,
                    493
                ],
                [
                    2824,
                    534
                ]
            ],
            "flags": {},
            "group_id": null
        },
        {
            "label": "wztl",
            "shape_type": "rectangle",
            "points": [
                [
                    2393,
                    718
                ],
                [
                    2467,
                    770
                ]
            ],
            "flags": {},
            "group_id": null
        },
        {
            "label": "wztl",
            "shape_type": "rectangle",
            "points": [
                [
                    2391,
                    638
                ],
                [
                    2502,
                    690
                ]
            ],
            "flags": {},
            "group_id": null
        },
        {
            "label": "wztl",
            "shape_type": "rectangle",
            "points": [
                [
                    2388,
                    568
                ],
                [
                    2500,
                    619
                ]
            ],
            "flags": {},
            "group_id": null
        },
        {
            "label": "wztl",
            "shape_type": "rectangle",
            "points": [
                [
                    2388,
                    490
                ],
                [
                    2639,
                    543
                ]
            ],
            "flags": {},
            "group_id": null
        },
        {
            "label": "wztl",
            "shape_type": "rectangle",
            "points": [
                [
                    2384,
                    413
                ],
                [
                    2537,
                    466
                ]
            ],
            "flags": {},
            "group_id": null
        },
        {
            "label": "wztl",
            "shape_type": "rectangle",
            "points": [
                [
                    2373,
                    344
                ],
                [
                    2516,
                    395
                ]
            ],
            "flags": {},
            "group_id": null
        },
        {
            "label": "wztl",
            "shape_type": "rectangle",
            "points": [
                [
                    2375,
                    280
                ],
                [
                    2575,
                    333
                ]
            ],
            "flags": {},
            "group_id": null
        },
        {
            "label": "wztl",
            "shape_type": "rectangle",
            "points": [
                [
                    2375,
                    210
                ],
                [
                    2667,
                    263
                ]
            ],
            "flags": {},
            "group_id": null
        },
        {
            "label": "wztl",
            "shape_type": "rectangle",
            "points": [
                [
                    2374,
                    150
                ],
                [
                    2652,
                    200
                ]
            ],
            "flags": {},
            "group_id": null
        },
        {
            "label": "xtl",
            "shape_type": "rectangle",
            "points": [
                [
                    2279,
                    158
                ],
                [
                    2346,
                    199
                ]
            ],
            "flags": {},
            "group_id": null
        },
        {
            "label": "xtl",
            "shape_type": "rectangle",
            "points": [
                [
                    2277,
                    226
                ],
                [
                    2346,
                    267
                ]
            ],
            "flags": {},
            "group_id": null
        },
        {
            "label": "xtl",
            "shape_type": "rectangle",
            "points": [
                [
                    2277,
                    294
                ],
                [
                    2347,
                    336
                ]
            ],
            "flags": {},
            "group_id": null
        },
        {
            "label": "xtl",
            "shape_type": "rectangle",
            "points": [
                [
                    2279,
                    364
                ],
                [
                    2347,
                    403
                ]
            ],
            "flags": {},
            "group_id": null
        },
        {
            "label": "xtl",
            "shape_type": "rectangle",
            "points": [
                [
                    2279,
                    430
                ],
                [
                    2347,
                    473
                ]
            ],
            "flags": {},
            "group_id": null
        },
        {
            "label": "xtl",
            "shape_type": "rectangle",
            "points": [
                [
                    2279,
                    500
                ],
                [
                    2346,
                    540
                ]
            ],
            "flags": {},
            "group_id": null
        },
        {
            "label": "xtl",
            "shape_type": "rectangle",
            "points": [
                [
                    2277,
                    594
                ],
                [
                    2353,
                    602
                ]
            ],
            "flags": {},
            "group_id": null
        },
        {
            "label": "xtl",
            "shape_type": "rectangle",
            "points": [
                [
                    2281,
                    668
                ],
                [
                    2355,
                    676
                ]
            ],
            "flags": {},
            "group_id": null
        },
        {
            "label": "xtl",
            "shape_type": "rectangle",
            "points": [
                [
                    2303,
                    725
                ],
                [
                    2334,
                    758
                ]
            ],
            "flags": {},
            "group_id": null
        },
        {
            "label": "wz1",
            "shape_type": "rectangle",
            "points": [
                [
                    607,
                    977
                ],
                [
                    681,
                    1012
                ]
            ],
            "flags": {},
            "group_id": null
        },
        {
            "label": "wz1",
            "shape_type": "rectangle",
            "points": [
                [
                    880,
                    1011
                ],
                [
                    1028,
                    1041
                ]
            ],
            "flags": {},
            "group_id": null
        },
        {
            "label": "wz3",
            "shape_type": "rectangle",
            "points": [
                [
                    857,
                    1150
                ],
                [
                    920,
                    1167
                ]
            ],
            "flags": {},
            "group_id": null
        },
        {
            "label": "wz3",
            "shape_type": "rectangle",
            "points": [
                [
                    757,
                    1152
                ],
                [
                    821,
                    1169
                ]
            ],
            "flags": {},
            "group_id": null
        },
        {
            "label": "wz3",
            "shape_type": "rectangle",
            "points": [
                [
                    641,
                    1158
                ],
                [
                    706,
                    1174
                ]
            ],
            "flags": {},
            "group_id": null
        },
        {
            "label": "wz3-l",
            "lineType": "LL",
            "shape_type": "line",
            "points": [
                [
                    695,
                    1167
                ],
                [
                    685,
                    1193
                ]
            ],
            "flags": {},
            "group_id": null
        },
        {
            "label": "wz3-l",
            "lineType": "LL",
            "shape_type": "line",
            "points": [
                [
                    792,
                    1160
                ],
                [
                    783,
                    1187
                ]
            ],
            "flags": {},
            "group_id": null
        },
        {
            "label": "wz3-l",
            "lineType": "LL",
            "shape_type": "line",
            "points": [
                [
                    887,
                    1157
                ],
                [
                    879,
                    1186
                ]
            ],
            "flags": {},
            "group_id": null
        },
        {
            "label": "wz1-l",
            "lineType": "LL",
            "shape_type": "line",
            "points": [
                [
                    661,
                    1000
                ],
                [
                    740,
                    1065
                ]
            ],
            "flags": {},
            "group_id": null
        },
        {
            "label": "wz3",
            "shape_type": "rectangle",
            "points": [
                [
                    419,
                    1231
                ],
                [
                    530,
                    1271
                ]
            ],
            "flags": {},
            "group_id": null
        },
        {
            "label": "wz3",
            "shape_type": "rectangle",
            "points": [
                [
                    414,
                    1425
                ],
                [
                    524,
                    1463
                ]
            ],
            "flags": {},
            "group_id": null
        },
        {
            "label": "wz3-l",
            "lineType": "LL",
            "shape_type": "line",
            "points": [
                [
                    508,
                    1452
                ],
                [
                    601,
                    1486
                ]
            ],
            "flags": {},
            "group_id": null
        },
        {
            "label": "wz3-l",
            "lineType": "LL",
            "shape_type": "line",
            "points": [
                [
                    507,
                    1253
                ],
                [
                    605,
                    1302
                ]
            ],
            "flags": {},
            "group_id": null
        },
        {
            "label": "wz1",
            "shape_type": "rectangle",
            "points": [
                [
                    1143,
                    2487
                ],
                [
                    1161,
                    2515
                ]
            ],
            "flags": {},
            "group_id": null
        },
        {
            "label": "wz1-l",
            "lineType": "LL",
            "shape_type": "line",
            "points": [
                [
                    1153,
                    2511
                ],
                [
                    1112,
                    2588
                ]
            ],
            "flags": {},
            "group_id": null
        },
        {
            "label": "wz3",
            "shape_type": "rectangle",
            "points": [
                [
                    1333,
                    1024
                ],
                [
                    1531,
                    1080
                ]
            ],
            "flags": {},
            "group_id": null
        },
        {
            "label": "wz3",
            "shape_type": "rectangle",
            "points": [
                [
                    1190,
                    929
                ],
                [
                    1424,
                    983
                ]
            ],
            "flags": {},
            "group_id": null
        },
        {
            "label": "wz3",
            "shape_type": "rectangle",
            "points": [
                [
                    1858,
                    1004
                ],
                [
                    2092,
                    1064
                ]
            ],
            "flags": {},
            "group_id": null
        },
        {
            "label": "wz3",
            "shape_type": "rectangle",
            "points": [
                [
                    1923,
                    899
                ],
                [
                    2098,
                    956
                ]
            ],
            "flags": {},
            "group_id": null
        },
        {
            "label": "wz3",
            "shape_type": "rectangle",
            "points": [
                [
                    1751,
                    567
                ],
                [
                    1993,
                    632
                ]
            ],
            "flags": {},
            "group_id": null
        },
        {
            "label": "wz3",
            "shape_type": "rectangle",
            "points": [
                [
                    1446,
                    550
                ],
                [
                    1644,
                    607
                ]
            ],
            "flags": {},
            "group_id": null
        },
        {
            "label": "wz3-l",
            "lineType": "LL",
            "shape_type": "line",
            "points": [
                [
                    1424,
                    1052
                ],
                [
                    1459,
                    1009
                ]
            ],
            "flags": {},
            "group_id": null
        },
        {
            "label": "wz3-l",
            "lineType": "LL",
            "shape_type": "line",
            "points": [
                [
                    1378,
                    968
                ],
                [
                    1439,
                    933
                ]
            ],
            "flags": {},
            "group_id": null
        },
        {
            "label": "wz3-l",
            "lineType": "LL",
            "shape_type": "line",
            "points": [
                [
                    1884,
                    1042
                ],
                [
                    1841,
                    1040
                ]
            ],
            "flags": {},
            "group_id": null
        },
        {
            "label": "wz3-l",
            "lineType": "LL",
            "shape_type": "line",
            "points": [
                [
                    1878,
                    958
                ],
                [
                    1949,
                    940
                ]
            ],
            "flags": {},
            "group_id": null
        },
        {
            "label": "wz3-l",
            "lineType": "LL",
            "shape_type": "line",
            "points": [
                [
                    1784,
                    602
                ],
                [
                    1732,
                    625
                ]
            ],
            "flags": {},
            "group_id": null
        },
        {
            "label": "wz3-l",
            "lineType": "LL",
            "shape_type": "line",
            "points": [
                [
                    1574,
                    588
                ],
                [
                    1631,
                    631
                ]
            ],
            "flags": {},
            "group_id": null
        },
        {
            "label": "wz1-l",
            "lineType": "LL",
            "shape_type": "line",
            "points": [
                [
                    899,
                    1032
                ],
                [
                    917,
                    1178
                ]
            ],
            "flags": {},
            "group_id": null
        },
        {
            "label": "wz1-l",
            "lineType": "LL",
            "shape_type": "line",
            "points": [
                [
                    888,
                    1029
                ],
                [
                    747,
                    1166
                ]
            ],
            "flags": {},
            "group_id": null
        },
        {
            "label": "wz1-l",
            "lineType": "LL",
            "shape_type": "line",
            "points": [
                [
                    890,
                    1023
                ],
                [
                    651,
                    1178
                ]
            ],
            "flags": {},
            "group_id": null
        }
    ],
    "flags": {},
    "imageData": null,
    "version": "4.5.7"
}