{
    "imageHeight": 2908,
    "imageWidth": 4205,
    "imagePath": "样本6_127_126.png",
    "shapes": [
        {
            "label": "vt1",
            "shape_type": "rectangle",
            "points": [
                [
                    3576,
                    376
                ],
                [
                    4016,
                    749
                ]
            ],
            "flags": {},
            "group_id": null
        },
        {
            "label": "va1",
            "shape_type": "rectangle",
            "points": [
                [
                    3770,
                    420
                ],
                [
                    3821,
                    460
                ]
            ],
            "flags": {},
            "group_id": null
        },
        {
            "label": "va1",
            "shape_type": "rectangle",
            "points": [
                [
                    3885,
                    607
                ],
                [
                    3933,
                    658
                ]
            ],
            "flags": {},
            "group_id": null
        },
        {
            "label": "va1",
            "shape_type": "rectangle",
            "points": [
                [
                    3663,
                    603
                ],
                [
                    3711,
                    657
                ]
            ],
            "flags": {},
            "group_id": null
        },
        {
            "label": "d1",
            "shape_type": "rectangle",
            "points": [
                [
                    3919,
                    819
                ],
                [
                    4002,
                    961
                ]
            ],
            "flags": {},
            "group_id": null
        },
        {
            "label": "v1",
            "shape_type": "rectangle",
            "points": [
                [
                    2998,
                    871
                ],
                [
                    3188,
                    947
                ]
            ],
            "flags": {},
            "group_id": null
        },
        {
            "label": "d1",
            "shape_type": "rectangle",
            "points": [
                [
                    2362,
                    820
                ],
                [
                    2448,
                    959
                ]
            ],
            "flags": {},
            "group_id": null
        },
        {
            "label": "vb1",
            "shape_type": "rectangle",
            "points": [
                [
                    2400,
                    106
                ],
                [
                    3331,
                    816
                ]
            ],
            "flags": {},
            "group_id": null
        },
        {
            "label": "seven",
            "shape_type": "point",
            "points": [
                [
                    2400,
                    107
                ]
            ],
            "flags": {},
            "group_id": null
        },
        {
            "label": "seven",
            "shape_type": "point",
            "points": [
                [
                    2423,
                    131
                ]
            ],
            "flags": {},
            "group_id": null
        },
        {
            "label": "eight",
            "shape_type": "point",
            "points": [
                [
                    3331,
                    107
                ]
            ],
            "flags": {},
            "group_id": null
        },
        {
            "label": "eight",
            "shape_type": "point",
            "points": [
                [
                    3306,
                    130
                ]
            ],
            "flags": {},
            "group_id": null
        },
        {
            "label": "nine",
            "shape_type": "point",
            "points": [
                [
                    2425,
                    792
                ]
            ],
            "flags": {},
            "group_id": null
        },
        {
            "label": "nine",
            "shape_type": "point",
            "points": [
                [
                    2400,
                    816
                ]
            ],
            "flags": {},
            "group_id": null
        },
        {
            "label": "ten",
            "shape_type": "point",
            "points": [
                [
                    3305,
                    792
                ]
            ],
            "flags": {},
            "group_id": null
        },
        {
            "label": "ten",
            "shape_type": "point",
            "points": [
                [
                    3330,
                    817
                ]
            ],
            "flags": {},
            "group_id": null
        },
        {
            "label": "twentytwo",
            "shape_type": "point",
            "points": [
                [
                    3307,
                    524
                ]
            ],
            "flags": {},
            "group_id": null
        },
        {
            "label": "fifteen",
            "shape_type": "point",
            "points": [
                [
                    3330,
                    526
                ]
            ],
            "flags": {},
            "group_id": null
        },
        {
            "label": "eleven",
            "shape_type": "point",
            "points": [
                [
                    3306,
                    605
                ]
            ],
            "flags": {},
            "group_id": null
        },
        {
            "label": "twentythere",
            "shape_type": "point",
            "points": [
                [
                    3331,
                    606
                ]
            ],
            "flags": {},
            "group_id": null
        },
        {
            "label": "vp1-1",
            "shape_type": "rectangle",
            "points": [
                [
                    1877,
                    767
                ],
                [
                    2042,
                    932
                ]
            ],
            "flags": {},
            "group_id": null
        },
        {
            "label": "va1",
            "shape_type": "rectangle",
            "points": [
                [
                    2104,
                    821
                ],
                [
                    2141,
                    865
                ]
            ],
            "flags": {},
            "group_id": null
        },
        {
            "label": "va1",
            "shape_type": "rectangle",
            "points": [
                [
                    1867,
                    969
                ],
                [
                    1912,
                    1010
                ]
            ],
            "flags": {},
            "group_id": null
        },
        {
            "label": "va1",
            "shape_type": "rectangle",
            "points": [
                [
                    1859,
                    689
                ],
                [
                    1902,
                    725
                ]
            ],
            "flags": {},
            "group_id": null
        },
        {
            "label": "v1",
            "shape_type": "rectangle",
            "points": [
                [
                    1855,
                    1063
                ],
                [
                    2087,
                    1155
                ]
            ],
            "flags": {},
            "group_id": null
        },
        {
            "label": "vp1-1",
            "shape_type": "rectangle",
            "points": [
                [
                    1877,
                    1553
                ],
                [
                    2041,
                    1720
                ]
            ],
            "flags": {},
            "group_id": null
        },
        {
            "label": "va1",
            "shape_type": "rectangle",
            "points": [
                [
                    2106,
                    1610
                ],
                [
                    2141,
                    1654
                ]
            ],
            "flags": {},
            "group_id": null
        },
        {
            "label": "va1",
            "shape_type": "rectangle",
            "points": [
                [
                    1860,
                    1478
                ],
                [
                    1903,
                    1515
                ]
            ],
            "flags": {},
            "group_id": null
        },
        {
            "label": "va1",
            "shape_type": "rectangle",
            "points": [
                [
                    1869,
                    1759
                ],
                [
                    1911,
                    1800
                ]
            ],
            "flags": {},
            "group_id": null
        },
        {
            "label": "v1",
            "shape_type": "rectangle",
            "points": [
                [
                    1857,
                    1850
                ],
                [
                    2087,
                    1944
                ]
            ],
            "flags": {},
            "group_id": null
        },
        {
            "label": "h1",
            "shape_type": "rectangle",
            "points": [
                [
                    1709,
                    2651
                ],
                [
                    1861,
                    2722
                ]
            ],
            "flags": {},
            "group_id": null
        },
        {
            "label": "v1",
            "shape_type": "rectangle",
            "points": [
                [
                    1011,
                    2756
                ],
                [
                    1343,
                    2848
                ]
            ],
            "flags": {},
            "group_id": null
        },
        {
            "label": "b1",
            "shape_type": "rectangle",
            "points": [
                [
                    799,
                    2541
                ],
                [
                    1048,
                    2723
                ]
            ],
            "flags": {},
            "group_id": null
        },
        {
            "label": "seven",
            "shape_type": "point",
            "points": [
                [
                    802,
                    2544
                ]
            ],
            "flags": {},
            "group_id": null
        },
        {
            "label": "fourteen",
            "shape_type": "point",
            "points": [
                [
                    801,
                    2721
                ]
            ],
            "flags": {},
            "group_id": null
        },
        {
            "label": "fourteen",
            "shape_type": "point",
            "points": [
                [
                    1044,
                    2722
                ]
            ],
            "flags": {},
            "group_id": null
        },
        {
            "label": "eight",
            "shape_type": "point",
            "points": [
                [
                    1044,
                    2544
                ]
            ],
            "flags": {},
            "group_id": null
        },
        {
            "label": "x1",
            "shape_type": "rectangle",
            "points": [
                [
                    1069,
                    2305
                ],
                [
                    1223,
                    2332
                ]
            ],
            "flags": {},
            "group_id": null
        },
        {
            "label": "h1",
            "shape_type": "rectangle",
            "points": [
                [
                    1343,
                    2159
                ],
                [
                    1488,
                    2232
                ]
            ],
            "flags": {},
            "group_id": null
        },
        {
            "label": "d1",
            "shape_type": "rectangle",
            "points": [
                [
                    1220,
                    2115
                ],
                [
                    1306,
                    2262
                ]
            ],
            "flags": {},
            "group_id": null
        },
        {
            "label": "d1",
            "shape_type": "rectangle",
            "points": [
                [
                    970,
                    2124
                ],
                [
                    1055,
                    2262
                ]
            ],
            "flags": {},
            "group_id": null
        },
        {
            "label": "h1",
            "shape_type": "rectangle",
            "points": [
                [
                    1344,
                    2004
                ],
                [
                    1488,
                    2077
                ]
            ],
            "flags": {},
            "group_id": null
        },
        {
            "label": "d1",
            "shape_type": "rectangle",
            "points": [
                [
                    971,
                    1954
                ],
                [
                    1054,
                    2093
                ]
            ],
            "flags": {},
            "group_id": null
        },
        {
            "label": "d1",
            "shape_type": "rectangle",
            "points": [
                [
                    1218,
                    1946
                ],
                [
                    1304,
                    2092
                ]
            ],
            "flags": {},
            "group_id": null
        },
        {
            "label": "g1",
            "shape_type": "rectangle",
            "points": [
                [
                    1098,
                    2111
                ],
                [
                    1101,
                    2267
                ]
            ],
            "flags": {},
            "group_id": null
        },
        {
            "label": "g1",
            "shape_type": "rectangle",
            "points": [
                [
                    1191,
                    2111
                ],
                [
                    1196,
                    2265
                ]
            ],
            "flags": {},
            "group_id": null
        },
        {
            "label": "p1-1",
            "shape_type": "rectangle",
            "points": [
                [
                    1096,
                    2110
                ],
                [
                    1197,
                    2266
                ]
            ],
            "flags": {},
            "group_id": null
        },
        {
            "label": "a1-1",
            "shape_type": "rectangle",
            "points": [
                [
                    1083,
                    1964
                ],
                [
                    1098,
                    2025
                ]
            ],
            "flags": {},
            "group_id": null
        },
        {
            "label": "a1-2",
            "shape_type": "rectangle",
            "points": [
                [
                    1195,
                    1963
                ],
                [
                    1210,
                    2023
                ]
            ],
            "flags": {},
            "group_id": null
        },
        {
            "label": "g1",
            "shape_type": "rectangle",
            "points": [
                [
                    1097,
                    1947
                ],
                [
                    1102,
                    2104
                ]
            ],
            "flags": {},
            "group_id": null
        },
        {
            "label": "g1",
            "shape_type": "rectangle",
            "points": [
                [
                    1191,
                    1945
                ],
                [
                    1195,
                    2103
                ]
            ],
            "flags": {},
            "group_id": null
        },
        {
            "label": "p1-1",
            "shape_type": "rectangle",
            "points": [
                [
                    1083,
                    1944
                ],
                [
                    1210,
                    2105
                ]
            ],
            "flags": {},
            "group_id": null
        },
        {
            "label": "d1",
            "shape_type": "rectangle",
            "points": [
                [
                    971,
                    1799
                ],
                [
                    1056,
                    1938
                ]
            ],
            "flags": {},
            "group_id": null
        },
        {
            "label": "d1",
            "shape_type": "rectangle",
            "points": [
                [
                    1219,
                    1789
                ],
                [
                    1304,
                    1936
                ]
            ],
            "flags": {},
            "group_id": null
        },
        {
            "label": "h1",
            "shape_type": "rectangle",
            "points": [
                [
                    1344,
                    1830
                ],
                [
                    1490,
                    1902
                ]
            ],
            "flags": {},
            "group_id": null
        },
        {
            "label": "g1",
            "shape_type": "rectangle",
            "points": [
                [
                    1096,
                    1782
                ],
                [
                    1100,
                    1937
                ]
            ],
            "flags": {},
            "group_id": null
        },
        {
            "label": "g1",
            "shape_type": "rectangle",
            "points": [
                [
                    1191,
                    1782
                ],
                [
                    1194,
                    1935
                ]
            ],
            "flags": {},
            "group_id": null
        },
        {
            "label": "p1-1",
            "shape_type": "rectangle",
            "points": [
                [
                    1095,
                    1781
                ],
                [
                    1195,
                    1937
                ]
            ],
            "flags": {},
            "group_id": null
        },
        {
            "label": "h1",
            "shape_type": "rectangle",
            "points": [
                [
                    1347,
                    1664
                ],
                [
                    1490,
                    1738
                ]
            ],
            "flags": {},
            "group_id": null
        },
        {
            "label": "d1",
            "shape_type": "rectangle",
            "points": [
                [
                    1220,
                    1620
                ],
                [
                    1304,
                    1764
                ]
            ],
            "flags": {},
            "group_id": null
        },
        {
            "label": "d1",
            "shape_type": "rectangle",
            "points": [
                [
                    971,
                    1628
                ],
                [
                    1055,
                    1766
                ]
            ],
            "flags": {},
            "group_id": null
        },
        {
            "label": "g1",
            "shape_type": "rectangle",
            "points": [
                [
                    1097,
                    1632
                ],
                [
                    1101,
                    1767
                ]
            ],
            "flags": {},
            "group_id": null
        },
        {
            "label": "g1",
            "shape_type": "rectangle",
            "points": [
                [
                    1192,
                    1631
                ],
                [
                    1194,
                    1766
                ]
            ],
            "flags": {},
            "group_id": null
        },
        {
            "label": "p1-1",
            "shape_type": "rectangle",
            "points": [
                [
                    1097,
                    1631
                ],
                [
                    1194,
                    1768
                ]
            ],
            "flags": {},
            "group_id": null
        },
        {
            "label": "d1",
            "shape_type": "rectangle",
            "points": [
                [
                    971,
                    1453
                ],
                [
                    1055,
                    1594
                ]
            ],
            "flags": {},
            "group_id": null
        },
        {
            "label": "h1",
            "shape_type": "rectangle",
            "points": [
                [
                    1349,
                    1483
                ],
                [
                    1492,
                    1554
                ]
            ],
            "flags": {},
            "group_id": null
        },
        {
            "label": "d1",
            "shape_type": "rectangle",
            "points": [
                [
                    1221,
                    1453
                ],
                [
                    1308,
                    1600
                ]
            ],
            "flags": {},
            "group_id": null
        },
        {
            "label": "a1-1",
            "shape_type": "rectangle",
            "points": [
                [
                    1083,
                    1484
                ],
                [
                    1098,
                    1543
                ]
            ],
            "flags": {},
            "group_id": null
        },
        {
            "label": "a1-2",
            "shape_type": "rectangle",
            "points": [
                [
                    1195,
                    1481
                ],
                [
                    1210,
                    1542
                ]
            ],
            "flags": {},
            "group_id": null
        },
        {
            "label": "g1",
            "shape_type": "rectangle",
            "points": [
                [
                    1098,
                    1466
                ],
                [
                    1101,
                    1622
                ]
            ],
            "flags": {},
            "group_id": null
        },
        {
            "label": "g1",
            "shape_type": "rectangle",
            "points": [
                [
                    1191,
                    1464
                ],
                [
                    1194,
                    1621
                ]
            ],
            "flags": {},
            "group_id": null
        },
        {
            "label": "p1-1",
            "shape_type": "rectangle",
            "points": [
                [
                    1082,
                    1464
                ],
                [
                    1209,
                    1623
                ]
            ],
            "flags": {},
            "group_id": null
        },
        {
            "label": "d1",
            "shape_type": "rectangle",
            "points": [
                [
                    975,
                    1283
                ],
                [
                    1058,
                    1421
                ]
            ],
            "flags": {},
            "group_id": null
        },
        {
            "label": "d1",
            "shape_type": "rectangle",
            "points": [
                [
                    1223,
                    1283
                ],
                [
                    1309,
                    1429
                ]
            ],
            "flags": {},
            "group_id": null
        },
        {
            "label": "h1",
            "shape_type": "rectangle",
            "points": [
                [
                    1348,
                    1327
                ],
                [
                    1493,
                    1398
                ]
            ],
            "flags": {},
            "group_id": null
        },
        {
            "label": "g1",
            "shape_type": "rectangle",
            "points": [
                [
                    1097,
                    1312
                ],
                [
                    1101,
                    1447
                ]
            ],
            "flags": {},
            "group_id": null
        },
        {
            "label": "g1",
            "shape_type": "rectangle",
            "points": [
                [
                    1190,
                    1312
                ],
                [
                    1195,
                    1447
                ]
            ],
            "flags": {},
            "group_id": null
        },
        {
            "label": "p1-1",
            "shape_type": "rectangle",
            "points": [
                [
                    1097,
                    1311
                ],
                [
                    1196,
                    1448
                ]
            ],
            "flags": {},
            "group_id": null
        },
        {
            "label": "c1",
            "shape_type": "rectangle",
            "points": [
                [
                    1142,
                    1225
                ],
                [
                    1149,
                    1334
                ]
            ],
            "flags": {},
            "group_id": null
        },
        {
            "label": "s1",
            "shape_type": "rectangle",
            "points": [
                [
                    720,
                    1165
                ],
                [
                    1666,
                    2722
                ]
            ],
            "flags": {},
            "group_id": null
        },
        {
            "label": "n1",
            "shape_type": "rectangle",
            "points": [
                [
                    737,
                    213
                ],
                [
                    1154,
                    645
                ]
            ],
            "flags": {},
            "group_id": null
        },
        {
            "label": "j1",
            "shape_type": "rectangle",
            "points": [
                [
                    1012,
                    557
                ],
                [
                    1119,
                    641
                ]
            ],
            "flags": {},
            "group_id": null
        },
        {
            "label": "j1",
            "shape_type": "rectangle",
            "points": [
                [
                    1069,
                    272
                ],
                [
                    1154,
                    348
                ]
            ],
            "flags": {},
            "group_id": null
        },
        {
            "label": "j1",
            "shape_type": "rectangle",
            "points": [
                [
                    739,
                    257
                ],
                [
                    850,
                    335
                ]
            ],
            "flags": {},
            "group_id": null
        },
        {
            "label": "j1",
            "shape_type": "rectangle",
            "points": [
                [
                    847,
                    215
                ],
                [
                    879,
                    259
                ]
            ],
            "flags": {},
            "group_id": null
        },
        {
            "label": "wz4",
            "shape_type": "rectangle",
            "points": [
                [
                    858,
                    2612
                ],
                [
                    988,
                    2657
                ]
            ],
            "flags": {},
            "group_id": null
        },
        {
            "label": "btl",
            "shape_type": "rectangle",
            "points": [
                [
                    2347,
                    2566
                ],
                [
                    4155,
                    2873
                ]
            ],
            "flags": {},
            "group_id": null
        },
        {
            "label": "sm",
            "shape_type": "rectangle",
            "points": [
                [
                    2296,
                    953
                ],
                [
                    4116,
                    1659
                ]
            ],
            "flags": {},
            "group_id": null
        },
        {
            "label": "wz4",
            "shape_type": "rectangle",
            "points": [
                [
                    2739,
                    412
                ],
                [
                    2867,
                    459
                ]
            ],
            "flags": {},
            "group_id": null
        },
        {
            "label": "mask",
            "lineType": [
                "LLLLLLLLLLLLLLLLLLLLLLLLLLLLLLLLLLLLLLLLLLLLLLLL"
            ],
            "shape_type": "polygon",
            "points": [
                [
                    1209,
                    1169
                ],
                [
                    1126,
                    1131
                ],
                [
                    998,
                    1138
                ],
                [
                    933,
                    1174
                ],
                [
                    886,
                    1229
                ],
                [
                    766,
                    1482
                ],
                [
                    674,
                    1726
                ],
                [
                    741,
                    1812
                ],
                [
                    776,
                    1924
                ],
                [
                    800,
                    1990
                ],
                [
                    729,
                    1986
                ],
                [
                    755,
                    2074
                ],
                [
                    832,
                    2240
                ],
                [
                    719,
                    2261
                ],
                [
                    656,
                    2395
                ],
                [
                    796,
                    2411
                ],
                [
                    866,
                    2506
                ],
                [
                    739,
                    2525
                ],
                [
                    760,
                    2679
                ],
                [
                    617,
                    2686
                ],
                [
                    601,
                    2755
                ],
                [
                    978,
                    2792
                ],
                [
                    993,
                    2861
                ],
                [
                    1382,
                    2854
                ],
                [
                    1372,
                    2792
                ],
                [
                    1782,
                    2762
                ],
                [
                    1794,
                    2718
                ],
                [
                    1872,
                    2698
                ],
                [
                    1882,
                    2649
                ],
                [
                    1774,
                    2613
                ],
                [
                    1605,
                    2635
                ],
                [
                    1582,
                    2695
                ],
                [
                    1210,
                    2695
                ],
                [
                    1203,
                    2533
                ],
                [
                    1231,
                    2319
                ],
                [
                    1557,
                    2247
                ],
                [
                    1688,
                    2067
                ],
                [
                    1691,
                    1975
                ],
                [
                    1670,
                    1929
                ],
                [
                    1632,
                    1880
                ],
                [
                    1602,
                    1731
                ],
                [
                    1597,
                    1676
                ],
                [
                    1593,
                    1633
                ],
                [
                    1616,
                    1563
                ],
                [
                    1608,
                    1472
                ],
                [
                    1533,
                    1239
                ],
                [
                    1380,
                    1157
                ],
                [
                    1209,
                    1169
                ]
            ],
            "flags": {},
            "group_id": null
        },
        {
            "label": "mask",
            "lineType": [
                "LLLLLLLLLLLLLLLLLLLLLLL"
            ],
            "shape_type": "polygon",
            "points": [
                [
                    1886,
                    1383
                ],
                [
                    1666,
                    1379
                ],
                [
                    1663,
                    1427
                ],
                [
                    1654,
                    1475
                ],
                [
                    1672,
                    1504
                ],
                [
                    1858,
                    1616
                ],
                [
                    1616,
                    1706
                ],
                [
                    1616,
                    1761
                ],
                [
                    1639,
                    1841
                ],
                [
                    1793,
                    1837
                ],
                [
                    1842,
                    1959
                ],
                [
                    2101,
                    1955
                ],
                [
                    2115,
                    1849
                ],
                [
                    2004,
                    1751
                ],
                [
                    2149,
                    1669
                ],
                [
                    2183,
                    1644
                ],
                [
                    2292,
                    1609
                ],
                [
                    2335,
                    1540
                ],
                [
                    2332,
                    1512
                ],
                [
                    2101,
                    1504
                ],
                [
                    2023,
                    1540
                ],
                [
                    1933,
                    1498
                ],
                [
                    1886,
                    1383
                ]
            ],
            "flags": {},
            "group_id": null
        },
        {
            "label": "mask",
            "lineType": [
                "LLLLLLLLLLLLLLLLLLLLLL"
            ],
            "shape_type": "polygon",
            "points": [
                [
                    2068,
                    757
                ],
                [
                    1966,
                    728
                ],
                [
                    1841,
                    593
                ],
                [
                    1680,
                    605
                ],
                [
                    1692,
                    714
                ],
                [
                    1853,
                    748
                ],
                [
                    1857,
                    889
                ],
                [
                    1633,
                    919
                ],
                [
                    1642,
                    1031
                ],
                [
                    1823,
                    1034
                ],
                [
                    1833,
                    1162
                ],
                [
                    2097,
                    1163
                ],
                [
                    2081,
                    1048
                ],
                [
                    1981,
                    978
                ],
                [
                    2051,
                    913
                ],
                [
                    2152,
                    887
                ],
                [
                    2178,
                    835
                ],
                [
                    2287,
                    813
                ],
                [
                    2305,
                    761
                ],
                [
                    2286,
                    708
                ],
                [
                    2116,
                    692
                ],
                [
                    2068,
                    757
                ]
            ],
            "flags": {},
            "group_id": null
        },
        {
            "label": "mask",
            "lineType": [
                "LLLLLLLLLLLLLLLLLLLLLLLLLLLLL"
            ],
            "shape_type": "polygon",
            "points": [
                [
                    2284,
                    955
                ],
                [
                    2283,
                    1022
                ],
                [
                    2349,
                    1019
                ],
                [
                    2363,
                    1508
                ],
                [
                    2372,
                    1672
                ],
                [
                    2931,
                    1663
                ],
                [
                    2942,
                    1608
                ],
                [
                    3521,
                    1611
                ],
                [
                    3522,
                    1557
                ],
                [
                    3894,
                    1555
                ],
                [
                    3907,
                    1480
                ],
                [
                    3465,
                    1470
                ],
                [
                    3459,
                    1426
                ],
                [
                    2773,
                    1408
                ],
                [
                    2756,
                    1369
                ],
                [
                    3998,
                    1377
                ],
                [
                    4113,
                    1371
                ],
                [
                    4120,
                    1298
                ],
                [
                    3452,
                    1294
                ],
                [
                    3436,
                    1238
                ],
                [
                    3085,
                    1224
                ],
                [
                    3070,
                    1089
                ],
                [
                    3270,
                    1088
                ],
                [
                    3268,
                    1021
                ],
                [
                    2716,
                    1014
                ],
                [
                    2663,
                    940
                ],
                [
                    2459,
                    954
                ],
                [
                    2391,
                    968
                ],
                [
                    2284,
                    955
                ]
            ],
            "flags": {},
            "group_id": null
        },
        {
            "label": "mask",
            "lineType": [
                "LLLLLLLLLLLLLLLLLLLLLLLLLLLLLL"
            ],
            "shape_type": "polygon",
            "points": [
                [
                    2389,
                    71
                ],
                [
                    2367,
                    791
                ],
                [
                    2335,
                    856
                ],
                [
                    2331,
                    948
                ],
                [
                    2383,
                    963
                ],
                [
                    2482,
                    943
                ],
                [
                    2704,
                    930
                ],
                [
                    3067,
                    956
                ],
                [
                    3222,
                    955
                ],
                [
                    3217,
                    830
                ],
                [
                    3347,
                    832
                ],
                [
                    3361,
                    629
                ],
                [
                    3588,
                    641
                ],
                [
                    3641,
                    719
                ],
                [
                    3894,
                    805
                ],
                [
                    3906,
                    960
                ],
                [
                    3996,
                    965
                ],
                [
                    4018,
                    949
                ],
                [
                    4021,
                    767
                ],
                [
                    3968,
                    665
                ],
                [
                    4038,
                    564
                ],
                [
                    4024,
                    492
                ],
                [
                    3958,
                    387
                ],
                [
                    3807,
                    356
                ],
                [
                    3691,
                    372
                ],
                [
                    3574,
                    500
                ],
                [
                    3349,
                    508
                ],
                [
                    3342,
                    89
                ],
                [
                    2613,
                    78
                ],
                [
                    2389,
                    71
                ]
            ],
            "flags": {},
            "group_id": null
        },
        {
            "label": "mask",
            "lineType": [
                "LLLLLLLL"
            ],
            "shape_type": "polygon",
            "points": [
                [
                    2590,
                    1683
                ],
                [
                    2595,
                    2555
                ],
                [
                    3999,
                    2558
                ],
                [
                    3995,
                    1666
                ],
                [
                    3373,
                    1651
                ],
                [
                    3152,
                    1649
                ],
                [
                    2995,
                    1670
                ],
                [
                    2590,
                    1683
                ]
            ],
            "flags": {},
            "group_id": null
        },
        {
            "label": "mask",
            "lineType": [
                "LLLLL"
            ],
            "shape_type": "polygon",
            "points": [
                [
                    2338,
                    2556
                ],
                [
                    2337,
                    2868
                ],
                [
                    4154,
                    2871
                ],
                [
                    4153,
                    2563
                ],
                [
                    2338,
                    2556
                ]
            ],
            "flags": {},
            "group_id": null
        },
        {
            "label": "mask",
            "lineType": [
                "LLLLLLLLLLLLLLLLLLLL"
            ],
            "shape_type": "polygon",
            "points": [
                [
                    1040,
                    214
                ],
                [
                    959,
                    163
                ],
                [
                    838,
                    170
                ],
                [
                    745,
                    214
                ],
                [
                    706,
                    268
                ],
                [
                    692,
                    381
                ],
                [
                    845,
                    410
                ],
                [
                    905,
                    579
                ],
                [
                    959,
                    652
                ],
                [
                    1108,
                    668
                ],
                [
                    1137,
                    654
                ],
                [
                    1135,
                    603
                ],
                [
                    1105,
                    518
                ],
                [
                    1018,
                    500
                ],
                [
                    1030,
                    443
                ],
                [
                    1103,
                    414
                ],
                [
                    1156,
                    390
                ],
                [
                    1174,
                    345
                ],
                [
                    1164,
                    243
                ],
                [
                    1040,
                    214
                ]
            ],
            "flags": {},
            "group_id": null
        },
        {
            "label": "Ns",
            "shape_type": "point",
            "points": [
                [
                    899,
                    455
                ]
            ],
            "flags": {},
            "group_id": null
        },
        {
            "label": "Ne",
            "shape_type": "point",
            "points": [
                [
                    899,
                    276
                ]
            ],
            "flags": {},
            "group_id": null
        },
        {
            "label": "wlb",
            "shape_type": "rectangle",
            "points": [
                [
                    2610,
                    1661
                ],
                [
                    3980,
                    2550
                ]
            ],
            "flags": {},
            "group_id": null
        },
        {
            "label": "wz3",
            "shape_type": "rectangle",
            "points": [
                [
                    2141,
                    727
                ],
                [
                    2287,
                    810
                ]
            ],
            "flags": {},
            "group_id": null
        },
        {
            "label": "wz3",
            "shape_type": "rectangle",
            "points": [
                [
                    1702,
                    619
                ],
                [
                    1850,
                    703
                ]
            ],
            "flags": {},
            "group_id": null
        },
        {
            "label": "wz3",
            "shape_type": "rectangle",
            "points": [
                [
                    1655,
                    934
                ],
                [
                    1800,
                    1016
                ]
            ],
            "flags": {},
            "group_id": null
        },
        {
            "label": "wz3-l",
            "lineType": "LL",
            "shape_type": "line",
            "points": [
                [
                    1883,
                    993
                ],
                [
                    1786,
                    983
                ]
            ],
            "flags": {},
            "group_id": null
        },
        {
            "label": "wz3-l",
            "lineType": "LL",
            "shape_type": "line",
            "points": [
                [
                    2175,
                    793
                ],
                [
                    2132,
                    833
                ]
            ],
            "flags": {},
            "group_id": null
        },
        {
            "label": "wz3-l",
            "lineType": "LL",
            "shape_type": "line",
            "points": [
                [
                    1880,
                    708
                ],
                [
                    1822,
                    689
                ]
            ],
            "flags": {},
            "group_id": null
        },
        {
            "label": "wz3",
            "shape_type": "rectangle",
            "points": [
                [
                    2109,
                    1515
                ],
                [
                    2318,
                    1601
                ]
            ],
            "flags": {},
            "group_id": null
        },
        {
            "label": "wz3",
            "shape_type": "rectangle",
            "points": [
                [
                    1670,
                    1407
                ],
                [
                    1879,
                    1492
                ]
            ],
            "flags": {},
            "group_id": null
        },
        {
            "label": "wz3",
            "shape_type": "rectangle",
            "points": [
                [
                    1619,
                    1722
                ],
                [
                    1833,
                    1806
                ]
            ],
            "flags": {},
            "group_id": null
        },
        {
            "label": "wz3-l",
            "lineType": "LL",
            "shape_type": "line",
            "points": [
                [
                    1888,
                    1790
                ],
                [
                    1810,
                    1781
                ]
            ],
            "flags": {},
            "group_id": null
        },
        {
            "label": "wz3-l",
            "lineType": "LL",
            "shape_type": "line",
            "points": [
                [
                    2185,
                    1577
                ],
                [
                    2131,
                    1621
                ]
            ],
            "flags": {},
            "group_id": null
        },
        {
            "label": "wz3-l",
            "lineType": "LL",
            "shape_type": "line",
            "points": [
                [
                    1839,
                    1468
                ],
                [
                    1878,
                    1507
                ]
            ],
            "flags": {},
            "group_id": null
        },
        {
            "label": "wz3",
            "shape_type": "rectangle",
            "points": [
                [
                    789,
                    1517
                ],
                [
                    933,
                    1554
                ]
            ],
            "flags": {},
            "group_id": null
        },
        {
            "label": "wz3",
            "shape_type": "rectangle",
            "points": [
                [
                    749,
                    2016
                ],
                [
                    959,
                    2051
                ]
            ],
            "flags": {},
            "group_id": null
        },
        {
            "label": "wz1",
            "shape_type": "rectangle",
            "points": [
                [
                    709,
                    2317
                ],
                [
                    894,
                    2364
                ]
            ],
            "flags": {},
            "group_id": null
        },
        {
            "label": "wz1-l",
            "lineType": "LL",
            "shape_type": "line",
            "points": [
                [
                    875,
                    2349
                ],
                [
                    1135,
                    2291
                ]
            ],
            "flags": {},
            "group_id": null
        },
        {
            "label": "wz3-l",
            "lineType": "LL",
            "shape_type": "line",
            "points": [
                [
                    945,
                    2038
                ],
                [
                    1117,
                    2065
                ]
            ],
            "flags": {},
            "group_id": null
        },
        {
            "label": "wz3-l",
            "lineType": "LL",
            "shape_type": "line",
            "points": [
                [
                    909,
                    1531
                ],
                [
                    1099,
                    1595
                ]
            ],
            "flags": {},
            "group_id": null
        }
    ],
    "flags": {},
    "imageData": null,
    "version": "4.5.7"
}