{
    "imageHeight": 2908,
    "imageWidth": 4205,
    "imagePath": "样本6_127_28.png",
    "shapes": [
        {
            "label": "t1",
            "shape_type": "rectangle",
            "points": [
                [
                    3531,
                    77
                ],
                [
                    3617,
                    2034
                ]
            ],
            "flags": {},
            "group_id": null
        },
        {
            "label": "c1",
            "shape_type": "rectangle",
            "points": [
                [
                    3572,
                    76
                ],
                [
                    3576,
                    259
                ]
            ],
            "flags": {},
            "group_id": null
        },
        {
            "label": "d1",
            "shape_type": "rectangle",
            "points": [
                [
                    3359,
                    219
                ],
                [
                    3443,
                    355
                ]
            ],
            "flags": {},
            "group_id": null
        },
        {
            "label": "d1",
            "shape_type": "rectangle",
            "points": [
                [
                    3348,
                    468
                ],
                [
                    3433,
                    605
                ]
            ],
            "flags": {},
            "group_id": null
        },
        {
            "label": "d1",
            "shape_type": "rectangle",
            "points": [
                [
                    3361,
                    705
                ],
                [
                    3444,
                    843
                ]
            ],
            "flags": {},
            "group_id": null
        },
        {
            "label": "d1",
            "shape_type": "rectangle",
            "points": [
                [
                    3365,
                    913
                ],
                [
                    3450,
                    1050
                ]
            ],
            "flags": {},
            "group_id": null
        },
        {
            "label": "d1",
            "shape_type": "rectangle",
            "points": [
                [
                    3721,
                    913
                ],
                [
                    3805,
                    1051
                ]
            ],
            "flags": {},
            "group_id": null
        },
        {
            "label": "d1",
            "shape_type": "rectangle",
            "points": [
                [
                    3715,
                    704
                ],
                [
                    3800,
                    843
                ]
            ],
            "flags": {},
            "group_id": null
        },
        {
            "label": "d1",
            "shape_type": "rectangle",
            "points": [
                [
                    3716,
                    469
                ],
                [
                    3800,
                    607
                ]
            ],
            "flags": {},
            "group_id": null
        },
        {
            "label": "d1",
            "shape_type": "rectangle",
            "points": [
                [
                    3712,
                    218
                ],
                [
                    3796,
                    356
                ]
            ],
            "flags": {},
            "group_id": null
        },
        {
            "label": "h1",
            "shape_type": "rectangle",
            "points": [
                [
                    3897,
                    99
                ],
                [
                    4079,
                    175
                ]
            ],
            "flags": {},
            "group_id": null
        },
        {
            "label": "h1",
            "shape_type": "rectangle",
            "points": [
                [
                    3897,
                    355
                ],
                [
                    4076,
                    431
                ]
            ],
            "flags": {},
            "group_id": null
        },
        {
            "label": "h1",
            "shape_type": "rectangle",
            "points": [
                [
                    3896,
                    554
                ],
                [
                    4076,
                    630
                ]
            ],
            "flags": {},
            "group_id": null
        },
        {
            "label": "h1",
            "shape_type": "rectangle",
            "points": [
                [
                    3897,
                    791
                ],
                [
                    4076,
                    868
                ]
            ],
            "flags": {},
            "group_id": null
        },
        {
            "label": "h1",
            "shape_type": "rectangle",
            "points": [
                [
                    3896,
                    974
                ],
                [
                    4077,
                    1050
                ]
            ],
            "flags": {},
            "group_id": null
        },
        {
            "label": "h1",
            "shape_type": "rectangle",
            "points": [
                [
                    3896,
                    2012
                ],
                [
                    4067,
                    2087
                ]
            ],
            "flags": {},
            "group_id": null
        },
        {
            "label": "v1",
            "shape_type": "rectangle",
            "points": [
                [
                    3492,
                    2228
                ],
                [
                    3824,
                    2321
                ]
            ],
            "flags": {},
            "group_id": null
        },
        {
            "label": "b1",
            "shape_type": "rectangle",
            "points": [
                [
                    2895,
                    1734
                ],
                [
                    3452,
                    2033
                ]
            ],
            "flags": {},
            "group_id": null
        },
        {
            "label": "seven",
            "shape_type": "point",
            "points": [
                [
                    2895,
                    1734
                ]
            ],
            "flags": {},
            "group_id": null
        },
        {
            "label": "eight",
            "shape_type": "point",
            "points": [
                [
                    2912,
                    1735
                ]
            ],
            "flags": {},
            "group_id": null
        },
        {
            "label": "eleven",
            "shape_type": "point",
            "points": [
                [
                    2895,
                    1747
                ]
            ],
            "flags": {},
            "group_id": null
        },
        {
            "label": "eleven",
            "shape_type": "point",
            "points": [
                [
                    2912,
                    1741
                ]
            ],
            "flags": {},
            "group_id": null
        },
        {
            "label": "fifteen",
            "shape_type": "point",
            "points": [
                [
                    2912,
                    1747
                ]
            ],
            "flags": {},
            "group_id": null
        },
        {
            "label": "seven",
            "shape_type": "point",
            "points": [
                [
                    3433,
                    1735
                ]
            ],
            "flags": {},
            "group_id": null
        },
        {
            "label": "eight",
            "shape_type": "point",
            "points": [
                [
                    3451,
                    1735
                ]
            ],
            "flags": {},
            "group_id": null
        },
        {
            "label": "twelve",
            "shape_type": "point",
            "points": [
                [
                    3451,
                    1747
                ]
            ],
            "flags": {},
            "group_id": null
        },
        {
            "label": "fifteen",
            "shape_type": "point",
            "points": [
                [
                    3433,
                    1747
                ]
            ],
            "flags": {},
            "group_id": null
        },
        {
            "label": "eleven",
            "shape_type": "point",
            "points": [
                [
                    3433,
                    1786
                ]
            ],
            "flags": {},
            "group_id": null
        },
        {
            "label": "twentytwo",
            "shape_type": "point",
            "points": [
                [
                    3450,
                    1786
                ]
            ],
            "flags": {},
            "group_id": null
        },
        {
            "label": "twentythere",
            "shape_type": "point",
            "points": [
                [
                    3433,
                    1826
                ]
            ],
            "flags": {},
            "group_id": null
        },
        {
            "label": "twelve",
            "shape_type": "point",
            "points": [
                [
                    3450,
                    1826
                ]
            ],
            "flags": {},
            "group_id": null
        },
        {
            "label": "fourteen",
            "shape_type": "point",
            "points": [
                [
                    3433,
                    2032
                ]
            ],
            "flags": {},
            "group_id": null
        },
        {
            "label": "fourteen",
            "shape_type": "point",
            "points": [
                [
                    3450,
                    2032
                ]
            ],
            "flags": {},
            "group_id": null
        },
        {
            "label": "fourteen",
            "shape_type": "point",
            "points": [
                [
                    2912,
                    2032
                ]
            ],
            "flags": {},
            "group_id": null
        },
        {
            "label": "fourteen",
            "shape_type": "point",
            "points": [
                [
                    2895,
                    2032
                ]
            ],
            "flags": {},
            "group_id": null
        },
        {
            "label": "x1",
            "shape_type": "rectangle",
            "points": [
                [
                    3490,
                    1202
                ],
                [
                    3657,
                    1255
                ]
            ],
            "flags": {},
            "group_id": null
        },
        {
            "label": "p1-1",
            "shape_type": "rectangle",
            "points": [
                [
                    3469,
                    892
                ],
                [
                    3684,
                    1052
                ]
            ],
            "flags": {},
            "group_id": null
        },
        {
            "label": "p1-1",
            "shape_type": "rectangle",
            "points": [
                [
                    3469,
                    703
                ],
                [
                    3684,
                    863
                ]
            ],
            "flags": {},
            "group_id": null
        },
        {
            "label": "p1-1",
            "shape_type": "rectangle",
            "points": [
                [
                    3470,
                    489
                ],
                [
                    3684,
                    648
                ]
            ],
            "flags": {},
            "group_id": null
        },
        {
            "label": "p1-1",
            "shape_type": "rectangle",
            "points": [
                [
                    3469,
                    297
                ],
                [
                    3683,
                    452
                ]
            ],
            "flags": {},
            "group_id": null
        },
        {
            "label": "a1-1",
            "shape_type": "rectangle",
            "points": [
                [
                    3469,
                    304
                ],
                [
                    3502,
                    441
                ]
            ],
            "flags": {},
            "group_id": null
        },
        {
            "label": "a1-2",
            "shape_type": "rectangle",
            "points": [
                [
                    3653,
                    308
                ],
                [
                    3683,
                    439
                ]
            ],
            "flags": {},
            "group_id": null
        },
        {
            "label": "a1-1",
            "shape_type": "rectangle",
            "points": [
                [
                    3470,
                    496
                ],
                [
                    3501,
                    634
                ]
            ],
            "flags": {},
            "group_id": null
        },
        {
            "label": "a1-2",
            "shape_type": "rectangle",
            "points": [
                [
                    3654,
                    501
                ],
                [
                    3684,
                    631
                ]
            ],
            "flags": {},
            "group_id": null
        },
        {
            "label": "a1-1",
            "shape_type": "rectangle",
            "points": [
                [
                    3470,
                    710
                ],
                [
                    3502,
                    847
                ]
            ],
            "flags": {},
            "group_id": null
        },
        {
            "label": "a1-2",
            "shape_type": "rectangle",
            "points": [
                [
                    3654,
                    716
                ],
                [
                    3684,
                    845
                ]
            ],
            "flags": {},
            "group_id": null
        },
        {
            "label": "a1-1",
            "shape_type": "rectangle",
            "points": [
                [
                    3470,
                    900
                ],
                [
                    3502,
                    1038
                ]
            ],
            "flags": {},
            "group_id": null
        },
        {
            "label": "a1-2",
            "shape_type": "rectangle",
            "points": [
                [
                    3653,
                    904
                ],
                [
                    3684,
                    1034
                ]
            ],
            "flags": {},
            "group_id": null
        },
        {
            "label": "g1",
            "shape_type": "rectangle",
            "points": [
                [
                    3503,
                    892
                ],
                [
                    3508,
                    1052
                ]
            ],
            "flags": {},
            "group_id": null
        },
        {
            "label": "g1",
            "shape_type": "rectangle",
            "points": [
                [
                    3641,
                    892
                ],
                [
                    3647,
                    1051
                ]
            ],
            "flags": {},
            "group_id": null
        },
        {
            "label": "g1",
            "shape_type": "rectangle",
            "points": [
                [
                    3502,
                    704
                ],
                [
                    3508,
                    862
                ]
            ],
            "flags": {},
            "group_id": null
        },
        {
            "label": "g1",
            "shape_type": "rectangle",
            "points": [
                [
                    3641,
                    704
                ],
                [
                    3647,
                    863
                ]
            ],
            "flags": {},
            "group_id": null
        },
        {
            "label": "g1",
            "shape_type": "rectangle",
            "points": [
                [
                    3502,
                    489
                ],
                [
                    3509,
                    647
                ]
            ],
            "flags": {},
            "group_id": null
        },
        {
            "label": "g1",
            "shape_type": "rectangle",
            "points": [
                [
                    3641,
                    489
                ],
                [
                    3647,
                    648
                ]
            ],
            "flags": {},
            "group_id": null
        },
        {
            "label": "g1",
            "shape_type": "rectangle",
            "points": [
                [
                    3503,
                    298
                ],
                [
                    3509,
                    452
                ]
            ],
            "flags": {},
            "group_id": null
        },
        {
            "label": "g1",
            "shape_type": "rectangle",
            "points": [
                [
                    3643,
                    298
                ],
                [
                    3647,
                    451
                ]
            ],
            "flags": {},
            "group_id": null
        },
        {
            "label": "vp1-1",
            "shape_type": "rectangle",
            "points": [
                [
                    2399,
                    432
                ],
                [
                    2565,
                    596
                ]
            ],
            "flags": {},
            "group_id": null
        },
        {
            "label": "v1",
            "shape_type": "rectangle",
            "points": [
                [
                    2300,
                    736
                ],
                [
                    2631,
                    828
                ]
            ],
            "flags": {},
            "group_id": null
        },
        {
            "label": "vp1-1",
            "shape_type": "rectangle",
            "points": [
                [
                    2424,
                    1108
                ],
                [
                    2589,
                    1272
                ]
            ],
            "flags": {},
            "group_id": null
        },
        {
            "label": "v1",
            "shape_type": "rectangle",
            "points": [
                [
                    2402,
                    1406
                ],
                [
                    2734,
                    1499
                ]
            ],
            "flags": {},
            "group_id": null
        },
        {
            "label": "v1",
            "shape_type": "rectangle",
            "points": [
                [
                    2901,
                    1399
                ],
                [
                    3233,
                    1492
                ]
            ],
            "flags": {},
            "group_id": null
        },
        {
            "label": "vp1-1",
            "shape_type": "rectangle",
            "points": [
                [
                    2922,
                    1099
                ],
                [
                    3088,
                    1264
                ]
            ],
            "flags": {},
            "group_id": null
        },
        {
            "label": "va1",
            "shape_type": "rectangle",
            "points": [
                [
                    2995,
                    1002
                ],
                [
                    3039,
                    1045
                ]
            ],
            "flags": {},
            "group_id": null
        },
        {
            "label": "va1",
            "shape_type": "rectangle",
            "points": [
                [
                    3115,
                    1246
                ],
                [
                    3159,
                    1286
                ]
            ],
            "flags": {},
            "group_id": null
        },
        {
            "label": "va1",
            "shape_type": "rectangle",
            "points": [
                [
                    2848,
                    1231
                ],
                [
                    2885,
                    1274
                ]
            ],
            "flags": {},
            "group_id": null
        },
        {
            "label": "vp1-1",
            "shape_type": "rectangle",
            "points": [
                [
                    1904,
                    1120
                ],
                [
                    2070,
                    1286
                ]
            ],
            "flags": {},
            "group_id": null
        },
        {
            "label": "va1",
            "shape_type": "rectangle",
            "points": [
                [
                    1972,
                    1026
                ],
                [
                    2013,
                    1060
                ]
            ],
            "flags": {},
            "group_id": null
        },
        {
            "label": "va1",
            "shape_type": "rectangle",
            "points": [
                [
                    1833,
                    1253
                ],
                [
                    1865,
                    1296
                ]
            ],
            "flags": {},
            "group_id": null
        },
        {
            "label": "va1",
            "shape_type": "rectangle",
            "points": [
                [
                    2103,
                    1269
                ],
                [
                    2144,
                    1308
                ]
            ],
            "flags": {},
            "group_id": null
        },
        {
            "label": "v1",
            "shape_type": "rectangle",
            "points": [
                [
                    1860,
                    1419
                ],
                [
                    2190,
                    1510
                ]
            ],
            "flags": {},
            "group_id": null
        },
        {
            "label": "n1",
            "shape_type": "rectangle",
            "points": [
                [
                    1444,
                    269
                ],
                [
                    1878,
                    718
                ]
            ],
            "flags": {},
            "group_id": null
        },
        {
            "label": "vt1",
            "shape_type": "rectangle",
            "points": [
                [
                    1107,
                    676
                ],
                [
                    1193,
                    763
                ]
            ],
            "flags": {},
            "group_id": null
        },
        {
            "label": "van",
            "shape_type": "rectangle",
            "points": [
                [
                    1081,
                    618
                ],
                [
                    1138,
                    662
                ]
            ],
            "flags": {},
            "group_id": null
        },
        {
            "label": "van",
            "shape_type": "rectangle",
            "points": [
                [
                    1215,
                    693
                ],
                [
                    1258,
                    751
                ]
            ],
            "flags": {},
            "group_id": null
        },
        {
            "label": "van",
            "shape_type": "rectangle",
            "points": [
                [
                    1078,
                    773
                ],
                [
                    1136,
                    816
                ]
            ],
            "flags": {},
            "group_id": null
        },
        {
            "label": "vb1",
            "shape_type": "rectangle",
            "points": [
                [
                    456,
                    562
                ],
                [
                    1026,
                    848
                ]
            ],
            "flags": {},
            "group_id": null
        },
        {
            "label": "d1",
            "shape_type": "rectangle",
            "points": [
                [
                    273,
                    987
                ],
                [
                    368,
                    1178
                ]
            ],
            "flags": {},
            "group_id": null
        },
        {
            "label": "d1",
            "shape_type": "rectangle",
            "points": [
                [
                    1195,
                    1006
                ],
                [
                    1291,
                    1176
                ]
            ],
            "flags": {},
            "group_id": null
        },
        {
            "label": "v1",
            "shape_type": "rectangle",
            "points": [
                [
                    623,
                    1222
                ],
                [
                    822,
                    1309
                ]
            ],
            "flags": {},
            "group_id": null
        },
        {
            "label": "three",
            "shape_type": "point",
            "points": [
                [
                    481,
                    979
                ]
            ],
            "flags": {},
            "group_id": null
        },
        {
            "label": "four",
            "shape_type": "point",
            "points": [
                [
                    1001,
                    980
                ]
            ],
            "flags": {},
            "group_id": null
        },
        {
            "label": "one",
            "shape_type": "point",
            "points": [
                [
                    392,
                    825
                ]
            ],
            "flags": {},
            "group_id": null
        },
        {
            "label": "two",
            "shape_type": "point",
            "points": [
                [
                    392,
                    585
                ]
            ],
            "flags": {},
            "group_id": null
        },
        {
            "label": "three",
            "shape_type": "point",
            "points": [
                [
                    1039,
                    483
                ]
            ],
            "flags": {},
            "group_id": null
        },
        {
            "label": "four",
            "shape_type": "point",
            "points": [
                [
                    1102,
                    483
                ]
            ],
            "flags": {},
            "group_id": null
        },
        {
            "label": "seven",
            "shape_type": "point",
            "points": [
                [
                    457,
                    562
                ]
            ],
            "flags": {},
            "group_id": null
        },
        {
            "label": "seven",
            "shape_type": "point",
            "points": [
                [
                    481,
                    585
                ]
            ],
            "flags": {},
            "group_id": null
        },
        {
            "label": "eight",
            "shape_type": "point",
            "points": [
                [
                    1026,
                    562
                ]
            ],
            "flags": {},
            "group_id": null
        },
        {
            "label": "eight",
            "shape_type": "point",
            "points": [
                [
                    1002,
                    585
                ]
            ],
            "flags": {},
            "group_id": null
        },
        {
            "label": "eleven",
            "shape_type": "point",
            "points": [
                [
                    1002,
                    613
                ]
            ],
            "flags": {},
            "group_id": null
        },
        {
            "label": "twentytwo",
            "shape_type": "point",
            "points": [
                [
                    1026,
                    612
                ]
            ],
            "flags": {},
            "group_id": null
        },
        {
            "label": "twentythere",
            "shape_type": "point",
            "points": [
                [
                    1002,
                    652
                ]
            ],
            "flags": {},
            "group_id": null
        },
        {
            "label": "twelve",
            "shape_type": "point",
            "points": [
                [
                    1026,
                    653
                ]
            ],
            "flags": {},
            "group_id": null
        },
        {
            "label": "ten",
            "shape_type": "point",
            "points": [
                [
                    1002,
                    825
                ]
            ],
            "flags": {},
            "group_id": null
        },
        {
            "label": "ten",
            "shape_type": "point",
            "points": [
                [
                    1026,
                    849
                ]
            ],
            "flags": {},
            "group_id": null
        },
        {
            "label": "thirteen",
            "shape_type": "point",
            "points": [
                [
                    951,
                    825
                ]
            ],
            "flags": {},
            "group_id": null
        },
        {
            "label": "nine",
            "shape_type": "point",
            "points": [
                [
                    951,
                    849
                ]
            ],
            "flags": {},
            "group_id": null
        },
        {
            "label": "twelve",
            "shape_type": "point",
            "points": [
                [
                    951,
                    837
                ]
            ],
            "flags": {},
            "group_id": null
        },
        {
            "label": "eleven",
            "shape_type": "point",
            "points": [
                [
                    861,
                    837
                ]
            ],
            "flags": {},
            "group_id": null
        },
        {
            "label": "eight",
            "shape_type": "point",
            "points": [
                [
                    861,
                    825
                ]
            ],
            "flags": {},
            "group_id": null
        },
        {
            "label": "ten",
            "shape_type": "point",
            "points": [
                [
                    861,
                    848
                ]
            ],
            "flags": {},
            "group_id": null
        },
        {
            "label": "nine",
            "shape_type": "point",
            "points": [
                [
                    481,
                    825
                ]
            ],
            "flags": {},
            "group_id": null
        },
        {
            "label": "nine",
            "shape_type": "point",
            "points": [
                [
                    457,
                    848
                ]
            ],
            "flags": {},
            "group_id": null
        },
        {
            "label": "twelve",
            "shape_type": "point",
            "points": [
                [
                    3433,
                    1741
                ]
            ],
            "flags": {},
            "group_id": null
        },
        {
            "label": "btl",
            "shape_type": "rectangle",
            "points": [
                [
                    2348,
                    2568
                ],
                [
                    4154,
                    2873
                ]
            ],
            "flags": {},
            "group_id": null
        },
        {
            "label": "sm",
            "shape_type": "rectangle",
            "points": [
                [
                    1777,
                    1935
                ],
                [
                    3499,
                    2610
                ]
            ],
            "flags": {},
            "group_id": null
        },
        {
            "label": "k1",
            "shape_type": "rectangle",
            "points": [
                [
                    3434,
                    1785
                ],
                [
                    3451,
                    1827
                ]
            ],
            "flags": {},
            "group_id": null
        },
        {
            "label": "wz4",
            "shape_type": "rectangle",
            "points": [
                [
                    3090,
                    1894
                ],
                [
                    3215,
                    1936
                ]
            ],
            "flags": {},
            "group_id": null
        },
        {
            "label": "j1",
            "shape_type": "rectangle",
            "points": [
                [
                    1727,
                    293
                ],
                [
                    1761,
                    336
                ]
            ],
            "flags": {},
            "group_id": null
        },
        {
            "label": "j1",
            "shape_type": "rectangle",
            "points": [
                [
                    1820,
                    312
                ],
                [
                    1877,
                    382
                ]
            ],
            "flags": {},
            "group_id": null
        },
        {
            "label": "j1",
            "shape_type": "rectangle",
            "points": [
                [
                    1764,
                    644
                ],
                [
                    1842,
                    717
                ]
            ],
            "flags": {},
            "group_id": null
        },
        {
            "label": "j1",
            "shape_type": "rectangle",
            "points": [
                [
                    1446,
                    464
                ],
                [
                    1527,
                    541
                ]
            ],
            "flags": {},
            "group_id": null
        },
        {
            "label": "wz2",
            "shape_type": "rectangle",
            "points": [
                [
                    1025,
                    405
                ],
                [
                    1118,
                    450
                ]
            ],
            "flags": {},
            "group_id": null
        },
        {
            "label": "x2",
            "shape_type": "rectangle",
            "points": [
                [
                    1022,
                    402
                ],
                [
                    1123,
                    492
                ]
            ],
            "flags": {},
            "group_id": null
        },
        {
            "label": "wz4",
            "shape_type": "rectangle",
            "points": [
                [
                    700,
                    655
                ],
                [
                    861,
                    708
                ]
            ],
            "flags": {},
            "group_id": null
        },
        {
            "label": "k1",
            "shape_type": "rectangle",
            "points": [
                [
                    1000,
                    613
                ],
                [
                    1027,
                    652
                ]
            ],
            "flags": {},
            "group_id": null
        },
        {
            "label": "x2",
            "shape_type": "rectangle",
            "points": [
                [
                    334,
                    573
                ],
                [
                    406,
                    835
                ]
            ],
            "flags": {},
            "group_id": null
        },
        {
            "label": "wz2",
            "shape_type": "rectangle",
            "points": [
                [
                    337,
                    633
                ],
                [
                    384,
                    779
                ]
            ],
            "flags": {},
            "group_id": null
        },
        {
            "label": "x2",
            "shape_type": "rectangle",
            "points": [
                [
                    471,
                    926
                ],
                [
                    1017,
                    997
                ]
            ],
            "flags": {},
            "group_id": null
        },
        {
            "label": "wz2",
            "shape_type": "rectangle",
            "points": [
                [
                    669,
                    928
                ],
                [
                    813,
                    970
                ]
            ],
            "flags": {},
            "group_id": null
        },
        {
            "label": "mask",
            "lineType": [
                "LLLLLLLLLLLLLLLLLLLLLLLLLLLLLLLLLLLLLLLLLLLLLLLLLLLLLLLLLLLLLL"
            ],
            "shape_type": "polygon",
            "points": [
                [
                    3461,
                    1349
                ],
                [
                    3461,
                    1176
                ],
                [
                    3443,
                    1096
                ],
                [
                    3328,
                    1077
                ],
                [
                    3337,
                    871
                ],
                [
                    3330,
                    745
                ],
                [
                    3330,
                    613
                ],
                [
                    3108,
                    640
                ],
                [
                    3070,
                    611
                ],
                [
                    3070,
                    526
                ],
                [
                    3119,
                    372
                ],
                [
                    3203,
                    295
                ],
                [
                    3505,
                    106
                ],
                [
                    3536,
                    65
                ],
                [
                    3642,
                    63
                ],
                [
                    3830,
                    67
                ],
                [
                    4031,
                    69
                ],
                [
                    4110,
                    81
                ],
                [
                    4104,
                    175
                ],
                [
                    4104,
                    313
                ],
                [
                    4111,
                    431
                ],
                [
                    4120,
                    638
                ],
                [
                    4116,
                    962
                ],
                [
                    4098,
                    1037
                ],
                [
                    3938,
                    1112
                ],
                [
                    3784,
                    1121
                ],
                [
                    3733,
                    1139
                ],
                [
                    3673,
                    1173
                ],
                [
                    3679,
                    1308
                ],
                [
                    3682,
                    1603
                ],
                [
                    3673,
                    1718
                ],
                [
                    3683,
                    1852
                ],
                [
                    3689,
                    2036
                ],
                [
                    3842,
                    2015
                ],
                [
                    3889,
                    1998
                ],
                [
                    4040,
                    2006
                ],
                [
                    4103,
                    2028
                ],
                [
                    4102,
                    2072
                ],
                [
                    4084,
                    2113
                ],
                [
                    3973,
                    2132
                ],
                [
                    3869,
                    2135
                ],
                [
                    3870,
                    2230
                ],
                [
                    3868,
                    2295
                ],
                [
                    3821,
                    2339
                ],
                [
                    3594,
                    2357
                ],
                [
                    3465,
                    2357
                ],
                [
                    3398,
                    2316
                ],
                [
                    3461,
                    2292
                ],
                [
                    3522,
                    2285
                ],
                [
                    3529,
                    2248
                ],
                [
                    3530,
                    2172
                ],
                [
                    3486,
                    2133
                ],
                [
                    3316,
                    2133
                ],
                [
                    3083,
                    2149
                ],
                [
                    2774,
                    2132
                ],
                [
                    2753,
                    2093
                ],
                [
                    2809,
                    1823
                ],
                [
                    2850,
                    1690
                ],
                [
                    3049,
                    1688
                ],
                [
                    3226,
                    1682
                ],
                [
                    3458,
                    1509
                ],
                [
                    3461,
                    1349
                ]
            ],
            "flags": {},
            "group_id": null
        },
        {
            "label": "mask",
            "lineType": [
                "LLLLLLLLLLLLLLLLLLLLLLLLLLLLLLL"
            ],
            "shape_type": "polygon",
            "points": [
                [
                    1764,
                    1932
                ],
                [
                    2111,
                    1926
                ],
                [
                    2156,
                    1972
                ],
                [
                    2168,
                    1986
                ],
                [
                    2729,
                    1998
                ],
                [
                    2731,
                    2033
                ],
                [
                    2724,
                    2071
                ],
                [
                    2638,
                    2085
                ],
                [
                    2583,
                    2101
                ],
                [
                    2560,
                    2132
                ],
                [
                    2551,
                    2184
                ],
                [
                    2556,
                    2212
                ],
                [
                    3135,
                    2196
                ],
                [
                    3441,
                    2197
                ],
                [
                    3525,
                    2203
                ],
                [
                    3518,
                    2247
                ],
                [
                    3518,
                    2270
                ],
                [
                    3496,
                    2273
                ],
                [
                    3287,
                    2313
                ],
                [
                    3054,
                    2304
                ],
                [
                    3001,
                    2329
                ],
                [
                    3011,
                    2395
                ],
                [
                    3105,
                    2513
                ],
                [
                    3089,
                    2546
                ],
                [
                    3052,
                    2560
                ],
                [
                    2303,
                    2561
                ],
                [
                    2299,
                    2610
                ],
                [
                    2273,
                    2628
                ],
                [
                    2064,
                    2642
                ],
                [
                    1791,
                    2638
                ],
                [
                    1764,
                    1932
                ]
            ],
            "flags": {},
            "group_id": null
        },
        {
            "label": "mask",
            "lineType": [
                "LLLLL"
            ],
            "shape_type": "polygon",
            "points": [
                [
                    2348,
                    2568
                ],
                [
                    2345,
                    2871
                ],
                [
                    4151,
                    2871
                ],
                [
                    4151,
                    2564
                ],
                [
                    2348,
                    2568
                ]
            ],
            "flags": {},
            "group_id": null
        },
        {
            "label": "mask",
            "lineType": [
                "LLLLLLLLLLLLLLLLLLLLLLLLLLLLLL"
            ],
            "shape_type": "polygon",
            "points": [
                [
                    2877,
                    1501
                ],
                [
                    3038,
                    1513
                ],
                [
                    3240,
                    1522
                ],
                [
                    3250,
                    1485
                ],
                [
                    3253,
                    1418
                ],
                [
                    3383,
                    1354
                ],
                [
                    3389,
                    1313
                ],
                [
                    3387,
                    1255
                ],
                [
                    3343,
                    1230
                ],
                [
                    3256,
                    1211
                ],
                [
                    3177,
                    1195
                ],
                [
                    3173,
                    1130
                ],
                [
                    3176,
                    1087
                ],
                [
                    3205,
                    1043
                ],
                [
                    3232,
                    992
                ],
                [
                    3233,
                    965
                ],
                [
                    3209,
                    953
                ],
                [
                    3112,
                    952
                ],
                [
                    3032,
                    952
                ],
                [
                    2978,
                    969
                ],
                [
                    2929,
                    1103
                ],
                [
                    2910,
                    1138
                ],
                [
                    2894,
                    1180
                ],
                [
                    2848,
                    1204
                ],
                [
                    2799,
                    1222
                ],
                [
                    2768,
                    1244
                ],
                [
                    2765,
                    1409
                ],
                [
                    2810,
                    1419
                ],
                [
                    2869,
                    1423
                ],
                [
                    2877,
                    1501
                ]
            ],
            "flags": {},
            "group_id": null
        },
        {
            "label": "mask",
            "lineType": [
                "LLLLLLLLLLLLLLLLLLLLLLL"
            ],
            "shape_type": "polygon",
            "points": [
                [
                    2368,
                    1524
                ],
                [
                    2544,
                    1522
                ],
                [
                    2720,
                    1522
                ],
                [
                    2744,
                    1511
                ],
                [
                    2756,
                    1476
                ],
                [
                    2736,
                    1432
                ],
                [
                    2714,
                    1388
                ],
                [
                    2702,
                    1358
                ],
                [
                    2677,
                    1289
                ],
                [
                    2677,
                    1231
                ],
                [
                    2607,
                    1071
                ],
                [
                    2579,
                    1017
                ],
                [
                    2512,
                    996
                ],
                [
                    2474,
                    1009
                ],
                [
                    2442,
                    1067
                ],
                [
                    2403,
                    1106
                ],
                [
                    2383,
                    1163
                ],
                [
                    2368,
                    1214
                ],
                [
                    2345,
                    1239
                ],
                [
                    2353,
                    1281
                ],
                [
                    2378,
                    1332
                ],
                [
                    2402,
                    1371
                ],
                [
                    2368,
                    1524
                ]
            ],
            "flags": {},
            "group_id": null
        },
        {
            "label": "mask",
            "lineType": [
                "LLLLLLLLLLLLLLLLLLLLLLLLLLLLLLLLLL"
            ],
            "shape_type": "polygon",
            "points": [
                [
                    1826,
                    1539
                ],
                [
                    2002,
                    1533
                ],
                [
                    2184,
                    1533
                ],
                [
                    2227,
                    1515
                ],
                [
                    2210,
                    1452
                ],
                [
                    2189,
                    1398
                ],
                [
                    2283,
                    1384
                ],
                [
                    2332,
                    1358
                ],
                [
                    2336,
                    1329
                ],
                [
                    2330,
                    1301
                ],
                [
                    2315,
                    1277
                ],
                [
                    2285,
                    1261
                ],
                [
                    2184,
                    1244
                ],
                [
                    2164,
                    1199
                ],
                [
                    2163,
                    1157
                ],
                [
                    2189,
                    1110
                ],
                [
                    2232,
                    1033
                ],
                [
                    2224,
                    960
                ],
                [
                    2181,
                    939
                ],
                [
                    2102,
                    937
                ],
                [
                    1997,
                    937
                ],
                [
                    1894,
                    1170
                ],
                [
                    1864,
                    1222
                ],
                [
                    1802,
                    1223
                ],
                [
                    1737,
                    1228
                ],
                [
                    1661,
                    1240
                ],
                [
                    1650,
                    1245
                ],
                [
                    1648,
                    1273
                ],
                [
                    1632,
                    1338
                ],
                [
                    1641,
                    1356
                ],
                [
                    1707,
                    1367
                ],
                [
                    1776,
                    1365
                ],
                [
                    1810,
                    1368
                ],
                [
                    1826,
                    1539
                ]
            ],
            "flags": {},
            "group_id": null
        },
        {
            "label": "mask",
            "lineType": [
                "LLLLLLLLLLLLLL"
            ],
            "shape_type": "polygon",
            "points": [
                [
                    2265,
                    851
                ],
                [
                    2453,
                    852
                ],
                [
                    2647,
                    854
                ],
                [
                    2667,
                    836
                ],
                [
                    2670,
                    783
                ],
                [
                    2664,
                    582
                ],
                [
                    2649,
                    514
                ],
                [
                    2605,
                    422
                ],
                [
                    2547,
                    359
                ],
                [
                    2500,
                    331
                ],
                [
                    2458,
                    333
                ],
                [
                    2304,
                    603
                ],
                [
                    2287,
                    720
                ],
                [
                    2265,
                    851
                ]
            ],
            "flags": {},
            "group_id": null
        },
        {
            "label": "mask",
            "lineType": [
                "LLLLLLLLLLLLLLLLLLLLLLL"
            ],
            "shape_type": "polygon",
            "points": [
                [
                    1540,
                    815
                ],
                [
                    1540,
                    815
                ],
                [
                    1663,
                    836
                ],
                [
                    1814,
                    838
                ],
                [
                    1838,
                    783
                ],
                [
                    1873,
                    724
                ],
                [
                    1872,
                    671
                ],
                [
                    1851,
                    515
                ],
                [
                    1863,
                    455
                ],
                [
                    1910,
                    353
                ],
                [
                    1905,
                    304
                ],
                [
                    1863,
                    289
                ],
                [
                    1749,
                    267
                ],
                [
                    1680,
                    250
                ],
                [
                    1594,
                    260
                ],
                [
                    1553,
                    343
                ],
                [
                    1556,
                    408
                ],
                [
                    1470,
                    420
                ],
                [
                    1429,
                    435
                ],
                [
                    1426,
                    476
                ],
                [
                    1423,
                    521
                ],
                [
                    1428,
                    566
                ],
                [
                    1540,
                    815
                ]
            ],
            "flags": {},
            "group_id": null
        },
        {
            "label": "mask",
            "lineType": [
                "LLLLLLLLLLLLLLLLLLLLLLLLLLLLLLL"
            ],
            "shape_type": "polygon",
            "points": [
                [
                    594,
                    1322
                ],
                [
                    814,
                    1340
                ],
                [
                    851,
                    1302
                ],
                [
                    869,
                    1201
                ],
                [
                    969,
                    1187
                ],
                [
                    1141,
                    1202
                ],
                [
                    1293,
                    1203
                ],
                [
                    1318,
                    1095
                ],
                [
                    1310,
                    1021
                ],
                [
                    1291,
                    852
                ],
                [
                    1278,
                    759
                ],
                [
                    1290,
                    683
                ],
                [
                    1269,
                    520
                ],
                [
                    1224,
                    429
                ],
                [
                    1136,
                    395
                ],
                [
                    1025,
                    377
                ],
                [
                    825,
                    420
                ],
                [
                    618,
                    453
                ],
                [
                    363,
                    463
                ],
                [
                    328,
                    513
                ],
                [
                    305,
                    595
                ],
                [
                    305,
                    830
                ],
                [
                    274,
                    953
                ],
                [
                    258,
                    1007
                ],
                [
                    258,
                    1069
                ],
                [
                    266,
                    1149
                ],
                [
                    264,
                    1197
                ],
                [
                    348,
                    1232
                ],
                [
                    448,
                    1218
                ],
                [
                    458,
                    1218
                ],
                [
                    594,
                    1322
                ]
            ],
            "flags": {},
            "group_id": null
        },
        {
            "label": "mask",
            "lineType": [
                "LLLLLLLL"
            ],
            "shape_type": "polygon",
            "points": [
                [
                    284,
                    1864
                ],
                [
                    871,
                    1811
                ],
                [
                    1124,
                    1820
                ],
                [
                    1144,
                    1856
                ],
                [
                    1743,
                    1857
                ],
                [
                    1743,
                    2805
                ],
                [
                    308,
                    2803
                ],
                [
                    284,
                    1864
                ]
            ],
            "flags": {},
            "group_id": null
        },
        {
            "label": "Ns",
            "shape_type": "point",
            "points": [
                [
                    1705,
                    509
                ]
            ],
            "flags": {},
            "group_id": null
        },
        {
            "label": "Ne",
            "shape_type": "point",
            "points": [
                [
                    1705,
                    330
                ]
            ],
            "flags": {},
            "group_id": null
        },
        {
            "label": "wlb",
            "shape_type": "rectangle",
            "points": [
                [
                    329,
                    1833
                ],
                [
                    1730,
                    2777
                ]
            ],
            "flags": {},
            "group_id": null
        },
        {
            "label": "wz3",
            "shape_type": "rectangle",
            "points": [
                [
                    3136,
                    380
                ],
                [
                    3236,
                    414
                ]
            ],
            "flags": {},
            "group_id": null
        },
        {
            "label": "wz3",
            "shape_type": "rectangle",
            "points": [
                [
                    3092,
                    566
                ],
                [
                    3305,
                    601
                ]
            ],
            "flags": {},
            "group_id": null
        },
        {
            "label": "wz3-l",
            "lineType": "LL",
            "shape_type": "line",
            "points": [
                [
                    3215,
                    393
                ],
                [
                    3490,
                    385
                ]
            ],
            "flags": {},
            "group_id": null
        },
        {
            "label": "wz3-l",
            "lineType": "LL",
            "shape_type": "line",
            "points": [
                [
                    3257,
                    579
                ],
                [
                    3491,
                    577
                ]
            ],
            "flags": {},
            "group_id": null
        },
        {
            "label": "wz1-l",
            "lineType": "LL",
            "shape_type": "line",
            "points": [
                [
                    3511,
                    1295
                ],
                [
                    3583,
                    1361
                ]
            ],
            "flags": {},
            "group_id": null
        },
        {
            "label": "wz1",
            "shape_type": "rectangle",
            "points": [
                [
                    3499,
                    1281
                ],
                [
                    3524,
                    1313
                ]
            ],
            "flags": {},
            "group_id": null
        },
        {
            "label": "wz3",
            "shape_type": "rectangle",
            "points": [
                [
                    3076,
                    970
                ],
                [
                    3215,
                    1036
                ]
            ],
            "flags": {},
            "group_id": null
        },
        {
            "label": "wz3",
            "shape_type": "rectangle",
            "points": [
                [
                    3217,
                    1248
                ],
                [
                    3356,
                    1309
                ]
            ],
            "flags": {},
            "group_id": null
        },
        {
            "label": "wz3",
            "shape_type": "rectangle",
            "points": [
                [
                    2775,
                    1319
                ],
                [
                    2915,
                    1380
                ]
            ],
            "flags": {},
            "group_id": null
        },
        {
            "label": "wz3",
            "shape_type": "rectangle",
            "points": [
                [
                    2150,
                    1283
                ],
                [
                    2318,
                    1352
                ]
            ],
            "flags": {},
            "group_id": null
        },
        {
            "label": "wz3",
            "shape_type": "rectangle",
            "points": [
                [
                    1658,
                    1265
                ],
                [
                    1829,
                    1333
                ]
            ],
            "flags": {},
            "group_id": null
        },
        {
            "label": "wz3",
            "shape_type": "rectangle",
            "points": [
                [
                    2016,
                    951
                ],
                [
                    2184,
                    1022
                ]
            ],
            "flags": {},
            "group_id": null
        },
        {
            "label": "wz1",
            "shape_type": "rectangle",
            "points": [
                [
                    2143,
                    1044
                ],
                [
                    2170,
                    1078
                ]
            ],
            "flags": {},
            "group_id": null
        },
        {
            "label": "wz3-l",
            "lineType": "LL",
            "shape_type": "line",
            "points": [
                [
                    3019,
                    1029
                ],
                [
                    3136,
                    992
                ]
            ],
            "flags": {},
            "group_id": null
        },
        {
            "label": "wz3-l",
            "lineType": "LL",
            "shape_type": "line",
            "points": [
                [
                    3139,
                    1268
                ],
                [
                    3268,
                    1274
                ]
            ],
            "flags": {},
            "group_id": null
        },
        {
            "label": "wz3-l",
            "lineType": "LL",
            "shape_type": "line",
            "points": [
                [
                    2860,
                    1253
                ],
                [
                    2842,
                    1347
                ]
            ],
            "flags": {},
            "group_id": null
        },
        {
            "label": "wz3-l",
            "lineType": "LL",
            "shape_type": "line",
            "points": [
                [
                    2177,
                    1314
                ],
                [
                    2121,
                    1291
                ]
            ],
            "flags": {},
            "group_id": null
        },
        {
            "label": "wz3-l",
            "lineType": "LL",
            "shape_type": "line",
            "points": [
                [
                    1992,
                    1033
                ],
                [
                    2061,
                    983
                ]
            ],
            "flags": {},
            "group_id": null
        },
        {
            "label": "wz3-l",
            "lineType": "LL",
            "shape_type": "line",
            "points": [
                [
                    1843,
                    1276
                ],
                [
                    1786,
                    1299
                ]
            ],
            "flags": {},
            "group_id": null
        },
        {
            "label": "wz3-l",
            "lineType": "LL",
            "shape_type": "line",
            "points": [
                [
                    1646,
                    804
                ],
                [
                    1648,
                    682
                ]
            ],
            "flags": {},
            "group_id": null
        },
        {
            "label": "wz3",
            "shape_type": "rectangle",
            "points": [
                [
                    1576,
                    784
                ],
                [
                    1734,
                    818
                ]
            ],
            "flags": {},
            "group_id": null
        },
        {
            "label": "wz1-l",
            "lineType": "LL",
            "shape_type": "line",
            "points": [
                [
                    2160,
                    1064
                ],
                [
                    1994,
                    1120
                ]
            ],
            "flags": {},
            "group_id": null
        },
        {
            "label": "wz1-l",
            "lineType": "LL",
            "shape_type": "line",
            "points": [
                [
                    2149,
                    1070
                ],
                [
                    1897,
                    1256
                ]
            ],
            "flags": {},
            "group_id": null
        },
        {
            "label": "wz1-l",
            "lineType": "LL",
            "shape_type": "line",
            "points": [
                [
                    2160,
                    1068
                ],
                [
                    2080,
                    1234
                ]
            ],
            "flags": {},
            "group_id": null
        },
        {
            "label": "wz3",
            "shape_type": "rectangle",
            "points": [
                [
                    3444,
                    452
                ],
                [
                    3487,
                    482
                ]
            ],
            "flags": {},
            "group_id": null
        },
        {
            "label": "wz3",
            "shape_type": "rectangle",
            "points": [
                [
                    3651,
                    454
                ],
                [
                    3700,
                    484
                ]
            ],
            "flags": {},
            "group_id": null
        },
        {
            "label": "wz3-l",
            "lineType": "LL",
            "shape_type": "line",
            "points": [
                [
                    3470,
                    473
                ],
                [
                    3480,
                    504
                ]
            ],
            "flags": {},
            "group_id": null
        },
        {
            "label": "wz3-l",
            "lineType": "LL",
            "shape_type": "line",
            "points": [
                [
                    3686,
                    465
                ],
                [
                    3677,
                    505
                ]
            ],
            "flags": {},
            "group_id": null
        }
    ],
    "flags": {},
    "imageData": null,
    "version": "4.5.7"
}