{
    "imageHeight": 2908,
    "imageWidth": 4205,
    "imagePath": "样本4_96_66.png",
    "shapes": [
        {
            "label": "vt1",
            "shape_type": "rectangle",
            "points": [
                [
                    587,
                    389
                ],
                [
                    658,
                    470
                ]
            ],
            "flags": {},
            "group_id": null
        },
        {
            "label": "vb1",
            "shape_type": "rectangle",
            "points": [
                [
                    707,
                    283
                ],
                [
                    1249,
                    575
                ]
            ],
            "flags": {},
            "group_id": null
        },
        {
            "label": "d1",
            "shape_type": "rectangle",
            "points": [
                [
                    460,
                    618
                ],
                [
                    544,
                    754
                ]
            ],
            "flags": {},
            "group_id": null
        },
        {
            "label": "v1",
            "shape_type": "rectangle",
            "points": [
                [
                    746,
                    743
                ],
                [
                    959,
                    815
                ]
            ],
            "flags": {},
            "group_id": null
        },
        {
            "label": "d1",
            "shape_type": "rectangle",
            "points": [
                [
                    1212,
                    617
                ],
                [
                    1296,
                    755
                ]
            ],
            "flags": {},
            "group_id": null
        },
        {
            "label": "vp1-1",
            "shape_type": "rectangle",
            "points": [
                [
                    1533,
                    870
                ],
                [
                    1641,
                    979
                ]
            ],
            "flags": {},
            "group_id": null
        },
        {
            "label": "va1",
            "shape_type": "rectangle",
            "points": [
                [
                    1515,
                    861
                ],
                [
                    1556,
                    894
                ]
            ],
            "flags": {},
            "group_id": null
        },
        {
            "label": "va1",
            "shape_type": "rectangle",
            "points": [
                [
                    1640,
                    882
                ],
                [
                    1678,
                    924
                ]
            ],
            "flags": {},
            "group_id": null
        },
        {
            "label": "va1",
            "shape_type": "rectangle",
            "points": [
                [
                    1551,
                    980
                ],
                [
                    1588,
                    1019
                ]
            ],
            "flags": {},
            "group_id": null
        },
        {
            "label": "v1",
            "shape_type": "rectangle",
            "points": [
                [
                    1510,
                    1204
                ],
                [
                    1734,
                    1268
                ]
            ],
            "flags": {},
            "group_id": null
        },
        {
            "label": "n1",
            "shape_type": "rectangle",
            "points": [
                [
                    1982,
                    114
                ],
                [
                    2624,
                    488
                ]
            ],
            "flags": {},
            "group_id": null
        },
        {
            "label": "vp1-1",
            "shape_type": "rectangle",
            "points": [
                [
                    2246,
                    759
                ],
                [
                    2355,
                    868
                ]
            ],
            "flags": {},
            "group_id": null
        },
        {
            "label": "va1",
            "shape_type": "rectangle",
            "points": [
                [
                    2351,
                    749
                ],
                [
                    2390,
                    791
                ]
            ],
            "flags": {},
            "group_id": null
        },
        {
            "label": "va1",
            "shape_type": "rectangle",
            "points": [
                [
                    2211,
                    750
                ],
                [
                    2249,
                    792
                ]
            ],
            "flags": {},
            "group_id": null
        },
        {
            "label": "va1",
            "shape_type": "rectangle",
            "points": [
                [
                    2280,
                    873
                ],
                [
                    2322,
                    907
                ]
            ],
            "flags": {},
            "group_id": null
        },
        {
            "label": "v1",
            "shape_type": "rectangle",
            "points": [
                [
                    2188,
                    1050
                ],
                [
                    2413,
                    1114
                ]
            ],
            "flags": {},
            "group_id": null
        },
        {
            "label": "vp1-1",
            "shape_type": "rectangle",
            "points": [
                [
                    2240,
                    1246
                ],
                [
                    2348,
                    1355
                ]
            ],
            "flags": {},
            "group_id": null
        },
        {
            "label": "va1",
            "shape_type": "rectangle",
            "points": [
                [
                    2345,
                    1237
                ],
                [
                    2383,
                    1277
                ]
            ],
            "flags": {},
            "group_id": null
        },
        {
            "label": "va1",
            "shape_type": "rectangle",
            "points": [
                [
                    2204,
                    1237
                ],
                [
                    2243,
                    1278
                ]
            ],
            "flags": {},
            "group_id": null
        },
        {
            "label": "va1",
            "shape_type": "rectangle",
            "points": [
                [
                    2273,
                    1361
                ],
                [
                    2315,
                    1394
                ]
            ],
            "flags": {},
            "group_id": null
        },
        {
            "label": "v1",
            "shape_type": "rectangle",
            "points": [
                [
                    2188,
                    1482
                ],
                [
                    2412,
                    1546
                ]
            ],
            "flags": {},
            "group_id": null
        },
        {
            "label": "vp1-1",
            "shape_type": "rectangle",
            "points": [
                [
                    2270,
                    1714
                ],
                [
                    2378,
                    1822
                ]
            ],
            "flags": {},
            "group_id": null
        },
        {
            "label": "va1",
            "shape_type": "rectangle",
            "points": [
                [
                    2251,
                    1705
                ],
                [
                    2292,
                    1738
                ]
            ],
            "flags": {},
            "group_id": null
        },
        {
            "label": "va1",
            "shape_type": "rectangle",
            "points": [
                [
                    2376,
                    1726
                ],
                [
                    2414,
                    1768
                ]
            ],
            "flags": {},
            "group_id": null
        },
        {
            "label": "va1",
            "shape_type": "rectangle",
            "points": [
                [
                    2287,
                    1824
                ],
                [
                    2325,
                    1863
                ]
            ],
            "flags": {},
            "group_id": null
        },
        {
            "label": "v1",
            "shape_type": "rectangle",
            "points": [
                [
                    2246,
                    2049
                ],
                [
                    2470,
                    2112
                ]
            ],
            "flags": {},
            "group_id": null
        },
        {
            "label": "t1",
            "shape_type": "rectangle",
            "points": [
                [
                    3067,
                    84
                ],
                [
                    3343,
                    2362
                ]
            ],
            "flags": {},
            "group_id": null
        },
        {
            "label": "v1",
            "shape_type": "rectangle",
            "points": [
                [
                    3381,
                    2412
                ],
                [
                    3712,
                    2504
                ]
            ],
            "flags": {},
            "group_id": null
        },
        {
            "label": "h1",
            "shape_type": "rectangle",
            "points": [
                [
                    3932,
                    2297
                ],
                [
                    4064,
                    2361
                ]
            ],
            "flags": {},
            "group_id": null
        },
        {
            "label": "b1",
            "shape_type": "rectangle",
            "points": [
                [
                    3343,
                    2041
                ],
                [
                    3884,
                    2362
                ]
            ],
            "flags": {},
            "group_id": null
        },
        {
            "label": "h1",
            "shape_type": "rectangle",
            "points": [
                [
                    3936,
                    1978
                ],
                [
                    4066,
                    2041
                ]
            ],
            "flags": {},
            "group_id": null
        },
        {
            "label": "x1",
            "shape_type": "rectangle",
            "points": [
                [
                    3081,
                    1311
                ],
                [
                    3367,
                    1357
                ]
            ],
            "flags": {},
            "group_id": null
        },
        {
            "label": "h1",
            "shape_type": "rectangle",
            "points": [
                [
                    3953,
                    1066
                ],
                [
                    4083,
                    1128
                ]
            ],
            "flags": {},
            "group_id": null
        },
        {
            "label": "h1",
            "shape_type": "rectangle",
            "points": [
                [
                    3953,
                    896
                ],
                [
                    4083,
                    958
                ]
            ],
            "flags": {},
            "group_id": null
        },
        {
            "label": "h1",
            "shape_type": "rectangle",
            "points": [
                [
                    3936,
                    673
                ],
                [
                    4068,
                    736
                ]
            ],
            "flags": {},
            "group_id": null
        },
        {
            "label": "h1",
            "shape_type": "rectangle",
            "points": [
                [
                    3935,
                    474
                ],
                [
                    4067,
                    536
                ]
            ],
            "flags": {},
            "group_id": null
        },
        {
            "label": "c1",
            "shape_type": "rectangle",
            "points": [
                [
                    3199,
                    84
                ],
                [
                    3219,
                    340
                ]
            ],
            "flags": {},
            "group_id": null
        },
        {
            "label": "d1",
            "shape_type": "rectangle",
            "points": [
                [
                    3306,
                    283
                ],
                [
                    3390,
                    420
                ]
            ],
            "flags": {},
            "group_id": null
        },
        {
            "label": "d1",
            "shape_type": "rectangle",
            "points": [
                [
                    3039,
                    282
                ],
                [
                    3123,
                    421
                ]
            ],
            "flags": {},
            "group_id": null
        },
        {
            "label": "g1",
            "shape_type": "rectangle",
            "points": [
                [
                    3152,
                    401
                ],
                [
                    3155,
                    549
                ]
            ],
            "flags": {},
            "group_id": null
        },
        {
            "label": "g1",
            "shape_type": "rectangle",
            "points": [
                [
                    3207,
                    382
                ],
                [
                    3212,
                    554
                ]
            ],
            "flags": {},
            "group_id": null
        },
        {
            "label": "g1",
            "shape_type": "rectangle",
            "points": [
                [
                    3265,
                    401
                ],
                [
                    3268,
                    549
                ]
            ],
            "flags": {},
            "group_id": null
        },
        {
            "label": "a1-2",
            "shape_type": "rectangle",
            "points": [
                [
                    3272,
                    417
                ],
                [
                    3297,
                    521
                ]
            ],
            "flags": {},
            "group_id": null
        },
        {
            "label": "a1-3",
            "shape_type": "rectangle",
            "points": [
                [
                    3198,
                    418
                ],
                [
                    3221,
                    523
                ]
            ],
            "flags": {},
            "group_id": null
        },
        {
            "label": "a1-1",
            "shape_type": "rectangle",
            "points": [
                [
                    3124,
                    419
                ],
                [
                    3149,
                    522
                ]
            ],
            "flags": {},
            "group_id": null
        },
        {
            "label": "p1-1",
            "shape_type": "rectangle",
            "points": [
                [
                    3123,
                    381
                ],
                [
                    3298,
                    555
                ]
            ],
            "flags": {},
            "group_id": null
        },
        {
            "label": "g1",
            "shape_type": "rectangle",
            "points": [
                [
                    3150,
                    607
                ],
                [
                    3153,
                    755
                ]
            ],
            "flags": {},
            "group_id": null
        },
        {
            "label": "g1",
            "shape_type": "rectangle",
            "points": [
                [
                    3265,
                    606
                ],
                [
                    3268,
                    754
                ]
            ],
            "flags": {},
            "group_id": null
        },
        {
            "label": "a1-2",
            "shape_type": "rectangle",
            "points": [
                [
                    3272,
                    623
                ],
                [
                    3297,
                    727
                ]
            ],
            "flags": {},
            "group_id": null
        },
        {
            "label": "a1-1",
            "shape_type": "rectangle",
            "points": [
                [
                    3122,
                    625
                ],
                [
                    3147,
                    728
                ]
            ],
            "flags": {},
            "group_id": null
        },
        {
            "label": "p1-1",
            "shape_type": "rectangle",
            "points": [
                [
                    3122,
                    605
                ],
                [
                    3297,
                    755
                ]
            ],
            "flags": {},
            "group_id": null
        },
        {
            "label": "g1",
            "shape_type": "rectangle",
            "points": [
                [
                    3149,
                    817
                ],
                [
                    3153,
                    965
                ]
            ],
            "flags": {},
            "group_id": null
        },
        {
            "label": "g1",
            "shape_type": "rectangle",
            "points": [
                [
                    3263,
                    817
                ],
                [
                    3266,
                    964
                ]
            ],
            "flags": {},
            "group_id": null
        },
        {
            "label": "g1",
            "shape_type": "rectangle",
            "points": [
                [
                    3268,
                    817
                ],
                [
                    3270,
                    965
                ]
            ],
            "flags": {},
            "group_id": null
        },
        {
            "label": "a1-2",
            "shape_type": "rectangle",
            "points": [
                [
                    3270,
                    833
                ],
                [
                    3295,
                    936
                ]
            ],
            "flags": {},
            "group_id": null
        },
        {
            "label": "a1-1",
            "shape_type": "rectangle",
            "points": [
                [
                    3122,
                    835
                ],
                [
                    3145,
                    938
                ]
            ],
            "flags": {},
            "group_id": null
        },
        {
            "label": "a1-3",
            "shape_type": "rectangle",
            "points": [
                [
                    3194,
                    834
                ],
                [
                    3220,
                    938
                ]
            ],
            "flags": {},
            "group_id": null
        },
        {
            "label": "p1-1",
            "shape_type": "rectangle",
            "points": [
                [
                    3121,
                    816
                ],
                [
                    3295,
                    965
                ]
            ],
            "flags": {},
            "group_id": null
        },
        {
            "label": "g1",
            "shape_type": "rectangle",
            "points": [
                [
                    3148,
                    985
                ],
                [
                    3151,
                    1132
                ]
            ],
            "flags": {},
            "group_id": null
        },
        {
            "label": "g1",
            "shape_type": "rectangle",
            "points": [
                [
                    3262,
                    986
                ],
                [
                    3264,
                    1132
                ]
            ],
            "flags": {},
            "group_id": null
        },
        {
            "label": "a1-2",
            "shape_type": "rectangle",
            "points": [
                [
                    3268,
                    1001
                ],
                [
                    3294,
                    1105
                ]
            ],
            "flags": {},
            "group_id": null
        },
        {
            "label": "a1-3",
            "shape_type": "rectangle",
            "points": [
                [
                    3194,
                    1003
                ],
                [
                    3218,
                    1106
                ]
            ],
            "flags": {},
            "group_id": null
        },
        {
            "label": "a1-1",
            "shape_type": "rectangle",
            "points": [
                [
                    3120,
                    1003
                ],
                [
                    3145,
                    1107
                ]
            ],
            "flags": {},
            "group_id": null
        },
        {
            "label": "p1-1",
            "shape_type": "rectangle",
            "points": [
                [
                    3120,
                    984
                ],
                [
                    3294,
                    1133
                ]
            ],
            "flags": {},
            "group_id": null
        },
        {
            "label": "d1",
            "shape_type": "rectangle",
            "points": [
                [
                    3036,
                    963
                ],
                [
                    3120,
                    1101
                ]
            ],
            "flags": {},
            "group_id": null
        },
        {
            "label": "d1",
            "shape_type": "rectangle",
            "points": [
                [
                    3040,
                    763
                ],
                [
                    3123,
                    900
                ]
            ],
            "flags": {},
            "group_id": null
        },
        {
            "label": "d1",
            "shape_type": "rectangle",
            "points": [
                [
                    3040,
                    575
                ],
                [
                    3123,
                    712
                ]
            ],
            "flags": {},
            "group_id": null
        },
        {
            "label": "d1",
            "shape_type": "rectangle",
            "points": [
                [
                    3306,
                    576
                ],
                [
                    3390,
                    712
                ]
            ],
            "flags": {},
            "group_id": null
        },
        {
            "label": "d1",
            "shape_type": "rectangle",
            "points": [
                [
                    3306,
                    763
                ],
                [
                    3389,
                    901
                ]
            ],
            "flags": {},
            "group_id": null
        },
        {
            "label": "d1",
            "shape_type": "rectangle",
            "points": [
                [
                    3302,
                    962
                ],
                [
                    3386,
                    1100
                ]
            ],
            "flags": {},
            "group_id": null
        },
        {
            "label": "two",
            "shape_type": "point",
            "points": [
                [
                    480,
                    304
                ]
            ],
            "flags": {},
            "group_id": null
        },
        {
            "label": "one",
            "shape_type": "point",
            "points": [
                [
                    480,
                    555
                ]
            ],
            "flags": {},
            "group_id": null
        },
        {
            "label": "three",
            "shape_type": "point",
            "points": [
                [
                    527,
                    621
                ]
            ],
            "flags": {},
            "group_id": null
        },
        {
            "label": "five",
            "shape_type": "point",
            "points": [
                [
                    707,
                    621
                ]
            ],
            "flags": {},
            "group_id": null
        },
        {
            "label": "five",
            "shape_type": "point",
            "points": [
                [
                    729,
                    622
                ]
            ],
            "flags": {},
            "group_id": null
        },
        {
            "label": "four",
            "shape_type": "point",
            "points": [
                [
                    1228,
                    621
                ]
            ],
            "flags": {},
            "group_id": null
        },
        {
            "label": "eight",
            "shape_type": "point",
            "points": [
                [
                    1228,
                    304
                ]
            ],
            "flags": {},
            "group_id": null
        },
        {
            "label": "eight",
            "shape_type": "point",
            "points": [
                [
                    1248,
                    285
                ]
            ],
            "flags": {},
            "group_id": null
        },
        {
            "label": "thirteen",
            "shape_type": "point",
            "points": [
                [
                    708,
                    284
                ]
            ],
            "flags": {},
            "group_id": null
        },
        {
            "label": "seven",
            "shape_type": "point",
            "points": [
                [
                    728,
                    304
                ]
            ],
            "flags": {},
            "group_id": null
        },
        {
            "label": "twentytwo",
            "shape_type": "point",
            "points": [
                [
                    728,
                    435
                ]
            ],
            "flags": {},
            "group_id": null
        },
        {
            "label": "twentythere",
            "shape_type": "point",
            "points": [
                [
                    708,
                    485
                ]
            ],
            "flags": {},
            "group_id": null
        },
        {
            "label": "eleven",
            "shape_type": "point",
            "points": [
                [
                    708,
                    435
                ]
            ],
            "flags": {},
            "group_id": null
        },
        {
            "label": "twelve",
            "shape_type": "point",
            "points": [
                [
                    728,
                    485
                ]
            ],
            "flags": {},
            "group_id": null
        },
        {
            "label": "nine",
            "shape_type": "point",
            "points": [
                [
                    728,
                    555
                ]
            ],
            "flags": {},
            "group_id": null
        },
        {
            "label": "fourteen",
            "shape_type": "point",
            "points": [
                [
                    708,
                    575
                ]
            ],
            "flags": {},
            "group_id": null
        },
        {
            "label": "nine",
            "shape_type": "point",
            "points": [
                [
                    1228,
                    418
                ]
            ],
            "flags": {},
            "group_id": null
        },
        {
            "label": "ten",
            "shape_type": "point",
            "points": [
                [
                    1249,
                    418
                ]
            ],
            "flags": {},
            "group_id": null
        },
        {
            "label": "twentyone",
            "shape_type": "point",
            "points": [
                [
                    1235,
                    417
                ]
            ],
            "flags": {},
            "group_id": null
        },
        {
            "label": "seven",
            "shape_type": "point",
            "points": [
                [
                    1228,
                    497
                ]
            ],
            "flags": {},
            "group_id": null
        },
        {
            "label": "eight",
            "shape_type": "point",
            "points": [
                [
                    1249,
                    497
                ]
            ],
            "flags": {},
            "group_id": null
        },
        {
            "label": "ten",
            "shape_type": "point",
            "points": [
                [
                    1228,
                    555
                ]
            ],
            "flags": {},
            "group_id": null
        },
        {
            "label": "ten",
            "shape_type": "point",
            "points": [
                [
                    1248,
                    575
                ]
            ],
            "flags": {},
            "group_id": null
        },
        {
            "label": "seven",
            "shape_type": "point",
            "points": [
                [
                    3343,
                    2041
                ]
            ],
            "flags": {},
            "group_id": null
        },
        {
            "label": "seven",
            "shape_type": "point",
            "points": [
                [
                    3364,
                    2060
                ]
            ],
            "flags": {},
            "group_id": null
        },
        {
            "label": "eight",
            "shape_type": "point",
            "points": [
                [
                    3864,
                    2061
                ]
            ],
            "flags": {},
            "group_id": null
        },
        {
            "label": "eight",
            "shape_type": "point",
            "points": [
                [
                    3884,
                    2041
                ]
            ],
            "flags": {},
            "group_id": null
        },
        {
            "label": "twentytwo",
            "shape_type": "point",
            "points": [
                [
                    3343,
                    2157
                ]
            ],
            "flags": {},
            "group_id": null
        },
        {
            "label": "twentythere",
            "shape_type": "point",
            "points": [
                [
                    3363,
                    2198
                ]
            ],
            "flags": {},
            "group_id": null
        },
        {
            "label": "twelve",
            "shape_type": "point",
            "points": [
                [
                    3363,
                    2157
                ]
            ],
            "flags": {},
            "group_id": null
        },
        {
            "label": "fifteen",
            "shape_type": "point",
            "points": [
                [
                    3343,
                    2197
                ]
            ],
            "flags": {},
            "group_id": null
        },
        {
            "label": "fourteen",
            "shape_type": "point",
            "points": [
                [
                    3343,
                    2361
                ]
            ],
            "flags": {},
            "group_id": null
        },
        {
            "label": "fourteen",
            "shape_type": "point",
            "points": [
                [
                    3363,
                    2361
                ]
            ],
            "flags": {},
            "group_id": null
        },
        {
            "label": "fourteen",
            "shape_type": "point",
            "points": [
                [
                    3864,
                    2361
                ]
            ],
            "flags": {},
            "group_id": null
        },
        {
            "label": "fourteen",
            "shape_type": "point",
            "points": [
                [
                    3884,
                    2361
                ]
            ],
            "flags": {},
            "group_id": null
        },
        {
            "label": "btl",
            "shape_type": "rectangle",
            "points": [
                [
                    2348,
                    2568
                ],
                [
                    4150,
                    2869
                ]
            ],
            "flags": {},
            "group_id": null
        },
        {
            "label": "wz4",
            "shape_type": "rectangle",
            "points": [
                [
                    3538,
                    2178
                ],
                [
                    3668,
                    2225
                ]
            ],
            "flags": {},
            "group_id": null
        },
        {
            "label": "k1",
            "shape_type": "rectangle",
            "points": [
                [
                    3344,
                    2157
                ],
                [
                    3363,
                    2199
                ]
            ],
            "flags": {},
            "group_id": null
        },
        {
            "label": "sm",
            "shape_type": "rectangle",
            "points": [
                [
                    326,
                    1043
                ],
                [
                    1971,
                    1800
                ]
            ],
            "flags": {},
            "group_id": null
        },
        {
            "label": "wz4",
            "shape_type": "rectangle",
            "points": [
                [
                    915,
                    382
                ],
                [
                    1046,
                    430
                ]
            ],
            "flags": {},
            "group_id": null
        },
        {
            "label": "k1",
            "shape_type": "rectangle",
            "points": [
                [
                    708,
                    435
                ],
                [
                    728,
                    485
                ]
            ],
            "flags": {},
            "group_id": null
        },
        {
            "label": "k1",
            "shape_type": "rectangle",
            "points": [
                [
                    517,
                    585
                ],
                [
                    1241,
                    633
                ]
            ],
            "flags": {},
            "group_id": null
        },
        {
            "label": "wz2",
            "shape_type": "rectangle",
            "points": [
                [
                    929,
                    586
                ],
                [
                    1025,
                    615
                ]
            ],
            "flags": {},
            "group_id": null
        },
        {
            "label": "wz2",
            "shape_type": "rectangle",
            "points": [
                [
                    573,
                    585
                ],
                [
                    661,
                    615
                ]
            ],
            "flags": {},
            "group_id": null
        },
        {
            "label": "x2",
            "shape_type": "rectangle",
            "points": [
                [
                    441,
                    292
                ],
                [
                    490,
                    568
                ]
            ],
            "flags": {},
            "group_id": null
        },
        {
            "label": "wz2",
            "shape_type": "rectangle",
            "points": [
                [
                    441,
                    385
                ],
                [
                    476,
                    478
                ]
            ],
            "flags": {},
            "group_id": null
        },
        {
            "label": "j1",
            "shape_type": "rectangle",
            "points": [
                [
                    2444,
                    372
                ],
                [
                    2622,
                    414
                ]
            ],
            "flags": {},
            "group_id": null
        },
        {
            "label": "j1",
            "shape_type": "rectangle",
            "points": [
                [
                    2360,
                    187
                ],
                [
                    2487,
                    238
                ]
            ],
            "flags": {},
            "group_id": null
        },
        {
            "label": "j1",
            "shape_type": "rectangle",
            "points": [
                [
                    2336,
                    114
                ],
                [
                    2373,
                    161
                ]
            ],
            "flags": {},
            "group_id": null
        },
        {
            "label": "j1",
            "shape_type": "rectangle",
            "points": [
                [
                    1984,
                    405
                ],
                [
                    2171,
                    453
                ]
            ],
            "flags": {},
            "group_id": null
        },
        {
            "label": "mask",
            "lineType": [
                "LLLLLLLLLLLLLLLLLLLLLL"
            ],
            "shape_type": "polygon",
            "points": [
                [
                    944,
                    841
                ],
                [
                    992,
                    824
                ],
                [
                    1040,
                    780
                ],
                [
                    1242,
                    760
                ],
                [
                    1292,
                    768
                ],
                [
                    1300,
                    762
                ],
                [
                    1305,
                    750
                ],
                [
                    1308,
                    660
                ],
                [
                    1318,
                    545
                ],
                [
                    1327,
                    386
                ],
                [
                    1303,
                    268
                ],
                [
                    1205,
                    260
                ],
                [
                    963,
                    256
                ],
                [
                    623,
                    252
                ],
                [
                    474,
                    274
                ],
                [
                    434,
                    283
                ],
                [
                    420,
                    338
                ],
                [
                    409,
                    458
                ],
                [
                    424,
                    540
                ],
                [
                    444,
                    787
                ],
                [
                    502,
                    804
                ],
                [
                    944,
                    841
                ]
            ],
            "flags": {},
            "group_id": null
        },
        {
            "label": "mask",
            "lineType": [
                "LLLLLLLLLLLLLLLLLLLL"
            ],
            "shape_type": "polygon",
            "points": [
                [
                    1618,
                    720
                ],
                [
                    1683,
                    726
                ],
                [
                    1773,
                    766
                ],
                [
                    1844,
                    796
                ],
                [
                    1877,
                    821
                ],
                [
                    1893,
                    862
                ],
                [
                    1899,
                    898
                ],
                [
                    1898,
                    928
                ],
                [
                    1877,
                    950
                ],
                [
                    1819,
                    1062
                ],
                [
                    1804,
                    1114
                ],
                [
                    1763,
                    1277
                ],
                [
                    1724,
                    1280
                ],
                [
                    1557,
                    1281
                ],
                [
                    1505,
                    1280
                ],
                [
                    1493,
                    1263
                ],
                [
                    1479,
                    1166
                ],
                [
                    1476,
                    897
                ],
                [
                    1501,
                    724
                ],
                [
                    1618,
                    720
                ]
            ],
            "flags": {},
            "group_id": null
        },
        {
            "label": "mask",
            "lineType": [
                "LLLLLLLLLLLLLLLLLL"
            ],
            "shape_type": "polygon",
            "points": [
                [
                    2446,
                    658
                ],
                [
                    2556,
                    670
                ],
                [
                    2577,
                    693
                ],
                [
                    2587,
                    740
                ],
                [
                    2580,
                    790
                ],
                [
                    2549,
                    823
                ],
                [
                    2447,
                    842
                ],
                [
                    2424,
                    988
                ],
                [
                    2454,
                    1079
                ],
                [
                    2444,
                    1123
                ],
                [
                    2408,
                    1126
                ],
                [
                    2170,
                    1130
                ],
                [
                    2205,
                    877
                ],
                [
                    2037,
                    767
                ],
                [
                    2031,
                    688
                ],
                [
                    2043,
                    660
                ],
                [
                    2134,
                    650
                ],
                [
                    2446,
                    658
                ]
            ],
            "flags": {},
            "group_id": null
        },
        {
            "label": "mask",
            "lineType": [
                "LLLLLLLLLLLLLLLL"
            ],
            "shape_type": "polygon",
            "points": [
                [
                    2320,
                    580
                ],
                [
                    2412,
                    574
                ],
                [
                    2466,
                    509
                ],
                [
                    2612,
                    445
                ],
                [
                    2634,
                    429
                ],
                [
                    2648,
                    369
                ],
                [
                    2637,
                    322
                ],
                [
                    2476,
                    129
                ],
                [
                    2384,
                    100
                ],
                [
                    2200,
                    107
                ],
                [
                    2193,
                    168
                ],
                [
                    2178,
                    310
                ],
                [
                    1961,
                    419
                ],
                [
                    1963,
                    447
                ],
                [
                    2052,
                    521
                ],
                [
                    2320,
                    580
                ]
            ],
            "flags": {},
            "group_id": null
        },
        {
            "label": "mask",
            "lineType": [
                "LLLLLLLLLLLLLLLLLLLLLLLLLLLLLLLLLLLLLLLLLLLLLLLLL"
            ],
            "shape_type": "polygon",
            "points": [
                [
                    3117,
                    97
                ],
                [
                    3204,
                    68
                ],
                [
                    3235,
                    69
                ],
                [
                    3299,
                    111
                ],
                [
                    3402,
                    248
                ],
                [
                    3418,
                    281
                ],
                [
                    4013,
                    454
                ],
                [
                    4073,
                    463
                ],
                [
                    4084,
                    484
                ],
                [
                    4099,
                    711
                ],
                [
                    4106,
                    1094
                ],
                [
                    4091,
                    1206
                ],
                [
                    3443,
                    1180
                ],
                [
                    3368,
                    1181
                ],
                [
                    3414,
                    1528
                ],
                [
                    3468,
                    1910
                ],
                [
                    3634,
                    1902
                ],
                [
                    3951,
                    1910
                ],
                [
                    4082,
                    1949
                ],
                [
                    4091,
                    2018
                ],
                [
                    4096,
                    2304
                ],
                [
                    4086,
                    2413
                ],
                [
                    3715,
                    2430
                ],
                [
                    3728,
                    2496
                ],
                [
                    3728,
                    2516
                ],
                [
                    3372,
                    2518
                ],
                [
                    3362,
                    2484
                ],
                [
                    3013,
                    2400
                ],
                [
                    2864,
                    2403
                ],
                [
                    2841,
                    2372
                ],
                [
                    2837,
                    2349
                ],
                [
                    2976,
                    2289
                ],
                [
                    3092,
                    2273
                ],
                [
                    3134,
                    2255
                ],
                [
                    3042,
                    1685
                ],
                [
                    2817,
                    1608
                ],
                [
                    2812,
                    1561
                ],
                [
                    2832,
                    1528
                ],
                [
                    2949,
                    1509
                ],
                [
                    3008,
                    1354
                ],
                [
                    2968,
                    1235
                ],
                [
                    2911,
                    1164
                ],
                [
                    2667,
                    1119
                ],
                [
                    2667,
                    1058
                ],
                [
                    2666,
                    914
                ],
                [
                    2684,
                    829
                ],
                [
                    2711,
                    604
                ],
                [
                    2792,
                    475
                ],
                [
                    3117,
                    97
                ]
            ],
            "flags": {},
            "group_id": null
        },
        {
            "label": "mask",
            "lineType": [
                "LLLLLLLLLLLLLLLLLLLLLLLL"
            ],
            "shape_type": "polygon",
            "points": [
                [
                    2141,
                    1604
                ],
                [
                    2325,
                    1614
                ],
                [
                    2456,
                    1632
                ],
                [
                    2764,
                    1656
                ],
                [
                    2782,
                    1665
                ],
                [
                    2792,
                    1682
                ],
                [
                    2796,
                    1715
                ],
                [
                    2690,
                    1770
                ],
                [
                    2628,
                    1789
                ],
                [
                    2600,
                    1898
                ],
                [
                    2581,
                    1968
                ],
                [
                    2548,
                    2133
                ],
                [
                    2462,
                    2157
                ],
                [
                    2274,
                    2150
                ],
                [
                    2214,
                    2136
                ],
                [
                    2214,
                    2040
                ],
                [
                    2197,
                    1903
                ],
                [
                    2147,
                    1718
                ],
                [
                    2081,
                    1695
                ],
                [
                    1927,
                    1679
                ],
                [
                    1917,
                    1650
                ],
                [
                    1912,
                    1617
                ],
                [
                    1922,
                    1609
                ],
                [
                    2141,
                    1604
                ]
            ],
            "flags": {},
            "group_id": null
        },
        {
            "label": "mask",
            "lineType": [
                "LLLLLLLLLLLLLLLL"
            ],
            "shape_type": "polygon",
            "points": [
                [
                    2336,
                    1573
                ],
                [
                    2422,
                    1569
                ],
                [
                    2470,
                    1534
                ],
                [
                    2560,
                    1420
                ],
                [
                    2593,
                    1314
                ],
                [
                    2601,
                    1230
                ],
                [
                    2568,
                    1146
                ],
                [
                    2418,
                    1144
                ],
                [
                    2213,
                    1143
                ],
                [
                    2050,
                    1141
                ],
                [
                    2035,
                    1158
                ],
                [
                    2029,
                    1231
                ],
                [
                    2025,
                    1297
                ],
                [
                    2089,
                    1508
                ],
                [
                    2129,
                    1552
                ],
                [
                    2336,
                    1573
                ]
            ],
            "flags": {},
            "group_id": null
        },
        {
            "label": "mask",
            "lineType": [
                "LLLLLLLLLLLLLLLLLLLLLLLLLLLLLLL"
            ],
            "shape_type": "polygon",
            "points": [
                [
                    319,
                    1032
                ],
                [
                    644,
                    1024
                ],
                [
                    696,
                    1051
                ],
                [
                    716,
                    1111
                ],
                [
                    1242,
                    1102
                ],
                [
                    1268,
                    1112
                ],
                [
                    1281,
                    1142
                ],
                [
                    1277,
                    1205
                ],
                [
                    1261,
                    1269
                ],
                [
                    1254,
                    1312
                ],
                [
                    1779,
                    1313
                ],
                [
                    1970,
                    1314
                ],
                [
                    1973,
                    1354
                ],
                [
                    1973,
                    1382
                ],
                [
                    1944,
                    1392
                ],
                [
                    1179,
                    1421
                ],
                [
                    1243,
                    1523
                ],
                [
                    1391,
                    1602
                ],
                [
                    1677,
                    1654
                ],
                [
                    1667,
                    1709
                ],
                [
                    1662,
                    1732
                ],
                [
                    1136,
                    1749
                ],
                [
                    810,
                    1752
                ],
                [
                    809,
                    1792
                ],
                [
                    778,
                    1802
                ],
                [
                    533,
                    1815
                ],
                [
                    385,
                    1808
                ],
                [
                    368,
                    1783
                ],
                [
                    340,
                    1572
                ],
                [
                    328,
                    1246
                ],
                [
                    319,
                    1032
                ]
            ],
            "flags": {},
            "group_id": null
        },
        {
            "label": "mask",
            "lineType": [
                "LLLLLLLLL"
            ],
            "shape_type": "polygon",
            "points": [
                [
                    987,
                    1953
                ],
                [
                    1313,
                    1947
                ],
                [
                    1341,
                    1999
                ],
                [
                    1866,
                    2012
                ],
                [
                    1871,
                    2697
                ],
                [
                    460,
                    2699
                ],
                [
                    462,
                    2019
                ],
                [
                    980,
                    2013
                ],
                [
                    987,
                    1953
                ]
            ],
            "flags": {},
            "group_id": null
        },
        {
            "label": "mask",
            "lineType": [
                "LLLLL"
            ],
            "shape_type": "polygon",
            "points": [
                [
                    2345,
                    2567
                ],
                [
                    2347,
                    2874
                ],
                [
                    4154,
                    2875
                ],
                [
                    4153,
                    2566
                ],
                [
                    2345,
                    2567
                ]
            ],
            "flags": {},
            "group_id": null
        },
        {
            "label": "Ns",
            "shape_type": "point",
            "points": [
                [
                    2302,
                    382
                ]
            ],
            "flags": {},
            "group_id": null
        },
        {
            "label": "Ne",
            "shape_type": "point",
            "points": [
                [
                    2301,
                    201
                ]
            ],
            "flags": {},
            "group_id": null
        },
        {
            "label": "wlb",
            "shape_type": "rectangle",
            "points": [
                [
                    472,
                    1968
                ],
                [
                    1863,
                    2689
                ]
            ],
            "flags": {},
            "group_id": null
        },
        {
            "label": "wz1",
            "shape_type": "rectangle",
            "points": [
                [
                    3591,
                    1922
                ],
                [
                    3757,
                    1978
                ]
            ],
            "flags": {},
            "group_id": null
        },
        {
            "label": "wz1",
            "shape_type": "rectangle",
            "points": [
                [
                    3271,
                    2209
                ],
                [
                    3300,
                    2243
                ]
            ],
            "flags": {},
            "group_id": null
        },
        {
            "label": "wz1-l",
            "lineType": "LL",
            "shape_type": "line",
            "points": [
                [
                    3614,
                    1952
                ],
                [
                    3547,
                    1996
                ]
            ],
            "flags": {},
            "group_id": null
        },
        {
            "label": "wz1-l",
            "lineType": "LL",
            "shape_type": "line",
            "points": [
                [
                    3291,
                    2231
                ],
                [
                    3343,
                    2194
                ]
            ],
            "flags": {},
            "group_id": null
        },
        {
            "label": "wz1",
            "shape_type": "rectangle",
            "points": [
                [
                    2837,
                    1557
                ],
                [
                    3090,
                    1607
                ]
            ],
            "flags": {},
            "group_id": null
        },
        {
            "label": "wz1",
            "shape_type": "rectangle",
            "points": [
                [
                    3284,
                    1517
                ],
                [
                    3304,
                    1544
                ]
            ],
            "flags": {},
            "group_id": null
        },
        {
            "label": "wz1-l",
            "lineType": "LL",
            "shape_type": "line",
            "points": [
                [
                    3294,
                    1538
                ],
                [
                    3211,
                    1583
                ]
            ],
            "flags": {},
            "group_id": null
        },
        {
            "label": "wz1-l",
            "lineType": "LL",
            "shape_type": "line",
            "points": [
                [
                    3045,
                    1585
                ],
                [
                    3177,
                    1690
                ]
            ],
            "flags": {},
            "group_id": null
        },
        {
            "label": "wz3",
            "shape_type": "rectangle",
            "points": [
                [
                    2236,
                    1823
                ],
                [
                    2568,
                    1924
                ]
            ],
            "flags": {},
            "group_id": null
        },
        {
            "label": "wz3",
            "shape_type": "rectangle",
            "points": [
                [
                    2435,
                    1667
                ],
                [
                    2785,
                    1793
                ]
            ],
            "flags": {},
            "group_id": null
        },
        {
            "label": "wz3",
            "shape_type": "rectangle",
            "points": [
                [
                    1926,
                    1617
                ],
                [
                    2397,
                    1696
                ]
            ],
            "flags": {},
            "group_id": null
        },
        {
            "label": "wz3-l",
            "lineType": "LL",
            "shape_type": "line",
            "points": [
                [
                    2292,
                    1678
                ],
                [
                    2260,
                    1713
                ]
            ],
            "flags": {},
            "group_id": null
        },
        {
            "label": "wz3-l",
            "lineType": "LL",
            "shape_type": "line",
            "points": [
                [
                    2464,
                    1748
                ],
                [
                    2399,
                    1747
                ]
            ],
            "flags": {},
            "group_id": null
        },
        {
            "label": "wz3-l",
            "lineType": "LL",
            "shape_type": "line",
            "points": [
                [
                    2371,
                    1879
                ],
                [
                    2306,
                    1849
                ]
            ],
            "flags": {},
            "group_id": null
        },
        {
            "label": "wz3",
            "shape_type": "rectangle",
            "points": [
                [
                    2224,
                    1353
                ],
                [
                    2533,
                    1466
                ]
            ],
            "flags": {},
            "group_id": null
        },
        {
            "label": "wz3",
            "shape_type": "rectangle",
            "points": [
                [
                    2404,
                    1161
                ],
                [
                    2563,
                    1263
                ]
            ],
            "flags": {},
            "group_id": null
        },
        {
            "label": "wz3",
            "shape_type": "rectangle",
            "points": [
                [
                    2037,
                    1152
                ],
                [
                    2227,
                    1257
                ]
            ],
            "flags": {},
            "group_id": null
        },
        {
            "label": "wz3",
            "shape_type": "rectangle",
            "points": [
                [
                    2222,
                    927
                ],
                [
                    2400,
                    1036
                ]
            ],
            "flags": {},
            "group_id": null
        },
        {
            "label": "wz3",
            "shape_type": "rectangle",
            "points": [
                [
                    2412,
                    676
                ],
                [
                    2571,
                    777
                ]
            ],
            "flags": {},
            "group_id": null
        },
        {
            "label": "wz3",
            "shape_type": "rectangle",
            "points": [
                [
                    2049,
                    661
                ],
                [
                    2237,
                    770
                ]
            ],
            "flags": {},
            "group_id": null
        },
        {
            "label": "wz3-l",
            "lineType": "LL",
            "shape_type": "line",
            "points": [
                [
                    2187,
                    731
                ],
                [
                    2229,
                    774
                ]
            ],
            "flags": {},
            "group_id": null
        },
        {
            "label": "wz3-l",
            "lineType": "LL",
            "shape_type": "line",
            "points": [
                [
                    2446,
                    723
                ],
                [
                    2370,
                    767
                ]
            ],
            "flags": {},
            "group_id": null
        },
        {
            "label": "wz3-l",
            "lineType": "LL",
            "shape_type": "line",
            "points": [
                [
                    2291,
                    964
                ],
                [
                    2303,
                    898
                ]
            ],
            "flags": {},
            "group_id": null
        },
        {
            "label": "wz3-l",
            "lineType": "LL",
            "shape_type": "line",
            "points": [
                [
                    2201,
                    1207
                ],
                [
                    2217,
                    1264
                ]
            ],
            "flags": {},
            "group_id": null
        },
        {
            "label": "wz3-l",
            "lineType": "LL",
            "shape_type": "line",
            "points": [
                [
                    2444,
                    1240
                ],
                [
                    2366,
                    1258
                ]
            ],
            "flags": {},
            "group_id": null
        },
        {
            "label": "wz3-l",
            "lineType": "LL",
            "shape_type": "line",
            "points": [
                [
                    2317,
                    1420
                ],
                [
                    2297,
                    1382
                ]
            ],
            "flags": {},
            "group_id": null
        },
        {
            "label": "wz3",
            "shape_type": "rectangle",
            "points": [
                [
                    1609,
                    980
                ],
                [
                    1799,
                    1073
                ]
            ],
            "flags": {},
            "group_id": null
        },
        {
            "label": "wz3",
            "shape_type": "rectangle",
            "points": [
                [
                    1707,
                    827
                ],
                [
                    1888,
                    938
                ]
            ],
            "flags": {},
            "group_id": null
        },
        {
            "label": "wz3",
            "shape_type": "rectangle",
            "points": [
                [
                    1517,
                    736
                ],
                [
                    1662,
                    843
                ]
            ],
            "flags": {},
            "group_id": null
        },
        {
            "label": "wz3-l",
            "lineType": "LL",
            "shape_type": "line",
            "points": [
                [
                    1637,
                    816
                ],
                [
                    1537,
                    867
                ]
            ],
            "flags": {},
            "group_id": null
        },
        {
            "label": "wz3-l",
            "lineType": "LL",
            "shape_type": "line",
            "points": [
                [
                    1765,
                    896
                ],
                [
                    1667,
                    902
                ]
            ],
            "flags": {},
            "group_id": null
        },
        {
            "label": "wz3-l",
            "lineType": "LL",
            "shape_type": "line",
            "points": [
                [
                    1642,
                    1018
                ],
                [
                    1576,
                    1003
                ]
            ],
            "flags": {},
            "group_id": null
        },
        {
            "label": "wz3",
            "shape_type": "rectangle",
            "points": [
                [
                    2274,
                    494
                ],
                [
                    2402,
                    542
                ]
            ],
            "flags": {},
            "group_id": null
        },
        {
            "label": "wz3-l",
            "lineType": "LL",
            "shape_type": "line",
            "points": [
                [
                    2340,
                    515
                ],
                [
                    2302,
                    381
                ]
            ],
            "flags": {},
            "group_id": null
        },
        {
            "label": "wz3",
            "shape_type": "rectangle",
            "points": [
                [
                    2821,
                    467
                ],
                [
                    2955,
                    513
                ]
            ],
            "flags": {},
            "group_id": null
        },
        {
            "label": "wz3",
            "shape_type": "rectangle",
            "points": [
                [
                    2815,
                    638
                ],
                [
                    2952,
                    684
                ]
            ],
            "flags": {},
            "group_id": null
        },
        {
            "label": "wz3",
            "shape_type": "rectangle",
            "points": [
                [
                    3131,
                    573
                ],
                [
                    3169,
                    599
                ]
            ],
            "flags": {},
            "group_id": null
        },
        {
            "label": "wz3",
            "shape_type": "rectangle",
            "points": [
                [
                    3245,
                    575
                ],
                [
                    3281,
                    601
                ]
            ],
            "flags": {},
            "group_id": null
        },
        {
            "label": "wz1",
            "shape_type": "rectangle",
            "points": [
                [
                    3327,
                    652
                ],
                [
                    3341,
                    677
                ]
            ],
            "flags": {},
            "group_id": null
        },
        {
            "label": "wz1",
            "shape_type": "rectangle",
            "points": [
                [
                    3323,
                    721
                ],
                [
                    3345,
                    757
                ]
            ],
            "flags": {},
            "group_id": null
        },
        {
            "label": "wz3",
            "shape_type": "rectangle",
            "points": [
                [
                    2696,
                    813
                ],
                [
                    3029,
                    859
                ]
            ],
            "flags": {},
            "group_id": null
        },
        {
            "label": "wz3",
            "shape_type": "rectangle",
            "points": [
                [
                    2695,
                    1054
                ],
                [
                    2827,
                    1088
                ]
            ],
            "flags": {},
            "group_id": null
        },
        {
            "label": "wz3-l",
            "lineType": "LL",
            "shape_type": "line",
            "points": [
                [
                    2815,
                    1069
                ],
                [
                    3137,
                    1053
                ]
            ],
            "flags": {},
            "group_id": null
        },
        {
            "label": "wz3-l",
            "lineType": "LL",
            "shape_type": "line",
            "points": [
                [
                    3005,
                    841
                ],
                [
                    3135,
                    865
                ]
            ],
            "flags": {},
            "group_id": null
        },
        {
            "label": "wz1-l",
            "lineType": "LL",
            "shape_type": "line",
            "points": [
                [
                    3333,
                    665
                ],
                [
                    3287,
                    692
                ]
            ],
            "flags": {},
            "group_id": null
        },
        {
            "label": "wz1-l",
            "lineType": "LL",
            "shape_type": "line",
            "points": [
                [
                    3330,
                    738
                ],
                [
                    3285,
                    737
                ]
            ],
            "flags": {},
            "group_id": null
        },
        {
            "label": "wz3-l",
            "lineType": "LL",
            "shape_type": "line",
            "points": [
                [
                    3265,
                    586
                ],
                [
                    3281,
                    633
                ]
            ],
            "flags": {},
            "group_id": null
        },
        {
            "label": "wz3-l",
            "lineType": "LL",
            "shape_type": "line",
            "points": [
                [
                    3147,
                    587
                ],
                [
                    3134,
                    647
                ]
            ],
            "flags": {},
            "group_id": null
        },
        {
            "label": "wz3-l",
            "lineType": "LL",
            "shape_type": "line",
            "points": [
                [
                    2919,
                    668
                ],
                [
                    3133,
                    661
                ]
            ],
            "flags": {},
            "group_id": null
        },
        {
            "label": "wz3-l",
            "lineType": "LL",
            "shape_type": "line",
            "points": [
                [
                    2936,
                    500
                ],
                [
                    3137,
                    469
                ]
            ],
            "flags": {},
            "group_id": null
        }
    ],
    "flags": {},
    "imageData": null,
    "version": "4.5.7"
}