{
    "imageHeight": 2908,
    "imageWidth": 4205,
    "imagePath": "样本5_61_24.png",
    "shapes": [
        {
            "label": "d1",
            "shape_type": "rectangle",
            "points": [
                [
                    663,
                    146
                ],
                [
                    801,
                    230
                ]
            ],
            "flags": {},
            "group_id": null
        },
        {
            "label": "vb1",
            "shape_type": "rectangle",
            "points": [
                [
                    877,
                    226
                ],
                [
                    989,
                    431
                ]
            ],
            "flags": {},
            "group_id": null
        },
        {
            "label": "vt9",
            "shape_type": "rectangle",
            "points": [
                [
                    769,
                    519
                ],
                [
                    1099,
                    849
                ]
            ],
            "flags": {},
            "group_id": null
        },
        {
            "label": "d1",
            "shape_type": "rectangle",
            "points": [
                [
                    664,
                    799
                ],
                [
                    801,
                    883
                ]
            ],
            "flags": {},
            "group_id": null
        },
        {
            "label": "v1",
            "shape_type": "rectangle",
            "points": [
                [
                    804,
                    938
                ],
                [
                    1020,
                    1011
                ]
            ],
            "flags": {},
            "group_id": null
        },
        {
            "label": "n1",
            "shape_type": "rectangle",
            "points": [
                [
                    1437,
                    678
                ],
                [
                    1859,
                    1051
                ]
            ],
            "flags": {},
            "group_id": null
        },
        {
            "label": "vp1-1",
            "shape_type": "rectangle",
            "points": [
                [
                    1850,
                    206
                ],
                [
                    2179,
                    536
                ]
            ],
            "flags": {},
            "group_id": null
        },
        {
            "label": "van",
            "shape_type": "rectangle",
            "points": [
                [
                    2055,
                    247
                ],
                [
                    2106,
                    314
                ]
            ],
            "flags": {},
            "group_id": null
        },
        {
            "label": "van",
            "shape_type": "rectangle",
            "points": [
                [
                    1867,
                    330
                ],
                [
                    1936,
                    380
                ]
            ],
            "flags": {},
            "group_id": null
        },
        {
            "label": "van",
            "shape_type": "rectangle",
            "points": [
                [
                    2028,
                    454
                ],
                [
                    2094,
                    507
                ]
            ],
            "flags": {},
            "group_id": null
        },
        {
            "label": "v1",
            "shape_type": "rectangle",
            "points": [
                [
                    1902,
                    559
                ],
                [
                    2128,
                    623
                ]
            ],
            "flags": {},
            "group_id": null
        },
        {
            "label": "vp1-1",
            "shape_type": "rectangle",
            "points": [
                [
                    2487,
                    206
                ],
                [
                    2815,
                    536
                ]
            ],
            "flags": {},
            "group_id": null
        },
        {
            "label": "van",
            "shape_type": "rectangle",
            "points": [
                [
                    2693,
                    248
                ],
                [
                    2744,
                    314
                ]
            ],
            "flags": {},
            "group_id": null
        },
        {
            "label": "van",
            "shape_type": "rectangle",
            "points": [
                [
                    2506,
                    331
                ],
                [
                    2574,
                    380
                ]
            ],
            "flags": {},
            "group_id": null
        },
        {
            "label": "van",
            "shape_type": "rectangle",
            "points": [
                [
                    2666,
                    454
                ],
                [
                    2732,
                    506
                ]
            ],
            "flags": {},
            "group_id": null
        },
        {
            "label": "v1",
            "shape_type": "rectangle",
            "points": [
                [
                    2551,
                    562
                ],
                [
                    2776,
                    626
                ]
            ],
            "flags": {},
            "group_id": null
        },
        {
            "label": "vp1-1",
            "shape_type": "rectangle",
            "points": [
                [
                    2226,
                    819
                ],
                [
                    2556,
                    1147
                ]
            ],
            "flags": {},
            "group_id": null
        },
        {
            "label": "van",
            "shape_type": "rectangle",
            "points": [
                [
                    2415,
                    850
                ],
                [
                    2482,
                    900
                ]
            ],
            "flags": {},
            "group_id": null
        },
        {
            "label": "van",
            "shape_type": "rectangle",
            "points": [
                [
                    2248,
                    948
                ],
                [
                    2293,
                    1016
                ]
            ],
            "flags": {},
            "group_id": null
        },
        {
            "label": "van",
            "shape_type": "rectangle",
            "points": [
                [
                    2435,
                    1045
                ],
                [
                    2485,
                    1113
                ]
            ],
            "flags": {},
            "group_id": null
        },
        {
            "label": "v1",
            "shape_type": "rectangle",
            "points": [
                [
                    2281,
                    1194
                ],
                [
                    2506,
                    1259
                ]
            ],
            "flags": {},
            "group_id": null
        },
        {
            "label": "vp2-1",
            "shape_type": "rectangle",
            "points": [
                [
                    2333,
                    1570
                ],
                [
                    2448,
                    1686
                ]
            ],
            "flags": {},
            "group_id": null
        },
        {
            "label": "van",
            "shape_type": "rectangle",
            "points": [
                [
                    2433,
                    1492
                ],
                [
                    2482,
                    1561
                ]
            ],
            "flags": {},
            "group_id": null
        },
        {
            "label": "van",
            "shape_type": "rectangle",
            "points": [
                [
                    2240,
                    1589
                ],
                [
                    2299,
                    1641
                ]
            ],
            "flags": {},
            "group_id": null
        },
        {
            "label": "van",
            "shape_type": "rectangle",
            "points": [
                [
                    2408,
                    1716
                ],
                [
                    2476,
                    1766
                ]
            ],
            "flags": {},
            "group_id": null
        },
        {
            "label": "v1",
            "shape_type": "rectangle",
            "points": [
                [
                    2281,
                    1787
                ],
                [
                    2505,
                    1852
                ]
            ],
            "flags": {},
            "group_id": null
        },
        {
            "label": "vp2-1",
            "shape_type": "rectangle",
            "points": [
                [
                    2330,
                    2196
                ],
                [
                    2446,
                    2312
                ]
            ],
            "flags": {},
            "group_id": null
        },
        {
            "label": "van",
            "shape_type": "rectangle",
            "points": [
                [
                    2408,
                    2122
                ],
                [
                    2476,
                    2170
                ]
            ],
            "flags": {},
            "group_id": null
        },
        {
            "label": "van",
            "shape_type": "rectangle",
            "points": [
                [
                    2240,
                    2226
                ],
                [
                    2289,
                    2293
                ]
            ],
            "flags": {},
            "group_id": null
        },
        {
            "label": "van",
            "shape_type": "rectangle",
            "points": [
                [
                    2426,
                    2340
                ],
                [
                    2485,
                    2393
                ]
            ],
            "flags": {},
            "group_id": null
        },
        {
            "label": "v1",
            "shape_type": "rectangle",
            "points": [
                [
                    2286,
                    2413
                ],
                [
                    2509,
                    2477
                ]
            ],
            "flags": {},
            "group_id": null
        },
        {
            "label": "v1",
            "shape_type": "rectangle",
            "points": [
                [
                    3195,
                    2348
                ],
                [
                    3527,
                    2442
                ]
            ],
            "flags": {},
            "group_id": null
        },
        {
            "label": "h1",
            "shape_type": "rectangle",
            "points": [
                [
                    3625,
                    2167
                ],
                [
                    3871,
                    2258
                ]
            ],
            "flags": {},
            "group_id": null
        },
        {
            "label": "b1",
            "shape_type": "rectangle",
            "points": [
                [
                    3000,
                    1973
                ],
                [
                    3216,
                    2258
                ]
            ],
            "flags": {},
            "group_id": null
        },
        {
            "label": "",
            "shape_type": "",
            "points": [],
            "flags": {},
            "group_id": null
        },
        {
            "label": "t9",
            "shape_type": "rectangle",
            "points": [
                [
                    3197,
                    400
                ],
                [
                    3623,
                    2258
                ]
            ],
            "flags": {},
            "group_id": null
        },
        {
            "label": "x1",
            "shape_type": "rectangle",
            "points": [
                [
                    3314,
                    1623
                ],
                [
                    3481,
                    1661
                ]
            ],
            "flags": {},
            "group_id": null
        },
        {
            "label": "c1",
            "shape_type": "rectangle",
            "points": [
                [
                    3407,
                    400
                ],
                [
                    3411,
                    519
                ]
            ],
            "flags": {},
            "group_id": null
        },
        {
            "label": "l1",
            "shape_type": "rectangle",
            "points": [
                [
                    3196,
                    418
                ],
                [
                    3623,
                    538
                ]
            ],
            "flags": {},
            "group_id": null
        },
        {
            "label": "d1",
            "shape_type": "rectangle",
            "points": [
                [
                    3240,
                    541
                ],
                [
                    3324,
                    678
                ]
            ],
            "flags": {},
            "group_id": null
        },
        {
            "label": "d1",
            "shape_type": "rectangle",
            "points": [
                [
                    3224,
                    775
                ],
                [
                    3307,
                    913
                ]
            ],
            "flags": {},
            "group_id": null
        },
        {
            "label": "d1",
            "shape_type": "rectangle",
            "points": [
                [
                    3209,
                    990
                ],
                [
                    3292,
                    1129
                ]
            ],
            "flags": {},
            "group_id": null
        },
        {
            "label": "d1",
            "shape_type": "rectangle",
            "points": [
                [
                    3203,
                    1216
                ],
                [
                    3287,
                    1354
                ]
            ],
            "flags": {},
            "group_id": null
        },
        {
            "label": "d1",
            "shape_type": "rectangle",
            "points": [
                [
                    3203,
                    1412
                ],
                [
                    3287,
                    1549
                ]
            ],
            "flags": {},
            "group_id": null
        },
        {
            "label": "d1",
            "shape_type": "rectangle",
            "points": [
                [
                    3545,
                    1411
                ],
                [
                    3629,
                    1550
                ]
            ],
            "flags": {},
            "group_id": null
        },
        {
            "label": "d1",
            "shape_type": "rectangle",
            "points": [
                [
                    3545,
                    1217
                ],
                [
                    3629,
                    1354
                ]
            ],
            "flags": {},
            "group_id": null
        },
        {
            "label": "d1",
            "shape_type": "rectangle",
            "points": [
                [
                    3541,
                    991
                ],
                [
                    3624,
                    1128
                ]
            ],
            "flags": {},
            "group_id": null
        },
        {
            "label": "d1",
            "shape_type": "rectangle",
            "points": [
                [
                    3526,
                    775
                ],
                [
                    3609,
                    913
                ]
            ],
            "flags": {},
            "group_id": null
        },
        {
            "label": "d1",
            "shape_type": "rectangle",
            "points": [
                [
                    3508,
                    541
                ],
                [
                    3592,
                    679
                ]
            ],
            "flags": {},
            "group_id": null
        },
        {
            "label": "h1",
            "shape_type": "rectangle",
            "points": [
                [
                    3650,
                    504
                ],
                [
                    3904,
                    595
                ]
            ],
            "flags": {},
            "group_id": null
        },
        {
            "label": "h1",
            "shape_type": "rectangle",
            "points": [
                [
                    3650,
                    633
                ],
                [
                    3901,
                    723
                ]
            ],
            "flags": {},
            "group_id": null
        },
        {
            "label": "h1",
            "shape_type": "rectangle",
            "points": [
                [
                    3650,
                    838
                ],
                [
                    3903,
                    930
                ]
            ],
            "flags": {},
            "group_id": null
        },
        {
            "label": "h1",
            "shape_type": "rectangle",
            "points": [
                [
                    3649,
                    1041
                ],
                [
                    3904,
                    1133
                ]
            ],
            "flags": {},
            "group_id": null
        },
        {
            "label": "h1",
            "shape_type": "rectangle",
            "points": [
                [
                    3648,
                    1229
                ],
                [
                    3906,
                    1320
                ]
            ],
            "flags": {},
            "group_id": null
        },
        {
            "label": "h1",
            "shape_type": "rectangle",
            "points": [
                [
                    3649,
                    1423
                ],
                [
                    3896,
                    1515
                ]
            ],
            "flags": {},
            "group_id": null
        },
        {
            "label": "g1",
            "shape_type": "rectangle",
            "points": [
                [
                    3372,
                    603
                ],
                [
                    3376,
                    772
                ]
            ],
            "flags": {},
            "group_id": null
        },
        {
            "label": "g1",
            "shape_type": "rectangle",
            "points": [
                [
                    3406,
                    604
                ],
                [
                    3408,
                    772
                ]
            ],
            "flags": {},
            "group_id": null
        },
        {
            "label": "g1",
            "shape_type": "rectangle",
            "points": [
                [
                    3450,
                    603
                ],
                [
                    3453,
                    773
                ]
            ],
            "flags": {},
            "group_id": null
        },
        {
            "label": "a1-1",
            "shape_type": "rectangle",
            "points": [
                [
                    3343,
                    611
                ],
                [
                    3370,
                    721
                ]
            ],
            "flags": {},
            "group_id": null
        },
        {
            "label": "a1-2",
            "shape_type": "rectangle",
            "points": [
                [
                    3457,
                    611
                ],
                [
                    3483,
                    721
                ]
            ],
            "flags": {},
            "group_id": null
        },
        {
            "label": "p1-1",
            "shape_type": "rectangle",
            "points": [
                [
                    3343,
                    602
                ],
                [
                    3483,
                    773
                ]
            ],
            "flags": {},
            "group_id": null
        },
        {
            "label": "z1",
            "shape_type": "rectangle",
            "points": [
                [
                    3330,
                    594
                ],
                [
                    3494,
                    798
                ]
            ],
            "flags": {},
            "group_id": null
        },
        {
            "label": "z1",
            "shape_type": "rectangle",
            "points": [
                [
                    3330,
                    798
                ],
                [
                    3494,
                    999
                ]
            ],
            "flags": {},
            "group_id": null
        },
        {
            "label": "z1",
            "shape_type": "rectangle",
            "points": [
                [
                    3330,
                    999
                ],
                [
                    3494,
                    1201
                ]
            ],
            "flags": {},
            "group_id": null
        },
        {
            "label": "g1",
            "shape_type": "rectangle",
            "points": [
                [
                    3372,
                    804
                ],
                [
                    3376,
                    974
                ]
            ],
            "flags": {},
            "group_id": null
        },
        {
            "label": "g1",
            "shape_type": "rectangle",
            "points": [
                [
                    3408,
                    804
                ],
                [
                    3412,
                    975
                ]
            ],
            "flags": {},
            "group_id": null
        },
        {
            "label": "g1",
            "shape_type": "rectangle",
            "points": [
                [
                    3450,
                    804
                ],
                [
                    3453,
                    975
                ]
            ],
            "flags": {},
            "group_id": null
        },
        {
            "label": "a1-1",
            "shape_type": "rectangle",
            "points": [
                [
                    3343,
                    813
                ],
                [
                    3370,
                    923
                ]
            ],
            "flags": {},
            "group_id": null
        },
        {
            "label": "a1-2",
            "shape_type": "rectangle",
            "points": [
                [
                    3456,
                    812
                ],
                [
                    3483,
                    923
                ]
            ],
            "flags": {},
            "group_id": null
        },
        {
            "label": "p1-1",
            "shape_type": "rectangle",
            "points": [
                [
                    3342,
                    804
                ],
                [
                    3484,
                    975
                ]
            ],
            "flags": {},
            "group_id": null
        },
        {
            "label": "g1",
            "shape_type": "rectangle",
            "points": [
                [
                    3372,
                    1002
                ],
                [
                    3376,
                    1172
                ]
            ],
            "flags": {},
            "group_id": null
        },
        {
            "label": "g1",
            "shape_type": "rectangle",
            "points": [
                [
                    3449,
                    1002
                ],
                [
                    3453,
                    1172
                ]
            ],
            "flags": {},
            "group_id": null
        },
        {
            "label": "a1-1",
            "shape_type": "rectangle",
            "points": [
                [
                    3343,
                    1011
                ],
                [
                    3369,
                    1121
                ]
            ],
            "flags": {},
            "group_id": null
        },
        {
            "label": "a1-2",
            "shape_type": "rectangle",
            "points": [
                [
                    3456,
                    1011
                ],
                [
                    3482,
                    1121
                ]
            ],
            "flags": {},
            "group_id": null
        },
        {
            "label": "p1-1",
            "shape_type": "rectangle",
            "points": [
                [
                    3343,
                    1001
                ],
                [
                    3483,
                    1172
                ]
            ],
            "flags": {},
            "group_id": null
        },
        {
            "label": "g1",
            "shape_type": "rectangle",
            "points": [
                [
                    3372,
                    1225
                ],
                [
                    3376,
                    1394
                ]
            ],
            "flags": {},
            "group_id": null
        },
        {
            "label": "g1",
            "shape_type": "rectangle",
            "points": [
                [
                    3450,
                    1225
                ],
                [
                    3453,
                    1395
                ]
            ],
            "flags": {},
            "group_id": null
        },
        {
            "label": "a1-1",
            "shape_type": "rectangle",
            "points": [
                [
                    3344,
                    1233
                ],
                [
                    3369,
                    1343
                ]
            ],
            "flags": {},
            "group_id": null
        },
        {
            "label": "a1-2",
            "shape_type": "rectangle",
            "points": [
                [
                    3456,
                    1233
                ],
                [
                    3482,
                    1343
                ]
            ],
            "flags": {},
            "group_id": null
        },
        {
            "label": "p1-1",
            "shape_type": "rectangle",
            "points": [
                [
                    3343,
                    1225
                ],
                [
                    3482,
                    1395
                ]
            ],
            "flags": {},
            "group_id": null
        },
        {
            "label": "g1",
            "shape_type": "rectangle",
            "points": [
                [
                    3372,
                    1419
                ],
                [
                    3376,
                    1589
                ]
            ],
            "flags": {},
            "group_id": null
        },
        {
            "label": "g1",
            "shape_type": "rectangle",
            "points": [
                [
                    3408,
                    1420
                ],
                [
                    3412,
                    1590
                ]
            ],
            "flags": {},
            "group_id": null
        },
        {
            "label": "g1",
            "shape_type": "rectangle",
            "points": [
                [
                    3449,
                    1420
                ],
                [
                    3453,
                    1589
                ]
            ],
            "flags": {},
            "group_id": null
        },
        {
            "label": "a1-1",
            "shape_type": "rectangle",
            "points": [
                [
                    3341,
                    1426
                ],
                [
                    3368,
                    1536
                ]
            ],
            "flags": {},
            "group_id": null
        },
        {
            "label": "a1-3",
            "shape_type": "rectangle",
            "points": [
                [
                    3401,
                    1427
                ],
                [
                    3421,
                    1536
                ]
            ],
            "flags": {},
            "group_id": null
        },
        {
            "label": "a1-2",
            "shape_type": "rectangle",
            "points": [
                [
                    3456,
                    1428
                ],
                [
                    3482,
                    1538
                ]
            ],
            "flags": {},
            "group_id": null
        },
        {
            "label": "p1-1",
            "shape_type": "rectangle",
            "points": [
                [
                    3341,
                    1419
                ],
                [
                    3482,
                    1591
                ]
            ],
            "flags": {},
            "group_id": null
        },
        {
            "label": "seven",
            "shape_type": "point",
            "points": [
                [
                    3001,
                    1973
                ]
            ],
            "flags": {},
            "group_id": null
        },
        {
            "label": "thirteen",
            "shape_type": "point",
            "points": [
                [
                    3108,
                    1973
                ]
            ],
            "flags": {},
            "group_id": null
        },
        {
            "label": "eight",
            "shape_type": "point",
            "points": [
                [
                    3215,
                    1973
                ]
            ],
            "flags": {},
            "group_id": null
        },
        {
            "label": "eleven",
            "shape_type": "point",
            "points": [
                [
                    3001,
                    1983
                ]
            ],
            "flags": {},
            "group_id": null
        },
        {
            "label": "twelve",
            "shape_type": "point",
            "points": [
                [
                    3215,
                    1983
                ]
            ],
            "flags": {},
            "group_id": null
        },
        {
            "label": "eleven",
            "shape_type": "point",
            "points": [
                [
                    3001,
                    2195
                ]
            ],
            "flags": {},
            "group_id": null
        },
        {
            "label": "eleven",
            "shape_type": "point",
            "points": [
                [
                    3001,
                    2203
                ]
            ],
            "flags": {},
            "group_id": null
        },
        {
            "label": "eleven",
            "shape_type": "point",
            "points": [
                [
                    3001,
                    2219
                ]
            ],
            "flags": {},
            "group_id": null
        },
        {
            "label": "fourteen",
            "shape_type": "point",
            "points": [
                [
                    3001,
                    2257
                ]
            ],
            "flags": {},
            "group_id": null
        },
        {
            "label": "fourteen",
            "shape_type": "point",
            "points": [
                [
                    3108,
                    2257
                ]
            ],
            "flags": {},
            "group_id": null
        },
        {
            "label": "fifteen",
            "shape_type": "point",
            "points": [
                [
                    3108,
                    2219
                ]
            ],
            "flags": {},
            "group_id": null
        },
        {
            "label": "fourteen",
            "shape_type": "point",
            "points": [
                [
                    3215,
                    2257
                ]
            ],
            "flags": {},
            "group_id": null
        },
        {
            "label": "twelve",
            "shape_type": "point",
            "points": [
                [
                    3215,
                    2219
                ]
            ],
            "flags": {},
            "group_id": null
        },
        {
            "label": "twelve",
            "shape_type": "point",
            "points": [
                [
                    3215,
                    2203
                ]
            ],
            "flags": {},
            "group_id": null
        },
        {
            "label": "twelve",
            "shape_type": "point",
            "points": [
                [
                    3215,
                    2195
                ]
            ],
            "flags": {},
            "group_id": null
        },
        {
            "label": "fifteen",
            "shape_type": "point",
            "points": [
                [
                    3108,
                    2203
                ]
            ],
            "flags": {},
            "group_id": null
        },
        {
            "label": "three",
            "shape_type": "point",
            "points": [
                [
                    886,
                    198
                ]
            ],
            "flags": {},
            "group_id": null
        },
        {
            "label": "four",
            "shape_type": "point",
            "points": [
                [
                    977,
                    198
                ]
            ],
            "flags": {},
            "group_id": null
        },
        {
            "label": "two",
            "shape_type": "point",
            "points": [
                [
                    815,
                    240
                ]
            ],
            "flags": {},
            "group_id": null
        },
        {
            "label": "six",
            "shape_type": "point",
            "points": [
                [
                    815,
                    330
                ]
            ],
            "flags": {},
            "group_id": null
        },
        {
            "label": "six",
            "shape_type": "point",
            "points": [
                [
                    815,
                    420
                ]
            ],
            "flags": {},
            "group_id": null
        },
        {
            "label": "one",
            "shape_type": "point",
            "points": [
                [
                    816,
                    520
                ]
            ],
            "flags": {},
            "group_id": null
        },
        {
            "label": "seven",
            "shape_type": "point",
            "points": [
                [
                    877,
                    227
                ]
            ],
            "flags": {},
            "group_id": null
        },
        {
            "label": "eight",
            "shape_type": "point",
            "points": [
                [
                    988,
                    226
                ]
            ],
            "flags": {},
            "group_id": null
        },
        {
            "label": "nine",
            "shape_type": "point",
            "points": [
                [
                    878,
                    431
                ]
            ],
            "flags": {},
            "group_id": null
        },
        {
            "label": "ten",
            "shape_type": "point",
            "points": [
                [
                    988,
                    430
                ]
            ],
            "flags": {},
            "group_id": null
        },
        {
            "label": "",
            "shape_type": "",
            "points": [],
            "flags": {},
            "group_id": null
        },
        {
            "label": "x2",
            "shape_type": "rectangle",
            "points": [
                [
                    780,
                    230
                ],
                [
                    825,
                    538
                ]
            ],
            "flags": {},
            "group_id": null
        },
        {
            "label": "wz2",
            "shape_type": "rectangle",
            "points": [
                [
                    780,
                    250
                ],
                [
                    808,
                    318
                ]
            ],
            "flags": {},
            "group_id": null
        },
        {
            "label": "wz2",
            "shape_type": "rectangle",
            "points": [
                [
                    781,
                    342
                ],
                [
                    808,
                    406
                ]
            ],
            "flags": {},
            "group_id": null
        },
        {
            "label": "wz2",
            "shape_type": "rectangle",
            "points": [
                [
                    781,
                    426
                ],
                [
                    808,
                    494
                ]
            ],
            "flags": {},
            "group_id": null
        },
        {
            "label": "wz2",
            "shape_type": "rectangle",
            "points": [
                [
                    898,
                    163
                ],
                [
                    966,
                    191
                ]
            ],
            "flags": {},
            "group_id": null
        },
        {
            "label": "x2",
            "shape_type": "rectangle",
            "points": [
                [
                    876,
                    162
                ],
                [
                    986,
                    210
                ]
            ],
            "flags": {},
            "group_id": null
        },
        {
            "label": "sm",
            "shape_type": "rectangle",
            "points": [
                [
                    396,
                    1079
                ],
                [
                    1677,
                    1749
                ]
            ],
            "flags": {},
            "group_id": null
        },
        {
            "label": "j1",
            "shape_type": "rectangle",
            "points": [
                [
                    1752,
                    929
                ],
                [
                    1858,
                    1012
                ]
            ],
            "flags": {},
            "group_id": null
        },
        {
            "label": "j1",
            "shape_type": "rectangle",
            "points": [
                [
                    1666,
                    753
                ],
                [
                    1729,
                    833
                ]
            ],
            "flags": {},
            "group_id": null
        },
        {
            "label": "j1",
            "shape_type": "rectangle",
            "points": [
                [
                    1438,
                    858
                ],
                [
                    1547,
                    943
                ]
            ],
            "flags": {},
            "group_id": null
        },
        {
            "label": "j1",
            "shape_type": "rectangle",
            "points": [
                [
                    1661,
                    680
                ],
                [
                    1694,
                    724
                ]
            ],
            "flags": {},
            "group_id": null
        },
        {
            "label": "btl",
            "shape_type": "rectangle",
            "points": [
                [
                    2345,
                    2565
                ],
                [
                    4152,
                    2872
                ]
            ],
            "flags": {},
            "group_id": null
        },
        {
            "label": "mask",
            "lineType": [
                "LLLLLLLLLLLLLLLLLLLLLLLLLLLLLLLLL"
            ],
            "shape_type": "polygon",
            "points": [
                [
                    3019,
                    1517
                ],
                [
                    2959,
                    871
                ],
                [
                    2991,
                    681
                ],
                [
                    3066,
                    455
                ],
                [
                    3172,
                    366
                ],
                [
                    3436,
                    355
                ],
                [
                    3755,
                    377
                ],
                [
                    3985,
                    428
                ],
                [
                    3992,
                    1200
                ],
                [
                    3989,
                    1443
                ],
                [
                    3964,
                    1546
                ],
                [
                    3791,
                    1566
                ],
                [
                    3637,
                    1720
                ],
                [
                    3636,
                    1882
                ],
                [
                    3660,
                    1981
                ],
                [
                    3797,
                    2060
                ],
                [
                    3890,
                    2138
                ],
                [
                    3922,
                    2216
                ],
                [
                    3812,
                    2335
                ],
                [
                    3686,
                    2373
                ],
                [
                    3542,
                    2475
                ],
                [
                    3373,
                    2479
                ],
                [
                    3196,
                    2476
                ],
                [
                    3033,
                    2337
                ],
                [
                    2801,
                    2308
                ],
                [
                    2798,
                    2224
                ],
                [
                    2891,
                    1966
                ],
                [
                    3016,
                    1917
                ],
                [
                    3244,
                    1951
                ],
                [
                    3271,
                    1892
                ],
                [
                    3267,
                    1661
                ],
                [
                    3259,
                    1588
                ],
                [
                    3019,
                    1517
                ]
            ],
            "flags": {},
            "group_id": null
        },
        {
            "label": "mask",
            "lineType": [
                "LLLLL"
            ],
            "shape_type": "polygon",
            "points": [
                [
                    2332,
                    2551
                ],
                [
                    2344,
                    2872
                ],
                [
                    4160,
                    2871
                ],
                [
                    4155,
                    2557
                ],
                [
                    2332,
                    2551
                ]
            ],
            "flags": {},
            "group_id": null
        },
        {
            "label": "mask",
            "lineType": [
                "LLLLLLLLLLLLLLLLLLLLL"
            ],
            "shape_type": "polygon",
            "points": [
                [
                    2260,
                    2506
                ],
                [
                    2459,
                    2505
                ],
                [
                    2551,
                    2486
                ],
                [
                    2567,
                    2459
                ],
                [
                    2631,
                    2427
                ],
                [
                    2645,
                    2392
                ],
                [
                    2649,
                    2326
                ],
                [
                    2620,
                    2282
                ],
                [
                    2529,
                    2207
                ],
                [
                    2567,
                    2101
                ],
                [
                    2581,
                    2031
                ],
                [
                    2552,
                    2000
                ],
                [
                    2436,
                    1997
                ],
                [
                    2367,
                    1997
                ],
                [
                    2354,
                    2062
                ],
                [
                    2282,
                    2066
                ],
                [
                    2199,
                    2086
                ],
                [
                    2151,
                    2094
                ],
                [
                    2136,
                    2151
                ],
                [
                    2140,
                    2219
                ],
                [
                    2260,
                    2506
                ]
            ],
            "flags": {},
            "group_id": null
        },
        {
            "label": "mask",
            "lineType": [
                "LLLLLLLLLLLLLLLLLLLLLLL"
            ],
            "shape_type": "polygon",
            "points": [
                [
                    2240,
                    1873
                ],
                [
                    2363,
                    1871
                ],
                [
                    2509,
                    1864
                ],
                [
                    2523,
                    1820
                ],
                [
                    2609,
                    1804
                ],
                [
                    2653,
                    1774
                ],
                [
                    2655,
                    1736
                ],
                [
                    2597,
                    1653
                ],
                [
                    2519,
                    1589
                ],
                [
                    2543,
                    1470
                ],
                [
                    2556,
                    1413
                ],
                [
                    2533,
                    1385
                ],
                [
                    2474,
                    1370
                ],
                [
                    2409,
                    1377
                ],
                [
                    2391,
                    1432
                ],
                [
                    2325,
                    1440
                ],
                [
                    2245,
                    1452
                ],
                [
                    2196,
                    1463
                ],
                [
                    2142,
                    1501
                ],
                [
                    2163,
                    1610
                ],
                [
                    2200,
                    1685
                ],
                [
                    2229,
                    1708
                ],
                [
                    2240,
                    1873
                ]
            ],
            "flags": {},
            "group_id": null
        },
        {
            "label": "mask",
            "lineType": [
                "LLLLLLLLLLLLLLLLLL"
            ],
            "shape_type": "polygon",
            "points": [
                [
                    2250,
                    1294
                ],
                [
                    2564,
                    1281
                ],
                [
                    2551,
                    1216
                ],
                [
                    2680,
                    1173
                ],
                [
                    2644,
                    1072
                ],
                [
                    2616,
                    1016
                ],
                [
                    2600,
                    887
                ],
                [
                    2691,
                    873
                ],
                [
                    2692,
                    818
                ],
                [
                    2644,
                    791
                ],
                [
                    2521,
                    787
                ],
                [
                    2321,
                    793
                ],
                [
                    2161,
                    817
                ],
                [
                    2073,
                    840
                ],
                [
                    2071,
                    915
                ],
                [
                    2077,
                    983
                ],
                [
                    2160,
                    999
                ],
                [
                    2250,
                    1294
                ]
            ],
            "flags": {},
            "group_id": null
        },
        {
            "label": "mask",
            "lineType": [
                "LLLLLLLLLLLLLLLLLLLLLL"
            ],
            "shape_type": "polygon",
            "points": [
                [
                    2521,
                    644
                ],
                [
                    2690,
                    636
                ],
                [
                    2800,
                    637
                ],
                [
                    2810,
                    589
                ],
                [
                    2887,
                    570
                ],
                [
                    2936,
                    556
                ],
                [
                    2929,
                    472
                ],
                [
                    2880,
                    440
                ],
                [
                    2860,
                    296
                ],
                [
                    2886,
                    260
                ],
                [
                    2941,
                    251
                ],
                [
                    2946,
                    212
                ],
                [
                    2934,
                    189
                ],
                [
                    2643,
                    177
                ],
                [
                    2535,
                    191
                ],
                [
                    2470,
                    213
                ],
                [
                    2400,
                    233
                ],
                [
                    2333,
                    250
                ],
                [
                    2320,
                    314
                ],
                [
                    2356,
                    382
                ],
                [
                    2432,
                    416
                ],
                [
                    2521,
                    644
                ]
            ],
            "flags": {},
            "group_id": null
        },
        {
            "label": "mask",
            "lineType": [
                "LLLLLLLLLLLLLLLLLLLLLL"
            ],
            "shape_type": "polygon",
            "points": [
                [
                    1872,
                    637
                ],
                [
                    2050,
                    644
                ],
                [
                    2132,
                    645
                ],
                [
                    2155,
                    607
                ],
                [
                    2169,
                    579
                ],
                [
                    2288,
                    574
                ],
                [
                    2291,
                    527
                ],
                [
                    2249,
                    445
                ],
                [
                    2226,
                    316
                ],
                [
                    2245,
                    275
                ],
                [
                    2291,
                    233
                ],
                [
                    2304,
                    193
                ],
                [
                    2265,
                    182
                ],
                [
                    2178,
                    173
                ],
                [
                    2050,
                    172
                ],
                [
                    1909,
                    184
                ],
                [
                    1848,
                    233
                ],
                [
                    1714,
                    237
                ],
                [
                    1690,
                    266
                ],
                [
                    1703,
                    329
                ],
                [
                    1789,
                    404
                ],
                [
                    1872,
                    637
                ]
            ],
            "flags": {},
            "group_id": null
        },
        {
            "label": "mask",
            "lineType": [
                "LLLLLLLLLLLLLLLLLLL"
            ],
            "shape_type": "polygon",
            "points": [
                [
                    1450,
                    1020
                ],
                [
                    1499,
                    1103
                ],
                [
                    1600,
                    1113
                ],
                [
                    1725,
                    1113
                ],
                [
                    1758,
                    1083
                ],
                [
                    1811,
                    1055
                ],
                [
                    1870,
                    1002
                ],
                [
                    1872,
                    956
                ],
                [
                    1824,
                    887
                ],
                [
                    1773,
                    833
                ],
                [
                    1752,
                    756
                ],
                [
                    1733,
                    718
                ],
                [
                    1700,
                    663
                ],
                [
                    1623,
                    647
                ],
                [
                    1540,
                    648
                ],
                [
                    1519,
                    787
                ],
                [
                    1476,
                    826
                ],
                [
                    1403,
                    899
                ],
                [
                    1450,
                    1020
                ]
            ],
            "flags": {},
            "group_id": null
        },
        {
            "label": "mask",
            "lineType": [
                "LLLLLLLLLLLLLLLLLLLLLLL"
            ],
            "shape_type": "polygon",
            "points": [
                [
                    784,
                    1032
                ],
                [
                    985,
                    1034
                ],
                [
                    1043,
                    1021
                ],
                [
                    1046,
                    976
                ],
                [
                    1046,
                    875
                ],
                [
                    1084,
                    825
                ],
                [
                    1129,
                    727
                ],
                [
                    1127,
                    640
                ],
                [
                    1119,
                    582
                ],
                [
                    1068,
                    391
                ],
                [
                    1040,
                    293
                ],
                [
                    1043,
                    153
                ],
                [
                    956,
                    136
                ],
                [
                    836,
                    130
                ],
                [
                    755,
                    146
                ],
                [
                    641,
                    113
                ],
                [
                    642,
                    224
                ],
                [
                    708,
                    476
                ],
                [
                    721,
                    746
                ],
                [
                    661,
                    765
                ],
                [
                    633,
                    814
                ],
                [
                    636,
                    893
                ],
                [
                    784,
                    1032
                ]
            ],
            "flags": {},
            "group_id": null
        },
        {
            "label": "mask",
            "lineType": [
                "LLLLLLLLLLLLLLL"
            ],
            "shape_type": "polygon",
            "points": [
                [
                    351,
                    1068
                ],
                [
                    761,
                    1071
                ],
                [
                    790,
                    1133
                ],
                [
                    1361,
                    1125
                ],
                [
                    1362,
                    1235
                ],
                [
                    1370,
                    1298
                ],
                [
                    1638,
                    1298
                ],
                [
                    1710,
                    1359
                ],
                [
                    1691,
                    1678
                ],
                [
                    1666,
                    1736
                ],
                [
                    1559,
                    1782
                ],
                [
                    1368,
                    1789
                ],
                [
                    811,
                    1801
                ],
                [
                    394,
                    1780
                ],
                [
                    351,
                    1068
                ]
            ],
            "flags": {},
            "group_id": null
        },
        {
            "label": "mask",
            "lineType": [
                "LLLLLLLLL"
            ],
            "shape_type": "polygon",
            "points": [
                [
                    434,
                    1904
                ],
                [
                    1016,
                    1900
                ],
                [
                    989,
                    1852
                ],
                [
                    1340,
                    1846
                ],
                [
                    1340,
                    1896
                ],
                [
                    1878,
                    1902
                ],
                [
                    1886,
                    2804
                ],
                [
                    408,
                    2787
                ],
                [
                    434,
                    1904
                ]
            ],
            "flags": {},
            "group_id": null
        },
        {
            "label": "Ns",
            "shape_type": "point",
            "points": [
                [
                    1640,
                    920
                ]
            ],
            "flags": {},
            "group_id": null
        },
        {
            "label": "Ne",
            "shape_type": "point",
            "points": [
                [
                    1640,
                    736
                ]
            ],
            "flags": {},
            "group_id": null
        },
        {
            "label": "wlb",
            "shape_type": "rectangle",
            "points": [
                [
                    470,
                    1862
                ],
                [
                    1862,
                    2765
                ]
            ],
            "flags": {},
            "group_id": null
        },
        {
            "label": "wz3",
            "shape_type": "rectangle",
            "points": [
                [
                    2480,
                    2322
                ],
                [
                    2629,
                    2410
                ]
            ],
            "flags": {},
            "group_id": null
        },
        {
            "label": "wz3",
            "shape_type": "rectangle",
            "points": [
                [
                    2397,
                    2026
                ],
                [
                    2543,
                    2107
                ]
            ],
            "flags": {},
            "group_id": null
        },
        {
            "label": "wz3",
            "shape_type": "rectangle",
            "points": [
                [
                    2168,
                    2119
                ],
                [
                    2318,
                    2204
                ]
            ],
            "flags": {},
            "group_id": null
        },
        {
            "label": "wz3-l",
            "lineType": "LL",
            "shape_type": "line",
            "points": [
                [
                    2277,
                    2191
                ],
                [
                    2269,
                    2243
                ]
            ],
            "flags": {},
            "group_id": null
        },
        {
            "label": "wz3-l",
            "lineType": "LL",
            "shape_type": "line",
            "points": [
                [
                    2497,
                    2376
                ],
                [
                    2458,
                    2365
                ]
            ],
            "flags": {},
            "group_id": null
        },
        {
            "label": "wz3-l",
            "lineType": "LL",
            "shape_type": "line",
            "points": [
                [
                    2476,
                    2083
                ],
                [
                    2447,
                    2136
                ]
            ],
            "flags": {},
            "group_id": null
        },
        {
            "label": "wz3",
            "shape_type": "rectangle",
            "points": [
                [
                    2486,
                    1684
                ],
                [
                    2636,
                    1784
                ]
            ],
            "flags": {},
            "group_id": null
        },
        {
            "label": "wz3",
            "shape_type": "rectangle",
            "points": [
                [
                    2409,
                    1389
                ],
                [
                    2531,
                    1480
                ]
            ],
            "flags": {},
            "group_id": null
        },
        {
            "label": "wz3",
            "shape_type": "rectangle",
            "points": [
                [
                    2174,
                    1481
                ],
                [
                    2320,
                    1579
                ]
            ],
            "flags": {},
            "group_id": null
        },
        {
            "label": "wz3-l",
            "lineType": "LL",
            "shape_type": "line",
            "points": [
                [
                    2276,
                    1566
                ],
                [
                    2267,
                    1589
                ]
            ],
            "flags": {},
            "group_id": null
        },
        {
            "label": "wz3-l",
            "lineType": "LL",
            "shape_type": "line",
            "points": [
                [
                    2489,
                    1461
                ],
                [
                    2466,
                    1502
                ]
            ],
            "flags": {},
            "group_id": null
        },
        {
            "label": "wz3-l",
            "lineType": "LL",
            "shape_type": "line",
            "points": [
                [
                    2503,
                    1728
                ],
                [
                    2447,
                    1740
                ]
            ],
            "flags": {},
            "group_id": null
        },
        {
            "label": "wz1",
            "shape_type": "rectangle",
            "points": [
                [
                    2545,
                    1122
                ],
                [
                    2644,
                    1157
                ]
            ],
            "flags": {},
            "group_id": null
        },
        {
            "label": "wz1",
            "shape_type": "rectangle",
            "points": [
                [
                    2559,
                    812
                ],
                [
                    2658,
                    846
                ]
            ],
            "flags": {},
            "group_id": null
        },
        {
            "label": "wz1",
            "shape_type": "rectangle",
            "points": [
                [
                    2096,
                    885
                ],
                [
                    2194,
                    920
                ]
            ],
            "flags": {},
            "group_id": null
        },
        {
            "label": "wz1-l",
            "lineType": "LL",
            "shape_type": "line",
            "points": [
                [
                    2261,
                    979
                ],
                [
                    2179,
                    911
                ]
            ],
            "flags": {},
            "group_id": null
        },
        {
            "label": "wz1-l",
            "lineType": "LL",
            "shape_type": "line",
            "points": [
                [
                    2562,
                    1138
                ],
                [
                    2477,
                    1095
                ]
            ],
            "flags": {},
            "group_id": null
        },
        {
            "label": "wz1-l",
            "lineType": "LL",
            "shape_type": "line",
            "points": [
                [
                    2577,
                    824
                ],
                [
                    2457,
                    862
                ]
            ],
            "flags": {},
            "group_id": null
        },
        {
            "label": "wz1",
            "shape_type": "rectangle",
            "points": [
                [
                    2166,
                    506
                ],
                [
                    2263,
                    540
                ]
            ],
            "flags": {},
            "group_id": null
        },
        {
            "label": "wz1",
            "shape_type": "rectangle",
            "points": [
                [
                    2181,
                    195
                ],
                [
                    2279,
                    229
                ]
            ],
            "flags": {},
            "group_id": null
        },
        {
            "label": "wz1",
            "shape_type": "rectangle",
            "points": [
                [
                    1718,
                    268
                ],
                [
                    1816,
                    304
                ]
            ],
            "flags": {},
            "group_id": null
        },
        {
            "label": "wz1-l",
            "lineType": "LL",
            "shape_type": "line",
            "points": [
                [
                    1799,
                    290
                ],
                [
                    1877,
                    350
                ]
            ],
            "flags": {},
            "group_id": null
        },
        {
            "label": "wz1-l",
            "lineType": "LL",
            "shape_type": "line",
            "points": [
                [
                    2188,
                    522
                ],
                [
                    2069,
                    493
                ]
            ],
            "flags": {},
            "group_id": null
        },
        {
            "label": "wz1-l",
            "lineType": "LL",
            "shape_type": "line",
            "points": [
                [
                    2207,
                    216
                ],
                [
                    2088,
                    265
                ]
            ],
            "flags": {},
            "group_id": null
        },
        {
            "label": "wz1",
            "shape_type": "rectangle",
            "points": [
                [
                    2356,
                    269
                ],
                [
                    2454,
                    304
                ]
            ],
            "flags": {},
            "group_id": null
        },
        {
            "label": "wz1",
            "shape_type": "rectangle",
            "points": [
                [
                    2818,
                    195
                ],
                [
                    2917,
                    230
                ]
            ],
            "flags": {},
            "group_id": null
        },
        {
            "label": "wz1",
            "shape_type": "rectangle",
            "points": [
                [
                    2804,
                    504
                ],
                [
                    2901,
                    539
                ]
            ],
            "flags": {},
            "group_id": null
        },
        {
            "label": "wz1-l",
            "lineType": "LL",
            "shape_type": "line",
            "points": [
                [
                    2824,
                    521
                ],
                [
                    2699,
                    486
                ]
            ],
            "flags": {},
            "group_id": null
        },
        {
            "label": "wz1-l",
            "lineType": "LL",
            "shape_type": "line",
            "points": [
                [
                    2843,
                    214
                ],
                [
                    2730,
                    262
                ]
            ],
            "flags": {},
            "group_id": null
        },
        {
            "label": "wz1-l",
            "lineType": "LL",
            "shape_type": "line",
            "points": [
                [
                    2526,
                    357
                ],
                [
                    2430,
                    288
                ]
            ],
            "flags": {},
            "group_id": null
        },
        {
            "label": "wz1",
            "shape_type": "rectangle",
            "points": [
                [
                    3458,
                    1795
                ],
                [
                    3501,
                    1824
                ]
            ],
            "flags": {},
            "group_id": null
        },
        {
            "label": "wz1-l",
            "lineType": "LL",
            "shape_type": "line",
            "points": [
                [
                    3476,
                    1815
                ],
                [
                    3423,
                    1839
                ]
            ],
            "flags": {},
            "group_id": null
        },
        {
            "label": "wz3",
            "shape_type": "rectangle",
            "points": [
                [
                    3042,
                    1439
                ],
                [
                    3132,
                    1475
                ]
            ],
            "flags": {},
            "group_id": null
        },
        {
            "label": "wz3",
            "shape_type": "rectangle",
            "points": [
                [
                    3039,
                    1277
                ],
                [
                    3088,
                    1311
                ]
            ],
            "flags": {},
            "group_id": null
        },
        {
            "label": "wz3",
            "shape_type": "rectangle",
            "points": [
                [
                    3039,
                    1076
                ],
                [
                    3088,
                    1107
                ]
            ],
            "flags": {},
            "group_id": null
        },
        {
            "label": "wz3",
            "shape_type": "rectangle",
            "points": [
                [
                    3040,
                    875
                ],
                [
                    3087,
                    908
                ]
            ],
            "flags": {},
            "group_id": null
        },
        {
            "label": "wz3",
            "shape_type": "rectangle",
            "points": [
                [
                    3039,
                    700
                ],
                [
                    3088,
                    732
                ]
            ],
            "flags": {},
            "group_id": null
        },
        {
            "label": "wz3-l",
            "lineType": "LL",
            "shape_type": "line",
            "points": [
                [
                    3070,
                    720
                ],
                [
                    3359,
                    751
                ]
            ],
            "flags": {},
            "group_id": null
        },
        {
            "label": "wz3-l",
            "lineType": "LL",
            "shape_type": "line",
            "points": [
                [
                    3073,
                    889
                ],
                [
                    3351,
                    953
                ]
            ],
            "flags": {},
            "group_id": null
        },
        {
            "label": "wz3-l",
            "lineType": "LL",
            "shape_type": "line",
            "points": [
                [
                    3080,
                    1098
                ],
                [
                    3370,
                    1147
                ]
            ],
            "flags": {},
            "group_id": null
        },
        {
            "label": "wz3-l",
            "lineType": "LL",
            "shape_type": "line",
            "points": [
                [
                    3075,
                    1299
                ],
                [
                    3363,
                    1358
                ]
            ],
            "flags": {},
            "group_id": null
        },
        {
            "label": "wz3-l",
            "lineType": "LL",
            "shape_type": "line",
            "points": [
                [
                    3112,
                    1463
                ],
                [
                    3364,
                    1507
                ]
            ],
            "flags": {},
            "group_id": null
        },
        {
            "label": "wz1",
            "shape_type": "rectangle",
            "points": [
                [
                    3513,
                    1451
                ],
                [
                    3530,
                    1474
                ]
            ],
            "flags": {},
            "group_id": null
        },
        {
            "label": "wz3",
            "shape_type": "rectangle",
            "points": [
                [
                    3453,
                    1396
                ],
                [
                    3482,
                    1421
                ]
            ],
            "flags": {},
            "group_id": null
        },
        {
            "label": "wz3",
            "shape_type": "rectangle",
            "points": [
                [
                    3393,
                    1394
                ],
                [
                    3425,
                    1418
                ]
            ],
            "flags": {},
            "group_id": null
        },
        {
            "label": "wz3",
            "shape_type": "rectangle",
            "points": [
                [
                    3340,
                    1394
                ],
                [
                    3363,
                    1418
                ]
            ],
            "flags": {},
            "group_id": null
        },
        {
            "label": "wz3-l",
            "lineType": "LL",
            "shape_type": "line",
            "points": [
                [
                    3353,
                    1409
                ],
                [
                    3360,
                    1449
                ]
            ],
            "flags": {},
            "group_id": null
        },
        {
            "label": "wz3-l",
            "lineType": "LL",
            "shape_type": "line",
            "points": [
                [
                    3408,
                    1408
                ],
                [
                    3408,
                    1445
                ]
            ],
            "flags": {},
            "group_id": null
        },
        {
            "label": "wz3-l",
            "lineType": "LL",
            "shape_type": "line",
            "points": [
                [
                    3465,
                    1410
                ],
                [
                    3461,
                    1439
                ]
            ],
            "flags": {},
            "group_id": null
        },
        {
            "label": "wz1-l",
            "lineType": "LL",
            "shape_type": "line",
            "points": [
                [
                    3520,
                    1461
                ],
                [
                    3474,
                    1487
                ]
            ],
            "flags": {},
            "group_id": null
        },
        {
            "label": "wz3",
            "shape_type": "rectangle",
            "points": [
                [
                    1506,
                    1047
                ],
                [
                    1720,
                    1091
                ]
            ],
            "flags": {},
            "group_id": null
        },
        {
            "label": "wz3-l",
            "lineType": "LL",
            "shape_type": "line",
            "points": [
                [
                    1596,
                    1067
                ],
                [
                    1635,
                    921
                ]
            ],
            "flags": {},
            "group_id": null
        }
    ],
    "flags": {},
    "imageData": null,
    "version": "4.5.7"
}