{
    "imageHeight": 2908,
    "imageWidth": 4205,
    "imagePath": "样本2_93_17.png",
    "shapes": [
        {
            "label": "t1",
            "shape_type": "rectangle",
            "points": [
                [
                    3134,
                    156
                ],
                [
                    3190,
                    1823
                ]
            ],
            "flags": {},
            "group_id": null
        },
        {
            "label": "c1",
            "shape_type": "rectangle",
            "points": [
                [
                    3161,
                    157
                ],
                [
                    3163,
                    206
                ]
            ],
            "flags": {},
            "group_id": null
        },
        {
            "label": "d1",
            "shape_type": "rectangle",
            "points": [
                [
                    3370,
                    146
                ],
                [
                    3455,
                    285
                ]
            ],
            "flags": {},
            "group_id": null
        },
        {
            "label": "d1",
            "shape_type": "rectangle",
            "points": [
                [
                    3371,
                    388
                ],
                [
                    3454,
                    525
                ]
            ],
            "flags": {},
            "group_id": null
        },
        {
            "label": "d1",
            "shape_type": "rectangle",
            "points": [
                [
                    3371,
                    574
                ],
                [
                    3454,
                    711
                ]
            ],
            "flags": {},
            "group_id": null
        },
        {
            "label": "b1",
            "shape_type": "rectangle",
            "points": [
                [
                    3404,
                    1581
                ],
                [
                    3586,
                    1823
                ]
            ],
            "flags": {},
            "group_id": null
        },
        {
            "label": "h1",
            "shape_type": "rectangle",
            "points": [
                [
                    3755,
                    1753
                ],
                [
                    3910,
                    1823
                ]
            ],
            "flags": {},
            "group_id": null
        },
        {
            "label": "v1",
            "shape_type": "rectangle",
            "points": [
                [
                    3322,
                    1957
                ],
                [
                    3653,
                    2047
                ]
            ],
            "flags": {},
            "group_id": null
        },
        {
            "label": "v1",
            "shape_type": "rectangle",
            "points": [
                [
                    3642,
                    667
                ],
                [
                    3787,
                    738
                ]
            ],
            "flags": {},
            "group_id": null
        },
        {
            "label": "v1",
            "shape_type": "rectangle",
            "points": [
                [
                    3643,
                    481
                ],
                [
                    3786,
                    552
                ]
            ],
            "flags": {},
            "group_id": null
        },
        {
            "label": "v1",
            "shape_type": "rectangle",
            "points": [
                [
                    3644,
                    302
                ],
                [
                    3786,
                    372
                ]
            ],
            "flags": {},
            "group_id": null
        },
        {
            "label": "v1",
            "shape_type": "rectangle",
            "points": [
                [
                    3643,
                    117
                ],
                [
                    3785,
                    187
                ]
            ],
            "flags": {},
            "group_id": null
        },
        {
            "label": "g1",
            "shape_type": "rectangle",
            "points": [
                [
                    3115,
                    253
                ],
                [
                    3118,
                    401
                ]
            ],
            "flags": {},
            "group_id": null
        },
        {
            "label": "g1",
            "shape_type": "rectangle",
            "points": [
                [
                    3206,
                    252
                ],
                [
                    3209,
                    401
                ]
            ],
            "flags": {},
            "group_id": null
        },
        {
            "label": "a1-1",
            "shape_type": "rectangle",
            "points": [
                [
                    3093,
                    288
                ],
                [
                    3114,
                    374
                ]
            ],
            "flags": {},
            "group_id": null
        },
        {
            "label": "a1-4",
            "shape_type": "rectangle",
            "points": [
                [
                    3152,
                    282
                ],
                [
                    3172,
                    370
                ]
            ],
            "flags": {},
            "group_id": null
        },
        {
            "label": "a1-2",
            "shape_type": "rectangle",
            "points": [
                [
                    3211,
                    288
                ],
                [
                    3232,
                    375
                ]
            ],
            "flags": {},
            "group_id": null
        },
        {
            "label": "a1-1",
            "shape_type": "rectangle",
            "points": [
                [
                    3092,
                    464
                ],
                [
                    3114,
                    551
                ]
            ],
            "flags": {},
            "group_id": null
        },
        {
            "label": "a1-4",
            "shape_type": "rectangle",
            "points": [
                [
                    3151,
                    458
                ],
                [
                    3172,
                    547
                ]
            ],
            "flags": {},
            "group_id": null
        },
        {
            "label": "a1-2",
            "shape_type": "rectangle",
            "points": [
                [
                    3210,
                    464
                ],
                [
                    3231,
                    551
                ]
            ],
            "flags": {},
            "group_id": null
        },
        {
            "label": "g1",
            "shape_type": "rectangle",
            "points": [
                [
                    3114,
                    429
                ],
                [
                    3118,
                    577
                ]
            ],
            "flags": {},
            "group_id": null
        },
        {
            "label": "g1",
            "shape_type": "rectangle",
            "points": [
                [
                    3206,
                    429
                ],
                [
                    3210,
                    577
                ]
            ],
            "flags": {},
            "group_id": null
        },
        {
            "label": "g1",
            "shape_type": "rectangle",
            "points": [
                [
                    3114,
                    614
                ],
                [
                    3118,
                    761
                ]
            ],
            "flags": {},
            "group_id": null
        },
        {
            "label": "a1-1",
            "shape_type": "rectangle",
            "points": [
                [
                    3092,
                    648
                ],
                [
                    3113,
                    735
                ]
            ],
            "flags": {},
            "group_id": null
        },
        {
            "label": "a1-4",
            "shape_type": "rectangle",
            "points": [
                [
                    3151,
                    643
                ],
                [
                    3172,
                    731
                ]
            ],
            "flags": {},
            "group_id": null
        },
        {
            "label": "a1-2",
            "shape_type": "rectangle",
            "points": [
                [
                    3210,
                    649
                ],
                [
                    3232,
                    735
                ]
            ],
            "flags": {},
            "group_id": null
        },
        {
            "label": "d1",
            "shape_type": "rectangle",
            "points": [
                [
                    2857,
                    146
                ],
                [
                    2940,
                    285
                ]
            ],
            "flags": {},
            "group_id": null
        },
        {
            "label": "d1",
            "shape_type": "rectangle",
            "points": [
                [
                    2857,
                    388
                ],
                [
                    2941,
                    525
                ]
            ],
            "flags": {},
            "group_id": null
        },
        {
            "label": "d1",
            "shape_type": "rectangle",
            "points": [
                [
                    2857,
                    574
                ],
                [
                    2941,
                    712
                ]
            ],
            "flags": {},
            "group_id": null
        },
        {
            "label": "seven",
            "shape_type": "point",
            "points": [
                [
                    3415,
                    1581
                ]
            ],
            "flags": {},
            "group_id": null
        },
        {
            "label": "thirteen",
            "shape_type": "point",
            "points": [
                [
                    3496,
                    1581
                ]
            ],
            "flags": {},
            "group_id": null
        },
        {
            "label": "eight",
            "shape_type": "point",
            "points": [
                [
                    3576,
                    1581
                ]
            ],
            "flags": {},
            "group_id": null
        },
        {
            "label": "fourteen",
            "shape_type": "point",
            "points": [
                [
                    3415,
                    1781
                ]
            ],
            "flags": {},
            "group_id": null
        },
        {
            "label": "fourteen",
            "shape_type": "point",
            "points": [
                [
                    3496,
                    1782
                ]
            ],
            "flags": {},
            "group_id": null
        },
        {
            "label": "fourteen",
            "shape_type": "point",
            "points": [
                [
                    3576,
                    1782
                ]
            ],
            "flags": {},
            "group_id": null
        },
        {
            "label": "seven",
            "shape_type": "point",
            "points": [
                [
                    3405,
                    1782
                ]
            ],
            "flags": {},
            "group_id": null
        },
        {
            "label": "eight",
            "shape_type": "point",
            "points": [
                [
                    3586,
                    1782
                ]
            ],
            "flags": {},
            "group_id": null
        },
        {
            "label": "fourteen",
            "shape_type": "point",
            "points": [
                [
                    3404,
                    1822
                ]
            ],
            "flags": {},
            "group_id": null
        },
        {
            "label": "fourteen",
            "shape_type": "point",
            "points": [
                [
                    3586,
                    1823
                ]
            ],
            "flags": {},
            "group_id": null
        },
        {
            "label": "n1",
            "shape_type": "rectangle",
            "points": [
                [
                    1635,
                    121
                ],
                [
                    2186,
                    589
                ]
            ],
            "flags": {},
            "group_id": null
        },
        {
            "label": "d1",
            "shape_type": "rectangle",
            "points": [
                [
                    916,
                    70
                ],
                [
                    1053,
                    153
                ]
            ],
            "flags": {},
            "group_id": null
        },
        {
            "label": "vb1",
            "shape_type": "rectangle",
            "points": [
                [
                    723,
                    174
                ],
                [
                    823,
                    354
                ]
            ],
            "flags": {},
            "group_id": null
        },
        {
            "label": "vt1",
            "shape_type": "rectangle",
            "points": [
                [
                    647,
                    444
                ],
                [
                    900,
                    697
                ]
            ],
            "flags": {},
            "group_id": null
        },
        {
            "label": "d1",
            "shape_type": "rectangle",
            "points": [
                [
                    917,
                    669
                ],
                [
                    1053,
                    752
                ]
            ],
            "flags": {},
            "group_id": null
        },
        {
            "label": "v1",
            "shape_type": "rectangle",
            "points": [
                [
                    687,
                    765
                ],
                [
                    1019,
                    857
                ]
            ],
            "flags": {},
            "group_id": null
        },
        {
            "label": "seven",
            "shape_type": "point",
            "points": [
                [
                    723,
                    174
                ]
            ],
            "flags": {},
            "group_id": null
        },
        {
            "label": "eight",
            "shape_type": "point",
            "points": [
                [
                    824,
                    174
                ]
            ],
            "flags": {},
            "group_id": null
        },
        {
            "label": "seven",
            "shape_type": "point",
            "points": [
                [
                    733,
                    184
                ]
            ],
            "flags": {},
            "group_id": null
        },
        {
            "label": "eight",
            "shape_type": "point",
            "points": [
                [
                    813,
                    184
                ]
            ],
            "flags": {},
            "group_id": null
        },
        {
            "label": "eleven",
            "shape_type": "point",
            "points": [
                [
                    733,
                    264
                ]
            ],
            "flags": {},
            "group_id": null
        },
        {
            "label": "twelve",
            "shape_type": "point",
            "points": [
                [
                    813,
                    264
                ]
            ],
            "flags": {},
            "group_id": null
        },
        {
            "label": "nine",
            "shape_type": "point",
            "points": [
                [
                    733,
                    344
                ]
            ],
            "flags": {},
            "group_id": null
        },
        {
            "label": "ten",
            "shape_type": "point",
            "points": [
                [
                    813,
                    344
                ]
            ],
            "flags": {},
            "group_id": null
        },
        {
            "label": "nine",
            "shape_type": "point",
            "points": [
                [
                    723,
                    354
                ]
            ],
            "flags": {},
            "group_id": null
        },
        {
            "label": "ten",
            "shape_type": "point",
            "points": [
                [
                    824,
                    354
                ]
            ],
            "flags": {},
            "group_id": null
        },
        {
            "label": "vp1-1",
            "shape_type": "rectangle",
            "points": [
                [
                    809,
                    1264
                ],
                [
                    975,
                    1430
                ]
            ],
            "flags": {},
            "group_id": null
        },
        {
            "label": "va1",
            "shape_type": "rectangle",
            "points": [
                [
                    870,
                    1170
                ],
                [
                    915,
                    1204
                ]
            ],
            "flags": {},
            "group_id": null
        },
        {
            "label": "va1",
            "shape_type": "rectangle",
            "points": [
                [
                    730,
                    1410
                ],
                [
                    770,
                    1453
                ]
            ],
            "flags": {},
            "group_id": null
        },
        {
            "label": "va1",
            "shape_type": "rectangle",
            "points": [
                [
                    1014,
                    1410
                ],
                [
                    1054,
                    1452
                ]
            ],
            "flags": {},
            "group_id": null
        },
        {
            "label": "v1",
            "shape_type": "rectangle",
            "points": [
                [
                    695,
                    1536
                ],
                [
                    1026,
                    1627
                ]
            ],
            "flags": {},
            "group_id": null
        },
        {
            "label": "v1",
            "shape_type": "rectangle",
            "points": [
                [
                    1363,
                    1538
                ],
                [
                    1694,
                    1627
                ]
            ],
            "flags": {},
            "group_id": null
        },
        {
            "label": "va1",
            "shape_type": "rectangle",
            "points": [
                [
                    1398,
                    1409
                ],
                [
                    1438,
                    1452
                ]
            ],
            "flags": {},
            "group_id": null
        },
        {
            "label": "va1",
            "shape_type": "rectangle",
            "points": [
                [
                    1683,
                    1410
                ],
                [
                    1722,
                    1452
                ]
            ],
            "flags": {},
            "group_id": null
        },
        {
            "label": "vp1-1",
            "shape_type": "rectangle",
            "points": [
                [
                    1477,
                    1264
                ],
                [
                    1644,
                    1429
                ]
            ],
            "flags": {},
            "group_id": null
        },
        {
            "label": "va1",
            "shape_type": "rectangle",
            "points": [
                [
                    1539,
                    1170
                ],
                [
                    1582,
                    1204
                ]
            ],
            "flags": {},
            "group_id": null
        },
        {
            "label": "v1",
            "shape_type": "rectangle",
            "points": [
                [
                    2154,
                    1531
                ],
                [
                    2486,
                    1621
                ]
            ],
            "flags": {},
            "group_id": null
        },
        {
            "label": "va1",
            "shape_type": "rectangle",
            "points": [
                [
                    2188,
                    1389
                ],
                [
                    2228,
                    1432
                ]
            ],
            "flags": {},
            "group_id": null
        },
        {
            "label": "va1",
            "shape_type": "rectangle",
            "points": [
                [
                    2462,
                    1407
                ],
                [
                    2506,
                    1442
                ]
            ],
            "flags": {},
            "group_id": null
        },
        {
            "label": "vp1-1",
            "shape_type": "rectangle",
            "points": [
                [
                    2268,
                    1258
                ],
                [
                    2434,
                    1424
                ]
            ],
            "flags": {},
            "group_id": null
        },
        {
            "label": "va1",
            "shape_type": "rectangle",
            "points": [
                [
                    2341,
                    1159
                ],
                [
                    2381,
                    1203
                ]
            ],
            "flags": {},
            "group_id": null
        },
        {
            "label": "p1-1",
            "shape_type": "rectangle",
            "points": [
                [
                    3092,
                    252
                ],
                [
                    3232,
                    402
                ]
            ],
            "flags": {},
            "group_id": null
        },
        {
            "label": "p1-1",
            "shape_type": "rectangle",
            "points": [
                [
                    3092,
                    428
                ],
                [
                    3232,
                    577
                ]
            ],
            "flags": {},
            "group_id": null
        },
        {
            "label": "p1-1",
            "shape_type": "rectangle",
            "points": [
                [
                    3092,
                    613
                ],
                [
                    3231,
                    761
                ]
            ],
            "flags": {},
            "group_id": null
        },
        {
            "label": "g1",
            "shape_type": "rectangle",
            "points": [
                [
                    3205,
                    613
                ],
                [
                    3210,
                    761
                ]
            ],
            "flags": {},
            "group_id": null
        },
        {
            "label": "x1",
            "shape_type": "rectangle",
            "points": [
                [
                    3087,
                    1178
                ],
                [
                    3240,
                    1205
                ]
            ],
            "flags": {},
            "group_id": null
        },
        {
            "label": "j1",
            "shape_type": "rectangle",
            "points": [
                [
                    1940,
                    122
                ],
                [
                    1971,
                    166
                ]
            ],
            "flags": {},
            "group_id": null
        },
        {
            "label": "j1",
            "shape_type": "rectangle",
            "points": [
                [
                    2102,
                    271
                ],
                [
                    2185,
                    350
                ]
            ],
            "flags": {},
            "group_id": null
        },
        {
            "label": "j1",
            "shape_type": "rectangle",
            "points": [
                [
                    1635,
                    278
                ],
                [
                    1744,
                    362
                ]
            ],
            "flags": {},
            "group_id": null
        },
        {
            "label": "j1",
            "shape_type": "rectangle",
            "points": [
                [
                    1953,
                    503
                ],
                [
                    2062,
                    583
                ]
            ],
            "flags": {},
            "group_id": null
        },
        {
            "label": "sm",
            "shape_type": "rectangle",
            "points": [
                [
                    1826,
                    1912
                ],
                [
                    3281,
                    2580
                ]
            ],
            "flags": {},
            "group_id": null
        },
        {
            "label": "btl",
            "shape_type": "rectangle",
            "points": [
                [
                    2347,
                    2570
                ],
                [
                    4150,
                    2873
                ]
            ],
            "flags": {},
            "group_id": null
        },
        {
            "label": "mask",
            "lineType": [
                "LLLLL"
            ],
            "shape_type": "polygon",
            "points": [
                [
                    2345,
                    2868
                ],
                [
                    2346,
                    2563
                ],
                [
                    4151,
                    2562
                ],
                [
                    4152,
                    2871
                ],
                [
                    2345,
                    2868
                ]
            ],
            "flags": {},
            "group_id": null
        },
        {
            "label": "mask",
            "lineType": [
                "LLLLLLLLLLLLLLLLLLLLLL"
            ],
            "shape_type": "polygon",
            "points": [
                [
                    1865,
                    2596
                ],
                [
                    2275,
                    2600
                ],
                [
                    2308,
                    2520
                ],
                [
                    2935,
                    2536
                ],
                [
                    3123,
                    2537
                ],
                [
                    3154,
                    2431
                ],
                [
                    3190,
                    2300
                ],
                [
                    3270,
                    2266
                ],
                [
                    3296,
                    2241
                ],
                [
                    3295,
                    2187
                ],
                [
                    2752,
                    2169
                ],
                [
                    2809,
                    2058
                ],
                [
                    2804,
                    1972
                ],
                [
                    2717,
                    1956
                ],
                [
                    2218,
                    1973
                ],
                [
                    2188,
                    1914
                ],
                [
                    2003,
                    1891
                ],
                [
                    1878,
                    1896
                ],
                [
                    1812,
                    1911
                ],
                [
                    1820,
                    1988
                ],
                [
                    1861,
                    1989
                ],
                [
                    1865,
                    2596
                ]
            ],
            "flags": {},
            "group_id": null
        },
        {
            "label": "mask",
            "lineType": [
                "LLLLLLLLL"
            ],
            "shape_type": "polygon",
            "points": [
                [
                    1735,
                    2739
                ],
                [
                    340,
                    2733
                ],
                [
                    338,
                    2057
                ],
                [
                    852,
                    2049
                ],
                [
                    856,
                    1993
                ],
                [
                    1178,
                    2000
                ],
                [
                    1178,
                    2052
                ],
                [
                    1737,
                    2055
                ],
                [
                    1735,
                    2739
                ]
            ],
            "flags": {},
            "group_id": null
        },
        {
            "label": "mask",
            "lineType": [
                "LLLLLLLLLLLLLLLLLLL"
            ],
            "shape_type": "polygon",
            "points": [
                [
                    671,
                    1629
                ],
                [
                    1038,
                    1630
                ],
                [
                    1100,
                    1583
                ],
                [
                    1155,
                    1544
                ],
                [
                    1180,
                    1496
                ],
                [
                    1170,
                    1444
                ],
                [
                    1066,
                    1414
                ],
                [
                    1020,
                    1359
                ],
                [
                    957,
                    1232
                ],
                [
                    965,
                    1136
                ],
                [
                    945,
                    1058
                ],
                [
                    785,
                    1051
                ],
                [
                    800,
                    1180
                ],
                [
                    736,
                    1352
                ],
                [
                    679,
                    1404
                ],
                [
                    607,
                    1422
                ],
                [
                    559,
                    1450
                ],
                [
                    578,
                    1531
                ],
                [
                    671,
                    1629
                ]
            ],
            "flags": {},
            "group_id": null
        },
        {
            "label": "mask",
            "lineType": [
                "LLLLLLLLLLLLLLLLLLL"
            ],
            "shape_type": "polygon",
            "points": [
                [
                    1325,
                    1642
                ],
                [
                    1705,
                    1641
                ],
                [
                    1746,
                    1556
                ],
                [
                    1859,
                    1505
                ],
                [
                    1850,
                    1447
                ],
                [
                    1736,
                    1393
                ],
                [
                    1685,
                    1320
                ],
                [
                    1625,
                    1229
                ],
                [
                    1653,
                    1069
                ],
                [
                    1576,
                    1036
                ],
                [
                    1458,
                    1075
                ],
                [
                    1460,
                    1246
                ],
                [
                    1428,
                    1332
                ],
                [
                    1388,
                    1406
                ],
                [
                    1283,
                    1412
                ],
                [
                    1234,
                    1434
                ],
                [
                    1252,
                    1498
                ],
                [
                    1331,
                    1539
                ],
                [
                    1325,
                    1642
                ]
            ],
            "flags": {},
            "group_id": null
        },
        {
            "label": "mask",
            "lineType": [
                "LLLLLLLLLLLLLLLLLLLL"
            ],
            "shape_type": "polygon",
            "points": [
                [
                    2140,
                    1629
                ],
                [
                    2540,
                    1631
                ],
                [
                    2568,
                    1539
                ],
                [
                    2641,
                    1550
                ],
                [
                    2692,
                    1494
                ],
                [
                    2683,
                    1420
                ],
                [
                    2550,
                    1389
                ],
                [
                    2524,
                    1329
                ],
                [
                    2578,
                    1187
                ],
                [
                    2565,
                    1118
                ],
                [
                    2367,
                    1113
                ],
                [
                    2322,
                    1150
                ],
                [
                    2246,
                    1286
                ],
                [
                    2229,
                    1328
                ],
                [
                    2187,
                    1365
                ],
                [
                    2138,
                    1356
                ],
                [
                    1997,
                    1364
                ],
                [
                    2008,
                    1458
                ],
                [
                    2133,
                    1480
                ],
                [
                    2140,
                    1629
                ]
            ],
            "flags": {},
            "group_id": null
        },
        {
            "label": "mask",
            "lineType": [
                "LLLLLLLLLLLLLLLLLLLLL"
            ],
            "shape_type": "polygon",
            "points": [
                [
                    1752,
                    665
                ],
                [
                    1807,
                    687
                ],
                [
                    2001,
                    671
                ],
                [
                    2054,
                    607
                ],
                [
                    2092,
                    511
                ],
                [
                    2094,
                    417
                ],
                [
                    2212,
                    361
                ],
                [
                    2199,
                    253
                ],
                [
                    2107,
                    229
                ],
                [
                    2030,
                    165
                ],
                [
                    1975,
                    97
                ],
                [
                    1825,
                    103
                ],
                [
                    1800,
                    149
                ],
                [
                    1781,
                    207
                ],
                [
                    1707,
                    236
                ],
                [
                    1653,
                    258
                ],
                [
                    1607,
                    331
                ],
                [
                    1623,
                    363
                ],
                [
                    1669,
                    432
                ],
                [
                    1739,
                    470
                ],
                [
                    1752,
                    665
                ]
            ],
            "flags": {},
            "group_id": null
        },
        {
            "label": "mask",
            "lineType": [
                "LLLLLLLLLLLLLLLLLLL"
            ],
            "shape_type": "polygon",
            "points": [
                [
                    669,
                    871
                ],
                [
                    1059,
                    881
                ],
                [
                    1081,
                    739
                ],
                [
                    1060,
                    639
                ],
                [
                    922,
                    525
                ],
                [
                    866,
                    377
                ],
                [
                    870,
                    197
                ],
                [
                    1021,
                    194
                ],
                [
                    1083,
                    135
                ],
                [
                    1084,
                    49
                ],
                [
                    842,
                    71
                ],
                [
                    750,
                    99
                ],
                [
                    712,
                    156
                ],
                [
                    704,
                    293
                ],
                [
                    704,
                    411
                ],
                [
                    624,
                    529
                ],
                [
                    634,
                    684
                ],
                [
                    679,
                    712
                ],
                [
                    669,
                    871
                ]
            ],
            "flags": {},
            "group_id": null
        },
        {
            "label": "mask",
            "lineType": [
                "LLLLLLLLLLLLLLLLLLLLLLLLLLLLLLLLLL"
            ],
            "shape_type": "polygon",
            "points": [
                [
                    2623,
                    214
                ],
                [
                    2803,
                    140
                ],
                [
                    3478,
                    101
                ],
                [
                    3820,
                    100
                ],
                [
                    3820,
                    742
                ],
                [
                    3607,
                    767
                ],
                [
                    3262,
                    773
                ],
                [
                    3263,
                    1429
                ],
                [
                    3265,
                    1560
                ],
                [
                    3603,
                    1564
                ],
                [
                    3603,
                    1760
                ],
                [
                    3918,
                    1739
                ],
                [
                    3928,
                    1799
                ],
                [
                    3917,
                    1859
                ],
                [
                    3660,
                    1871
                ],
                [
                    3661,
                    2061
                ],
                [
                    3310,
                    2056
                ],
                [
                    3308,
                    1970
                ],
                [
                    3291,
                    1901
                ],
                [
                    3190,
                    1888
                ],
                [
                    3074,
                    1873
                ],
                [
                    2978,
                    1871
                ],
                [
                    2932,
                    1846
                ],
                [
                    2936,
                    1801
                ],
                [
                    3114,
                    1788
                ],
                [
                    3117,
                    1544
                ],
                [
                    3086,
                    1282
                ],
                [
                    3054,
                    1166
                ],
                [
                    3112,
                    1003
                ],
                [
                    3109,
                    784
                ],
                [
                    3039,
                    751
                ],
                [
                    2782,
                    715
                ],
                [
                    2614,
                    707
                ],
                [
                    2623,
                    214
                ]
            ],
            "flags": {},
            "group_id": null
        },
        {
            "label": "Ns",
            "shape_type": "point",
            "points": [
                [
                    1905,
                    408
                ]
            ],
            "flags": {},
            "group_id": null
        },
        {
            "label": "Ne",
            "shape_type": "point",
            "points": [
                [
                    1906,
                    230
                ]
            ],
            "flags": {},
            "group_id": null
        },
        {
            "label": "wlb",
            "shape_type": "rectangle",
            "points": [
                [
                    343,
                    2004
                ],
                [
                    1732,
                    2727
                ]
            ],
            "flags": {},
            "group_id": null
        },
        {
            "label": "wz3",
            "shape_type": "rectangle",
            "points": [
                [
                    1759,
                    607
                ],
                [
                    1972,
                    655
                ]
            ],
            "flags": {},
            "group_id": null
        },
        {
            "label": "wz3-l",
            "lineType": "LL",
            "shape_type": "line",
            "points": [
                [
                    1899,
                    630
                ],
                [
                    1900,
                    580
                ]
            ],
            "flags": {},
            "group_id": null
        },
        {
            "label": "wz3-l",
            "lineType": "LL",
            "shape_type": "line",
            "points": [
                [
                    896,
                    1182
                ],
                [
                    896,
                    1100
                ]
            ],
            "flags": {},
            "group_id": null
        },
        {
            "label": "wz3-l",
            "lineType": "LL",
            "shape_type": "line",
            "points": [
                [
                    752,
                    1440
                ],
                [
                    679,
                    1465
                ]
            ],
            "flags": {},
            "group_id": null
        },
        {
            "label": "wz3-l",
            "lineType": "LL",
            "shape_type": "line",
            "points": [
                [
                    1038,
                    1438
                ],
                [
                    1079,
                    1482
                ]
            ],
            "flags": {},
            "group_id": null
        },
        {
            "label": "wz3-l",
            "lineType": "LL",
            "shape_type": "line",
            "points": [
                [
                    1411,
                    1433
                ],
                [
                    1348,
                    1464
                ]
            ],
            "flags": {},
            "group_id": null
        },
        {
            "label": "wz3-l",
            "lineType": "LL",
            "shape_type": "line",
            "points": [
                [
                    1565,
                    1179
                ],
                [
                    1565,
                    1094
                ]
            ],
            "flags": {},
            "group_id": null
        },
        {
            "label": "wz3-l",
            "lineType": "LL",
            "shape_type": "line",
            "points": [
                [
                    1704,
                    1436
                ],
                [
                    1749,
                    1476
                ]
            ],
            "flags": {},
            "group_id": null
        },
        {
            "label": "wz3-l",
            "lineType": "LL",
            "shape_type": "line",
            "points": [
                [
                    2199,
                    1416
                ],
                [
                    2138,
                    1421
                ]
            ],
            "flags": {},
            "group_id": null
        },
        {
            "label": "wz3-l",
            "lineType": "LL",
            "shape_type": "line",
            "points": [
                [
                    2363,
                    1181
                ],
                [
                    2448,
                    1166
                ]
            ],
            "flags": {},
            "group_id": null
        },
        {
            "label": "wz3-l",
            "lineType": "LL",
            "shape_type": "line",
            "points": [
                [
                    2483,
                    1433
                ],
                [
                    2552,
                    1466
                ]
            ],
            "flags": {},
            "group_id": null
        },
        {
            "label": "wz3-l",
            "lineType": "LL",
            "shape_type": "line",
            "points": [
                [
                    2759,
                    666
                ],
                [
                    3105,
                    697
                ]
            ],
            "flags": {},
            "group_id": null
        },
        {
            "label": "wz3-l",
            "lineType": "LL",
            "shape_type": "line",
            "points": [
                [
                    2735,
                    453
                ],
                [
                    3104,
                    513
                ]
            ],
            "flags": {},
            "group_id": null
        },
        {
            "label": "wz3-l",
            "lineType": "LL",
            "shape_type": "line",
            "points": [
                [
                    2735,
                    274
                ],
                [
                    3105,
                    330
                ]
            ],
            "flags": {},
            "group_id": null
        },
        {
            "label": "wz3",
            "shape_type": "rectangle",
            "points": [
                [
                    2640,
                    256
                ],
                [
                    2766,
                    299
                ]
            ],
            "flags": {},
            "group_id": null
        },
        {
            "label": "wz3",
            "shape_type": "rectangle",
            "points": [
                [
                    2639,
                    436
                ],
                [
                    2767,
                    478
                ]
            ],
            "flags": {},
            "group_id": null
        },
        {
            "label": "wz3",
            "shape_type": "rectangle",
            "points": [
                [
                    2648,
                    654
                ],
                [
                    2781,
                    681
                ]
            ],
            "flags": {},
            "group_id": null
        },
        {
            "label": "wz3",
            "shape_type": "rectangle",
            "points": [
                [
                    2417,
                    1133
                ],
                [
                    2551,
                    1196
                ]
            ],
            "flags": {},
            "group_id": null
        },
        {
            "label": "wz3",
            "shape_type": "rectangle",
            "points": [
                [
                    2526,
                    1433
                ],
                [
                    2677,
                    1498
                ]
            ],
            "flags": {},
            "group_id": null
        },
        {
            "label": "wz3",
            "shape_type": "rectangle",
            "points": [
                [
                    2024,
                    1380
                ],
                [
                    2173,
                    1442
                ]
            ],
            "flags": {},
            "group_id": null
        },
        {
            "label": "wz3",
            "shape_type": "rectangle",
            "points": [
                [
                    1715,
                    1459
                ],
                [
                    1842,
                    1503
                ]
            ],
            "flags": {},
            "group_id": null
        },
        {
            "label": "wz3",
            "shape_type": "rectangle",
            "points": [
                [
                    1253,
                    1439
                ],
                [
                    1381,
                    1481
                ]
            ],
            "flags": {},
            "group_id": null
        },
        {
            "label": "wz3",
            "shape_type": "rectangle",
            "points": [
                [
                    1487,
                    1071
                ],
                [
                    1615,
                    1114
                ]
            ],
            "flags": {},
            "group_id": null
        },
        {
            "label": "wz3",
            "shape_type": "rectangle",
            "points": [
                [
                    814,
                    1073
                ],
                [
                    943,
                    1117
                ]
            ],
            "flags": {},
            "group_id": null
        },
        {
            "label": "wz3",
            "shape_type": "rectangle",
            "points": [
                [
                    582,
                    1441
                ],
                [
                    709,
                    1484
                ]
            ],
            "flags": {},
            "group_id": null
        },
        {
            "label": "wz3",
            "shape_type": "rectangle",
            "points": [
                [
                    1041,
                    1460
                ],
                [
                    1170,
                    1505
                ]
            ],
            "flags": {},
            "group_id": null
        }
    ],
    "flags": {},
    "imageData": null,
    "version": "4.5.7"
}