{
    "imageHeight": 2908,
    "imageWidth": 4205,
    "imagePath": "样本6_127_31.png",
    "shapes": [
        {
            "label": "t1",
            "shape_type": "rectangle",
            "points": [
                [
                    3397,
                    125
                ],
                [
                    3467,
                    1805
                ]
            ],
            "flags": {},
            "group_id": null
        },
        {
            "label": "c1",
            "shape_type": "rectangle",
            "points": [
                [
                    3422,
                    125
                ],
                [
                    3439,
                    278
                ]
            ],
            "flags": {},
            "group_id": null
        },
        {
            "label": "d1",
            "shape_type": "rectangle",
            "points": [
                [
                    3295,
                    309
                ],
                [
                    3361,
                    396
                ]
            ],
            "flags": {},
            "group_id": null
        },
        {
            "label": "d1",
            "shape_type": "rectangle",
            "points": [
                [
                    3296,
                    429
                ],
                [
                    3360,
                    515
                ]
            ],
            "flags": {},
            "group_id": null
        },
        {
            "label": "d1",
            "shape_type": "rectangle",
            "points": [
                [
                    3295,
                    549
                ],
                [
                    3359,
                    634
                ]
            ],
            "flags": {},
            "group_id": null
        },
        {
            "label": "d1",
            "shape_type": "rectangle",
            "points": [
                [
                    3296,
                    654
                ],
                [
                    3360,
                    742
                ]
            ],
            "flags": {},
            "group_id": null
        },
        {
            "label": "d1",
            "shape_type": "rectangle",
            "points": [
                [
                    3502,
                    655
                ],
                [
                    3566,
                    742
                ]
            ],
            "flags": {},
            "group_id": null
        },
        {
            "label": "d1",
            "shape_type": "rectangle",
            "points": [
                [
                    3502,
                    549
                ],
                [
                    3566,
                    636
                ]
            ],
            "flags": {},
            "group_id": null
        },
        {
            "label": "d1",
            "shape_type": "rectangle",
            "points": [
                [
                    3502,
                    428
                ],
                [
                    3566,
                    516
                ]
            ],
            "flags": {},
            "group_id": null
        },
        {
            "label": "d1",
            "shape_type": "rectangle",
            "points": [
                [
                    3502,
                    308
                ],
                [
                    3565,
                    396
                ]
            ],
            "flags": {},
            "group_id": null
        },
        {
            "label": "b1",
            "shape_type": "rectangle",
            "points": [
                [
                    2976,
                    1575
                ],
                [
                    3153,
                    1805
                ]
            ],
            "flags": {},
            "group_id": null
        },
        {
            "label": "b1",
            "shape_type": "rectangle",
            "points": [
                [
                    3153,
                    1575
                ],
                [
                    3329,
                    1806
                ]
            ],
            "flags": {},
            "group_id": null
        },
        {
            "label": "v1",
            "shape_type": "rectangle",
            "points": [
                [
                    3315,
                    1934
                ],
                [
                    3534,
                    2009
                ]
            ],
            "flags": {},
            "group_id": null
        },
        {
            "label": "h1",
            "shape_type": "rectangle",
            "points": [
                [
                    3789,
                    1735
                ],
                [
                    3932,
                    1803
                ]
            ],
            "flags": {},
            "group_id": null
        },
        {
            "label": "seven",
            "shape_type": "point",
            "points": [
                [
                    3009,
                    1575
                ]
            ],
            "flags": {},
            "group_id": null
        },
        {
            "label": "eight",
            "shape_type": "point",
            "points": [
                [
                    3119,
                    1575
                ]
            ],
            "flags": {},
            "group_id": null
        },
        {
            "label": "seven",
            "shape_type": "point",
            "points": [
                [
                    3184,
                    1575
                ]
            ],
            "flags": {},
            "group_id": null
        },
        {
            "label": "eight",
            "shape_type": "point",
            "points": [
                [
                    3294,
                    1575
                ]
            ],
            "flags": {},
            "group_id": null
        },
        {
            "label": "fourteen",
            "shape_type": "point",
            "points": [
                [
                    3009,
                    1791
                ]
            ],
            "flags": {},
            "group_id": null
        },
        {
            "label": "fourteen",
            "shape_type": "point",
            "points": [
                [
                    3119,
                    1791
                ]
            ],
            "flags": {},
            "group_id": null
        },
        {
            "label": "fourteen",
            "shape_type": "point",
            "points": [
                [
                    3184,
                    1791
                ]
            ],
            "flags": {},
            "group_id": null
        },
        {
            "label": "fourteen",
            "shape_type": "point",
            "points": [
                [
                    3294,
                    1791
                ]
            ],
            "flags": {},
            "group_id": null
        },
        {
            "label": "thirteen",
            "shape_type": "point",
            "points": [
                [
                    3152,
                    1791
                ]
            ],
            "flags": {},
            "group_id": null
        },
        {
            "label": "eight",
            "shape_type": "point",
            "points": [
                [
                    3329,
                    1792
                ]
            ],
            "flags": {},
            "group_id": null
        },
        {
            "label": "fourteen",
            "shape_type": "point",
            "points": [
                [
                    2977,
                    1803
                ]
            ],
            "flags": {},
            "group_id": null
        },
        {
            "label": "fourteen",
            "shape_type": "point",
            "points": [
                [
                    3153,
                    1802
                ]
            ],
            "flags": {},
            "group_id": null
        },
        {
            "label": "h1",
            "shape_type": "rectangle",
            "points": [
                [
                    3799,
                    1497
                ],
                [
                    3943,
                    1566
                ]
            ],
            "flags": {},
            "group_id": null
        },
        {
            "label": "h1",
            "shape_type": "rectangle",
            "points": [
                [
                    3793,
                    683
                ],
                [
                    3936,
                    751
                ]
            ],
            "flags": {},
            "group_id": null
        },
        {
            "label": "h1",
            "shape_type": "rectangle",
            "points": [
                [
                    3788,
                    569
                ],
                [
                    3930,
                    637
                ]
            ],
            "flags": {},
            "group_id": null
        },
        {
            "label": "h1",
            "shape_type": "rectangle",
            "points": [
                [
                    3788,
                    455
                ],
                [
                    3932,
                    523
                ]
            ],
            "flags": {},
            "group_id": null
        },
        {
            "label": "h1",
            "shape_type": "rectangle",
            "points": [
                [
                    3788,
                    333
                ],
                [
                    3931,
                    400
                ]
            ],
            "flags": {},
            "group_id": null
        },
        {
            "label": "h1",
            "shape_type": "rectangle",
            "points": [
                [
                    3799,
                    152
                ],
                [
                    3944,
                    219
                ]
            ],
            "flags": {},
            "group_id": null
        },
        {
            "label": "p1-1",
            "shape_type": "rectangle",
            "points": [
                [
                    3389,
                    313
                ],
                [
                    3472,
                    416
                ]
            ],
            "flags": {},
            "group_id": null
        },
        {
            "label": "p1-1",
            "shape_type": "rectangle",
            "points": [
                [
                    3389,
                    430
                ],
                [
                    3472,
                    531
                ]
            ],
            "flags": {},
            "group_id": null
        },
        {
            "label": "p1-1",
            "shape_type": "rectangle",
            "points": [
                [
                    3388,
                    546
                ],
                [
                    3472,
                    648
                ]
            ],
            "flags": {},
            "group_id": null
        },
        {
            "label": "p1-1",
            "shape_type": "rectangle",
            "points": [
                [
                    3388,
                    672
                ],
                [
                    3472,
                    774
                ]
            ],
            "flags": {},
            "group_id": null
        },
        {
            "label": "a1-1",
            "shape_type": "rectangle",
            "points": [
                [
                    3389,
                    687
                ],
                [
                    3408,
                    766
                ]
            ],
            "flags": {},
            "group_id": null
        },
        {
            "label": "a1-2",
            "shape_type": "rectangle",
            "points": [
                [
                    3452,
                    685
                ],
                [
                    3472,
                    767
                ]
            ],
            "flags": {},
            "group_id": null
        },
        {
            "label": "a1-1",
            "shape_type": "rectangle",
            "points": [
                [
                    3389,
                    558
                ],
                [
                    3408,
                    636
                ]
            ],
            "flags": {},
            "group_id": null
        },
        {
            "label": "a1-2",
            "shape_type": "rectangle",
            "points": [
                [
                    3452,
                    556
                ],
                [
                    3472,
                    638
                ]
            ],
            "flags": {},
            "group_id": null
        },
        {
            "label": "a1-1",
            "shape_type": "rectangle",
            "points": [
                [
                    3389,
                    441
                ],
                [
                    3407,
                    520
                ]
            ],
            "flags": {},
            "group_id": null
        },
        {
            "label": "a1-2",
            "shape_type": "rectangle",
            "points": [
                [
                    3452,
                    439
                ],
                [
                    3472,
                    522
                ]
            ],
            "flags": {},
            "group_id": null
        },
        {
            "label": "a1-1",
            "shape_type": "rectangle",
            "points": [
                [
                    3389,
                    325
                ],
                [
                    3407,
                    404
                ]
            ],
            "flags": {},
            "group_id": null
        },
        {
            "label": "a1-2",
            "shape_type": "rectangle",
            "points": [
                [
                    3453,
                    322
                ],
                [
                    3473,
                    404
                ]
            ],
            "flags": {},
            "group_id": null
        },
        {
            "label": "g1",
            "shape_type": "rectangle",
            "points": [
                [
                    3410,
                    313
                ],
                [
                    3415,
                    415
                ]
            ],
            "flags": {},
            "group_id": null
        },
        {
            "label": "g1",
            "shape_type": "rectangle",
            "points": [
                [
                    3447,
                    313
                ],
                [
                    3452,
                    415
                ]
            ],
            "flags": {},
            "group_id": null
        },
        {
            "label": "g1",
            "shape_type": "rectangle",
            "points": [
                [
                    3410,
                    430
                ],
                [
                    3414,
                    530
                ]
            ],
            "flags": {},
            "group_id": null
        },
        {
            "label": "g1",
            "shape_type": "rectangle",
            "points": [
                [
                    3447,
                    429
                ],
                [
                    3451,
                    531
                ]
            ],
            "flags": {},
            "group_id": null
        },
        {
            "label": "g1",
            "shape_type": "rectangle",
            "points": [
                [
                    3411,
                    546
                ],
                [
                    3416,
                    648
                ]
            ],
            "flags": {},
            "group_id": null
        },
        {
            "label": "g1",
            "shape_type": "rectangle",
            "points": [
                [
                    3446,
                    546
                ],
                [
                    3451,
                    649
                ]
            ],
            "flags": {},
            "group_id": null
        },
        {
            "label": "g1",
            "shape_type": "rectangle",
            "points": [
                [
                    3411,
                    672
                ],
                [
                    3415,
                    774
                ]
            ],
            "flags": {},
            "group_id": null
        },
        {
            "label": "g1",
            "shape_type": "rectangle",
            "points": [
                [
                    3447,
                    672
                ],
                [
                    3451,
                    773
                ]
            ],
            "flags": {},
            "group_id": null
        },
        {
            "label": "n1",
            "shape_type": "rectangle",
            "points": [
                [
                    1411,
                    283
                ],
                [
                    1917,
                    723
                ]
            ],
            "flags": {},
            "group_id": null
        },
        {
            "label": "",
            "shape_type": "",
            "points": [],
            "flags": {},
            "group_id": null
        },
        {
            "label": "d1",
            "shape_type": "rectangle",
            "points": [
                [
                    1139,
                    979
                ],
                [
                    1221,
                    1118
                ]
            ],
            "flags": {},
            "group_id": null
        },
        {
            "label": "d1",
            "shape_type": "rectangle",
            "points": [
                [
                    466,
                    980
                ],
                [
                    550,
                    1118
                ]
            ],
            "flags": {},
            "group_id": null
        },
        {
            "label": "v1",
            "shape_type": "rectangle",
            "points": [
                [
                    621,
                    1180
                ],
                [
                    812,
                    1251
                ]
            ],
            "flags": {},
            "group_id": null
        },
        {
            "label": "vb1",
            "shape_type": "rectangle",
            "points": [
                [
                    484,
                    807
                ],
                [
                    644,
                    897
                ]
            ],
            "flags": {},
            "group_id": null
        },
        {
            "label": "seven",
            "shape_type": "point",
            "points": [
                [
                    484,
                    807
                ]
            ],
            "flags": {},
            "group_id": null
        },
        {
            "label": "eight",
            "shape_type": "point",
            "points": [
                [
                    644,
                    807
                ]
            ],
            "flags": {},
            "group_id": null
        },
        {
            "label": "nine",
            "shape_type": "point",
            "points": [
                [
                    485,
                    897
                ]
            ],
            "flags": {},
            "group_id": null
        },
        {
            "label": "ten",
            "shape_type": "point",
            "points": [
                [
                    644,
                    897
                ]
            ],
            "flags": {},
            "group_id": null
        },
        {
            "label": "va1",
            "shape_type": "rectangle",
            "points": [
                [
                    870,
                    807
                ],
                [
                    922,
                    846
                ]
            ],
            "flags": {},
            "group_id": null
        },
        {
            "label": "va1",
            "shape_type": "rectangle",
            "points": [
                [
                    850,
                    837
                ],
                [
                    898,
                    888
                ]
            ],
            "flags": {},
            "group_id": null
        },
        {
            "label": "va1",
            "shape_type": "rectangle",
            "points": [
                [
                    892,
                    839
                ],
                [
                    941,
                    890
                ]
            ],
            "flags": {},
            "group_id": null
        },
        {
            "label": "vp2-1",
            "shape_type": "rectangle",
            "points": [
                [
                    2423,
                    193
                ],
                [
                    2503,
                    274
                ]
            ],
            "flags": {},
            "group_id": null
        },
        {
            "label": "v1",
            "shape_type": "rectangle",
            "points": [
                [
                    2387,
                    406
                ],
                [
                    2529,
                    457
                ]
            ],
            "flags": {},
            "group_id": null
        },
        {
            "label": "va1",
            "shape_type": "rectangle",
            "points": [
                [
                    2379,
                    172
                ],
                [
                    2421,
                    208
                ]
            ],
            "flags": {},
            "group_id": null
        },
        {
            "label": "va1",
            "shape_type": "rectangle",
            "points": [
                [
                    2513,
                    170
                ],
                [
                    2553,
                    211
                ]
            ],
            "flags": {},
            "group_id": null
        },
        {
            "label": "va1",
            "shape_type": "rectangle",
            "points": [
                [
                    2449,
                    293
                ],
                [
                    2491,
                    332
                ]
            ],
            "flags": {},
            "group_id": null
        },
        {
            "label": "va1",
            "shape_type": "rectangle",
            "points": [
                [
                    2368,
                    532
                ],
                [
                    2411,
                    567
                ]
            ],
            "flags": {},
            "group_id": null
        },
        {
            "label": "va1",
            "shape_type": "rectangle",
            "points": [
                [
                    2504,
                    529
                ],
                [
                    2543,
                    570
                ]
            ],
            "flags": {},
            "group_id": null
        },
        {
            "label": "va1",
            "shape_type": "rectangle",
            "points": [
                [
                    2440,
                    653
                ],
                [
                    2481,
                    691
                ]
            ],
            "flags": {},
            "group_id": null
        },
        {
            "label": "vp2-1",
            "shape_type": "rectangle",
            "points": [
                [
                    2413,
                    553
                ],
                [
                    2494,
                    633
                ]
            ],
            "flags": {},
            "group_id": null
        },
        {
            "label": "v1",
            "shape_type": "rectangle",
            "points": [
                [
                    2352,
                    784
                ],
                [
                    2558,
                    837
                ]
            ],
            "flags": {},
            "group_id": null
        },
        {
            "label": "vp2-1",
            "shape_type": "rectangle",
            "points": [
                [
                    2412,
                    985
                ],
                [
                    2492,
                    1064
                ]
            ],
            "flags": {},
            "group_id": null
        },
        {
            "label": "v1",
            "shape_type": "rectangle",
            "points": [
                [
                    2363,
                    1205
                ],
                [
                    2568,
                    1259
                ]
            ],
            "flags": {},
            "group_id": null
        },
        {
            "label": "va1",
            "shape_type": "rectangle",
            "points": [
                [
                    2440,
                    1086
                ],
                [
                    2481,
                    1124
                ]
            ],
            "flags": {},
            "group_id": null
        },
        {
            "label": "va1",
            "shape_type": "rectangle",
            "points": [
                [
                    2366,
                    972
                ],
                [
                    2402,
                    1014
                ]
            ],
            "flags": {},
            "group_id": null
        },
        {
            "label": "va1",
            "shape_type": "rectangle",
            "points": [
                [
                    2497,
                    962
                ],
                [
                    2539,
                    999
                ]
            ],
            "flags": {},
            "group_id": null
        },
        {
            "label": "va1",
            "shape_type": "rectangle",
            "points": [
                [
                    2374,
                    1347
                ],
                [
                    2416,
                    1383
                ]
            ],
            "flags": {},
            "group_id": null
        },
        {
            "label": "va1",
            "shape_type": "rectangle",
            "points": [
                [
                    2509,
                    1346
                ],
                [
                    2548,
                    1386
                ]
            ],
            "flags": {},
            "group_id": null
        },
        {
            "label": "va1",
            "shape_type": "rectangle",
            "points": [
                [
                    2446,
                    1469
                ],
                [
                    2486,
                    1508
                ]
            ],
            "flags": {},
            "group_id": null
        },
        {
            "label": "vp2-1",
            "shape_type": "rectangle",
            "points": [
                [
                    2419,
                    1369
                ],
                [
                    2498,
                    1449
                ]
            ],
            "flags": {},
            "group_id": null
        },
        {
            "label": "v1",
            "shape_type": "rectangle",
            "points": [
                [
                    2363,
                    1561
                ],
                [
                    2568,
                    1613
                ]
            ],
            "flags": {},
            "group_id": null
        },
        {
            "label": "seven",
            "shape_type": "point",
            "points": [
                [
                    2977,
                    1792
                ]
            ],
            "flags": {},
            "group_id": null
        },
        {
            "label": "fourteen",
            "shape_type": "point",
            "points": [
                [
                    3329,
                    1803
                ]
            ],
            "flags": {},
            "group_id": null
        },
        {
            "label": "j1",
            "shape_type": "rectangle",
            "points": [
                [
                    1825,
                    639
                ],
                [
                    1915,
                    722
                ]
            ],
            "flags": {},
            "group_id": null
        },
        {
            "label": "j1",
            "shape_type": "rectangle",
            "points": [
                [
                    1793,
                    325
                ],
                [
                    1862,
                    408
                ]
            ],
            "flags": {},
            "group_id": null
        },
        {
            "label": "j1",
            "shape_type": "rectangle",
            "points": [
                [
                    1697,
                    284
                ],
                [
                    1734,
                    327
                ]
            ],
            "flags": {},
            "group_id": null
        },
        {
            "label": "j1",
            "shape_type": "rectangle",
            "points": [
                [
                    1412,
                    491
                ],
                [
                    1512,
                    575
                ]
            ],
            "flags": {},
            "group_id": null
        },
        {
            "label": "sm",
            "shape_type": "rectangle",
            "points": [
                [
                    1956,
                    1712
                ],
                [
                    3778,
                    2517
                ]
            ],
            "flags": {},
            "group_id": null
        },
        {
            "label": "wz4",
            "shape_type": "rectangle",
            "points": [
                [
                    3254,
                    1826
                ],
                [
                    3321,
                    1867
                ]
            ],
            "flags": {},
            "group_id": null
        },
        {
            "label": "wz4",
            "shape_type": "rectangle",
            "points": [
                [
                    3210,
                    1651
                ],
                [
                    3280,
                    1693
                ]
            ],
            "flags": {},
            "group_id": null
        },
        {
            "label": "wz4",
            "shape_type": "rectangle",
            "points": [
                [
                    3036,
                    1651
                ],
                [
                    3104,
                    1693
                ]
            ],
            "flags": {},
            "group_id": null
        },
        {
            "label": "mask",
            "lineType": [
                "LLLLL"
            ],
            "shape_type": "polygon",
            "points": [
                [
                    2349,
                    2872
                ],
                [
                    2350,
                    2569
                ],
                [
                    4151,
                    2569
                ],
                [
                    4151,
                    2872
                ],
                [
                    2349,
                    2872
                ]
            ],
            "flags": {},
            "group_id": null
        },
        {
            "label": "mask",
            "lineType": [
                "LLLLLLLLLLLLLLLLLLLLLLLLLLL"
            ],
            "shape_type": "polygon",
            "points": [
                [
                    1938,
                    2530
                ],
                [
                    2371,
                    2524
                ],
                [
                    2470,
                    2489
                ],
                [
                    2536,
                    2463
                ],
                [
                    2923,
                    2469
                ],
                [
                    3121,
                    2448
                ],
                [
                    3195,
                    2404
                ],
                [
                    3521,
                    2397
                ],
                [
                    3643,
                    2389
                ],
                [
                    3688,
                    2195
                ],
                [
                    3802,
                    2144
                ],
                [
                    3814,
                    2074
                ],
                [
                    3778,
                    2037
                ],
                [
                    3427,
                    2035
                ],
                [
                    2743,
                    2048
                ],
                [
                    2680,
                    1970
                ],
                [
                    2630,
                    1893
                ],
                [
                    2414,
                    1812
                ],
                [
                    2271,
                    1770
                ],
                [
                    2207,
                    1755
                ],
                [
                    2040,
                    1753
                ],
                [
                    2027,
                    1720
                ],
                [
                    1983,
                    1703
                ],
                [
                    1941,
                    1707
                ],
                [
                    1935,
                    1810
                ],
                [
                    1943,
                    1951
                ],
                [
                    1938,
                    2530
                ]
            ],
            "flags": {},
            "group_id": null
        },
        {
            "label": "mask",
            "lineType": [
                "LLLLLLLLLLLLLLLLLLLLLLLLLLLLLLLLLL"
            ],
            "shape_type": "polygon",
            "points": [
                [
                    3305,
                    2025
                ],
                [
                    3554,
                    2019
                ],
                [
                    3669,
                    1904
                ],
                [
                    3847,
                    1846
                ],
                [
                    3948,
                    1819
                ],
                [
                    3951,
                    1508
                ],
                [
                    3914,
                    1431
                ],
                [
                    3777,
                    1406
                ],
                [
                    3705,
                    1196
                ],
                [
                    3710,
                    848
                ],
                [
                    3781,
                    809
                ],
                [
                    3938,
                    771
                ],
                [
                    3965,
                    514
                ],
                [
                    3972,
                    107
                ],
                [
                    3368,
                    105
                ],
                [
                    3225,
                    278
                ],
                [
                    3147,
                    302
                ],
                [
                    3025,
                    328
                ],
                [
                    2997,
                    340
                ],
                [
                    2970,
                    664
                ],
                [
                    2982,
                    764
                ],
                [
                    3297,
                    764
                ],
                [
                    3324,
                    1020
                ],
                [
                    3337,
                    1332
                ],
                [
                    3293,
                    1500
                ],
                [
                    3101,
                    1524
                ],
                [
                    2981,
                    1554
                ],
                [
                    2934,
                    1708
                ],
                [
                    2927,
                    1743
                ],
                [
                    2794,
                    1780
                ],
                [
                    2789,
                    1794
                ],
                [
                    2789,
                    1827
                ],
                [
                    3172,
                    1939
                ],
                [
                    3305,
                    2025
                ]
            ],
            "flags": {},
            "group_id": null
        },
        {
            "label": "mask",
            "lineType": [
                "LLLLLLLL"
            ],
            "shape_type": "polygon",
            "points": [
                [
                    2353,
                    1627
                ],
                [
                    2599,
                    1627
                ],
                [
                    2580,
                    1375
                ],
                [
                    2554,
                    1319
                ],
                [
                    2467,
                    1316
                ],
                [
                    2381,
                    1327
                ],
                [
                    2350,
                    1345
                ],
                [
                    2353,
                    1627
                ]
            ],
            "flags": {},
            "group_id": null
        },
        {
            "label": "mask",
            "lineType": [
                "LLLLLLLLLLLL"
            ],
            "shape_type": "polygon",
            "points": [
                [
                    2332,
                    1270
                ],
                [
                    2610,
                    1269
                ],
                [
                    2645,
                    1079
                ],
                [
                    2669,
                    1002
                ],
                [
                    2674,
                    950
                ],
                [
                    2655,
                    918
                ],
                [
                    2391,
                    941
                ],
                [
                    2301,
                    961
                ],
                [
                    2268,
                    994
                ],
                [
                    2262,
                    1059
                ],
                [
                    2272,
                    1126
                ],
                [
                    2332,
                    1270
                ]
            ],
            "flags": {},
            "group_id": null
        },
        {
            "label": "mask",
            "lineType": [
                "LLLLLLLLL"
            ],
            "shape_type": "polygon",
            "points": [
                [
                    2328,
                    852
                ],
                [
                    2581,
                    847
                ],
                [
                    2626,
                    702
                ],
                [
                    2589,
                    552
                ],
                [
                    2498,
                    511
                ],
                [
                    2402,
                    509
                ],
                [
                    2358,
                    522
                ],
                [
                    2349,
                    560
                ],
                [
                    2328,
                    852
                ]
            ],
            "flags": {},
            "group_id": null
        },
        {
            "label": "mask",
            "lineType": [
                "LLLLLLLLL"
            ],
            "shape_type": "polygon",
            "points": [
                [
                    2381,
                    472
                ],
                [
                    2548,
                    473
                ],
                [
                    2586,
                    337
                ],
                [
                    2572,
                    188
                ],
                [
                    2552,
                    156
                ],
                [
                    2481,
                    148
                ],
                [
                    2366,
                    167
                ],
                [
                    2360,
                    255
                ],
                [
                    2381,
                    472
                ]
            ],
            "flags": {},
            "group_id": null
        },
        {
            "label": "mask",
            "lineType": [
                "LLLLLLLLLL"
            ],
            "shape_type": "polygon",
            "points": [
                [
                    1390,
                    592
                ],
                [
                    1635,
                    708
                ],
                [
                    1812,
                    753
                ],
                [
                    1957,
                    723
                ],
                [
                    1920,
                    431
                ],
                [
                    1886,
                    313
                ],
                [
                    1827,
                    263
                ],
                [
                    1707,
                    242
                ],
                [
                    1433,
                    313
                ],
                [
                    1390,
                    592
                ]
            ],
            "flags": {},
            "group_id": null
        },
        {
            "label": "mask",
            "lineType": [
                "LLLLLLLLLLLLLLLLLL"
            ],
            "shape_type": "polygon",
            "points": [
                [
                    575,
                    1273
                ],
                [
                    935,
                    1268
                ],
                [
                    1186,
                    1153
                ],
                [
                    1241,
                    1118
                ],
                [
                    1245,
                    969
                ],
                [
                    1138,
                    806
                ],
                [
                    1091,
                    729
                ],
                [
                    973,
                    681
                ],
                [
                    878,
                    676
                ],
                [
                    782,
                    691
                ],
                [
                    718,
                    735
                ],
                [
                    668,
                    760
                ],
                [
                    612,
                    778
                ],
                [
                    504,
                    794
                ],
                [
                    459,
                    794
                ],
                [
                    446,
                    1000
                ],
                [
                    433,
                    1117
                ],
                [
                    575,
                    1273
                ]
            ],
            "flags": {},
            "group_id": null
        },
        {
            "label": "mask",
            "lineType": [
                "LLLLLLLLL"
            ],
            "shape_type": "polygon",
            "points": [
                [
                    945,
                    1959
                ],
                [
                    944,
                    1919
                ],
                [
                    1167,
                    1916
                ],
                [
                    1169,
                    1963
                ],
                [
                    1747,
                    1966
                ],
                [
                    1744,
                    2817
                ],
                [
                    371,
                    2816
                ],
                [
                    372,
                    1962
                ],
                [
                    945,
                    1959
                ]
            ],
            "flags": {},
            "group_id": null
        },
        {
            "label": "Ns",
            "shape_type": "point",
            "points": [
                [
                    1675,
                    543
                ]
            ],
            "flags": {},
            "group_id": null
        },
        {
            "label": "Ne",
            "shape_type": "point",
            "points": [
                [
                    1674,
                    365
                ]
            ],
            "flags": {},
            "group_id": null
        },
        {
            "label": "wlb",
            "shape_type": "rectangle",
            "points": [
                [
                    374,
                    1924
                ],
                [
                    1744,
                    2811
                ]
            ],
            "flags": {},
            "group_id": null
        },
        {
            "label": "wz3",
            "shape_type": "rectangle",
            "points": [
                [
                    2512,
                    1064
                ],
                [
                    2602,
                    1148
                ]
            ],
            "flags": {},
            "group_id": null
        },
        {
            "label": "wz3",
            "shape_type": "rectangle",
            "points": [
                [
                    2595,
                    931
                ],
                [
                    2665,
                    1013
                ]
            ],
            "flags": {},
            "group_id": null
        },
        {
            "label": "wz3",
            "shape_type": "rectangle",
            "points": [
                [
                    2276,
                    999
                ],
                [
                    2374,
                    1081
                ]
            ],
            "flags": {},
            "group_id": null
        },
        {
            "label": "wz3-l",
            "lineType": "LL",
            "shape_type": "line",
            "points": [
                [
                    2524,
                    1115
                ],
                [
                    2464,
                    1106
                ]
            ],
            "flags": {},
            "group_id": null
        },
        {
            "label": "wz3-l",
            "lineType": "LL",
            "shape_type": "line",
            "points": [
                [
                    2612,
                    991
                ],
                [
                    2528,
                    984
                ]
            ],
            "flags": {},
            "group_id": null
        },
        {
            "label": "wz3-l",
            "lineType": "LL",
            "shape_type": "line",
            "points": [
                [
                    2381,
                    1006
                ],
                [
                    2354,
                    1023
                ]
            ],
            "flags": {},
            "group_id": null
        },
        {
            "label": "wz3",
            "shape_type": "rectangle",
            "points": [
                [
                    2345,
                    2567
                ],
                [
                    4153,
                    2873
                ]
            ],
            "flags": {},
            "group_id": null
        },
        {
            "label": "wz1",
            "shape_type": "rectangle",
            "points": [
                [
                    3515,
                    1137
                ],
                [
                    3661,
                    1171
                ]
            ],
            "flags": {},
            "group_id": null
        },
        {
            "label": "wz1-l",
            "lineType": "LL",
            "shape_type": "line",
            "points": [
                [
                    3531,
                    1160
                ],
                [
                    3454,
                    1242
                ]
            ],
            "flags": {},
            "group_id": null
        },
        {
            "label": "wz3",
            "shape_type": "rectangle",
            "points": [
                [
                    2988,
                    690
                ],
                [
                    3267,
                    742
                ]
            ],
            "flags": {},
            "group_id": null
        },
        {
            "label": "wz3",
            "shape_type": "rectangle",
            "points": [
                [
                    3038,
                    577
                ],
                [
                    3171,
                    604
                ]
            ],
            "flags": {},
            "group_id": null
        },
        {
            "label": "wz3",
            "shape_type": "rectangle",
            "points": [
                [
                    3013,
                    455
                ],
                [
                    3142,
                    499
                ]
            ],
            "flags": {},
            "group_id": null
        },
        {
            "label": "wz3",
            "shape_type": "rectangle",
            "points": [
                [
                    3012,
                    344
                ],
                [
                    3141,
                    389
                ]
            ],
            "flags": {},
            "group_id": null
        },
        {
            "label": "wz3-l",
            "lineType": "LL",
            "shape_type": "line",
            "points": [
                [
                    3133,
                    382
                ],
                [
                    3394,
                    402
                ]
            ],
            "flags": {},
            "group_id": null
        },
        {
            "label": "wz3-l",
            "lineType": "LL",
            "shape_type": "line",
            "points": [
                [
                    3131,
                    488
                ],
                [
                    3416,
                    521
                ]
            ],
            "flags": {},
            "group_id": null
        },
        {
            "label": "wz3-l",
            "lineType": "LL",
            "shape_type": "line",
            "points": [
                [
                    3162,
                    600
                ],
                [
                    3392,
                    632
                ]
            ],
            "flags": {},
            "group_id": null
        },
        {
            "label": "wz3-l",
            "lineType": "LL",
            "shape_type": "line",
            "points": [
                [
                    3248,
                    720
                ],
                [
                    3405,
                    761
                ]
            ],
            "flags": {},
            "group_id": null
        }
    ],
    "flags": {},
    "imageData": null,
    "version": "4.5.7"
}