{
    "imageHeight": 2908,
    "imageWidth": 4205,
    "imagePath": "样本6_127_122.png",
    "shapes": [
        {
            "label": "vt9",
            "shape_type": "rectangle",
            "points": [
                [
                    520,
                    472
                ],
                [
                    834,
                    786
                ]
            ],
            "flags": {},
            "group_id": null
        },
        {
            "label": "",
            "shape_type": "",
            "points": [],
            "flags": {},
            "group_id": null
        },
        {
            "label": "va1",
            "shape_type": "rectangle",
            "points": [
                [
                    652,
                    585
                ],
                [
                    704,
                    620
                ]
            ],
            "flags": {},
            "group_id": null
        },
        {
            "label": "va1",
            "shape_type": "rectangle",
            "points": [
                [
                    635,
                    614
                ],
                [
                    678,
                    664
                ]
            ],
            "flags": {},
            "group_id": null
        },
        {
            "label": "va1",
            "shape_type": "rectangle",
            "points": [
                [
                    681,
                    617
                ],
                [
                    728,
                    670
                ]
            ],
            "flags": {},
            "group_id": null
        },
        {
            "label": "vb1",
            "shape_type": "rectangle",
            "points": [
                [
                    932,
                    594
                ],
                [
                    1092,
                    685
                ]
            ],
            "flags": {},
            "group_id": null
        },
        {
            "label": "d1",
            "shape_type": "rectangle",
            "points": [
                [
                    475,
                    787
                ],
                [
                    560,
                    925
                ]
            ],
            "flags": {},
            "group_id": null
        },
        {
            "label": "v1",
            "shape_type": "rectangle",
            "points": [
                [
                    738,
                    861
                ],
                [
                    928,
                    946
                ]
            ],
            "flags": {},
            "group_id": null
        },
        {
            "label": "d1",
            "shape_type": "rectangle",
            "points": [
                [
                    1089,
                    788
                ],
                [
                    1172,
                    925
                ]
            ],
            "flags": {},
            "group_id": null
        },
        {
            "label": "vp1-1",
            "shape_type": "rectangle",
            "points": [
                [
                    1556,
                    876
                ],
                [
                    1868,
                    1189
                ]
            ],
            "flags": {},
            "group_id": null
        },
        {
            "label": "va1",
            "shape_type": "rectangle",
            "points": [
                [
                    1716,
                    996
                ],
                [
                    1763,
                    1048
                ]
            ],
            "flags": {},
            "group_id": null
        },
        {
            "label": "va1",
            "shape_type": "rectangle",
            "points": [
                [
                    1687,
                    1041
                ],
                [
                    1740,
                    1081
                ]
            ],
            "flags": {},
            "group_id": null
        },
        {
            "label": "va1",
            "shape_type": "rectangle",
            "points": [
                [
                    1669,
                    1001
                ],
                [
                    1715,
                    1056
                ]
            ],
            "flags": {},
            "group_id": null
        },
        {
            "label": "v1",
            "shape_type": "rectangle",
            "points": [
                [
                    1564,
                    1329
                ],
                [
                    1896,
                    1423
                ]
            ],
            "flags": {},
            "group_id": null
        },
        {
            "label": "n1",
            "shape_type": "rectangle",
            "points": [
                [
                    1888,
                    138
                ],
                [
                    2528,
                    576
                ]
            ],
            "flags": {},
            "group_id": null
        },
        {
            "label": "vp1-1",
            "shape_type": "rectangle",
            "points": [
                [
                    2562,
                    859
                ],
                [
                    2875,
                    1172
                ]
            ],
            "flags": {},
            "group_id": null
        },
        {
            "label": "v1",
            "shape_type": "rectangle",
            "points": [
                [
                    2587,
                    1333
                ],
                [
                    2917,
                    1427
                ]
            ],
            "flags": {},
            "group_id": null
        },
        {
            "label": "vp2-1",
            "shape_type": "rectangle",
            "points": [
                [
                    2745,
                    1689
                ],
                [
                    2878,
                    1823
                ]
            ],
            "flags": {},
            "group_id": null
        },
        {
            "label": "va1",
            "shape_type": "rectangle",
            "points": [
                [
                    2882,
                    1678
                ],
                [
                    2922,
                    1719
                ]
            ],
            "flags": {},
            "group_id": null
        },
        {
            "label": "va1",
            "shape_type": "rectangle",
            "points": [
                [
                    2702,
                    1691
                ],
                [
                    2741,
                    1736
                ]
            ],
            "flags": {},
            "group_id": null
        },
        {
            "label": "va1",
            "shape_type": "rectangle",
            "points": [
                [
                    2801,
                    1834
                ],
                [
                    2842,
                    1877
                ]
            ],
            "flags": {},
            "group_id": null
        },
        {
            "label": "v1",
            "shape_type": "rectangle",
            "points": [
                [
                    2624,
                    1932
                ],
                [
                    2955,
                    2026
                ]
            ],
            "flags": {},
            "group_id": null
        },
        {
            "label": "v1",
            "shape_type": "rectangle",
            "points": [
                [
                    3422,
                    2302
                ],
                [
                    3754,
                    2392
                ]
            ],
            "flags": {},
            "group_id": null
        },
        {
            "label": "h1",
            "shape_type": "rectangle",
            "points": [
                [
                    3904,
                    2117
                ],
                [
                    4037,
                    2183
                ]
            ],
            "flags": {},
            "group_id": null
        },
        {
            "label": "b1",
            "shape_type": "rectangle",
            "points": [
                [
                    3669,
                    2040
                ],
                [
                    3830,
                    2183
                ]
            ],
            "flags": {},
            "group_id": null
        },
        {
            "label": "t9",
            "shape_type": "rectangle",
            "points": [
                [
                    3456,
                    337
                ],
                [
                    3702,
                    2184
                ]
            ],
            "flags": {},
            "group_id": null
        },
        {
            "label": "",
            "shape_type": "",
            "points": [],
            "flags": {},
            "group_id": null
        },
        {
            "label": "d1",
            "shape_type": "rectangle",
            "points": [
                [
                    3448,
                    355
                ],
                [
                    3531,
                    493
                ]
            ],
            "flags": {},
            "group_id": null
        },
        {
            "label": "d1",
            "shape_type": "rectangle",
            "points": [
                [
                    3340,
                    577
                ],
                [
                    3416,
                    714
                ]
            ],
            "flags": {},
            "group_id": null
        },
        {
            "label": "d1",
            "shape_type": "rectangle",
            "points": [
                [
                    3447,
                    875
                ],
                [
                    3531,
                    1014
                ]
            ],
            "flags": {},
            "group_id": null
        },
        {
            "label": "d1",
            "shape_type": "rectangle",
            "points": [
                [
                    3634,
                    876
                ],
                [
                    3717,
                    1013
                ]
            ],
            "flags": {},
            "group_id": null
        },
        {
            "label": "d1",
            "shape_type": "rectangle",
            "points": [
                [
                    3748,
                    578
                ],
                [
                    3831,
                    749
                ]
            ],
            "flags": {},
            "group_id": null
        },
        {
            "label": "d1",
            "shape_type": "rectangle",
            "points": [
                [
                    3633,
                    355
                ],
                [
                    3718,
                    492
                ]
            ],
            "flags": {},
            "group_id": null
        },
        {
            "label": "h1",
            "shape_type": "rectangle",
            "points": [
                [
                    3840,
                    329
                ],
                [
                    3984,
                    400
                ]
            ],
            "flags": {},
            "group_id": null
        },
        {
            "label": "h1",
            "shape_type": "rectangle",
            "points": [
                [
                    3839,
                    444
                ],
                [
                    3985,
                    516
                ]
            ],
            "flags": {},
            "group_id": null
        },
        {
            "label": "h1",
            "shape_type": "rectangle",
            "points": [
                [
                    3840,
                    709
                ],
                [
                    3985,
                    776
                ]
            ],
            "flags": {},
            "group_id": null
        },
        {
            "label": "h1",
            "shape_type": "rectangle",
            "points": [
                [
                    3839,
                    982
                ],
                [
                    3983,
                    1050
                ]
            ],
            "flags": {},
            "group_id": null
        },
        {
            "label": "x1",
            "shape_type": "rectangle",
            "points": [
                [
                    3505,
                    1540
                ],
                [
                    3657,
                    1566
                ]
            ],
            "flags": {},
            "group_id": null
        },
        {
            "label": "z1",
            "shape_type": "rectangle",
            "points": [
                [
                    3549,
                    409
                ],
                [
                    3611,
                    558
                ]
            ],
            "flags": {},
            "group_id": null
        },
        {
            "label": "g1",
            "shape_type": "rectangle",
            "points": [
                [
                    3578,
                    421
                ],
                [
                    3582,
                    558
                ]
            ],
            "flags": {},
            "group_id": null
        },
        {
            "label": "a1-3",
            "shape_type": "rectangle",
            "points": [
                [
                    3558,
                    454
                ],
                [
                    3568,
                    519
                ]
            ],
            "flags": {},
            "group_id": null
        },
        {
            "label": "a1-3",
            "shape_type": "rectangle",
            "points": [
                [
                    3592,
                    453
                ],
                [
                    3602,
                    519
                ]
            ],
            "flags": {},
            "group_id": null
        },
        {
            "label": "a1-4",
            "shape_type": "rectangle",
            "points": [
                [
                    3572,
                    453
                ],
                [
                    3587,
                    519
                ]
            ],
            "flags": {},
            "group_id": null
        },
        {
            "label": "z1",
            "shape_type": "rectangle",
            "points": [
                [
                    3456,
                    562
                ],
                [
                    3701,
                    863
                ]
            ],
            "flags": {},
            "group_id": null
        },
        {
            "label": "g1",
            "shape_type": "rectangle",
            "points": [
                [
                    3531,
                    613
                ],
                [
                    3534,
                    762
                ]
            ],
            "flags": {},
            "group_id": null
        },
        {
            "label": "g1",
            "shape_type": "rectangle",
            "points": [
                [
                    3623,
                    615
                ],
                [
                    3626,
                    762
                ]
            ],
            "flags": {},
            "group_id": null
        },
        {
            "label": "a1-2",
            "shape_type": "rectangle",
            "points": [
                [
                    3629,
                    642
                ],
                [
                    3655,
                    752
                ]
            ],
            "flags": {},
            "group_id": null
        },
        {
            "label": "a1-1",
            "shape_type": "rectangle",
            "points": [
                [
                    3503,
                    642
                ],
                [
                    3530,
                    752
                ]
            ],
            "flags": {},
            "group_id": null
        },
        {
            "label": "p1-1",
            "shape_type": "rectangle",
            "points": [
                [
                    3503,
                    613
                ],
                [
                    3656,
                    763
                ]
            ],
            "flags": {},
            "group_id": null
        },
        {
            "label": "g1",
            "shape_type": "rectangle",
            "points": [
                [
                    3532,
                    926
                ],
                [
                    3535,
                    1072
                ]
            ],
            "flags": {},
            "group_id": null
        },
        {
            "label": "g1",
            "shape_type": "rectangle",
            "points": [
                [
                    3625,
                    924
                ],
                [
                    3628,
                    1071
                ]
            ],
            "flags": {},
            "group_id": null
        },
        {
            "label": "a1-3",
            "shape_type": "rectangle",
            "points": [
                [
                    3616,
                    954
                ],
                [
                    3637,
                    1040
                ]
            ],
            "flags": {},
            "group_id": null
        },
        {
            "label": "a1-1",
            "shape_type": "rectangle",
            "points": [
                [
                    3506,
                    955
                ],
                [
                    3531,
                    1041
                ]
            ],
            "flags": {},
            "group_id": null
        },
        {
            "label": "p1-1",
            "shape_type": "rectangle",
            "points": [
                [
                    3506,
                    923
                ],
                [
                    3637,
                    1072
                ]
            ],
            "flags": {},
            "group_id": null
        },
        {
            "label": "seven",
            "shape_type": "point",
            "points": [
                [
                    3684,
                    2041
                ]
            ],
            "flags": {},
            "group_id": null
        },
        {
            "label": "eight",
            "shape_type": "point",
            "points": [
                [
                    3815,
                    2041
                ]
            ],
            "flags": {},
            "group_id": null
        },
        {
            "label": "thirteen",
            "shape_type": "point",
            "points": [
                [
                    3750,
                    2041
                ]
            ],
            "flags": {},
            "group_id": null
        },
        {
            "label": "fourteen",
            "shape_type": "point",
            "points": [
                [
                    3684,
                    2153
                ]
            ],
            "flags": {},
            "group_id": null
        },
        {
            "label": "fourteen",
            "shape_type": "point",
            "points": [
                [
                    3751,
                    2152
                ]
            ],
            "flags": {},
            "group_id": null
        },
        {
            "label": "fourteen",
            "shape_type": "point",
            "points": [
                [
                    3817,
                    2153
                ]
            ],
            "flags": {},
            "group_id": null
        },
        {
            "label": "seven",
            "shape_type": "point",
            "points": [
                [
                    3669,
                    2153
                ]
            ],
            "flags": {},
            "group_id": null
        },
        {
            "label": "eight",
            "shape_type": "point",
            "points": [
                [
                    3829,
                    2153
                ]
            ],
            "flags": {},
            "group_id": null
        },
        {
            "label": "fourteen",
            "shape_type": "point",
            "points": [
                [
                    3669,
                    2183
                ]
            ],
            "flags": {},
            "group_id": null
        },
        {
            "label": "fourteen",
            "shape_type": "point",
            "points": [
                [
                    3829,
                    2183
                ]
            ],
            "flags": {},
            "group_id": null
        },
        {
            "label": "va1",
            "shape_type": "rectangle",
            "points": [
                [
                    2598,
                    990
                ],
                [
                    2639,
                    1042
                ]
            ],
            "flags": {},
            "group_id": null
        },
        {
            "label": "va1",
            "shape_type": "rectangle",
            "points": [
                [
                    2750,
                    898
                ],
                [
                    2803,
                    948
                ]
            ],
            "flags": {},
            "group_id": null
        },
        {
            "label": "va1",
            "shape_type": "rectangle",
            "points": [
                [
                    2752,
                    1080
                ],
                [
                    2802,
                    1133
                ]
            ],
            "flags": {},
            "group_id": null
        },
        {
            "label": "three",
            "shape_type": "point",
            "points": [
                [
                    832,
                    746
                ]
            ],
            "flags": {},
            "group_id": null
        },
        {
            "label": "four",
            "shape_type": "point",
            "points": [
                [
                    932,
                    747
                ]
            ],
            "flags": {},
            "group_id": null
        },
        {
            "label": "seven",
            "shape_type": "point",
            "points": [
                [
                    932,
                    594
                ]
            ],
            "flags": {},
            "group_id": null
        },
        {
            "label": "eight",
            "shape_type": "point",
            "points": [
                [
                    1092,
                    594
                ]
            ],
            "flags": {},
            "group_id": null
        },
        {
            "label": "nine",
            "shape_type": "point",
            "points": [
                [
                    933,
                    685
                ]
            ],
            "flags": {},
            "group_id": null
        },
        {
            "label": "ten",
            "shape_type": "point",
            "points": [
                [
                    1093,
                    685
                ]
            ],
            "flags": {},
            "group_id": null
        },
        {
            "label": "seven",
            "shape_type": "point",
            "points": [
                [
                    942,
                    604
                ]
            ],
            "flags": {},
            "group_id": null
        },
        {
            "label": "eight",
            "shape_type": "point",
            "points": [
                [
                    1082,
                    604
                ]
            ],
            "flags": {},
            "group_id": null
        },
        {
            "label": "nine",
            "shape_type": "point",
            "points": [
                [
                    942,
                    674
                ]
            ],
            "flags": {},
            "group_id": null
        },
        {
            "label": "ten",
            "shape_type": "point",
            "points": [
                [
                    1082,
                    674
                ]
            ],
            "flags": {},
            "group_id": null
        },
        {
            "label": "thirteen",
            "shape_type": "point",
            "points": [
                [
                    1012,
                    604
                ]
            ],
            "flags": {},
            "group_id": null
        },
        {
            "label": "fourteen",
            "shape_type": "point",
            "points": [
                [
                    1012,
                    674
                ]
            ],
            "flags": {},
            "group_id": null
        },
        {
            "label": "eleven",
            "shape_type": "point",
            "points": [
                [
                    942,
                    611
                ]
            ],
            "flags": {},
            "group_id": null
        },
        {
            "label": "twelve",
            "shape_type": "point",
            "points": [
                [
                    1082,
                    610
                ]
            ],
            "flags": {},
            "group_id": null
        },
        {
            "label": "fifteen",
            "shape_type": "point",
            "points": [
                [
                    1012,
                    610
                ]
            ],
            "flags": {},
            "group_id": null
        },
        {
            "label": "c1",
            "shape_type": "rectangle",
            "points": [
                [
                    3564,
                    337
                ],
                [
                    3594,
                    409
                ]
            ],
            "flags": {},
            "group_id": null
        },
        {
            "label": "sm",
            "shape_type": "rectangle",
            "points": [
                [
                    345,
                    1187
                ],
                [
                    2340,
                    1709
                ]
            ],
            "flags": {},
            "group_id": null
        },
        {
            "label": "btl",
            "shape_type": "rectangle",
            "points": [
                [
                    2344,
                    2564
                ],
                [
                    4150,
                    2874
                ]
            ],
            "flags": {},
            "group_id": null
        },
        {
            "label": "x2",
            "shape_type": "rectangle",
            "points": [
                [
                    809,
                    709
                ],
                [
                    952,
                    763
                ]
            ],
            "flags": {},
            "group_id": null
        },
        {
            "label": "wz2",
            "shape_type": "rectangle",
            "points": [
                [
                    840,
                    709
                ],
                [
                    928,
                    744
                ]
            ],
            "flags": {},
            "group_id": null
        },
        {
            "label": "j1",
            "shape_type": "rectangle",
            "points": [
                [
                    2363,
                    485
                ],
                [
                    2529,
                    533
                ]
            ],
            "flags": {},
            "group_id": null
        },
        {
            "label": "j1",
            "shape_type": "rectangle",
            "points": [
                [
                    1888,
                    460
                ],
                [
                    2055,
                    505
                ]
            ],
            "flags": {},
            "group_id": null
        },
        {
            "label": "j1",
            "shape_type": "rectangle",
            "points": [
                [
                    2261,
                    216
                ],
                [
                    2399,
                    269
                ]
            ],
            "flags": {},
            "group_id": null
        },
        {
            "label": "j1",
            "shape_type": "rectangle",
            "points": [
                [
                    2095,
                    146
                ],
                [
                    2127,
                    197
                ]
            ],
            "flags": {},
            "group_id": null
        },
        {
            "label": "mask",
            "lineType": [
                "LLLLLLLLLLLLL"
            ],
            "shape_type": "polygon",
            "points": [
                [
                    743,
                    447
                ],
                [
                    599,
                    445
                ],
                [
                    539,
                    472
                ],
                [
                    507,
                    511
                ],
                [
                    456,
                    994
                ],
                [
                    644,
                    960
                ],
                [
                    749,
                    989
                ],
                [
                    979,
                    976
                ],
                [
                    1174,
                    964
                ],
                [
                    1207,
                    947
                ],
                [
                    1207,
                    743
                ],
                [
                    1120,
                    565
                ],
                [
                    743,
                    447
                ]
            ],
            "flags": {},
            "group_id": null
        },
        {
            "label": "mask",
            "lineType": [
                "LLLLLLLLLLLLLLLLLLLL"
            ],
            "shape_type": "polygon",
            "points": [
                [
                    325,
                    1164
                ],
                [
                    324,
                    1258
                ],
                [
                    382,
                    1274
                ],
                [
                    377,
                    1738
                ],
                [
                    938,
                    1720
                ],
                [
                    944,
                    1660
                ],
                [
                    1204,
                    1655
                ],
                [
                    1213,
                    1601
                ],
                [
                    1893,
                    1596
                ],
                [
                    1902,
                    1536
                ],
                [
                    2347,
                    1546
                ],
                [
                    2344,
                    1464
                ],
                [
                    2086,
                    1456
                ],
                [
                    1518,
                    1443
                ],
                [
                    1127,
                    1438
                ],
                [
                    1080,
                    1312
                ],
                [
                    930,
                    1241
                ],
                [
                    705,
                    1239
                ],
                [
                    704,
                    1170
                ],
                [
                    325,
                    1164
                ]
            ],
            "flags": {},
            "group_id": null
        },
        {
            "label": "mask",
            "lineType": [
                "LLLLLLLLLLLLLLLLLLLLLLLLLL"
            ],
            "shape_type": "polygon",
            "points": [
                [
                    1752,
                    804
                ],
                [
                    1614,
                    862
                ],
                [
                    1532,
                    921
                ],
                [
                    1522,
                    1024
                ],
                [
                    1502,
                    1071
                ],
                [
                    1450,
                    1071
                ],
                [
                    1416,
                    1078
                ],
                [
                    1381,
                    1094
                ],
                [
                    1376,
                    1134
                ],
                [
                    1385,
                    1161
                ],
                [
                    1574,
                    1161
                ],
                [
                    1548,
                    1352
                ],
                [
                    1553,
                    1430
                ],
                [
                    1914,
                    1436
                ],
                [
                    1923,
                    1381
                ],
                [
                    1806,
                    1284
                ],
                [
                    1822,
                    1213
                ],
                [
                    1976,
                    1203
                ],
                [
                    1993,
                    1192
                ],
                [
                    1997,
                    1116
                ],
                [
                    1884,
                    1111
                ],
                [
                    1902,
                    973
                ],
                [
                    1988,
                    944
                ],
                [
                    2007,
                    933
                ],
                [
                    1996,
                    873
                ],
                [
                    1752,
                    804
                ]
            ],
            "flags": {},
            "group_id": null
        },
        {
            "label": "mask",
            "lineType": [
                "LLLLLLLLLLLLLLLLLLLLLLLL"
            ],
            "shape_type": "polygon",
            "points": [
                [
                    2222,
                    844
                ],
                [
                    2183,
                    952
                ],
                [
                    2336,
                    1002
                ],
                [
                    2491,
                    1021
                ],
                [
                    2541,
                    1064
                ],
                [
                    2585,
                    1160
                ],
                [
                    2570,
                    1439
                ],
                [
                    2954,
                    1444
                ],
                [
                    2913,
                    1293
                ],
                [
                    3012,
                    1289
                ],
                [
                    3074,
                    1262
                ],
                [
                    3112,
                    1166
                ],
                [
                    2897,
                    1151
                ],
                [
                    2886,
                    1078
                ],
                [
                    2904,
                    980
                ],
                [
                    2917,
                    938
                ],
                [
                    2981,
                    915
                ],
                [
                    3132,
                    858
                ],
                [
                    3152,
                    811
                ],
                [
                    3125,
                    782
                ],
                [
                    2983,
                    780
                ],
                [
                    2734,
                    786
                ],
                [
                    2706,
                    842
                ],
                [
                    2222,
                    844
                ]
            ],
            "flags": {},
            "group_id": null
        },
        {
            "label": "mask",
            "lineType": [
                "LLLLLLLLLLLLLLLLLL"
            ],
            "shape_type": "polygon",
            "points": [
                [
                    2142,
                    656
                ],
                [
                    1947,
                    602
                ],
                [
                    1872,
                    523
                ],
                [
                    1847,
                    459
                ],
                [
                    1887,
                    420
                ],
                [
                    2087,
                    193
                ],
                [
                    2091,
                    110
                ],
                [
                    2245,
                    103
                ],
                [
                    2292,
                    161
                ],
                [
                    2427,
                    202
                ],
                [
                    2415,
                    278
                ],
                [
                    2240,
                    339
                ],
                [
                    2238,
                    450
                ],
                [
                    2555,
                    466
                ],
                [
                    2540,
                    553
                ],
                [
                    2406,
                    570
                ],
                [
                    2301,
                    605
                ],
                [
                    2142,
                    656
                ]
            ],
            "flags": {},
            "group_id": null
        },
        {
            "label": "mask",
            "lineType": [
                "LLLLLLLLLLLLLLLLLLLLLLLLLLLLLLLLLLLLLLLLLLLLLL"
            ],
            "shape_type": "polygon",
            "points": [
                [
                    3589,
                    314
                ],
                [
                    3477,
                    332
                ],
                [
                    3454,
                    335
                ],
                [
                    3425,
                    362
                ],
                [
                    3428,
                    549
                ],
                [
                    3341,
                    549
                ],
                [
                    3332,
                    599
                ],
                [
                    3326,
                    672
                ],
                [
                    2991,
                    676
                ],
                [
                    2979,
                    737
                ],
                [
                    3406,
                    759
                ],
                [
                    3420,
                    935
                ],
                [
                    3226,
                    972
                ],
                [
                    3210,
                    1008
                ],
                [
                    3214,
                    1044
                ],
                [
                    3476,
                    1042
                ],
                [
                    3523,
                    1139
                ],
                [
                    3530,
                    1467
                ],
                [
                    3485,
                    1532
                ],
                [
                    3491,
                    1579
                ],
                [
                    3532,
                    1608
                ],
                [
                    3528,
                    2139
                ],
                [
                    3054,
                    2169
                ],
                [
                    3047,
                    2218
                ],
                [
                    3366,
                    2233
                ],
                [
                    3399,
                    2385
                ],
                [
                    3420,
                    2402
                ],
                [
                    3775,
                    2409
                ],
                [
                    3767,
                    2287
                ],
                [
                    3895,
                    2295
                ],
                [
                    3910,
                    2231
                ],
                [
                    4043,
                    2231
                ],
                [
                    4057,
                    2143
                ],
                [
                    4032,
                    2099
                ],
                [
                    3839,
                    2031
                ],
                [
                    3666,
                    2022
                ],
                [
                    3642,
                    1981
                ],
                [
                    3643,
                    1612
                ],
                [
                    3670,
                    1569
                ],
                [
                    3651,
                    1235
                ],
                [
                    3890,
                    1229
                ],
                [
                    3895,
                    1132
                ],
                [
                    3998,
                    1020
                ],
                [
                    4003,
                    731
                ],
                [
                    3997,
                    321
                ],
                [
                    3589,
                    314
                ]
            ],
            "flags": {},
            "group_id": null
        },
        {
            "label": "mask",
            "lineType": [
                "LLLLLLLLLLLLLL"
            ],
            "shape_type": "polygon",
            "points": [
                [
                    2620,
                    1639
                ],
                [
                    2550,
                    1738
                ],
                [
                    2543,
                    1799
                ],
                [
                    2557,
                    1830
                ],
                [
                    2590,
                    1824
                ],
                [
                    2630,
                    1824
                ],
                [
                    2631,
                    1842
                ],
                [
                    2602,
                    2038
                ],
                [
                    2989,
                    2052
                ],
                [
                    2998,
                    1881
                ],
                [
                    3081,
                    1842
                ],
                [
                    3044,
                    1670
                ],
                [
                    2943,
                    1600
                ],
                [
                    2620,
                    1639
                ]
            ],
            "flags": {},
            "group_id": null
        },
        {
            "label": "mask",
            "lineType": [
                "LLLLL"
            ],
            "shape_type": "polygon",
            "points": [
                [
                    2338,
                    2553
                ],
                [
                    2333,
                    2872
                ],
                [
                    4152,
                    2870
                ],
                [
                    4153,
                    2552
                ],
                [
                    2338,
                    2553
                ]
            ],
            "flags": {},
            "group_id": null
        },
        {
            "label": "mask",
            "lineType": [
                "LLLLLLL"
            ],
            "shape_type": "polygon",
            "points": [
                [
                    515,
                    1771
                ],
                [
                    522,
                    2866
                ],
                [
                    1939,
                    2860
                ],
                [
                    1939,
                    1798
                ],
                [
                    1391,
                    1761
                ],
                [
                    1096,
                    1755
                ],
                [
                    515,
                    1771
                ]
            ],
            "flags": {},
            "group_id": null
        },
        {
            "label": "Ns",
            "shape_type": "point",
            "points": [
                [
                    2139,
                    420
                ]
            ],
            "flags": {},
            "group_id": null
        },
        {
            "label": "Ne",
            "shape_type": "point",
            "points": [
                [
                    2139,
                    240
                ]
            ],
            "flags": {},
            "group_id": null
        },
        {
            "label": "wlb",
            "shape_type": "rectangle",
            "points": [
                [
                    553,
                    1771
                ],
                [
                    1924,
                    2845
                ]
            ],
            "flags": {},
            "group_id": null
        },
        {
            "label": "wz1",
            "shape_type": "rectangle",
            "points": [
                [
                    3733,
                    2223
                ],
                [
                    3865,
                    2276
                ]
            ],
            "flags": {},
            "group_id": null
        },
        {
            "label": "wz1-l",
            "lineType": "LL",
            "shape_type": "line",
            "points": [
                [
                    3779,
                    2252
                ],
                [
                    3714,
                    2214
                ]
            ],
            "flags": {},
            "group_id": null
        },
        {
            "label": "wz3",
            "shape_type": "rectangle",
            "points": [
                [
                    2839,
                    1826
                ],
                [
                    3022,
                    1874
                ]
            ],
            "flags": {},
            "group_id": null
        },
        {
            "label": "wz3",
            "shape_type": "rectangle",
            "points": [
                [
                    2881,
                    1712
                ],
                [
                    3037,
                    1766
                ]
            ],
            "flags": {},
            "group_id": null
        },
        {
            "label": "wz3",
            "shape_type": "rectangle",
            "points": [
                [
                    2681,
                    1622
                ],
                [
                    2941,
                    1676
                ]
            ],
            "flags": {},
            "group_id": null
        },
        {
            "label": "wz3",
            "shape_type": "rectangle",
            "points": [
                [
                    2557,
                    1739
                ],
                [
                    2743,
                    1785
                ]
            ],
            "flags": {},
            "group_id": null
        },
        {
            "label": "wz3-l",
            "lineType": "LL",
            "shape_type": "line",
            "points": [
                [
                    2692,
                    1765
                ],
                [
                    2715,
                    1714
                ]
            ],
            "flags": {},
            "group_id": null
        },
        {
            "label": "wz3-l",
            "lineType": "LL",
            "shape_type": "line",
            "points": [
                [
                    2769,
                    1648
                ],
                [
                    2711,
                    1702
                ]
            ],
            "flags": {},
            "group_id": null
        },
        {
            "label": "wz3-l",
            "lineType": "LL",
            "shape_type": "line",
            "points": [
                [
                    2929,
                    1737
                ],
                [
                    2899,
                    1688
                ]
            ],
            "flags": {},
            "group_id": null
        },
        {
            "label": "wz3-l",
            "lineType": "LL",
            "shape_type": "line",
            "points": [
                [
                    2871,
                    1855
                ],
                [
                    2827,
                    1860
                ]
            ],
            "flags": {},
            "group_id": null
        },
        {
            "label": "wz3",
            "shape_type": "rectangle",
            "points": [
                [
                    2733,
                    1172
                ],
                [
                    3088,
                    1281
                ]
            ],
            "flags": {},
            "group_id": null
        },
        {
            "label": "wz3",
            "shape_type": "rectangle",
            "points": [
                [
                    2765,
                    795
                ],
                [
                    3118,
                    899
                ]
            ],
            "flags": {},
            "group_id": null
        },
        {
            "label": "wz3",
            "shape_type": "rectangle",
            "points": [
                [
                    2224,
                    885
                ],
                [
                    2572,
                    986
                ]
            ],
            "flags": {},
            "group_id": null
        },
        {
            "label": "wz3-l",
            "lineType": "LL",
            "shape_type": "line",
            "points": [
                [
                    2508,
                    951
                ],
                [
                    2608,
                    1013
                ]
            ],
            "flags": {},
            "group_id": null
        },
        {
            "label": "wz3-l",
            "lineType": "LL",
            "shape_type": "line",
            "points": [
                [
                    2822,
                    854
                ],
                [
                    2771,
                    922
                ]
            ],
            "flags": {},
            "group_id": null
        },
        {
            "label": "wz3-l",
            "lineType": "LL",
            "shape_type": "line",
            "points": [
                [
                    2783,
                    1226
                ],
                [
                    2775,
                    1112
                ]
            ],
            "flags": {},
            "group_id": null
        },
        {
            "label": "wz1",
            "shape_type": "rectangle",
            "points": [
                [
                    1842,
                    1136
                ],
                [
                    1978,
                    1183
                ]
            ],
            "flags": {},
            "group_id": null
        },
        {
            "label": "wz1",
            "shape_type": "rectangle",
            "points": [
                [
                    1851,
                    879
                ],
                [
                    1984,
                    930
                ]
            ],
            "flags": {},
            "group_id": null
        },
        {
            "label": "wz1",
            "shape_type": "rectangle",
            "points": [
                [
                    1400,
                    1082
                ],
                [
                    1538,
                    1129
                ]
            ],
            "flags": {},
            "group_id": null
        },
        {
            "label": "wz1-l",
            "lineType": "LL",
            "shape_type": "line",
            "points": [
                [
                    1522,
                    1112
                ],
                [
                    1683,
                    1029
                ]
            ],
            "flags": {},
            "group_id": null
        },
        {
            "label": "wz1-l",
            "lineType": "LL",
            "shape_type": "line",
            "points": [
                [
                    1859,
                    1156
                ],
                [
                    1731,
                    1066
                ]
            ],
            "flags": {},
            "group_id": null
        },
        {
            "label": "wz1-l",
            "lineType": "LL",
            "shape_type": "line",
            "points": [
                [
                    1881,
                    919
                ],
                [
                    1741,
                    1022
                ]
            ],
            "flags": {},
            "group_id": null
        },
        {
            "label": "wz3",
            "shape_type": "rectangle",
            "points": [
                [
                    1995,
                    539
                ],
                [
                    2251,
                    588
                ]
            ],
            "flags": {},
            "group_id": null
        },
        {
            "label": "wz3-l",
            "lineType": "LL",
            "shape_type": "line",
            "points": [
                [
                    2137,
                    421
                ],
                [
                    2165,
                    559
                ]
            ],
            "flags": {},
            "group_id": null
        },
        {
            "label": "wz3",
            "shape_type": "rectangle",
            "points": [
                [
                    2993,
                    680
                ],
                [
                    3343,
                    734
                ]
            ],
            "flags": {},
            "group_id": null
        },
        {
            "label": "wz3",
            "shape_type": "rectangle",
            "points": [
                [
                    3222,
                    978
                ],
                [
                    3482,
                    1027
                ]
            ],
            "flags": {},
            "group_id": null
        },
        {
            "label": "wz1",
            "shape_type": "rectangle",
            "points": [
                [
                    3621,
                    1147
                ],
                [
                    3872,
                    1206
                ]
            ],
            "flags": {},
            "group_id": null
        },
        {
            "label": "wz3-l",
            "lineType": "LL",
            "shape_type": "line",
            "points": [
                [
                    3412,
                    997
                ],
                [
                    3522,
                    991
                ]
            ],
            "flags": {},
            "group_id": null
        },
        {
            "label": "wz1-l",
            "lineType": "LL",
            "shape_type": "line",
            "points": [
                [
                    3678,
                    1184
                ],
                [
                    3582,
                    1161
                ]
            ],
            "flags": {},
            "group_id": null
        },
        {
            "label": "wz3-l",
            "lineType": "LL",
            "shape_type": "line",
            "points": [
                [
                    3282,
                    717
                ],
                [
                    3519,
                    697
                ]
            ],
            "flags": {},
            "group_id": null
        }
    ],
    "flags": {},
    "imageData": null,
    "version": "4.5.7"
}