{
    "imageHeight": 2908,
    "imageWidth": 4205,
    "imagePath": "样本6_127_107.png",
    "shapes": [
        {
            "label": "t3-l",
            "shape_type": "rectangle",
            "points": [
                [
                    690,
                    183
                ],
                [
                    1296,
                    1950
                ]
            ],
            "flags": {},
            "group_id": null
        },
        {
            "label": "c1",
            "shape_type": "rectangle",
            "points": [
                [
                    985,
                    183
                ],
                [
                    990,
                    404
                ]
            ],
            "flags": {},
            "group_id": null
        },
        {
            "label": "d1",
            "shape_type": "rectangle",
            "points": [
                [
                    707,
                    298
                ],
                [
                    791,
                    435
                ]
            ],
            "flags": {},
            "group_id": null
        },
        {
            "label": "d1",
            "shape_type": "rectangle",
            "points": [
                [
                    708,
                    551
                ],
                [
                    791,
                    689
                ]
            ],
            "flags": {},
            "group_id": null
        },
        {
            "label": "d1",
            "shape_type": "rectangle",
            "points": [
                [
                    708,
                    791
                ],
                [
                    791,
                    928
                ]
            ],
            "flags": {},
            "group_id": null
        },
        {
            "label": "d1",
            "shape_type": "rectangle",
            "points": [
                [
                    1200,
                    787
                ],
                [
                    1284,
                    925
                ]
            ],
            "flags": {},
            "group_id": null
        },
        {
            "label": "d1",
            "shape_type": "rectangle",
            "points": [
                [
                    1201,
                    548
                ],
                [
                    1284,
                    686
                ]
            ],
            "flags": {},
            "group_id": null
        },
        {
            "label": "d1",
            "shape_type": "rectangle",
            "points": [
                [
                    1201,
                    295
                ],
                [
                    1284,
                    432
                ]
            ],
            "flags": {},
            "group_id": null
        },
        {
            "label": "h1",
            "shape_type": "rectangle",
            "points": [
                [
                    441,
                    324
                ],
                [
                    573,
                    389
                ]
            ],
            "flags": {},
            "group_id": null
        },
        {
            "label": "h1",
            "shape_type": "rectangle",
            "points": [
                [
                    442,
                    475
                ],
                [
                    573,
                    541
                ]
            ],
            "flags": {},
            "group_id": null
        },
        {
            "label": "h1",
            "shape_type": "rectangle",
            "points": [
                [
                    442,
                    709
                ],
                [
                    572,
                    774
                ]
            ],
            "flags": {},
            "group_id": null
        },
        {
            "label": "h1",
            "shape_type": "rectangle",
            "points": [
                [
                    441,
                    888
                ],
                [
                    572,
                    953
                ]
            ],
            "flags": {},
            "group_id": null
        },
        {
            "label": "h1",
            "shape_type": "rectangle",
            "points": [
                [
                    441,
                    1885
                ],
                [
                    573,
                    1950
                ]
            ],
            "flags": {},
            "group_id": null
        },
        {
            "label": "v1",
            "shape_type": "rectangle",
            "points": [
                [
                    826,
                    1991
                ],
                [
                    1157,
                    2080
                ]
            ],
            "flags": {},
            "group_id": null
        },
        {
            "label": "b1",
            "shape_type": "rectangle",
            "points": [
                [
                    808,
                    1732
                ],
                [
                    1162,
                    1950
                ]
            ],
            "flags": {},
            "group_id": null
        },
        {
            "label": "seven",
            "shape_type": "point",
            "points": [
                [
                    808,
                    1731
                ]
            ],
            "flags": {},
            "group_id": null
        },
        {
            "label": "seven",
            "shape_type": "point",
            "points": [
                [
                    825,
                    1749
                ]
            ],
            "flags": {},
            "group_id": null
        },
        {
            "label": "fourteen",
            "shape_type": "point",
            "points": [
                [
                    808,
                    1950
                ]
            ],
            "flags": {},
            "group_id": null
        },
        {
            "label": "fourteen",
            "shape_type": "point",
            "points": [
                [
                    825,
                    1950
                ]
            ],
            "flags": {},
            "group_id": null
        },
        {
            "label": "fourteen",
            "shape_type": "point",
            "points": [
                [
                    1145,
                    1950
                ]
            ],
            "flags": {},
            "group_id": null
        },
        {
            "label": "fourteen",
            "shape_type": "point",
            "points": [
                [
                    1162,
                    1950
                ]
            ],
            "flags": {},
            "group_id": null
        },
        {
            "label": "eight",
            "shape_type": "point",
            "points": [
                [
                    1162,
                    1732
                ]
            ],
            "flags": {},
            "group_id": null
        },
        {
            "label": "eight",
            "shape_type": "point",
            "points": [
                [
                    1145,
                    1749
                ]
            ],
            "flags": {},
            "group_id": null
        },
        {
            "label": "x1",
            "shape_type": "rectangle",
            "points": [
                [
                    861,
                    1175
                ],
                [
                    1110,
                    1206
                ]
            ],
            "flags": {},
            "group_id": null
        },
        {
            "label": "p1-1",
            "shape_type": "rectangle",
            "points": [
                [
                    861,
                    821
                ],
                [
                    1105,
                    963
                ]
            ],
            "flags": {},
            "group_id": null
        },
        {
            "label": "p1-1",
            "shape_type": "rectangle",
            "points": [
                [
                    782,
                    619
                ],
                [
                    1187,
                    760
                ]
            ],
            "flags": {},
            "group_id": null
        },
        {
            "label": "p1-1",
            "shape_type": "rectangle",
            "points": [
                [
                    781,
                    390
                ],
                [
                    1196,
                    530
                ]
            ],
            "flags": {},
            "group_id": null
        },
        {
            "label": "a1-1",
            "shape_type": "rectangle",
            "points": [
                [
                    782,
                    398
                ],
                [
                    807,
                    504
                ]
            ],
            "flags": {},
            "group_id": null
        },
        {
            "label": "a1-1",
            "shape_type": "rectangle",
            "points": [
                [
                    843,
                    397
                ],
                [
                    869,
                    505
                ]
            ],
            "flags": {},
            "group_id": null
        },
        {
            "label": "a1-1",
            "shape_type": "rectangle",
            "points": [
                [
                    907,
                    399
                ],
                [
                    932,
                    505
                ]
            ],
            "flags": {},
            "group_id": null
        },
        {
            "label": "a1-2",
            "shape_type": "rectangle",
            "points": [
                [
                    974,
                    396
                ],
                [
                    1000,
                    504
                ]
            ],
            "flags": {},
            "group_id": null
        },
        {
            "label": "a1-2",
            "shape_type": "rectangle",
            "points": [
                [
                    1025,
                    395
                ],
                [
                    1050,
                    505
                ]
            ],
            "flags": {},
            "group_id": null
        },
        {
            "label": "a1-2",
            "shape_type": "rectangle",
            "points": [
                [
                    1063,
                    395
                ],
                [
                    1089,
                    505
                ]
            ],
            "flags": {},
            "group_id": null
        },
        {
            "label": "a1-2",
            "shape_type": "rectangle",
            "points": [
                [
                    1107,
                    395
                ],
                [
                    1133,
                    505
                ]
            ],
            "flags": {},
            "group_id": null
        },
        {
            "label": "a1-2",
            "shape_type": "rectangle",
            "points": [
                [
                    1171,
                    396
                ],
                [
                    1196,
                    505
                ]
            ],
            "flags": {},
            "group_id": null
        },
        {
            "label": "a1-1",
            "shape_type": "rectangle",
            "points": [
                [
                    782,
                    629
                ],
                [
                    806,
                    735
                ]
            ],
            "flags": {},
            "group_id": null
        },
        {
            "label": "a1-1",
            "shape_type": "rectangle",
            "points": [
                [
                    842,
                    627
                ],
                [
                    868,
                    734
                ]
            ],
            "flags": {},
            "group_id": null
        },
        {
            "label": "a1-1",
            "shape_type": "rectangle",
            "points": [
                [
                    907,
                    628
                ],
                [
                    932,
                    735
                ]
            ],
            "flags": {},
            "group_id": null
        },
        {
            "label": "a1-2",
            "shape_type": "rectangle",
            "points": [
                [
                    958,
                    625
                ],
                [
                    983,
                    733
                ]
            ],
            "flags": {},
            "group_id": null
        },
        {
            "label": "a1-2",
            "shape_type": "rectangle",
            "points": [
                [
                    992,
                    624
                ],
                [
                    1018,
                    734
                ]
            ],
            "flags": {},
            "group_id": null
        },
        {
            "label": "a1-2",
            "shape_type": "rectangle",
            "points": [
                [
                    1034,
                    625
                ],
                [
                    1061,
                    733
                ]
            ],
            "flags": {},
            "group_id": null
        },
        {
            "label": "a1-2",
            "shape_type": "rectangle",
            "points": [
                [
                    1073,
                    624
                ],
                [
                    1099,
                    733
                ]
            ],
            "flags": {},
            "group_id": null
        },
        {
            "label": "a1-2",
            "shape_type": "rectangle",
            "points": [
                [
                    1106,
                    624
                ],
                [
                    1133,
                    733
                ]
            ],
            "flags": {},
            "group_id": null
        },
        {
            "label": "a1-2",
            "shape_type": "rectangle",
            "points": [
                [
                    1161,
                    625
                ],
                [
                    1187,
                    734
                ]
            ],
            "flags": {},
            "group_id": null
        },
        {
            "label": "a1-1",
            "shape_type": "rectangle",
            "points": [
                [
                    862,
                    831
                ],
                [
                    886,
                    937
                ]
            ],
            "flags": {},
            "group_id": null
        },
        {
            "label": "a1-2",
            "shape_type": "rectangle",
            "points": [
                [
                    1080,
                    828
                ],
                [
                    1105,
                    937
                ]
            ],
            "flags": {},
            "group_id": null
        },
        {
            "label": "g1",
            "shape_type": "rectangle",
            "points": [
                [
                    888,
                    825
                ],
                [
                    893,
                    963
                ]
            ],
            "flags": {},
            "group_id": null
        },
        {
            "label": "g1",
            "shape_type": "rectangle",
            "points": [
                [
                    1072,
                    822
                ],
                [
                    1077,
                    962
                ]
            ],
            "flags": {},
            "group_id": null
        },
        {
            "label": "g1",
            "shape_type": "rectangle",
            "points": [
                [
                    808,
                    620
                ],
                [
                    812,
                    760
                ]
            ],
            "flags": {},
            "group_id": null
        },
        {
            "label": "g1",
            "shape_type": "rectangle",
            "points": [
                [
                    870,
                    620
                ],
                [
                    875,
                    759
                ]
            ],
            "flags": {},
            "group_id": null
        },
        {
            "label": "g1",
            "shape_type": "rectangle",
            "points": [
                [
                    934,
                    621
                ],
                [
                    937,
                    760
                ]
            ],
            "flags": {},
            "group_id": null
        },
        {
            "label": "g1",
            "shape_type": "rectangle",
            "points": [
                [
                    951,
                    619
                ],
                [
                    956,
                    760
                ]
            ],
            "flags": {},
            "group_id": null
        },
        {
            "label": "g1",
            "shape_type": "rectangle",
            "points": [
                [
                    985,
                    620
                ],
                [
                    990,
                    759
                ]
            ],
            "flags": {},
            "group_id": null
        },
        {
            "label": "g1",
            "shape_type": "rectangle",
            "points": [
                [
                    1028,
                    619
                ],
                [
                    1032,
                    761
                ]
            ],
            "flags": {},
            "group_id": null
        },
        {
            "label": "g1",
            "shape_type": "rectangle",
            "points": [
                [
                    1067,
                    620
                ],
                [
                    1071,
                    759
                ]
            ],
            "flags": {},
            "group_id": null
        },
        {
            "label": "g1",
            "shape_type": "rectangle",
            "points": [
                [
                    1101,
                    619
                ],
                [
                    1105,
                    759
                ]
            ],
            "flags": {},
            "group_id": null
        },
        {
            "label": "g1",
            "shape_type": "rectangle",
            "points": [
                [
                    1155,
                    620
                ],
                [
                    1160,
                    760
                ]
            ],
            "flags": {},
            "group_id": null
        },
        {
            "label": "g1",
            "shape_type": "rectangle",
            "points": [
                [
                    808,
                    391
                ],
                [
                    812,
                    529
                ]
            ],
            "flags": {},
            "group_id": null
        },
        {
            "label": "g1",
            "shape_type": "rectangle",
            "points": [
                [
                    870,
                    391
                ],
                [
                    875,
                    530
                ]
            ],
            "flags": {},
            "group_id": null
        },
        {
            "label": "g1",
            "shape_type": "rectangle",
            "points": [
                [
                    934,
                    391
                ],
                [
                    937,
                    530
                ]
            ],
            "flags": {},
            "group_id": null
        },
        {
            "label": "g1",
            "shape_type": "rectangle",
            "points": [
                [
                    968,
                    391
                ],
                [
                    973,
                    529
                ]
            ],
            "flags": {},
            "group_id": null
        },
        {
            "label": "g1",
            "shape_type": "rectangle",
            "points": [
                [
                    1018,
                    391
                ],
                [
                    1023,
                    530
                ]
            ],
            "flags": {},
            "group_id": null
        },
        {
            "label": "g1",
            "shape_type": "rectangle",
            "points": [
                [
                    1056,
                    391
                ],
                [
                    1061,
                    529
                ]
            ],
            "flags": {},
            "group_id": null
        },
        {
            "label": "g1",
            "shape_type": "rectangle",
            "points": [
                [
                    1101,
                    391
                ],
                [
                    1105,
                    530
                ]
            ],
            "flags": {},
            "group_id": null
        },
        {
            "label": "g1",
            "shape_type": "rectangle",
            "points": [
                [
                    1165,
                    390
                ],
                [
                    1169,
                    530
                ]
            ],
            "flags": {},
            "group_id": null
        },
        {
            "label": "n1",
            "shape_type": "rectangle",
            "points": [
                [
                    2761,
                    123
                ],
                [
                    3198,
                    543
                ]
            ],
            "flags": {},
            "group_id": null
        },
        {
            "label": "vt4",
            "shape_type": "rectangle",
            "points": [
                [
                    3281,
                    251
                ],
                [
                    3891,
                    850
                ]
            ],
            "flags": {},
            "group_id": null
        },
        {
            "label": "vb1",
            "shape_type": "rectangle",
            "points": [
                [
                    3321,
                    404
                ],
                [
                    3815,
                    695
                ]
            ],
            "flags": {},
            "group_id": null
        },
        {
            "label": "d1",
            "shape_type": "rectangle",
            "points": [
                [
                    3222,
                    919
                ],
                [
                    3306,
                    1057
                ]
            ],
            "flags": {},
            "group_id": null
        },
        {
            "label": "d1",
            "shape_type": "rectangle",
            "points": [
                [
                    3905,
                    918
                ],
                [
                    3989,
                    1057
                ]
            ],
            "flags": {},
            "group_id": null
        },
        {
            "label": "v1",
            "shape_type": "rectangle",
            "points": [
                [
                    3481,
                    1082
                ],
                [
                    3671,
                    1149
                ]
            ],
            "flags": {},
            "group_id": null
        },
        {
            "label": "seven",
            "shape_type": "point",
            "points": [
                [
                    3321,
                    404
                ]
            ],
            "flags": {},
            "group_id": null
        },
        {
            "label": "seven",
            "shape_type": "point",
            "points": [
                [
                    3347,
                    428
                ]
            ],
            "flags": {},
            "group_id": null
        },
        {
            "label": "eleven",
            "shape_type": "point",
            "points": [
                [
                    3321,
                    464
                ]
            ],
            "flags": {},
            "group_id": null
        },
        {
            "label": "twentytwo",
            "shape_type": "point",
            "points": [
                [
                    3346,
                    464
                ]
            ],
            "flags": {},
            "group_id": null
        },
        {
            "label": "twentythere",
            "shape_type": "point",
            "points": [
                [
                    3322,
                    503
                ]
            ],
            "flags": {},
            "group_id": null
        },
        {
            "label": "twelve",
            "shape_type": "point",
            "points": [
                [
                    3346,
                    503
                ]
            ],
            "flags": {},
            "group_id": null
        },
        {
            "label": "nine",
            "shape_type": "point",
            "points": [
                [
                    3347,
                    670
                ]
            ],
            "flags": {},
            "group_id": null
        },
        {
            "label": "nine",
            "shape_type": "point",
            "points": [
                [
                    3321,
                    694
                ]
            ],
            "flags": {},
            "group_id": null
        },
        {
            "label": "eight",
            "shape_type": "point",
            "points": [
                [
                    3644,
                    671
                ]
            ],
            "flags": {},
            "group_id": null
        },
        {
            "label": "ten",
            "shape_type": "point",
            "points": [
                [
                    3644,
                    695
                ]
            ],
            "flags": {},
            "group_id": null
        },
        {
            "label": "twentyone",
            "shape_type": "point",
            "points": [
                [
                    3644,
                    682
                ]
            ],
            "flags": {},
            "group_id": null
        },
        {
            "label": "seven",
            "shape_type": "point",
            "points": [
                [
                    3738,
                    670
                ]
            ],
            "flags": {},
            "group_id": null
        },
        {
            "label": "nine",
            "shape_type": "point",
            "points": [
                [
                    3739,
                    695
                ]
            ],
            "flags": {},
            "group_id": null
        },
        {
            "label": "ten",
            "shape_type": "point",
            "points": [
                [
                    3814,
                    694
                ]
            ],
            "flags": {},
            "group_id": null
        },
        {
            "label": "ten",
            "shape_type": "point",
            "points": [
                [
                    3790,
                    670
                ]
            ],
            "flags": {},
            "group_id": null
        },
        {
            "label": "eight",
            "shape_type": "point",
            "points": [
                [
                    3814,
                    404
                ]
            ],
            "flags": {},
            "group_id": null
        },
        {
            "label": "eight",
            "shape_type": "point",
            "points": [
                [
                    3790,
                    428
                ]
            ],
            "flags": {},
            "group_id": null
        },
        {
            "label": "vp1-3",
            "shape_type": "rectangle",
            "points": [
                [
                    1918,
                    344
                ],
                [
                    2169,
                    595
                ]
            ],
            "flags": {},
            "group_id": null
        },
        {
            "label": "vp1-3",
            "shape_type": "rectangle",
            "points": [
                [
                    1919,
                    910
                ],
                [
                    2170,
                    1159
                ]
            ],
            "flags": {},
            "group_id": null
        },
        {
            "label": "vp2-3",
            "shape_type": "rectangle",
            "points": [
                [
                    1977,
                    1489
                ],
                [
                    2106,
                    1616
                ]
            ],
            "flags": {},
            "group_id": null
        },
        {
            "label": "v1",
            "shape_type": "rectangle",
            "points": [
                [
                    1948,
                    1717
                ],
                [
                    2176,
                    1808
                ]
            ],
            "flags": {},
            "group_id": null
        },
        {
            "label": "v1",
            "shape_type": "rectangle",
            "points": [
                [
                    1932,
                    1254
                ],
                [
                    2163,
                    1345
                ]
            ],
            "flags": {},
            "group_id": null
        },
        {
            "label": "v1",
            "shape_type": "rectangle",
            "points": [
                [
                    1931,
                    690
                ],
                [
                    2161,
                    782
                ]
            ],
            "flags": {},
            "group_id": null
        },
        {
            "label": "va1",
            "shape_type": "rectangle",
            "points": [
                [
                    1990,
                    261
                ],
                [
                    2031,
                    296
                ]
            ],
            "flags": {},
            "group_id": null
        },
        {
            "label": "van",
            "shape_type": "rectangle",
            "points": [
                [
                    2053,
                    263
                ],
                [
                    2096,
                    296
                ]
            ],
            "flags": {},
            "group_id": null
        },
        {
            "label": "van",
            "shape_type": "rectangle",
            "points": [
                [
                    1855,
                    362
                ],
                [
                    1888,
                    405
                ]
            ],
            "flags": {},
            "group_id": null
        },
        {
            "label": "van",
            "shape_type": "rectangle",
            "points": [
                [
                    2186,
                    339
                ],
                [
                    2222,
                    375
                ]
            ],
            "flags": {},
            "group_id": null
        },
        {
            "label": "va1",
            "shape_type": "rectangle",
            "points": [
                [
                    2204,
                    523
                ],
                [
                    2246,
                    556
                ]
            ],
            "flags": {},
            "group_id": null
        },
        {
            "label": "van",
            "shape_type": "rectangle",
            "points": [
                [
                    2177,
                    572
                ],
                [
                    2210,
                    614
                ]
            ],
            "flags": {},
            "group_id": null
        },
        {
            "label": "van",
            "shape_type": "rectangle",
            "points": [
                [
                    2047,
                    644
                ],
                [
                    2090,
                    674
                ]
            ],
            "flags": {},
            "group_id": null
        },
        {
            "label": "va1",
            "shape_type": "rectangle",
            "points": [
                [
                    1889,
                    576
                ],
                [
                    1912,
                    619
                ]
            ],
            "flags": {},
            "group_id": null
        },
        {
            "label": "van",
            "shape_type": "rectangle",
            "points": [
                [
                    1847,
                    520
                ],
                [
                    1879,
                    561
                ]
            ],
            "flags": {},
            "group_id": null
        },
        {
            "label": "van",
            "shape_type": "rectangle",
            "points": [
                [
                    1989,
                    830
                ],
                [
                    2032,
                    861
                ]
            ],
            "flags": {},
            "group_id": null
        },
        {
            "label": "van",
            "shape_type": "rectangle",
            "points": [
                [
                    2052,
                    828
                ],
                [
                    2096,
                    860
                ]
            ],
            "flags": {},
            "group_id": null
        },
        {
            "label": "van",
            "shape_type": "rectangle",
            "points": [
                [
                    2194,
                    921
                ],
                [
                    2230,
                    956
                ]
            ],
            "flags": {},
            "group_id": null
        },
        {
            "label": "van",
            "shape_type": "rectangle",
            "points": [
                [
                    1845,
                    947
                ],
                [
                    1877,
                    990
                ]
            ],
            "flags": {},
            "group_id": null
        },
        {
            "label": "van",
            "shape_type": "rectangle",
            "points": [
                [
                    1846,
                    1085
                ],
                [
                    1879,
                    1126
                ]
            ],
            "flags": {},
            "group_id": null
        },
        {
            "label": "van",
            "shape_type": "rectangle",
            "points": [
                [
                    1880,
                    1142
                ],
                [
                    1912,
                    1182
                ]
            ],
            "flags": {},
            "group_id": null
        },
        {
            "label": "van",
            "shape_type": "rectangle",
            "points": [
                [
                    2047,
                    1209
                ],
                [
                    2089,
                    1240
                ]
            ],
            "flags": {},
            "group_id": null
        },
        {
            "label": "van",
            "shape_type": "rectangle",
            "points": [
                [
                    2177,
                    1138
                ],
                [
                    2211,
                    1178
                ]
            ],
            "flags": {},
            "group_id": null
        },
        {
            "label": "van",
            "shape_type": "rectangle",
            "points": [
                [
                    2209,
                    1076
                ],
                [
                    2244,
                    1118
                ]
            ],
            "flags": {},
            "group_id": null
        },
        {
            "label": "van",
            "shape_type": "rectangle",
            "points": [
                [
                    2017,
                    1404
                ],
                [
                    2061,
                    1436
                ]
            ],
            "flags": {},
            "group_id": null
        },
        {
            "label": "van",
            "shape_type": "rectangle",
            "points": [
                [
                    1901,
                    1634
                ],
                [
                    1934,
                    1674
                ]
            ],
            "flags": {},
            "group_id": null
        },
        {
            "label": "van",
            "shape_type": "rectangle",
            "points": [
                [
                    2151,
                    1631
                ],
                [
                    2184,
                    1672
                ]
            ],
            "flags": {},
            "group_id": null
        },
        {
            "label": "wz4",
            "shape_type": "rectangle",
            "points": [
                [
                    901,
                    1832
                ],
                [
                    1029,
                    1876
                ]
            ],
            "flags": {},
            "group_id": null
        },
        {
            "label": "sm",
            "shape_type": "rectangle",
            "points": [
                [
                    485,
                    2093
                ],
                [
                    1993,
                    2762
                ]
            ],
            "flags": {},
            "group_id": null
        },
        {
            "label": "btl",
            "shape_type": "rectangle",
            "points": [
                [
                    2347,
                    2566
                ],
                [
                    4153,
                    2873
                ]
            ],
            "flags": {},
            "group_id": null
        },
        {
            "label": "j1",
            "shape_type": "rectangle",
            "points": [
                [
                    3048,
                    438
                ],
                [
                    3156,
                    517
                ]
            ],
            "flags": {},
            "group_id": null
        },
        {
            "label": "j1",
            "shape_type": "rectangle",
            "points": [
                [
                    3111,
                    261
                ],
                [
                    3197,
                    342
                ]
            ],
            "flags": {},
            "group_id": null
        },
        {
            "label": "j1",
            "shape_type": "rectangle",
            "points": [
                [
                    2761,
                    285
                ],
                [
                    2872,
                    362
                ]
            ],
            "flags": {},
            "group_id": null
        },
        {
            "label": "j1",
            "shape_type": "rectangle",
            "points": [
                [
                    2903,
                    123
                ],
                [
                    2931,
                    168
                ]
            ],
            "flags": {},
            "group_id": null
        },
        {
            "label": "mask",
            "lineType": [
                "LLLLLLLLLLLL"
            ],
            "shape_type": "polygon",
            "points": [
                [
                    2074,
                    1831
                ],
                [
                    2192,
                    1824
                ],
                [
                    2198,
                    1625
                ],
                [
                    2166,
                    1521
                ],
                [
                    2151,
                    1466
                ],
                [
                    2118,
                    1427
                ],
                [
                    2074,
                    1403
                ],
                [
                    2009,
                    1387
                ],
                [
                    1969,
                    1425
                ],
                [
                    1873,
                    1606
                ],
                [
                    1903,
                    1818
                ],
                [
                    2074,
                    1831
                ]
            ],
            "flags": {},
            "group_id": null
        },
        {
            "label": "mask",
            "lineType": [
                "LLLLLLLLLLLLLLLLL"
            ],
            "shape_type": "polygon",
            "points": [
                [
                    2062,
                    1360
                ],
                [
                    2166,
                    1360
                ],
                [
                    2177,
                    1342
                ],
                [
                    2187,
                    1302
                ],
                [
                    2242,
                    1115
                ],
                [
                    2263,
                    1086
                ],
                [
                    2258,
                    1055
                ],
                [
                    2230,
                    915
                ],
                [
                    2193,
                    875
                ],
                [
                    2162,
                    851
                ],
                [
                    2123,
                    829
                ],
                [
                    2105,
                    821
                ],
                [
                    1914,
                    832
                ],
                [
                    1899,
                    850
                ],
                [
                    1821,
                    987
                ],
                [
                    1883,
                    1359
                ],
                [
                    2062,
                    1360
                ]
            ],
            "flags": {},
            "group_id": null
        },
        {
            "label": "mask",
            "lineType": [
                "LLLLLLLLLLLLLLLLLLLLLLLLLLLL"
            ],
            "shape_type": "polygon",
            "points": [
                [
                    2053,
                    795
                ],
                [
                    2166,
                    793
                ],
                [
                    2172,
                    786
                ],
                [
                    2176,
                    756
                ],
                [
                    2203,
                    631
                ],
                [
                    2337,
                    631
                ],
                [
                    2362,
                    623
                ],
                [
                    2367,
                    617
                ],
                [
                    2372,
                    606
                ],
                [
                    2375,
                    588
                ],
                [
                    2367,
                    559
                ],
                [
                    2306,
                    511
                ],
                [
                    2228,
                    331
                ],
                [
                    2124,
                    267
                ],
                [
                    2076,
                    161
                ],
                [
                    1982,
                    126
                ],
                [
                    1948,
                    258
                ],
                [
                    1933,
                    300
                ],
                [
                    1851,
                    336
                ],
                [
                    1837,
                    343
                ],
                [
                    1829,
                    380
                ],
                [
                    1791,
                    554
                ],
                [
                    1734,
                    646
                ],
                [
                    1751,
                    693
                ],
                [
                    1771,
                    717
                ],
                [
                    1795,
                    736
                ],
                [
                    1892,
                    789
                ],
                [
                    2053,
                    795
                ]
            ],
            "flags": {},
            "group_id": null
        },
        {
            "label": "mask",
            "lineType": [
                "LLLLLLLLLLLLLLLLLLLLLLLLLLLLLLLLLLLLLLLLLLLLLLLLLLLLLLLLLLLLLLLLLLLLLLLLLLLLLLLLLLLLLLLLLLLLLLLLL"
            ],
            "shape_type": "polygon",
            "points": [
                [
                    1448,
                    918
                ],
                [
                    1463,
                    854
                ],
                [
                    1449,
                    726
                ],
                [
                    1440,
                    697
                ],
                [
                    1438,
                    682
                ],
                [
                    1508,
                    524
                ],
                [
                    1540,
                    447
                ],
                [
                    1530,
                    428
                ],
                [
                    1515,
                    418
                ],
                [
                    1327,
                    414
                ],
                [
                    1299,
                    325
                ],
                [
                    1289,
                    295
                ],
                [
                    1284,
                    280
                ],
                [
                    1271,
                    272
                ],
                [
                    1042,
                    275
                ],
                [
                    1025,
                    252
                ],
                [
                    1022,
                    201
                ],
                [
                    1023,
                    176
                ],
                [
                    1009,
                    171
                ],
                [
                    984,
                    166
                ],
                [
                    971,
                    168
                ],
                [
                    922,
                    192
                ],
                [
                    919,
                    266
                ],
                [
                    736,
                    274
                ],
                [
                    726,
                    275
                ],
                [
                    713,
                    280
                ],
                [
                    413,
                    300
                ],
                [
                    421,
                    755
                ],
                [
                    432,
                    945
                ],
                [
                    459,
                    951
                ],
                [
                    561,
                    960
                ],
                [
                    701,
                    964
                ],
                [
                    867,
                    968
                ],
                [
                    853,
                    1175
                ],
                [
                    858,
                    1222
                ],
                [
                    838,
                    1476
                ],
                [
                    823,
                    1538
                ],
                [
                    795,
                    1638
                ],
                [
                    730,
                    1794
                ],
                [
                    723,
                    1818
                ],
                [
                    720,
                    1828
                ],
                [
                    719,
                    1845
                ],
                [
                    714,
                    1873
                ],
                [
                    690,
                    1893
                ],
                [
                    677,
                    1916
                ],
                [
                    681,
                    1941
                ],
                [
                    573,
                    1941
                ],
                [
                    577,
                    1924
                ],
                [
                    575,
                    1916
                ],
                [
                    572,
                    1910
                ],
                [
                    562,
                    1908
                ],
                [
                    556,
                    1907
                ],
                [
                    548,
                    1901
                ],
                [
                    547,
                    1889
                ],
                [
                    542,
                    1882
                ],
                [
                    536,
                    1880
                ],
                [
                    446,
                    1878
                ],
                [
                    441,
                    1879
                ],
                [
                    431,
                    1900
                ],
                [
                    431,
                    1925
                ],
                [
                    439,
                    1930
                ],
                [
                    455,
                    1929
                ],
                [
                    513,
                    1928
                ],
                [
                    522,
                    1941
                ],
                [
                    528,
                    1960
                ],
                [
                    546,
                    1965
                ],
                [
                    588,
                    1975
                ],
                [
                    809,
                    1991
                ],
                [
                    826,
                    2089
                ],
                [
                    837,
                    2088
                ],
                [
                    1160,
                    2088
                ],
                [
                    1185,
                    1993
                ],
                [
                    1188,
                    1985
                ],
                [
                    1534,
                    1977
                ],
                [
                    1532,
                    1948
                ],
                [
                    1527,
                    1944
                ],
                [
                    1522,
                    1942
                ],
                [
                    1313,
                    1941
                ],
                [
                    1307,
                    1904
                ],
                [
                    1297,
                    1891
                ],
                [
                    1294,
                    1887
                ],
                [
                    1276,
                    1881
                ],
                [
                    1111,
                    1475
                ],
                [
                    1099,
                    1405
                ],
                [
                    1087,
                    1291
                ],
                [
                    1080,
                    1213
                ],
                [
                    1104,
                    1210
                ],
                [
                    1120,
                    1210
                ],
                [
                    1122,
                    1205
                ],
                [
                    1122,
                    1194
                ],
                [
                    1120,
                    1181
                ],
                [
                    1115,
                    1177
                ],
                [
                    1075,
                    1171
                ],
                [
                    1067,
                    1042
                ],
                [
                    1106,
                    955
                ],
                [
                    1250,
                    941
                ],
                [
                    1448,
                    918
                ]
            ],
            "flags": {},
            "group_id": null
        },
        {
            "label": "mask",
            "lineType": [
                "LLLLLLLLLLLLLLLLLLLLLLLLLLLLLLLLLLLLL"
            ],
            "shape_type": "polygon",
            "points": [
                [
                    848,
                    2154
                ],
                [
                    839,
                    2107
                ],
                [
                    827,
                    2093
                ],
                [
                    815,
                    2089
                ],
                [
                    560,
                    2090
                ],
                [
                    478,
                    2089
                ],
                [
                    472,
                    2099
                ],
                [
                    479,
                    2141
                ],
                [
                    533,
                    2170
                ],
                [
                    530,
                    2192
                ],
                [
                    522,
                    2770
                ],
                [
                    1000,
                    2767
                ],
                [
                    999,
                    2716
                ],
                [
                    1774,
                    2708
                ],
                [
                    1775,
                    2656
                ],
                [
                    1752,
                    2650
                ],
                [
                    1562,
                    2640
                ],
                [
                    1559,
                    2587
                ],
                [
                    1547,
                    2570
                ],
                [
                    1530,
                    2568
                ],
                [
                    934,
                    2565
                ],
                [
                    927,
                    2504
                ],
                [
                    1612,
                    2494
                ],
                [
                    1843,
                    2491
                ],
                [
                    1843,
                    2440
                ],
                [
                    1867,
                    2432
                ],
                [
                    1999,
                    2432
                ],
                [
                    1995,
                    2390
                ],
                [
                    1990,
                    2377
                ],
                [
                    1972,
                    2370
                ],
                [
                    1961,
                    2369
                ],
                [
                    1229,
                    2360
                ],
                [
                    1218,
                    2217
                ],
                [
                    1427,
                    2219
                ],
                [
                    1418,
                    2161
                ],
                [
                    929,
                    2153
                ],
                [
                    848,
                    2154
                ]
            ],
            "flags": {},
            "group_id": null
        },
        {
            "label": "mask",
            "lineType": [
                "LLLLLL"
            ],
            "shape_type": "polygon",
            "points": [
                [
                    2346,
                    2569
                ],
                [
                    2347,
                    2865
                ],
                [
                    4144,
                    2865
                ],
                [
                    4154,
                    2567
                ],
                [
                    2571,
                    2565
                ],
                [
                    2346,
                    2569
                ]
            ],
            "flags": {},
            "group_id": null
        },
        {
            "label": "mask",
            "lineType": [
                "LLLLLLLLLLLLL"
            ],
            "shape_type": "polygon",
            "points": [
                [
                    2672,
                    2554
                ],
                [
                    4062,
                    2555
                ],
                [
                    4058,
                    2182
                ],
                [
                    4064,
                    1282
                ],
                [
                    4040,
                    1277
                ],
                [
                    3533,
                    1268
                ],
                [
                    3525,
                    1217
                ],
                [
                    3200,
                    1220
                ],
                [
                    3203,
                    1265
                ],
                [
                    2653,
                    1270
                ],
                [
                    2652,
                    1416
                ],
                [
                    2647,
                    2547
                ],
                [
                    2672,
                    2554
                ]
            ],
            "flags": {},
            "group_id": null
        },
        {
            "label": "mask",
            "lineType": [
                "LLLLLLLLLLLLLLLLLL"
            ],
            "shape_type": "polygon",
            "points": [
                [
                    3684,
                    1167
                ],
                [
                    3994,
                    1079
                ],
                [
                    4016,
                    1047
                ],
                [
                    3993,
                    899
                ],
                [
                    3964,
                    833
                ],
                [
                    3902,
                    735
                ],
                [
                    3889,
                    552
                ],
                [
                    3923,
                    267
                ],
                [
                    3910,
                    225
                ],
                [
                    3835,
                    205
                ],
                [
                    3287,
                    227
                ],
                [
                    3260,
                    240
                ],
                [
                    3222,
                    905
                ],
                [
                    3212,
                    905
                ],
                [
                    3202,
                    1087
                ],
                [
                    3231,
                    1140
                ],
                [
                    3369,
                    1157
                ],
                [
                    3684,
                    1167
                ]
            ],
            "flags": {},
            "group_id": null
        },
        {
            "label": "mask",
            "lineType": [
                "LLLLLLLLLLLLLLLL"
            ],
            "shape_type": "polygon",
            "points": [
                [
                    3033,
                    563
                ],
                [
                    3123,
                    554
                ],
                [
                    3169,
                    536
                ],
                [
                    3180,
                    506
                ],
                [
                    3209,
                    349
                ],
                [
                    3209,
                    312
                ],
                [
                    3200,
                    278
                ],
                [
                    3146,
                    206
                ],
                [
                    3111,
                    172
                ],
                [
                    3052,
                    127
                ],
                [
                    3026,
                    114
                ],
                [
                    2866,
                    109
                ],
                [
                    2843,
                    132
                ],
                [
                    2750,
                    246
                ],
                [
                    2749,
                    480
                ],
                [
                    3033,
                    563
                ]
            ],
            "flags": {},
            "group_id": null
        },
        {
            "label": "Ns",
            "shape_type": "point",
            "points": [
                [
                    2945,
                    385
                ]
            ],
            "flags": {},
            "group_id": null
        },
        {
            "label": "Ne",
            "shape_type": "point",
            "points": [
                [
                    2945,
                    206
                ]
            ],
            "flags": {},
            "group_id": null
        },
        {
            "label": "wlb",
            "shape_type": "rectangle",
            "points": [
                [
                    2663,
                    1227
                ],
                [
                    4055,
                    2550
                ]
            ],
            "flags": {},
            "group_id": null
        },
        {
            "label": "wz3",
            "shape_type": "rectangle",
            "points": [
                [
                    1316,
                    853
                ],
                [
                    1449,
                    901
                ]
            ],
            "flags": {},
            "group_id": null
        },
        {
            "label": "wz3",
            "shape_type": "rectangle",
            "points": [
                [
                    1293,
                    682
                ],
                [
                    1425,
                    735
                ]
            ],
            "flags": {},
            "group_id": null
        },
        {
            "label": "wz3",
            "shape_type": "rectangle",
            "points": [
                [
                    1338,
                    436
                ],
                [
                    1520,
                    474
                ]
            ],
            "flags": {},
            "group_id": null
        },
        {
            "label": "wz3-l",
            "lineType": "LL",
            "shape_type": "line",
            "points": [
                [
                    1369,
                    459
                ],
                [
                    1190,
                    489
                ]
            ],
            "flags": {},
            "group_id": null
        },
        {
            "label": "wz3-l",
            "lineType": "LL",
            "shape_type": "line",
            "points": [
                [
                    1154,
                    726
                ],
                [
                    1320,
                    699
                ]
            ],
            "flags": {},
            "group_id": null
        },
        {
            "label": "wz3-l",
            "lineType": "LL",
            "shape_type": "line",
            "points": [
                [
                    1081,
                    927
                ],
                [
                    1335,
                    876
                ]
            ],
            "flags": {},
            "group_id": null
        },
        {
            "label": "wz3",
            "shape_type": "rectangle",
            "points": [
                [
                    2254,
                    538
                ],
                [
                    2362,
                    615
                ]
            ],
            "flags": {},
            "group_id": null
        },
        {
            "label": "wz3",
            "shape_type": "rectangle",
            "points": [
                [
                    1972,
                    144
                ],
                [
                    2059,
                    225
                ]
            ],
            "flags": {},
            "group_id": null
        },
        {
            "label": "wz3",
            "shape_type": "rectangle",
            "points": [
                [
                    1752,
                    593
                ],
                [
                    1863,
                    670
                ]
            ],
            "flags": {},
            "group_id": null
        },
        {
            "label": "wz3-l",
            "lineType": "LL",
            "shape_type": "line",
            "points": [
                [
                    1896,
                    600
                ],
                [
                    1833,
                    623
                ]
            ],
            "flags": {},
            "group_id": null
        },
        {
            "label": "wz3-l",
            "lineType": "LL",
            "shape_type": "line",
            "points": [
                [
                    2280,
                    582
                ],
                [
                    2222,
                    539
                ]
            ],
            "flags": {},
            "group_id": null
        },
        {
            "label": "wz3-l",
            "lineType": "LL",
            "shape_type": "line",
            "points": [
                [
                    2029,
                    210
                ],
                [
                    2008,
                    273
                ]
            ],
            "flags": {},
            "group_id": null
        }
    ],
    "flags": {},
    "imageData": null,
    "version": "4.5.7"
}