{
    "imageHeight": 2908,
    "imageWidth": 4205,
    "imagePath": "样本6_127_75.png",
    "shapes": [
        {
            "label": "t9",
            "shape_type": "rectangle",
            "points": [
                [
                    823,
                    50
                ],
                [
                    1009,
                    1896
                ]
            ],
            "flags": {},
            "group_id": null
        },
        {
            "label": "",
            "shape_type": "",
            "points": [],
            "flags": {},
            "group_id": null
        },
        {
            "label": "c1",
            "shape_type": "rectangle",
            "points": [
                [
                    903,
                    50
                ],
                [
                    933,
                    122
                ]
            ],
            "flags": {},
            "group_id": null
        },
        {
            "label": "d1",
            "shape_type": "rectangle",
            "points": [
                [
                    741,
                    81
                ],
                [
                    826,
                    219
                ]
            ],
            "flags": {},
            "group_id": null
        },
        {
            "label": "d1",
            "shape_type": "rectangle",
            "points": [
                [
                    998,
                    78
                ],
                [
                    1083,
                    216
                ]
            ],
            "flags": {},
            "group_id": null
        },
        {
            "label": "d1",
            "shape_type": "rectangle",
            "points": [
                [
                    1010,
                    262
                ],
                [
                    1094,
                    400
                ]
            ],
            "flags": {},
            "group_id": null
        },
        {
            "label": "d1",
            "shape_type": "rectangle",
            "points": [
                [
                    728,
                    262
                ],
                [
                    813,
                    400
                ]
            ],
            "flags": {},
            "group_id": null
        },
        {
            "label": "h1",
            "shape_type": "rectangle",
            "points": [
                [
                    500,
                    202
                ],
                [
                    632,
                    268
                ]
            ],
            "flags": {},
            "group_id": null
        },
        {
            "label": "h1",
            "shape_type": "rectangle",
            "points": [
                [
                    500,
                    377
                ],
                [
                    632,
                    443
                ]
            ],
            "flags": {},
            "group_id": null
        },
        {
            "label": "h1",
            "shape_type": "rectangle",
            "points": [
                [
                    508,
                    58
                ],
                [
                    641,
                    125
                ]
            ],
            "flags": {},
            "group_id": null
        },
        {
            "label": "z1",
            "shape_type": "rectangle",
            "points": [
                [
                    888,
                    122
                ],
                [
                    950,
                    272
                ]
            ],
            "flags": {},
            "group_id": null
        },
        {
            "label": "a1-3",
            "shape_type": "rectangle",
            "points": [
                [
                    897,
                    167
                ],
                [
                    907,
                    232
                ]
            ],
            "flags": {},
            "group_id": null
        },
        {
            "label": "a1-3",
            "shape_type": "rectangle",
            "points": [
                [
                    930,
                    167
                ],
                [
                    941,
                    232
                ]
            ],
            "flags": {},
            "group_id": null
        },
        {
            "label": "a1-4",
            "shape_type": "rectangle",
            "points": [
                [
                    911,
                    167
                ],
                [
                    925,
                    232
                ]
            ],
            "flags": {},
            "group_id": null
        },
        {
            "label": "g1",
            "shape_type": "rectangle",
            "points": [
                [
                    916,
                    135
                ],
                [
                    920,
                    282
                ]
            ],
            "flags": {},
            "group_id": null
        },
        {
            "label": "a1-1",
            "shape_type": "rectangle",
            "points": [
                [
                    837,
                    334
                ],
                [
                    865,
                    446
                ]
            ],
            "flags": {},
            "group_id": null
        },
        {
            "label": "g1",
            "shape_type": "rectangle",
            "points": [
                [
                    865,
                    317
                ],
                [
                    869,
                    465
                ]
            ],
            "flags": {},
            "group_id": null
        },
        {
            "label": "g1",
            "shape_type": "rectangle",
            "points": [
                [
                    962,
                    317
                ],
                [
                    965,
                    465
                ]
            ],
            "flags": {},
            "group_id": null
        },
        {
            "label": "a1-2",
            "shape_type": "rectangle",
            "points": [
                [
                    965,
                    334
                ],
                [
                    993,
                    444
                ]
            ],
            "flags": {},
            "group_id": null
        },
        {
            "label": "p1-1",
            "shape_type": "rectangle",
            "points": [
                [
                    837,
                    317
                ],
                [
                    993,
                    466
                ]
            ],
            "flags": {},
            "group_id": null
        },
        {
            "label": "z1",
            "shape_type": "rectangle",
            "points": [
                [
                    824,
                    311
                ],
                [
                    1009,
                    502
                ]
            ],
            "flags": {},
            "group_id": null
        },
        {
            "label": "x1",
            "shape_type": "rectangle",
            "points": [
                [
                    850,
                    1253
                ],
                [
                    1001,
                    1280
                ]
            ],
            "flags": {},
            "group_id": null
        },
        {
            "label": "vb1",
            "shape_type": "rectangle",
            "points": [
                [
                    1048,
                    1715
                ],
                [
                    1228,
                    1896
                ]
            ],
            "flags": {},
            "group_id": null
        },
        {
            "label": "v1",
            "shape_type": "rectangle",
            "points": [
                [
                    826,
                    1991
                ],
                [
                    1158,
                    2081
                ]
            ],
            "flags": {},
            "group_id": null
        },
        {
            "label": "h1",
            "shape_type": "rectangle",
            "points": [
                [
                    531,
                    1831
                ],
                [
                    662,
                    1898
                ]
            ],
            "flags": {},
            "group_id": null
        },
        {
            "label": "seven",
            "shape_type": "point",
            "points": [
                [
                    1048,
                    1715
                ]
            ],
            "flags": {},
            "group_id": null
        },
        {
            "label": "thirteen",
            "shape_type": "point",
            "points": [
                [
                    1138,
                    1716
                ]
            ],
            "flags": {},
            "group_id": null
        },
        {
            "label": "eight",
            "shape_type": "point",
            "points": [
                [
                    1228,
                    1716
                ]
            ],
            "flags": {},
            "group_id": null
        },
        {
            "label": "fourteen",
            "shape_type": "point",
            "points": [
                [
                    1047,
                    1896
                ]
            ],
            "flags": {},
            "group_id": null
        },
        {
            "label": "fourteen",
            "shape_type": "point",
            "points": [
                [
                    1138,
                    1896
                ]
            ],
            "flags": {},
            "group_id": null
        },
        {
            "label": "fourteen",
            "shape_type": "point",
            "points": [
                [
                    1229,
                    1896
                ]
            ],
            "flags": {},
            "group_id": null
        },
        {
            "label": "vp1-1",
            "shape_type": "rectangle",
            "points": [
                [
                    2003,
                    1274
                ],
                [
                    2235,
                    1510
                ]
            ],
            "flags": {},
            "group_id": null
        },
        {
            "label": "va1",
            "shape_type": "rectangle",
            "points": [
                [
                    2108,
                    1293
                ],
                [
                    2148,
                    1335
                ]
            ],
            "flags": {},
            "group_id": null
        },
        {
            "label": "va1",
            "shape_type": "rectangle",
            "points": [
                [
                    2161,
                    1420
                ],
                [
                    2205,
                    1456
                ]
            ],
            "flags": {},
            "group_id": null
        },
        {
            "label": "va1",
            "shape_type": "rectangle",
            "points": [
                [
                    2023,
                    1404
                ],
                [
                    2064,
                    1445
                ]
            ],
            "flags": {},
            "group_id": null
        },
        {
            "label": "v1",
            "shape_type": "rectangle",
            "points": [
                [
                    2009,
                    1546
                ],
                [
                    2239,
                    1639
                ]
            ],
            "flags": {},
            "group_id": null
        },
        {
            "label": "v1",
            "shape_type": "rectangle",
            "points": [
                [
                    2008,
                    1029
                ],
                [
                    2238,
                    1121
                ]
            ],
            "flags": {},
            "group_id": null
        },
        {
            "label": "va1",
            "shape_type": "rectangle",
            "points": [
                [
                    2056,
                    885
                ],
                [
                    2106,
                    940
                ]
            ],
            "flags": {},
            "group_id": null
        },
        {
            "label": "va1",
            "shape_type": "rectangle",
            "points": [
                [
                    2084,
                    925
                ],
                [
                    2138,
                    973
                ]
            ],
            "flags": {},
            "group_id": null
        },
        {
            "label": "va1",
            "shape_type": "rectangle",
            "points": [
                [
                    2107,
                    883
                ],
                [
                    2157,
                    938
                ]
            ],
            "flags": {},
            "group_id": null
        },
        {
            "label": "vp2-1",
            "shape_type": "rectangle",
            "points": [
                [
                    2035,
                    866
                ],
                [
                    2169,
                    999
                ]
            ],
            "flags": {},
            "group_id": null
        },
        {
            "label": "n1",
            "shape_type": "rectangle",
            "points": [
                [
                    1886,
                    187
                ],
                [
                    2360,
                    660
                ]
            ],
            "flags": {},
            "group_id": null
        },
        {
            "label": "vb1",
            "shape_type": "rectangle",
            "points": [
                [
                    3215,
                    348
                ],
                [
                    3305,
                    528
                ]
            ],
            "flags": {},
            "group_id": null
        },
        {
            "label": "seven",
            "shape_type": "point",
            "points": [
                [
                    3215,
                    348
                ]
            ],
            "flags": {},
            "group_id": null
        },
        {
            "label": "eight",
            "shape_type": "point",
            "points": [
                [
                    3305,
                    348
                ]
            ],
            "flags": {},
            "group_id": null
        },
        {
            "label": "thirteen",
            "shape_type": "point",
            "points": [
                [
                    3224,
                    348
                ]
            ],
            "flags": {},
            "group_id": null
        },
        {
            "label": "eleven",
            "shape_type": "point",
            "points": [
                [
                    3215,
                    438
                ]
            ],
            "flags": {},
            "group_id": null
        },
        {
            "label": "fifteen",
            "shape_type": "point",
            "points": [
                [
                    3225,
                    438
                ]
            ],
            "flags": {},
            "group_id": null
        },
        {
            "label": "twelve",
            "shape_type": "point",
            "points": [
                [
                    3305,
                    438
                ]
            ],
            "flags": {},
            "group_id": null
        },
        {
            "label": "nine",
            "shape_type": "point",
            "points": [
                [
                    3215,
                    528
                ]
            ],
            "flags": {},
            "group_id": null
        },
        {
            "label": "fourteen",
            "shape_type": "point",
            "points": [
                [
                    3225,
                    528
                ]
            ],
            "flags": {},
            "group_id": null
        },
        {
            "label": "ten",
            "shape_type": "point",
            "points": [
                [
                    3305,
                    528
                ]
            ],
            "flags": {},
            "group_id": null
        },
        {
            "label": "two",
            "shape_type": "point",
            "points": [
                [
                    3409,
                    528
                ]
            ],
            "flags": {},
            "group_id": null
        },
        {
            "label": "one",
            "shape_type": "point",
            "points": [
                [
                    3409,
                    813
                ]
            ],
            "flags": {},
            "group_id": null
        },
        {
            "label": "d1",
            "shape_type": "rectangle",
            "points": [
                [
                    3527,
                    859
                ],
                [
                    3664,
                    944
                ]
            ],
            "flags": {},
            "group_id": null
        },
        {
            "label": "v1",
            "shape_type": "rectangle",
            "points": [
                [
                    3120,
                    950
                ],
                [
                    3310,
                    1018
                ]
            ],
            "flags": {},
            "group_id": null
        },
        {
            "label": "vt9",
            "shape_type": "rectangle",
            "points": [
                [
                    3170,
                    735
                ],
                [
                    3326,
                    892
                ]
            ],
            "flags": {},
            "group_id": null
        },
        {
            "label": "va1",
            "shape_type": "rectangle",
            "points": [
                [
                    3226,
                    800
                ],
                [
                    3248,
                    828
                ]
            ],
            "flags": {},
            "group_id": null
        },
        {
            "label": "va1",
            "shape_type": "rectangle",
            "points": [
                [
                    3242,
                    790
                ],
                [
                    3268,
                    814
                ]
            ],
            "flags": {},
            "group_id": null
        },
        {
            "label": "va1",
            "shape_type": "rectangle",
            "points": [
                [
                    3243,
                    812
                ],
                [
                    3270,
                    837
                ]
            ],
            "flags": {},
            "group_id": null
        },
        {
            "label": "d1",
            "shape_type": "rectangle",
            "points": [
                [
                    3526,
                    262
                ],
                [
                    3664,
                    346
                ]
            ],
            "flags": {},
            "group_id": null
        },
        {
            "label": "",
            "shape_type": "",
            "points": [],
            "flags": {},
            "group_id": null
        },
        {
            "label": "sm",
            "shape_type": "rectangle",
            "points": [
                [
                    472,
                    2088
                ],
                [
                    1897,
                    2778
                ]
            ],
            "flags": {},
            "group_id": null
        },
        {
            "label": "btl",
            "shape_type": "rectangle",
            "points": [
                [
                    2344,
                    2568
                ],
                [
                    4147,
                    2870
                ]
            ],
            "flags": {},
            "group_id": null
        },
        {
            "label": "j1",
            "shape_type": "rectangle",
            "points": [
                [
                    2106,
                    580
                ],
                [
                    2216,
                    661
                ]
            ],
            "flags": {},
            "group_id": null
        },
        {
            "label": "j1",
            "shape_type": "rectangle",
            "points": [
                [
                    2271,
                    307
                ],
                [
                    2359,
                    392
                ]
            ],
            "flags": {},
            "group_id": null
        },
        {
            "label": "j1",
            "shape_type": "rectangle",
            "points": [
                [
                    1887,
                    290
                ],
                [
                    2001,
                    364
                ]
            ],
            "flags": {},
            "group_id": null
        },
        {
            "label": "j1",
            "shape_type": "rectangle",
            "points": [
                [
                    2063,
                    188
                ],
                [
                    2096,
                    232
                ]
            ],
            "flags": {},
            "group_id": null
        },
        {
            "label": "wz2",
            "shape_type": "rectangle",
            "points": [
                [
                    3369,
                    627
                ],
                [
                    3404,
                    715
                ]
            ],
            "flags": {},
            "group_id": null
        },
        {
            "label": "x2",
            "shape_type": "rectangle",
            "points": [
                [
                    3369,
                    518
                ],
                [
                    3419,
                    825
                ]
            ],
            "flags": {},
            "group_id": null
        },
        {
            "label": "mask",
            "lineType": [
                "LLLLLLLLLLLLLLLLLLLLLLLLLLLLLLLLLLLLLLLLLLLLLLLLLLLLLLLLLLLL"
            ],
            "shape_type": "polygon",
            "points": [
                [
                    493,
                    46
                ],
                [
                    940,
                    43
                ],
                [
                    1087,
                    56
                ],
                [
                    1107,
                    125
                ],
                [
                    1114,
                    161
                ],
                [
                    1426,
                    178
                ],
                [
                    1427,
                    214
                ],
                [
                    1422,
                    238
                ],
                [
                    1374,
                    459
                ],
                [
                    1320,
                    477
                ],
                [
                    1042,
                    475
                ],
                [
                    1022,
                    506
                ],
                [
                    1018,
                    531
                ],
                [
                    1004,
                    580
                ],
                [
                    998,
                    823
                ],
                [
                    1004,
                    1176
                ],
                [
                    1021,
                    1236
                ],
                [
                    1010,
                    1331
                ],
                [
                    1030,
                    1576
                ],
                [
                    1071,
                    1611
                ],
                [
                    1213,
                    1576
                ],
                [
                    1375,
                    1591
                ],
                [
                    1386,
                    1655
                ],
                [
                    1386,
                    1680
                ],
                [
                    1292,
                    1685
                ],
                [
                    1245,
                    1697
                ],
                [
                    1359,
                    1861
                ],
                [
                    1389,
                    1876
                ],
                [
                    1389,
                    1917
                ],
                [
                    1384,
                    1939
                ],
                [
                    1163,
                    1964
                ],
                [
                    1167,
                    2052
                ],
                [
                    1167,
                    2091
                ],
                [
                    1021,
                    2091
                ],
                [
                    816,
                    2089
                ],
                [
                    811,
                    2058
                ],
                [
                    812,
                    1946
                ],
                [
                    528,
                    1943
                ],
                [
                    513,
                    1900
                ],
                [
                    512,
                    1837
                ],
                [
                    541,
                    1826
                ],
                [
                    860,
                    1818
                ],
                [
                    865,
                    1753
                ],
                [
                    862,
                    1468
                ],
                [
                    835,
                    1304
                ],
                [
                    834,
                    1226
                ],
                [
                    793,
                    1085
                ],
                [
                    663,
                    1094
                ],
                [
                    634,
                    1066
                ],
                [
                    629,
                    1003
                ],
                [
                    638,
                    982
                ],
                [
                    732,
                    976
                ],
                [
                    820,
                    972
                ],
                [
                    864,
                    867
                ],
                [
                    869,
                    710
                ],
                [
                    837,
                    536
                ],
                [
                    580,
                    483
                ],
                [
                    477,
                    439
                ],
                [
                    479,
                    246
                ],
                [
                    493,
                    46
                ]
            ],
            "flags": {},
            "group_id": null
        },
        {
            "label": "mask",
            "lineType": [
                "LLLLLLLLLLLLLLLLLLLL"
            ],
            "shape_type": "polygon",
            "points": [
                [
                    2050,
                    173
                ],
                [
                    2179,
                    174
                ],
                [
                    2207,
                    201
                ],
                [
                    2220,
                    287
                ],
                [
                    2343,
                    288
                ],
                [
                    2373,
                    308
                ],
                [
                    2389,
                    371
                ],
                [
                    2382,
                    407
                ],
                [
                    2326,
                    425
                ],
                [
                    2223,
                    447
                ],
                [
                    2252,
                    643
                ],
                [
                    2244,
                    684
                ],
                [
                    2164,
                    685
                ],
                [
                    2082,
                    685
                ],
                [
                    2075,
                    646
                ],
                [
                    2026,
                    511
                ],
                [
                    1866,
                    366
                ],
                [
                    1870,
                    312
                ],
                [
                    1904,
                    284
                ],
                [
                    2050,
                    173
                ]
            ],
            "flags": {},
            "group_id": null
        },
        {
            "label": "mask",
            "lineType": [
                "LLLLLLLLLLLLLLLLLLLLLLLLLLLLLL"
            ],
            "shape_type": "polygon",
            "points": [
                [
                    3052,
                    202
                ],
                [
                    3185,
                    211
                ],
                [
                    3643,
                    250
                ],
                [
                    3677,
                    256
                ],
                [
                    3682,
                    339
                ],
                [
                    3677,
                    366
                ],
                [
                    3641,
                    376
                ],
                [
                    3461,
                    425
                ],
                [
                    3484,
                    690
                ],
                [
                    3485,
                    851
                ],
                [
                    3657,
                    846
                ],
                [
                    3684,
                    867
                ],
                [
                    3687,
                    955
                ],
                [
                    3674,
                    973
                ],
                [
                    3323,
                    948
                ],
                [
                    3331,
                    1026
                ],
                [
                    3312,
                    1029
                ],
                [
                    3110,
                    1033
                ],
                [
                    3108,
                    1006
                ],
                [
                    3112,
                    959
                ],
                [
                    3133,
                    901
                ],
                [
                    3164,
                    736
                ],
                [
                    3194,
                    562
                ],
                [
                    3170,
                    463
                ],
                [
                    3092,
                    390
                ],
                [
                    2972,
                    331
                ],
                [
                    2961,
                    298
                ],
                [
                    2951,
                    249
                ],
                [
                    2955,
                    231
                ],
                [
                    3052,
                    202
                ]
            ],
            "flags": {},
            "group_id": null
        },
        {
            "label": "mask",
            "lineType": [
                "LLLLLLLLL"
            ],
            "shape_type": "polygon",
            "points": [
                [
                    3197,
                    1257
                ],
                [
                    3200,
                    1214
                ],
                [
                    3512,
                    1215
                ],
                [
                    3519,
                    1266
                ],
                [
                    4057,
                    1275
                ],
                [
                    4059,
                    2554
                ],
                [
                    2657,
                    2552
                ],
                [
                    2656,
                    1278
                ],
                [
                    3197,
                    1257
                ]
            ],
            "flags": {},
            "group_id": null
        },
        {
            "label": "mask",
            "lineType": [
                "LLLLL"
            ],
            "shape_type": "polygon",
            "points": [
                [
                    2344,
                    2565
                ],
                [
                    2347,
                    2871
                ],
                [
                    4153,
                    2871
                ],
                [
                    4152,
                    2567
                ],
                [
                    2344,
                    2565
                ]
            ],
            "flags": {},
            "group_id": null
        },
        {
            "label": "mask",
            "lineType": [
                "LLLLLLLLLLLLLLLLLLLLLLLLLLLLLLLLLL"
            ],
            "shape_type": "polygon",
            "points": [
                [
                    471,
                    2084
                ],
                [
                    796,
                    2086
                ],
                [
                    821,
                    2095
                ],
                [
                    841,
                    2105
                ],
                [
                    843,
                    2155
                ],
                [
                    1090,
                    2155
                ],
                [
                    1415,
                    2155
                ],
                [
                    1427,
                    2173
                ],
                [
                    1425,
                    2215
                ],
                [
                    1421,
                    2220
                ],
                [
                    1229,
                    2237
                ],
                [
                    1237,
                    2364
                ],
                [
                    1717,
                    2363
                ],
                [
                    1888,
                    2367
                ],
                [
                    1902,
                    2384
                ],
                [
                    1902,
                    2440
                ],
                [
                    1874,
                    2440
                ],
                [
                    1546,
                    2450
                ],
                [
                    1565,
                    2604
                ],
                [
                    1575,
                    2634
                ],
                [
                    1762,
                    2640
                ],
                [
                    1787,
                    2654
                ],
                [
                    1781,
                    2707
                ],
                [
                    1763,
                    2715
                ],
                [
                    1013,
                    2712
                ],
                [
                    1006,
                    2751
                ],
                [
                    1001,
                    2776
                ],
                [
                    683,
                    2778
                ],
                [
                    522,
                    2768
                ],
                [
                    514,
                    2723
                ],
                [
                    506,
                    2174
                ],
                [
                    504,
                    2150
                ],
                [
                    477,
                    2149
                ],
                [
                    471,
                    2084
                ]
            ],
            "flags": {},
            "group_id": null
        },
        {
            "label": "mask",
            "lineType": [
                "LLLLLLLLLLLLLLLLLLLLLLL"
            ],
            "shape_type": "polygon",
            "points": [
                [
                    2230,
                    1665
                ],
                [
                    2266,
                    1637
                ],
                [
                    2302,
                    1566
                ],
                [
                    2371,
                    1538
                ],
                [
                    2402,
                    1498
                ],
                [
                    2401,
                    1439
                ],
                [
                    2348,
                    1388
                ],
                [
                    2239,
                    1226
                ],
                [
                    2219,
                    1191
                ],
                [
                    2202,
                    1182
                ],
                [
                    2159,
                    1177
                ],
                [
                    2071,
                    1175
                ],
                [
                    2028,
                    1184
                ],
                [
                    2015,
                    1250
                ],
                [
                    1992,
                    1303
                ],
                [
                    1943,
                    1335
                ],
                [
                    1879,
                    1379
                ],
                [
                    1849,
                    1408
                ],
                [
                    1831,
                    1455
                ],
                [
                    1826,
                    1523
                ],
                [
                    1863,
                    1597
                ],
                [
                    1957,
                    1643
                ],
                [
                    2230,
                    1665
                ]
            ],
            "flags": {},
            "group_id": null
        },
        {
            "label": "mask",
            "lineType": [
                "LLLLLLLLLLLLLLLLLL"
            ],
            "shape_type": "polygon",
            "points": [
                [
                    2209,
                    1142
                ],
                [
                    2244,
                    1143
                ],
                [
                    2253,
                    1137
                ],
                [
                    2275,
                    995
                ],
                [
                    2370,
                    974
                ],
                [
                    2728,
                    981
                ],
                [
                    2738,
                    964
                ],
                [
                    2743,
                    927
                ],
                [
                    2725,
                    899
                ],
                [
                    2658,
                    884
                ],
                [
                    2185,
                    864
                ],
                [
                    2099,
                    850
                ],
                [
                    2055,
                    860
                ],
                [
                    2012,
                    947
                ],
                [
                    1995,
                    998
                ],
                [
                    1992,
                    1082
                ],
                [
                    1992,
                    1126
                ],
                [
                    2209,
                    1142
                ]
            ],
            "flags": {},
            "group_id": null
        },
        {
            "label": "Ns",
            "shape_type": "point",
            "points": [
                [
                    2108,
                    450
                ]
            ],
            "flags": {},
            "group_id": null
        },
        {
            "label": "Ne",
            "shape_type": "point",
            "points": [
                [
                    2109,
                    270
                ]
            ],
            "flags": {},
            "group_id": null
        },
        {
            "label": "wlb",
            "shape_type": "rectangle",
            "points": [
                [
                    2662,
                    1227
                ],
                [
                    4054,
                    2549
                ]
            ],
            "flags": {},
            "group_id": null
        },
        {
            "label": "wz3",
            "shape_type": "rectangle",
            "points": [
                [
                    1856,
                    1428
                ],
                [
                    2000,
                    1504
                ]
            ],
            "flags": {},
            "group_id": null
        },
        {
            "label": "wz3",
            "shape_type": "rectangle",
            "points": [
                [
                    2231,
                    1449
                ],
                [
                    2374,
                    1531
                ]
            ],
            "flags": {},
            "group_id": null
        },
        {
            "label": "wz3",
            "shape_type": "rectangle",
            "points": [
                [
                    2046,
                    1191
                ],
                [
                    2190,
                    1259
                ]
            ],
            "flags": {},
            "group_id": null
        },
        {
            "label": "wz3-l",
            "lineType": "LL",
            "shape_type": "line",
            "points": [
                [
                    1952,
                    1468
                ],
                [
                    2036,
                    1428
                ]
            ],
            "flags": {},
            "group_id": null
        },
        {
            "label": "wz3-l",
            "lineType": "LL",
            "shape_type": "line",
            "points": [
                [
                    2276,
                    1481
                ],
                [
                    2183,
                    1448
                ]
            ],
            "flags": {},
            "group_id": null
        },
        {
            "label": "wz3-l",
            "lineType": "LL",
            "shape_type": "line",
            "points": [
                [
                    2116,
                    1234
                ],
                [
                    2130,
                    1310
                ]
            ],
            "flags": {},
            "group_id": null
        },
        {
            "label": "wz1",
            "shape_type": "rectangle",
            "points": [
                [
                    1007,
                    1932
                ],
                [
                    1137,
                    1979
                ]
            ],
            "flags": {},
            "group_id": null
        },
        {
            "label": "wz1",
            "shape_type": "rectangle",
            "points": [
                [
                    1189,
                    1591
                ],
                [
                    1354,
                    1643
                ]
            ],
            "flags": {},
            "group_id": null
        },
        {
            "label": "wz1-l",
            "lineType": "LL",
            "shape_type": "line",
            "points": [
                [
                    1060,
                    1953
                ],
                [
                    1021,
                    1918
                ]
            ],
            "flags": {},
            "group_id": null
        },
        {
            "label": "wz1-l",
            "lineType": "LL",
            "shape_type": "line",
            "points": [
                [
                    1204,
                    1623
                ],
                [
                    1087,
                    1717
                ]
            ],
            "flags": {},
            "group_id": null
        },
        {
            "label": "wz1",
            "shape_type": "rectangle",
            "points": [
                [
                    656,
                    999
                ],
                [
                    842,
                    1051
                ]
            ],
            "flags": {},
            "group_id": null
        },
        {
            "label": "wz1-l",
            "lineType": "LL",
            "shape_type": "line",
            "points": [
                [
                    799,
                    1029
                ],
                [
                    897,
                    1117
                ]
            ],
            "flags": {},
            "group_id": null
        },
        {
            "label": "wz3",
            "shape_type": "rectangle",
            "points": [
                [
                    1141,
                    424
                ],
                [
                    1327,
                    467
                ]
            ],
            "flags": {},
            "group_id": null
        },
        {
            "label": "wz3",
            "shape_type": "rectangle",
            "points": [
                [
                    1137,
                    175
                ],
                [
                    1417,
                    228
                ]
            ],
            "flags": {},
            "group_id": null
        },
        {
            "label": "wz3-l",
            "lineType": "LL",
            "shape_type": "line",
            "points": [
                [
                    1172,
                    452
                ],
                [
                    976,
                    431
                ]
            ],
            "flags": {},
            "group_id": null
        },
        {
            "label": "wz3-l",
            "lineType": "LL",
            "shape_type": "line",
            "points": [
                [
                    1172,
                    205
                ],
                [
                    938,
                    200
                ]
            ],
            "flags": {},
            "group_id": null
        },
        {
            "label": "wz3",
            "shape_type": "rectangle",
            "points": [
                [
                    2218,
                    899
                ],
                [
                    2737,
                    965
                ]
            ],
            "flags": {},
            "group_id": null
        },
        {
            "label": "wz3-l",
            "lineType": "LL",
            "shape_type": "line",
            "points": [
                [
                    2259,
                    946
                ],
                [
                    2144,
                    914
                ]
            ],
            "flags": {},
            "group_id": null
        },
        {
            "label": "wz1",
            "shape_type": "rectangle",
            "points": [
                [
                    2974,
                    228
                ],
                [
                    3139,
                    282
                ]
            ],
            "flags": {},
            "group_id": null
        },
        {
            "label": "wz1-l",
            "lineType": "LL",
            "shape_type": "line",
            "points": [
                [
                    3118,
                    250
                ],
                [
                    3223,
                    387
                ]
            ],
            "flags": {},
            "group_id": null
        },
        {
            "label": "wz1-l",
            "lineType": "LL",
            "shape_type": "line",
            "points": [
                [
                    3110,
                    253
                ],
                [
                    3218,
                    478
                ]
            ],
            "flags": {},
            "group_id": null
        }
    ],
    "flags": {},
    "imageData": null,
    "version": "4.5.7"
}