{
    "imageHeight": 2908,
    "imageWidth": 4205,
    "imagePath": "样本4_96_80.png",
    "shapes": [
        {
            "label": "c1",
            "shape_type": "rectangle",
            "points": [
                [
                    960,
                    1084
                ],
                [
                    965,
                    1191
                ]
            ],
            "flags": {},
            "group_id": null
        },
        {
            "label": "d1",
            "shape_type": "rectangle",
            "points": [
                [
                    1041,
                    1142
                ],
                [
                    1124,
                    1286
                ]
            ],
            "flags": {},
            "group_id": null
        },
        {
            "label": "h1",
            "shape_type": "rectangle",
            "points": [
                [
                    1166,
                    1185
                ],
                [
                    1309,
                    1255
                ]
            ],
            "flags": {},
            "group_id": null
        },
        {
            "label": "a1-1",
            "shape_type": "rectangle",
            "points": [
                [
                    898,
                    1169
                ],
                [
                    913,
                    1230
                ]
            ],
            "flags": {},
            "group_id": null
        },
        {
            "label": "g1",
            "shape_type": "rectangle",
            "points": [
                [
                    914,
                    1152
                ],
                [
                    917,
                    1304
                ]
            ],
            "flags": {},
            "group_id": null
        },
        {
            "label": "g1",
            "shape_type": "rectangle",
            "points": [
                [
                    1008,
                    1149
                ],
                [
                    1010,
                    1305
                ]
            ],
            "flags": {},
            "group_id": null
        },
        {
            "label": "a1-2",
            "shape_type": "rectangle",
            "points": [
                [
                    1010,
                    1167
                ],
                [
                    1026,
                    1228
                ]
            ],
            "flags": {},
            "group_id": null
        },
        {
            "label": "d1",
            "shape_type": "rectangle",
            "points": [
                [
                    791,
                    1141
                ],
                [
                    875,
                    1279
                ]
            ],
            "flags": {},
            "group_id": null
        },
        {
            "label": "p1-1",
            "shape_type": "rectangle",
            "points": [
                [
                    898,
                    1151
                ],
                [
                    1026,
                    1305
                ]
            ],
            "flags": {},
            "group_id": null
        },
        {
            "label": "a1-1",
            "shape_type": "rectangle",
            "points": [
                [
                    898,
                    1394
                ],
                [
                    914,
                    1455
                ]
            ],
            "flags": {},
            "group_id": null
        },
        {
            "label": "g1",
            "shape_type": "rectangle",
            "points": [
                [
                    914,
                    1376
                ],
                [
                    917,
                    1531
                ]
            ],
            "flags": {},
            "group_id": null
        },
        {
            "label": "g1",
            "shape_type": "rectangle",
            "points": [
                [
                    1008,
                    1374
                ],
                [
                    1011,
                    1530
                ]
            ],
            "flags": {},
            "group_id": null
        },
        {
            "label": "a1-2",
            "shape_type": "rectangle",
            "points": [
                [
                    1012,
                    1390
                ],
                [
                    1027,
                    1451
                ]
            ],
            "flags": {},
            "group_id": null
        },
        {
            "label": "d1",
            "shape_type": "rectangle",
            "points": [
                [
                    1038,
                    1363
                ],
                [
                    1121,
                    1509
                ]
            ],
            "flags": {},
            "group_id": null
        },
        {
            "label": "h1",
            "shape_type": "rectangle",
            "points": [
                [
                    1166,
                    1394
                ],
                [
                    1310,
                    1463
                ]
            ],
            "flags": {},
            "group_id": null
        },
        {
            "label": "d1",
            "shape_type": "rectangle",
            "points": [
                [
                    787,
                    1363
                ],
                [
                    872,
                    1500
                ]
            ],
            "flags": {},
            "group_id": null
        },
        {
            "label": "p1-1",
            "shape_type": "rectangle",
            "points": [
                [
                    898,
                    1373
                ],
                [
                    1027,
                    1530
                ]
            ],
            "flags": {},
            "group_id": null
        },
        {
            "label": "d1",
            "shape_type": "rectangle",
            "points": [
                [
                    787,
                    1627
                ],
                [
                    872,
                    1765
                ]
            ],
            "flags": {},
            "group_id": null
        },
        {
            "label": "a1-1",
            "shape_type": "rectangle",
            "points": [
                [
                    900,
                    1629
                ],
                [
                    915,
                    1691
                ]
            ],
            "flags": {},
            "group_id": null
        },
        {
            "label": "g1",
            "shape_type": "rectangle",
            "points": [
                [
                    914,
                    1613
                ],
                [
                    918,
                    1765
                ]
            ],
            "flags": {},
            "group_id": null
        },
        {
            "label": "g1",
            "shape_type": "rectangle",
            "points": [
                [
                    1009,
                    1611
                ],
                [
                    1012,
                    1766
                ]
            ],
            "flags": {},
            "group_id": null
        },
        {
            "label": "a1-2",
            "shape_type": "rectangle",
            "points": [
                [
                    1013,
                    1627
                ],
                [
                    1028,
                    1691
                ]
            ],
            "flags": {},
            "group_id": null
        },
        {
            "label": "d1",
            "shape_type": "rectangle",
            "points": [
                [
                    1037,
                    1620
                ],
                [
                    1120,
                    1764
                ]
            ],
            "flags": {},
            "group_id": null
        },
        {
            "label": "h1",
            "shape_type": "rectangle",
            "points": [
                [
                    1163,
                    1664
                ],
                [
                    1309,
                    1734
                ]
            ],
            "flags": {},
            "group_id": null
        },
        {
            "label": "p1-1",
            "shape_type": "rectangle",
            "points": [
                [
                    900,
                    1610
                ],
                [
                    1028,
                    1767
                ]
            ],
            "flags": {},
            "group_id": null
        },
        {
            "label": "x1",
            "shape_type": "rectangle",
            "points": [
                [
                    884,
                    2164
                ],
                [
                    1037,
                    2189
                ]
            ],
            "flags": {},
            "group_id": null
        },
        {
            "label": "b1",
            "shape_type": "rectangle",
            "points": [
                [
                    1070,
                    2457
                ],
                [
                    1255,
                    2582
                ]
            ],
            "flags": {},
            "group_id": null
        },
        {
            "label": "h1",
            "shape_type": "rectangle",
            "points": [
                [
                    1527,
                    2511
                ],
                [
                    1676,
                    2581
                ]
            ],
            "flags": {},
            "group_id": null
        },
        {
            "label": "v1",
            "shape_type": "rectangle",
            "points": [
                [
                    828,
                    2616
                ],
                [
                    1159,
                    2705
                ]
            ],
            "flags": {},
            "group_id": null
        },
        {
            "label": "s1",
            "shape_type": "rectangle",
            "points": [
                [
                    535,
                    1026
                ],
                [
                    1484,
                    2580
                ]
            ],
            "flags": {},
            "group_id": null
        },
        {
            "label": "v1",
            "shape_type": "rectangle",
            "points": [
                [
                    1856,
                    2131
                ],
                [
                    2087,
                    2223
                ]
            ],
            "flags": {},
            "group_id": null
        },
        {
            "label": "va1",
            "shape_type": "rectangle",
            "points": [
                [
                    1858,
                    2024
                ],
                [
                    1895,
                    2069
                ]
            ],
            "flags": {},
            "group_id": null
        },
        {
            "label": "va1",
            "shape_type": "rectangle",
            "points": [
                [
                    2103,
                    1898
                ],
                [
                    2140,
                    1942
                ]
            ],
            "flags": {},
            "group_id": null
        },
        {
            "label": "va1",
            "shape_type": "rectangle",
            "points": [
                [
                    1868,
                    1756
                ],
                [
                    1913,
                    1795
                ]
            ],
            "flags": {},
            "group_id": null
        },
        {
            "label": "vp1-1",
            "shape_type": "rectangle",
            "points": [
                [
                    1877,
                    1834
                ],
                [
                    2043,
                    2000
                ]
            ],
            "flags": {},
            "group_id": null
        },
        {
            "label": "v1",
            "shape_type": "rectangle",
            "points": [
                [
                    1857,
                    1464
                ],
                [
                    2087,
                    1556
                ]
            ],
            "flags": {},
            "group_id": null
        },
        {
            "label": "va1",
            "shape_type": "rectangle",
            "points": [
                [
                    1862,
                    1361
                ],
                [
                    1894,
                    1404
                ]
            ],
            "flags": {},
            "group_id": null
        },
        {
            "label": "va1",
            "shape_type": "rectangle",
            "points": [
                [
                    2103,
                    1241
                ],
                [
                    2142,
                    1280
                ]
            ],
            "flags": {},
            "group_id": null
        },
        {
            "label": "va1",
            "shape_type": "rectangle",
            "points": [
                [
                    1868,
                    1088
                ],
                [
                    1913,
                    1129
                ]
            ],
            "flags": {},
            "group_id": null
        },
        {
            "label": "vp1-1",
            "shape_type": "rectangle",
            "points": [
                [
                    1877,
                    1168
                ],
                [
                    2043,
                    1334
                ]
            ],
            "flags": {},
            "group_id": null
        },
        {
            "label": "v1",
            "shape_type": "rectangle",
            "points": [
                [
                    1857,
                    763
                ],
                [
                    2086,
                    854
                ]
            ],
            "flags": {},
            "group_id": null
        },
        {
            "label": "va1",
            "shape_type": "rectangle",
            "points": [
                [
                    1857,
                    655
                ],
                [
                    1895,
                    700
                ]
            ],
            "flags": {},
            "group_id": null
        },
        {
            "label": "va1",
            "shape_type": "rectangle",
            "points": [
                [
                    2103,
                    528
                ],
                [
                    2139,
                    573
                ]
            ],
            "flags": {},
            "group_id": null
        },
        {
            "label": "va1",
            "shape_type": "rectangle",
            "points": [
                [
                    1868,
                    387
                ],
                [
                    1912,
                    426
                ]
            ],
            "flags": {},
            "group_id": null
        },
        {
            "label": "vp1-1",
            "shape_type": "rectangle",
            "points": [
                [
                    1878,
                    466
                ],
                [
                    2042,
                    630
                ]
            ],
            "flags": {},
            "group_id": null
        },
        {
            "label": "n1",
            "shape_type": "rectangle",
            "points": [
                [
                    1153,
                    216
                ],
                [
                    1667,
                    612
                ]
            ],
            "flags": {},
            "group_id": null
        },
        {
            "label": "d1",
            "shape_type": "rectangle",
            "points": [
                [
                    2730,
                    537
                ],
                [
                    2815,
                    676
                ]
            ],
            "flags": {},
            "group_id": null
        },
        {
            "label": "v1",
            "shape_type": "rectangle",
            "points": [
                [
                    3134,
                    592
                ],
                [
                    3325,
                    663
                ]
            ],
            "flags": {},
            "group_id": null
        },
        {
            "label": "vb1",
            "shape_type": "rectangle",
            "points": [
                [
                    3281,
                    267
                ],
                [
                    3828,
                    454
                ]
            ],
            "flags": {},
            "group_id": null
        },
        {
            "label": "d1",
            "shape_type": "rectangle",
            "points": [
                [
                    3808,
                    538
                ],
                [
                    3893,
                    677
                ]
            ],
            "flags": {},
            "group_id": null
        },
        {
            "label": "va1",
            "shape_type": "rectangle",
            "points": [
                [
                    3013,
                    462
                ],
                [
                    3066,
                    503
                ]
            ],
            "flags": {},
            "group_id": null
        },
        {
            "label": "va1",
            "shape_type": "rectangle",
            "points": [
                [
                    3124,
                    270
                ],
                [
                    3173,
                    322
                ]
            ],
            "flags": {},
            "group_id": null
        },
        {
            "label": "va1",
            "shape_type": "rectangle",
            "points": [
                [
                    2902,
                    268
                ],
                [
                    2951,
                    320
                ]
            ],
            "flags": {},
            "group_id": null
        },
        {
            "label": "vs1",
            "shape_type": "rectangle",
            "points": [
                [
                    2819,
                    181
                ],
                [
                    3258,
                    550
                ]
            ],
            "flags": {},
            "group_id": null
        },
        {
            "label": "seven",
            "shape_type": "point",
            "points": [
                [
                    1068,
                    2457
                ]
            ],
            "flags": {},
            "group_id": null
        },
        {
            "label": "thirteen",
            "shape_type": "point",
            "points": [
                [
                    1133,
                    2457
                ]
            ],
            "flags": {},
            "group_id": null
        },
        {
            "label": "thirteen",
            "shape_type": "point",
            "points": [
                [
                    1193,
                    2457
                ]
            ],
            "flags": {},
            "group_id": null
        },
        {
            "label": "eight",
            "shape_type": "point",
            "points": [
                [
                    1254,
                    2457
                ]
            ],
            "flags": {},
            "group_id": null
        },
        {
            "label": "fourteen",
            "shape_type": "point",
            "points": [
                [
                    1070,
                    2582
                ]
            ],
            "flags": {},
            "group_id": null
        },
        {
            "label": "fourteen",
            "shape_type": "point",
            "points": [
                [
                    1133,
                    2583
                ]
            ],
            "flags": {},
            "group_id": null
        },
        {
            "label": "fourteen",
            "shape_type": "point",
            "points": [
                [
                    1193,
                    2582
                ]
            ],
            "flags": {},
            "group_id": null
        },
        {
            "label": "fourteen",
            "shape_type": "point",
            "points": [
                [
                    1256,
                    2582
                ]
            ],
            "flags": {},
            "group_id": null
        },
        {
            "label": "seven",
            "shape_type": "point",
            "points": [
                [
                    3283,
                    270
                ]
            ],
            "flags": {},
            "group_id": null
        },
        {
            "label": "nine",
            "shape_type": "point",
            "points": [
                [
                    3283,
                    451
                ]
            ],
            "flags": {},
            "group_id": null
        },
        {
            "label": "thirteen",
            "shape_type": "point",
            "points": [
                [
                    3464,
                    270
                ]
            ],
            "flags": {},
            "group_id": null
        },
        {
            "label": "thirteen",
            "shape_type": "point",
            "points": [
                [
                    3645,
                    269
                ]
            ],
            "flags": {},
            "group_id": null
        },
        {
            "label": "eight",
            "shape_type": "point",
            "points": [
                [
                    3825,
                    269
                ]
            ],
            "flags": {},
            "group_id": null
        },
        {
            "label": "ten",
            "shape_type": "point",
            "points": [
                [
                    3825,
                    450
                ]
            ],
            "flags": {},
            "group_id": null
        },
        {
            "label": "fifteen",
            "shape_type": "point",
            "points": [
                [
                    3644,
                    451
                ]
            ],
            "flags": {},
            "group_id": null
        },
        {
            "label": "fourteen",
            "shape_type": "point",
            "points": [
                [
                    3464,
                    452
                ]
            ],
            "flags": {},
            "group_id": null
        },
        {
            "label": "eleven",
            "shape_type": "point",
            "points": [
                [
                    3282,
                    299
                ]
            ],
            "flags": {},
            "group_id": null
        },
        {
            "label": "fifteen",
            "shape_type": "point",
            "points": [
                [
                    3463,
                    299
                ]
            ],
            "flags": {},
            "group_id": null
        },
        {
            "label": "fifteen",
            "shape_type": "point",
            "points": [
                [
                    3645,
                    299
                ]
            ],
            "flags": {},
            "group_id": null
        },
        {
            "label": "twelve",
            "shape_type": "point",
            "points": [
                [
                    3825,
                    300
                ]
            ],
            "flags": {},
            "group_id": null
        },
        {
            "label": "sm",
            "shape_type": "rectangle",
            "points": [
                [
                    2531,
                    732
                ],
                [
                    4071,
                    1368
                ]
            ],
            "flags": {},
            "group_id": null
        },
        {
            "label": "btl",
            "shape_type": "rectangle",
            "points": [
                [
                    2346,
                    2568
                ],
                [
                    4152,
                    2870
                ]
            ],
            "flags": {},
            "group_id": null
        },
        {
            "label": "j1",
            "shape_type": "rectangle",
            "points": [
                [
                    1424,
                    217
                ],
                [
                    1456,
                    260
                ]
            ],
            "flags": {},
            "group_id": null
        },
        {
            "label": "j1",
            "shape_type": "rectangle",
            "points": [
                [
                    1581,
                    273
                ],
                [
                    1666,
                    349
                ]
            ],
            "flags": {},
            "group_id": null
        },
        {
            "label": "j1",
            "shape_type": "rectangle",
            "points": [
                [
                    1154,
                    355
                ],
                [
                    1265,
                    434
                ]
            ],
            "flags": {},
            "group_id": null
        },
        {
            "label": "j1",
            "shape_type": "rectangle",
            "points": [
                [
                    1556,
                    511
                ],
                [
                    1661,
                    591
                ]
            ],
            "flags": {},
            "group_id": null
        },
        {
            "label": "wz4",
            "shape_type": "rectangle",
            "points": [
                [
                    1112,
                    2402
                ],
                [
                    1236,
                    2449
                ]
            ],
            "flags": {},
            "group_id": null
        },
        {
            "label": "mask",
            "lineType": [
                "LLLLLLLLLLLLLLLLLLL"
            ],
            "shape_type": "polygon",
            "points": [
                [
                    2711,
                    704
                ],
                [
                    2891,
                    698
                ],
                [
                    3186,
                    693
                ],
                [
                    3372,
                    683
                ],
                [
                    3668,
                    667
                ],
                [
                    3836,
                    691
                ],
                [
                    3893,
                    686
                ],
                [
                    3916,
                    675
                ],
                [
                    3918,
                    613
                ],
                [
                    3887,
                    353
                ],
                [
                    3848,
                    225
                ],
                [
                    3602,
                    211
                ],
                [
                    3322,
                    224
                ],
                [
                    3197,
                    166
                ],
                [
                    3022,
                    156
                ],
                [
                    2840,
                    169
                ],
                [
                    2751,
                    212
                ],
                [
                    2719,
                    330
                ],
                [
                    2711,
                    704
                ]
            ],
            "flags": {},
            "group_id": null
        },
        {
            "label": "mask",
            "lineType": [
                "LLLLLLLLLLLLLLLLLLL"
            ],
            "shape_type": "polygon",
            "points": [
                [
                    2513,
                    718
                ],
                [
                    2876,
                    713
                ],
                [
                    2912,
                    762
                ],
                [
                    3282,
                    758
                ],
                [
                    3550,
                    770
                ],
                [
                    3567,
                    969
                ],
                [
                    3824,
                    1014
                ],
                [
                    4113,
                    1126
                ],
                [
                    4107,
                    1256
                ],
                [
                    4084,
                    1316
                ],
                [
                    3759,
                    1373
                ],
                [
                    3477,
                    1404
                ],
                [
                    3113,
                    1377
                ],
                [
                    2975,
                    1398
                ],
                [
                    2770,
                    1418
                ],
                [
                    2574,
                    1423
                ],
                [
                    2519,
                    1341
                ],
                [
                    2490,
                    1107
                ],
                [
                    2513,
                    718
                ]
            ],
            "flags": {},
            "group_id": null
        },
        {
            "label": "mask",
            "lineType": [
                "LLLLLLLLL"
            ],
            "shape_type": "polygon",
            "points": [
                [
                    2483,
                    1507
                ],
                [
                    2998,
                    1504
                ],
                [
                    3000,
                    1461
                ],
                [
                    3338,
                    1459
                ],
                [
                    3342,
                    1502
                ],
                [
                    3921,
                    1499
                ],
                [
                    3894,
                    2557
                ],
                [
                    2504,
                    2553
                ],
                [
                    2483,
                    1507
                ]
            ],
            "flags": {},
            "group_id": null
        },
        {
            "label": "mask",
            "lineType": [
                "LLLLL"
            ],
            "shape_type": "polygon",
            "points": [
                [
                    2329,
                    2561
                ],
                [
                    4152,
                    2562
                ],
                [
                    4153,
                    2873
                ],
                [
                    2335,
                    2873
                ],
                [
                    2329,
                    2561
                ]
            ],
            "flags": {},
            "group_id": null
        },
        {
            "label": "mask",
            "lineType": [
                "LLLLLLLLLLLLLLLLLLLLLL"
            ],
            "shape_type": "polygon",
            "points": [
                [
                    1759,
                    2237
                ],
                [
                    1940,
                    2252
                ],
                [
                    2100,
                    2238
                ],
                [
                    2125,
                    2202
                ],
                [
                    2112,
                    2086
                ],
                [
                    2121,
                    2008
                ],
                [
                    2166,
                    1959
                ],
                [
                    2306,
                    1912
                ],
                [
                    2340,
                    1855
                ],
                [
                    2341,
                    1806
                ],
                [
                    2279,
                    1778
                ],
                [
                    2089,
                    1757
                ],
                [
                    1964,
                    1731
                ],
                [
                    1918,
                    1691
                ],
                [
                    1793,
                    1666
                ],
                [
                    1633,
                    1656
                ],
                [
                    1668,
                    1889
                ],
                [
                    1595,
                    2038
                ],
                [
                    1597,
                    2088
                ],
                [
                    1691,
                    2122
                ],
                [
                    1764,
                    2137
                ],
                [
                    1759,
                    2237
                ]
            ],
            "flags": {},
            "group_id": null
        },
        {
            "label": "mask",
            "lineType": [
                "LLLLLLLLLLLLLLLLLLLLLLLLLLLLLLL"
            ],
            "shape_type": "polygon",
            "points": [
                [
                    1781,
                    1563
                ],
                [
                    1906,
                    1591
                ],
                [
                    2072,
                    1586
                ],
                [
                    2140,
                    1563
                ],
                [
                    2129,
                    1480
                ],
                [
                    2126,
                    1392
                ],
                [
                    2147,
                    1299
                ],
                [
                    2220,
                    1231
                ],
                [
                    2295,
                    1216
                ],
                [
                    2316,
                    1200
                ],
                [
                    2314,
                    1161
                ],
                [
                    2304,
                    1132
                ],
                [
                    2223,
                    1105
                ],
                [
                    2073,
                    1096
                ],
                [
                    1986,
                    1082
                ],
                [
                    1883,
                    1014
                ],
                [
                    1793,
                    995
                ],
                [
                    1680,
                    1015
                ],
                [
                    1679,
                    1102
                ],
                [
                    1688,
                    1160
                ],
                [
                    1747,
                    1193
                ],
                [
                    1795,
                    1255
                ],
                [
                    1802,
                    1292
                ],
                [
                    1714,
                    1301
                ],
                [
                    1647,
                    1315
                ],
                [
                    1626,
                    1324
                ],
                [
                    1629,
                    1384
                ],
                [
                    1640,
                    1484
                ],
                [
                    1729,
                    1480
                ],
                [
                    1789,
                    1454
                ],
                [
                    1781,
                    1563
                ]
            ],
            "flags": {},
            "group_id": null
        },
        {
            "label": "mask",
            "lineType": [
                "LLLLLLLLLLLLLLL"
            ],
            "shape_type": "polygon",
            "points": [
                [
                    1824,
                    878
                ],
                [
                    1968,
                    878
                ],
                [
                    2082,
                    875
                ],
                [
                    2113,
                    857
                ],
                [
                    2117,
                    773
                ],
                [
                    2107,
                    685
                ],
                [
                    2116,
                    615
                ],
                [
                    2172,
                    513
                ],
                [
                    2136,
                    455
                ],
                [
                    2016,
                    410
                ],
                [
                    1920,
                    365
                ],
                [
                    1838,
                    378
                ],
                [
                    1814,
                    590
                ],
                [
                    1810,
                    620
                ],
                [
                    1824,
                    878
                ]
            ],
            "flags": {},
            "group_id": null
        },
        {
            "label": "mask",
            "lineType": [
                "LLLLLLLLLLLLLLLLLL"
            ],
            "shape_type": "polygon",
            "points": [
                [
                    1174,
                    636
                ],
                [
                    1448,
                    636
                ],
                [
                    1683,
                    607
                ],
                [
                    1686,
                    553
                ],
                [
                    1683,
                    474
                ],
                [
                    1684,
                    409
                ],
                [
                    1691,
                    312
                ],
                [
                    1658,
                    254
                ],
                [
                    1601,
                    195
                ],
                [
                    1414,
                    187
                ],
                [
                    1370,
                    318
                ],
                [
                    1371,
                    373
                ],
                [
                    1296,
                    350
                ],
                [
                    1227,
                    339
                ],
                [
                    1162,
                    339
                ],
                [
                    1145,
                    376
                ],
                [
                    1134,
                    423
                ],
                [
                    1174,
                    636
                ]
            ],
            "flags": {},
            "group_id": null
        },
        {
            "label": "mask",
            "lineType": [
                "LLLLLLLLLLLLLLLLLLLLLLLLLLLLLLLLLLLLLLLLLLLLLLLLLL"
            ],
            "shape_type": "polygon",
            "points": [
                [
                    540,
                    1651
                ],
                [
                    508,
                    1493
                ],
                [
                    623,
                    1115
                ],
                [
                    786,
                    1021
                ],
                [
                    928,
                    981
                ],
                [
                    1154,
                    1006
                ],
                [
                    1305,
                    1023
                ],
                [
                    1370,
                    1102
                ],
                [
                    1389,
                    1187
                ],
                [
                    1443,
                    1410
                ],
                [
                    1445,
                    1536
                ],
                [
                    1463,
                    1682
                ],
                [
                    1504,
                    1814
                ],
                [
                    1506,
                    1941
                ],
                [
                    1401,
                    2094
                ],
                [
                    1305,
                    2133
                ],
                [
                    1232,
                    2142
                ],
                [
                    1087,
                    2238
                ],
                [
                    1091,
                    2293
                ],
                [
                    1095,
                    2366
                ],
                [
                    1317,
                    2399
                ],
                [
                    1455,
                    2425
                ],
                [
                    1652,
                    2441
                ],
                [
                    1691,
                    2518
                ],
                [
                    1636,
                    2621
                ],
                [
                    1551,
                    2630
                ],
                [
                    1435,
                    2651
                ],
                [
                    1305,
                    2660
                ],
                [
                    1204,
                    2659
                ],
                [
                    1207,
                    2735
                ],
                [
                    1135,
                    2744
                ],
                [
                    1011,
                    2745
                ],
                [
                    865,
                    2738
                ],
                [
                    797,
                    2733
                ],
                [
                    725,
                    2655
                ],
                [
                    452,
                    2658
                ],
                [
                    412,
                    2564
                ],
                [
                    428,
                    2519
                ],
                [
                    774,
                    2515
                ],
                [
                    851,
                    2356
                ],
                [
                    851,
                    2253
                ],
                [
                    745,
                    2281
                ],
                [
                    561,
                    2282
                ],
                [
                    436,
                    2271
                ],
                [
                    475,
                    2188
                ],
                [
                    535,
                    2127
                ],
                [
                    669,
                    2113
                ],
                [
                    633,
                    2029
                ],
                [
                    589,
                    1900
                ],
                [
                    540,
                    1651
                ]
            ],
            "flags": {},
            "group_id": null
        },
        {
            "label": "Ns",
            "shape_type": "point",
            "points": [
                [
                    1474,
                    456
                ]
            ],
            "flags": {},
            "group_id": null
        },
        {
            "label": "Ne",
            "shape_type": "point",
            "points": [
                [
                    1473,
                    277
                ]
            ],
            "flags": {},
            "group_id": null
        },
        {
            "label": "wlb",
            "shape_type": "rectangle",
            "points": [
                [
                    2515,
                    1475
                ],
                [
                    3887,
                    2550
                ]
            ],
            "flags": {},
            "group_id": null
        },
        {
            "label": "wz3",
            "shape_type": "rectangle",
            "points": [
                [
                    1246,
                    552
                ],
                [
                    1500,
                    596
                ]
            ],
            "flags": {},
            "group_id": null
        },
        {
            "label": "wz3-l",
            "lineType": "LL",
            "shape_type": "line",
            "points": [
                [
                    1426,
                    571
                ],
                [
                    1427,
                    527
                ]
            ],
            "flags": {},
            "group_id": null
        },
        {
            "label": "wz3",
            "shape_type": "rectangle",
            "points": [
                [
                    1703,
                    1024
                ],
                [
                    1844,
                    1105
                ]
            ],
            "flags": {},
            "group_id": null
        },
        {
            "label": "wz3",
            "shape_type": "rectangle",
            "points": [
                [
                    2143,
                    1132
                ],
                [
                    2288,
                    1211
                ]
            ],
            "flags": {},
            "group_id": null
        },
        {
            "label": "wz3",
            "shape_type": "rectangle",
            "points": [
                [
                    1654,
                    1338
                ],
                [
                    1802,
                    1419
                ]
            ],
            "flags": {},
            "group_id": null
        },
        {
            "label": "wz3",
            "shape_type": "rectangle",
            "points": [
                [
                    1668,
                    1689
                ],
                [
                    1876,
                    1771
                ]
            ],
            "flags": {},
            "group_id": null
        },
        {
            "label": "wz3",
            "shape_type": "rectangle",
            "points": [
                [
                    2110,
                    1799
                ],
                [
                    2318,
                    1880
                ]
            ],
            "flags": {},
            "group_id": null
        },
        {
            "label": "wz3",
            "shape_type": "rectangle",
            "points": [
                [
                    1621,
                    2003
                ],
                [
                    1829,
                    2087
                ]
            ],
            "flags": {},
            "group_id": null
        },
        {
            "label": "wz3-l",
            "lineType": "LL",
            "shape_type": "line",
            "points": [
                [
                    1830,
                    1080
                ],
                [
                    1906,
                    1114
                ]
            ],
            "flags": {},
            "group_id": null
        },
        {
            "label": "wz3-l",
            "lineType": "LL",
            "shape_type": "line",
            "points": [
                [
                    2120,
                    1261
                ],
                [
                    2189,
                    1178
                ]
            ],
            "flags": {},
            "group_id": null
        },
        {
            "label": "wz3-l",
            "lineType": "LL",
            "shape_type": "line",
            "points": [
                [
                    1873,
                    1391
                ],
                [
                    1760,
                    1390
                ]
            ],
            "flags": {},
            "group_id": null
        },
        {
            "label": "wz3-l",
            "lineType": "LL",
            "shape_type": "line",
            "points": [
                [
                    1896,
                    1774
                ],
                [
                    1839,
                    1739
                ]
            ],
            "flags": {},
            "group_id": null
        },
        {
            "label": "wz3-l",
            "lineType": "LL",
            "shape_type": "line",
            "points": [
                [
                    2161,
                    1843
                ],
                [
                    2124,
                    1929
                ]
            ],
            "flags": {},
            "group_id": null
        },
        {
            "label": "wz3-l",
            "lineType": "LL",
            "shape_type": "line",
            "points": [
                [
                    1867,
                    2053
                ],
                [
                    1788,
                    2059
                ]
            ],
            "flags": {},
            "group_id": null
        },
        {
            "label": "wz1-l",
            "lineType": "LL",
            "shape_type": "line",
            "points": [
                [
                    691,
                    2195
                ],
                [
                    906,
                    2166
                ]
            ],
            "flags": {},
            "group_id": null
        },
        {
            "label": "wz1",
            "shape_type": "rectangle",
            "points": [
                [
                    524,
                    2178
                ],
                [
                    705,
                    2222
                ]
            ],
            "flags": {},
            "group_id": null
        },
        {
            "label": "wz3",
            "shape_type": "rectangle",
            "points": [
                [
                    606,
                    1377
                ],
                [
                    750,
                    1411
                ]
            ],
            "flags": {},
            "group_id": null
        },
        {
            "label": "wz3-l",
            "lineType": "LL",
            "shape_type": "line",
            "points": [
                [
                    734,
                    1397
                ],
                [
                    910,
                    1418
                ]
            ],
            "flags": {},
            "group_id": null
        }
    ],
    "flags": {},
    "imageData": null,
    "version": "4.5.7"
}