{
    "imageHeight": 2908,
    "imageWidth": 4205,
    "imagePath": "样本2_93_43.png",
    "shapes": [
        {
            "label": "t9",
            "shape_type": "rectangle",
            "points": [
                [
                    3463,
                    210
                ],
                [
                    3633,
                    2018
                ]
            ],
            "flags": {},
            "group_id": null
        },
        {
            "label": "c1",
            "shape_type": "rectangle",
            "points": [
                [
                    3548,
                    210
                ],
                [
                    3554,
                    401
                ]
            ],
            "flags": {},
            "group_id": null
        },
        {
            "label": "v1",
            "shape_type": "rectangle",
            "points": [
                [
                    3273,
                    2201
                ],
                [
                    3604,
                    2290
                ]
            ],
            "flags": {},
            "group_id": null
        },
        {
            "label": "b1",
            "shape_type": "rectangle",
            "points": [
                [
                    3098,
                    1870
                ],
                [
                    3314,
                    2017
                ]
            ],
            "flags": {},
            "group_id": null
        },
        {
            "label": "fourteen",
            "shape_type": "point",
            "points": [
                [
                    3103,
                    1986
                ]
            ],
            "flags": {},
            "group_id": null
        },
        {
            "label": "fourteen",
            "shape_type": "point",
            "points": [
                [
                    3169,
                    1985
                ]
            ],
            "flags": {},
            "group_id": null
        },
        {
            "label": "fourteen",
            "shape_type": "point",
            "points": [
                [
                    3235,
                    1985
                ]
            ],
            "flags": {},
            "group_id": null
        },
        {
            "label": "fourteen",
            "shape_type": "point",
            "points": [
                [
                    3301,
                    1984
                ]
            ],
            "flags": {},
            "group_id": null
        },
        {
            "label": "eight",
            "shape_type": "point",
            "points": [
                [
                    3314,
                    1987
                ]
            ],
            "flags": {},
            "group_id": null
        },
        {
            "label": "fourteen",
            "shape_type": "point",
            "points": [
                [
                    3314,
                    2017
                ]
            ],
            "flags": {},
            "group_id": null
        },
        {
            "label": "fourteen",
            "shape_type": "point",
            "points": [
                [
                    3098,
                    2017
                ]
            ],
            "flags": {},
            "group_id": null
        },
        {
            "label": "seven",
            "shape_type": "point",
            "points": [
                [
                    3098,
                    1987
                ]
            ],
            "flags": {},
            "group_id": null
        },
        {
            "label": "seven",
            "shape_type": "point",
            "points": [
                [
                    3103,
                    1872
                ]
            ],
            "flags": {},
            "group_id": null
        },
        {
            "label": "thirteen",
            "shape_type": "point",
            "points": [
                [
                    3169,
                    1872
                ]
            ],
            "flags": {},
            "group_id": null
        },
        {
            "label": "thirteen",
            "shape_type": "point",
            "points": [
                [
                    3235,
                    1873
                ]
            ],
            "flags": {},
            "group_id": null
        },
        {
            "label": "eight",
            "shape_type": "point",
            "points": [
                [
                    3301,
                    1873
                ]
            ],
            "flags": {},
            "group_id": null
        },
        {
            "label": "h1",
            "shape_type": "rectangle",
            "points": [
                [
                    3961,
                    1942
                ],
                [
                    4133,
                    2018
                ]
            ],
            "flags": {},
            "group_id": null
        },
        {
            "label": "h1",
            "shape_type": "rectangle",
            "points": [
                [
                    3908,
                    1387
                ],
                [
                    4089,
                    1464
                ]
            ],
            "flags": {},
            "group_id": null
        },
        {
            "label": "h1",
            "shape_type": "rectangle",
            "points": [
                [
                    3909,
                    1169
                ],
                [
                    4089,
                    1246
                ]
            ],
            "flags": {},
            "group_id": null
        },
        {
            "label": "h1",
            "shape_type": "rectangle",
            "points": [
                [
                    3908,
                    947
                ],
                [
                    4088,
                    1024
                ]
            ],
            "flags": {},
            "group_id": null
        },
        {
            "label": "h1",
            "shape_type": "rectangle",
            "points": [
                [
                    3903,
                    729
                ],
                [
                    4082,
                    805
                ]
            ],
            "flags": {},
            "group_id": null
        },
        {
            "label": "h1",
            "shape_type": "rectangle",
            "points": [
                [
                    3908,
                    507
                ],
                [
                    4087,
                    583
                ]
            ],
            "flags": {},
            "group_id": null
        },
        {
            "label": "h1",
            "shape_type": "rectangle",
            "points": [
                [
                    3904,
                    321
                ],
                [
                    4083,
                    397
                ]
            ],
            "flags": {},
            "group_id": null
        },
        {
            "label": "d1",
            "shape_type": "rectangle",
            "points": [
                [
                    3678,
                    336
                ],
                [
                    3762,
                    473
                ]
            ],
            "flags": {},
            "group_id": null
        },
        {
            "label": "d1",
            "shape_type": "rectangle",
            "points": [
                [
                    3340,
                    336
                ],
                [
                    3423,
                    474
                ]
            ],
            "flags": {},
            "group_id": null
        },
        {
            "label": "d1",
            "shape_type": "rectangle",
            "points": [
                [
                    3342,
                    611
                ],
                [
                    3425,
                    748
                ]
            ],
            "flags": {},
            "group_id": null
        },
        {
            "label": "d1",
            "shape_type": "rectangle",
            "points": [
                [
                    3679,
                    610
                ],
                [
                    3764,
                    747
                ]
            ],
            "flags": {},
            "group_id": null
        },
        {
            "label": "d1",
            "shape_type": "rectangle",
            "points": [
                [
                    3338,
                    830
                ],
                [
                    3421,
                    968
                ]
            ],
            "flags": {},
            "group_id": null
        },
        {
            "label": "d1",
            "shape_type": "rectangle",
            "points": [
                [
                    3676,
                    831
                ],
                [
                    3759,
                    969
                ]
            ],
            "flags": {},
            "group_id": null
        },
        {
            "label": "d1",
            "shape_type": "rectangle",
            "points": [
                [
                    3338,
                    1051
                ],
                [
                    3422,
                    1188
                ]
            ],
            "flags": {},
            "group_id": null
        },
        {
            "label": "d1",
            "shape_type": "rectangle",
            "points": [
                [
                    3675,
                    1051
                ],
                [
                    3759,
                    1188
                ]
            ],
            "flags": {},
            "group_id": null
        },
        {
            "label": "d1",
            "shape_type": "rectangle",
            "points": [
                [
                    3338,
                    1271
                ],
                [
                    3422,
                    1408
                ]
            ],
            "flags": {},
            "group_id": null
        },
        {
            "label": "d1",
            "shape_type": "rectangle",
            "points": [
                [
                    3676,
                    1270
                ],
                [
                    3759,
                    1408
                ]
            ],
            "flags": {},
            "group_id": null
        },
        {
            "label": "z1",
            "shape_type": "rectangle",
            "points": [
                [
                    3464,
                    413
                ],
                [
                    3633,
                    633
                ]
            ],
            "flags": {},
            "group_id": null
        },
        {
            "label": "z1",
            "shape_type": "rectangle",
            "points": [
                [
                    3463,
                    632
                ],
                [
                    3633,
                    853
                ]
            ],
            "flags": {},
            "group_id": null
        },
        {
            "label": "z1",
            "shape_type": "rectangle",
            "points": [
                [
                    3463,
                    853
                ],
                [
                    3634,
                    1074
                ]
            ],
            "flags": {},
            "group_id": null
        },
        {
            "label": "p1-1",
            "shape_type": "rectangle",
            "points": [
                [
                    3472,
                    1071
                ],
                [
                    3625,
                    1273
                ]
            ],
            "flags": {},
            "group_id": null
        },
        {
            "label": "p1-1",
            "shape_type": "rectangle",
            "points": [
                [
                    3473,
                    852
                ],
                [
                    3624,
                    1053
                ]
            ],
            "flags": {},
            "group_id": null
        },
        {
            "label": "p1-1",
            "shape_type": "rectangle",
            "points": [
                [
                    3473,
                    631
                ],
                [
                    3626,
                    833
                ]
            ],
            "flags": {},
            "group_id": null
        },
        {
            "label": "p1-1",
            "shape_type": "rectangle",
            "points": [
                [
                    3473,
                    411
                ],
                [
                    3625,
                    612
                ]
            ],
            "flags": {},
            "group_id": null
        },
        {
            "label": "p1-1",
            "shape_type": "rectangle",
            "points": [
                [
                    3472,
                    1290
                ],
                [
                    3625,
                    1493
                ]
            ],
            "flags": {},
            "group_id": null
        },
        {
            "label": "g1",
            "shape_type": "rectangle",
            "points": [
                [
                    3506,
                    411
                ],
                [
                    3510,
                    614
                ]
            ],
            "flags": {},
            "group_id": null
        },
        {
            "label": "a1-1",
            "shape_type": "rectangle",
            "points": [
                [
                    3473,
                    451
                ],
                [
                    3503,
                    581
                ]
            ],
            "flags": {},
            "group_id": null
        },
        {
            "label": "g1",
            "shape_type": "rectangle",
            "points": [
                [
                    3587,
                    411
                ],
                [
                    3591,
                    612
                ]
            ],
            "flags": {},
            "group_id": null
        },
        {
            "label": "a1-2",
            "shape_type": "rectangle",
            "points": [
                [
                    3593,
                    447
                ],
                [
                    3625,
                    583
                ]
            ],
            "flags": {},
            "group_id": null
        },
        {
            "label": "g1",
            "shape_type": "rectangle",
            "points": [
                [
                    3506,
                    631
                ],
                [
                    3511,
                    833
                ]
            ],
            "flags": {},
            "group_id": null
        },
        {
            "label": "g1",
            "shape_type": "rectangle",
            "points": [
                [
                    3586,
                    631
                ],
                [
                    3592,
                    833
                ]
            ],
            "flags": {},
            "group_id": null
        },
        {
            "label": "a1-1",
            "shape_type": "rectangle",
            "points": [
                [
                    3473,
                    670
                ],
                [
                    3503,
                    800
                ]
            ],
            "flags": {},
            "group_id": null
        },
        {
            "label": "a1-2",
            "shape_type": "rectangle",
            "points": [
                [
                    3593,
                    667
                ],
                [
                    3625,
                    803
                ]
            ],
            "flags": {},
            "group_id": null
        },
        {
            "label": "g1",
            "shape_type": "rectangle",
            "points": [
                [
                    3506,
                    851
                ],
                [
                    3511,
                    1053
                ]
            ],
            "flags": {},
            "group_id": null
        },
        {
            "label": "g1",
            "shape_type": "rectangle",
            "points": [
                [
                    3588,
                    851
                ],
                [
                    3592,
                    1053
                ]
            ],
            "flags": {},
            "group_id": null
        },
        {
            "label": "a1-1",
            "shape_type": "rectangle",
            "points": [
                [
                    3472,
                    890
                ],
                [
                    3503,
                    1020
                ]
            ],
            "flags": {},
            "group_id": null
        },
        {
            "label": "a1-2",
            "shape_type": "rectangle",
            "points": [
                [
                    3592,
                    887
                ],
                [
                    3624,
                    1023
                ]
            ],
            "flags": {},
            "group_id": null
        },
        {
            "label": "a1-1",
            "shape_type": "rectangle",
            "points": [
                [
                    3472,
                    1111
                ],
                [
                    3503,
                    1240
                ]
            ],
            "flags": {},
            "group_id": null
        },
        {
            "label": "g1",
            "shape_type": "rectangle",
            "points": [
                [
                    3506,
                    1071
                ],
                [
                    3511,
                    1273
                ]
            ],
            "flags": {},
            "group_id": null
        },
        {
            "label": "g1",
            "shape_type": "rectangle",
            "points": [
                [
                    3587,
                    1071
                ],
                [
                    3592,
                    1272
                ]
            ],
            "flags": {},
            "group_id": null
        },
        {
            "label": "a1-2",
            "shape_type": "rectangle",
            "points": [
                [
                    3592,
                    1107
                ],
                [
                    3625,
                    1244
                ]
            ],
            "flags": {},
            "group_id": null
        },
        {
            "label": "g1",
            "shape_type": "rectangle",
            "points": [
                [
                    3506,
                    1291
                ],
                [
                    3511,
                    1494
                ]
            ],
            "flags": {},
            "group_id": null
        },
        {
            "label": "g1",
            "shape_type": "rectangle",
            "points": [
                [
                    3586,
                    1290
                ],
                [
                    3592,
                    1493
                ]
            ],
            "flags": {},
            "group_id": null
        },
        {
            "label": "a1-1",
            "shape_type": "rectangle",
            "points": [
                [
                    3472,
                    1330
                ],
                [
                    3503,
                    1460
                ]
            ],
            "flags": {},
            "group_id": null
        },
        {
            "label": "a1-2",
            "shape_type": "rectangle",
            "points": [
                [
                    3592,
                    1326
                ],
                [
                    3625,
                    1463
                ]
            ],
            "flags": {},
            "group_id": null
        },
        {
            "label": "vp1-1",
            "shape_type": "rectangle",
            "points": [
                [
                    2669,
                    1330
                ],
                [
                    2769,
                    1429
                ]
            ],
            "flags": {},
            "group_id": null
        },
        {
            "label": "va1",
            "shape_type": "rectangle",
            "points": [
                [
                    2708,
                    1280
                ],
                [
                    2747,
                    1323
                ]
            ],
            "flags": {},
            "group_id": null
        },
        {
            "label": "va1",
            "shape_type": "rectangle",
            "points": [
                [
                    2622,
                    1390
                ],
                [
                    2663,
                    1431
                ]
            ],
            "flags": {},
            "group_id": null
        },
        {
            "label": "va1",
            "shape_type": "rectangle",
            "points": [
                [
                    2759,
                    1407
                ],
                [
                    2802,
                    1444
                ]
            ],
            "flags": {},
            "group_id": null
        },
        {
            "label": "v1",
            "shape_type": "rectangle",
            "points": [
                [
                    2600,
                    1542
                ],
                [
                    2824,
                    1606
                ]
            ],
            "flags": {},
            "group_id": null
        },
        {
            "label": "v1",
            "shape_type": "rectangle",
            "points": [
                [
                    2147,
                    1542
                ],
                [
                    2371,
                    1606
                ]
            ],
            "flags": {},
            "group_id": null
        },
        {
            "label": "vp1-1",
            "shape_type": "rectangle",
            "points": [
                [
                    2216,
                    1330
                ],
                [
                    2315,
                    1429
                ]
            ],
            "flags": {},
            "group_id": null
        },
        {
            "label": "va1",
            "shape_type": "rectangle",
            "points": [
                [
                    2246,
                    1282
                ],
                [
                    2287,
                    1316
                ]
            ],
            "flags": {},
            "group_id": null
        },
        {
            "label": "va1",
            "shape_type": "rectangle",
            "points": [
                [
                    2171,
                    1405
                ],
                [
                    2212,
                    1446
                ]
            ],
            "flags": {},
            "group_id": null
        },
        {
            "label": "va1",
            "shape_type": "rectangle",
            "points": [
                [
                    2321,
                    1403
                ],
                [
                    2360,
                    1444
                ]
            ],
            "flags": {},
            "group_id": null
        },
        {
            "label": "vp1-1",
            "shape_type": "rectangle",
            "points": [
                [
                    1682,
                    1287
                ],
                [
                    1894,
                    1499
                ]
            ],
            "flags": {},
            "group_id": null
        },
        {
            "label": "v1",
            "shape_type": "rectangle",
            "points": [
                [
                    1672,
                    1541
                ],
                [
                    1896,
                    1605
                ]
            ],
            "flags": {},
            "group_id": null
        },
        {
            "label": "va1",
            "shape_type": "rectangle",
            "points": [
                [
                    1770,
                    1292
                ],
                [
                    1815,
                    1329
                ]
            ],
            "flags": {},
            "group_id": null
        },
        {
            "label": "va1",
            "shape_type": "rectangle",
            "points": [
                [
                    1697,
                    1413
                ],
                [
                    1732,
                    1456
                ]
            ],
            "flags": {},
            "group_id": null
        },
        {
            "label": "va1",
            "shape_type": "rectangle",
            "points": [
                [
                    1842,
                    1409
                ],
                [
                    1877,
                    1453
                ]
            ],
            "flags": {},
            "group_id": null
        },
        {
            "label": "va1",
            "shape_type": "rectangle",
            "points": [
                [
                    1138,
                    1282
                ],
                [
                    1180,
                    1316
                ]
            ],
            "flags": {},
            "group_id": null
        },
        {
            "label": "va1",
            "shape_type": "rectangle",
            "points": [
                [
                    1064,
                    1405
                ],
                [
                    1103,
                    1447
                ]
            ],
            "flags": {},
            "group_id": null
        },
        {
            "label": "va1",
            "shape_type": "rectangle",
            "points": [
                [
                    1213,
                    1402
                ],
                [
                    1254,
                    1445
                ]
            ],
            "flags": {},
            "group_id": null
        },
        {
            "label": "vp1-1",
            "shape_type": "rectangle",
            "points": [
                [
                    1043,
                    1260
                ],
                [
                    1276,
                    1494
                ]
            ],
            "flags": {},
            "group_id": null
        },
        {
            "label": "v1",
            "shape_type": "rectangle",
            "points": [
                [
                    1040,
                    1543
                ],
                [
                    1265,
                    1607
                ]
            ],
            "flags": {},
            "group_id": null
        },
        {
            "label": "v1",
            "shape_type": "rectangle",
            "points": [
                [
                    462,
                    1541
                ],
                [
                    685,
                    1604
                ]
            ],
            "flags": {},
            "group_id": null
        },
        {
            "label": "vp1-1",
            "shape_type": "rectangle",
            "points": [
                [
                    470,
                    1286
                ],
                [
                    683,
                    1498
                ]
            ],
            "flags": {},
            "group_id": null
        },
        {
            "label": "va1",
            "shape_type": "rectangle",
            "points": [
                [
                    560,
                    1291
                ],
                [
                    603,
                    1330
                ]
            ],
            "flags": {},
            "group_id": null
        },
        {
            "label": "va1",
            "shape_type": "rectangle",
            "points": [
                [
                    487,
                    1414
                ],
                [
                    521,
                    1456
                ]
            ],
            "flags": {},
            "group_id": null
        },
        {
            "label": "va1",
            "shape_type": "rectangle",
            "points": [
                [
                    631,
                    1410
                ],
                [
                    666,
                    1452
                ]
            ],
            "flags": {},
            "group_id": null
        },
        {
            "label": "n1",
            "shape_type": "rectangle",
            "points": [
                [
                    1873,
                    210
                ],
                [
                    2433,
                    628
                ]
            ],
            "flags": {},
            "group_id": null
        },
        {
            "label": "vb1",
            "shape_type": "rectangle",
            "points": [
                [
                    956,
                    314
                ],
                [
                    1189,
                    406
                ]
            ],
            "flags": {},
            "group_id": null
        },
        {
            "label": "d1",
            "shape_type": "rectangle",
            "points": [
                [
                    1145,
                    160
                ],
                [
                    1229,
                    297
                ]
            ],
            "flags": {},
            "group_id": null
        },
        {
            "label": "d1",
            "shape_type": "rectangle",
            "points": [
                [
                    380,
                    160
                ],
                [
                    464,
                    303
                ]
            ],
            "flags": {},
            "group_id": null
        },
        {
            "label": "vt9",
            "shape_type": "rectangle",
            "points": [
                [
                    566,
                    212
                ],
                [
                    863,
                    509
                ]
            ],
            "flags": {},
            "group_id": null
        },
        {
            "label": "v1",
            "shape_type": "rectangle",
            "points": [
                [
                    778,
                    589
                ],
                [
                    968,
                    661
                ]
            ],
            "flags": {},
            "group_id": null
        },
        {
            "label": "one",
            "shape_type": "point",
            "points": [
                [
                    517,
                    484
                ]
            ],
            "flags": {},
            "group_id": null
        },
        {
            "label": "two",
            "shape_type": "point",
            "points": [
                [
                    517,
                    364
                ]
            ],
            "flags": {},
            "group_id": null
        },
        {
            "label": "seven",
            "shape_type": "point",
            "points": [
                [
                    957,
                    315
                ]
            ],
            "flags": {},
            "group_id": null
        },
        {
            "label": "nine",
            "shape_type": "point",
            "points": [
                [
                    957,
                    406
                ]
            ],
            "flags": {},
            "group_id": null
        },
        {
            "label": "eight",
            "shape_type": "point",
            "points": [
                [
                    1188,
                    314
                ]
            ],
            "flags": {},
            "group_id": null
        },
        {
            "label": "ten",
            "shape_type": "point",
            "points": [
                [
                    1188,
                    405
                ]
            ],
            "flags": {},
            "group_id": null
        },
        {
            "label": "x1",
            "shape_type": "rectangle",
            "points": [
                [
                    3501,
                    1585
                ],
                [
                    3597,
                    1612
                ]
            ],
            "flags": {},
            "group_id": null
        },
        {
            "label": "",
            "shape_type": "",
            "points": [],
            "flags": {},
            "group_id": null
        },
        {
            "label": "btl",
            "shape_type": "rectangle",
            "points": [
                [
                    2346,
                    2568
                ],
                [
                    4151,
                    2872
                ]
            ],
            "flags": {},
            "group_id": null
        },
        {
            "label": "sm",
            "shape_type": "rectangle",
            "points": [
                [
                    1707,
                    1952
                ],
                [
                    3169,
                    2623
                ]
            ],
            "flags": {},
            "group_id": null
        },
        {
            "label": "x2",
            "shape_type": "rectangle",
            "points": [
                [
                    439,
                    352
                ],
                [
                    560,
                    495
                ]
            ],
            "flags": {},
            "group_id": null
        },
        {
            "label": "wz2",
            "shape_type": "rectangle",
            "points": [
                [
                    440,
                    353
                ],
                [
                    486,
                    490
                ]
            ],
            "flags": {},
            "group_id": null
        },
        {
            "label": "j1",
            "shape_type": "rectangle",
            "points": [
                [
                    2151,
                    545
                ],
                [
                    2262,
                    624
                ]
            ],
            "flags": {},
            "group_id": null
        },
        {
            "label": "j1",
            "shape_type": "rectangle",
            "points": [
                [
                    2343,
                    315
                ],
                [
                    2431,
                    395
                ]
            ],
            "flags": {},
            "group_id": null
        },
        {
            "label": "j1",
            "shape_type": "rectangle",
            "points": [
                [
                    2166,
                    232
                ],
                [
                    2201,
                    278
                ]
            ],
            "flags": {},
            "group_id": null
        },
        {
            "label": "j1",
            "shape_type": "rectangle",
            "points": [
                [
                    1876,
                    325
                ],
                [
                    1983,
                    414
                ]
            ],
            "flags": {},
            "group_id": null
        },
        {
            "label": "mask",
            "lineType": [
                "LLLLLLLLLLLLLLLLLLLLLLL"
            ],
            "shape_type": "polygon",
            "points": [
                [
                    378,
                    131
                ],
                [
                    353,
                    174
                ],
                [
                    362,
                    440
                ],
                [
                    448,
                    520
                ],
                [
                    537,
                    526
                ],
                [
                    588,
                    510
                ],
                [
                    688,
                    565
                ],
                [
                    740,
                    611
                ],
                [
                    740,
                    680
                ],
                [
                    1004,
                    680
                ],
                [
                    1008,
                    644
                ],
                [
                    887,
                    428
                ],
                [
                    1214,
                    422
                ],
                [
                    1254,
                    283
                ],
                [
                    1242,
                    150
                ],
                [
                    1219,
                    135
                ],
                [
                    1055,
                    130
                ],
                [
                    1074,
                    259
                ],
                [
                    940,
                    265
                ],
                [
                    794,
                    204
                ],
                [
                    543,
                    206
                ],
                [
                    513,
                    135
                ],
                [
                    378,
                    131
                ]
            ],
            "flags": {},
            "group_id": null
        },
        {
            "label": "mask",
            "lineType": [
                "LLLLLLLLLLLLLLLLLLLLLL"
            ],
            "shape_type": "polygon",
            "points": [
                [
                    2146,
                    164
                ],
                [
                    2054,
                    187
                ],
                [
                    2013,
                    211
                ],
                [
                    2021,
                    307
                ],
                [
                    1900,
                    317
                ],
                [
                    1850,
                    433
                ],
                [
                    1938,
                    405
                ],
                [
                    2120,
                    459
                ],
                [
                    2098,
                    611
                ],
                [
                    2060,
                    699
                ],
                [
                    2276,
                    699
                ],
                [
                    2284,
                    673
                ],
                [
                    2262,
                    531
                ],
                [
                    2243,
                    522
                ],
                [
                    2172,
                    510
                ],
                [
                    2446,
                    406
                ],
                [
                    2459,
                    323
                ],
                [
                    2440,
                    299
                ],
                [
                    2343,
                    292
                ],
                [
                    2212,
                    320
                ],
                [
                    2228,
                    226
                ],
                [
                    2146,
                    164
                ]
            ],
            "flags": {},
            "group_id": null
        },
        {
            "label": "mask",
            "lineType": [
                "LLLLLLLLLLLLLLLLLLLLLLLLLL"
            ],
            "shape_type": "polygon",
            "points": [
                [
                    519,
                    1232
                ],
                [
                    507,
                    1278
                ],
                [
                    474,
                    1318
                ],
                [
                    416,
                    1443
                ],
                [
                    379,
                    1443
                ],
                [
                    319,
                    1444
                ],
                [
                    319,
                    1518
                ],
                [
                    389,
                    1510
                ],
                [
                    452,
                    1619
                ],
                [
                    682,
                    1627
                ],
                [
                    703,
                    1615
                ],
                [
                    699,
                    1576
                ],
                [
                    666,
                    1529
                ],
                [
                    659,
                    1494
                ],
                [
                    696,
                    1484
                ],
                [
                    788,
                    1497
                ],
                [
                    842,
                    1457
                ],
                [
                    829,
                    1419
                ],
                [
                    694,
                    1417
                ],
                [
                    681,
                    1319
                ],
                [
                    645,
                    1281
                ],
                [
                    664,
                    1258
                ],
                [
                    666,
                    1220
                ],
                [
                    652,
                    1204
                ],
                [
                    556,
                    1204
                ],
                [
                    519,
                    1232
                ]
            ],
            "flags": {},
            "group_id": null
        },
        {
            "label": "mask",
            "lineType": [
                "LLLLLLLLLLLLLLLLLL"
            ],
            "shape_type": "polygon",
            "points": [
                [
                    909,
                    1456
                ],
                [
                    919,
                    1414
                ],
                [
                    969,
                    1397
                ],
                [
                    1008,
                    1387
                ],
                [
                    1089,
                    1251
                ],
                [
                    1114,
                    1201
                ],
                [
                    1148,
                    1194
                ],
                [
                    1234,
                    1205
                ],
                [
                    1257,
                    1282
                ],
                [
                    1332,
                    1403
                ],
                [
                    1409,
                    1409
                ],
                [
                    1414,
                    1470
                ],
                [
                    1285,
                    1481
                ],
                [
                    1275,
                    1619
                ],
                [
                    1031,
                    1614
                ],
                [
                    1019,
                    1499
                ],
                [
                    909,
                    1500
                ],
                [
                    909,
                    1456
                ]
            ],
            "flags": {},
            "group_id": null
        },
        {
            "label": "mask",
            "lineType": [
                "LLLLLLLLLLLLLLLLL"
            ],
            "shape_type": "polygon",
            "points": [
                [
                    1661,
                    1299
                ],
                [
                    1712,
                    1234
                ],
                [
                    1878,
                    1239
                ],
                [
                    1894,
                    1344
                ],
                [
                    1913,
                    1438
                ],
                [
                    1917,
                    1469
                ],
                [
                    1983,
                    1472
                ],
                [
                    1988,
                    1517
                ],
                [
                    1911,
                    1517
                ],
                [
                    1904,
                    1620
                ],
                [
                    1654,
                    1610
                ],
                [
                    1642,
                    1544
                ],
                [
                    1508,
                    1515
                ],
                [
                    1526,
                    1475
                ],
                [
                    1667,
                    1463
                ],
                [
                    1673,
                    1355
                ],
                [
                    1661,
                    1299
                ]
            ],
            "flags": {},
            "group_id": null
        },
        {
            "label": "mask",
            "lineType": [
                "LLLLLLLLLLLLLLLLLLLLLLL"
            ],
            "shape_type": "polygon",
            "points": [
                [
                    2147,
                    1424
                ],
                [
                    2138,
                    1370
                ],
                [
                    2173,
                    1352
                ],
                [
                    2206,
                    1315
                ],
                [
                    2207,
                    1291
                ],
                [
                    2210,
                    1213
                ],
                [
                    2331,
                    1205
                ],
                [
                    2339,
                    1260
                ],
                [
                    2311,
                    1317
                ],
                [
                    2324,
                    1374
                ],
                [
                    2374,
                    1392
                ],
                [
                    2376,
                    1431
                ],
                [
                    2474,
                    1435
                ],
                [
                    2489,
                    1472
                ],
                [
                    2490,
                    1509
                ],
                [
                    2373,
                    1509
                ],
                [
                    2379,
                    1618
                ],
                [
                    2130,
                    1615
                ],
                [
                    2123,
                    1530
                ],
                [
                    1998,
                    1513
                ],
                [
                    2008,
                    1463
                ],
                [
                    2152,
                    1458
                ],
                [
                    2147,
                    1424
                ]
            ],
            "flags": {},
            "group_id": null
        },
        {
            "label": "mask",
            "lineType": [
                "LLLLLLLLLLLLLLLLLLLLL"
            ],
            "shape_type": "polygon",
            "points": [
                [
                    2761,
                    1194
                ],
                [
                    2706,
                    1215
                ],
                [
                    2669,
                    1332
                ],
                [
                    2628,
                    1374
                ],
                [
                    2578,
                    1424
                ],
                [
                    2504,
                    1443
                ],
                [
                    2504,
                    1478
                ],
                [
                    2503,
                    1538
                ],
                [
                    2571,
                    1537
                ],
                [
                    2589,
                    1621
                ],
                [
                    2843,
                    1619
                ],
                [
                    2832,
                    1525
                ],
                [
                    2963,
                    1522
                ],
                [
                    2977,
                    1484
                ],
                [
                    2964,
                    1441
                ],
                [
                    2817,
                    1423
                ],
                [
                    2799,
                    1315
                ],
                [
                    2882,
                    1269
                ],
                [
                    2897,
                    1229
                ],
                [
                    2890,
                    1205
                ],
                [
                    2761,
                    1194
                ]
            ],
            "flags": {},
            "group_id": null
        },
        {
            "label": "mask",
            "lineType": [
                "LLLLLLLLLLLLLLLLLLLLLLL"
            ],
            "shape_type": "polygon",
            "points": [
                [
                    1705,
                    1932
                ],
                [
                    1701,
                    2014
                ],
                [
                    1751,
                    2022
                ],
                [
                    1765,
                    2638
                ],
                [
                    2163,
                    2628
                ],
                [
                    2175,
                    2560
                ],
                [
                    3021,
                    2561
                ],
                [
                    3008,
                    2484
                ],
                [
                    2791,
                    2473
                ],
                [
                    2771,
                    2404
                ],
                [
                    2701,
                    2388
                ],
                [
                    2706,
                    2364
                ],
                [
                    3021,
                    2364
                ],
                [
                    3023,
                    2314
                ],
                [
                    3175,
                    2294
                ],
                [
                    3172,
                    2223
                ],
                [
                    2471,
                    2218
                ],
                [
                    2456,
                    2095
                ],
                [
                    2655,
                    2081
                ],
                [
                    2656,
                    2017
                ],
                [
                    2071,
                    2004
                ],
                [
                    2075,
                    1937
                ],
                [
                    1705,
                    1932
                ]
            ],
            "flags": {},
            "group_id": null
        },
        {
            "label": "mask",
            "lineType": [
                "LLLLLLLLL"
            ],
            "shape_type": "polygon",
            "points": [
                [
                    275,
                    2018
                ],
                [
                    276,
                    2734
                ],
                [
                    1702,
                    2717
                ],
                [
                    1705,
                    2022
                ],
                [
                    1161,
                    2020
                ],
                [
                    1131,
                    1970
                ],
                [
                    803,
                    1974
                ],
                [
                    784,
                    2019
                ],
                [
                    275,
                    2018
                ]
            ],
            "flags": {},
            "group_id": null
        },
        {
            "label": "mask",
            "lineType": [
                "LLLLLLL"
            ],
            "shape_type": "polygon",
            "points": [
                [
                    2337,
                    2568
                ],
                [
                    2335,
                    2872
                ],
                [
                    4151,
                    2870
                ],
                [
                    4151,
                    2552
                ],
                [
                    3074,
                    2565
                ],
                [
                    2350,
                    2567
                ],
                [
                    2337,
                    2568
                ]
            ],
            "flags": {},
            "group_id": null
        },
        {
            "label": "mask",
            "lineType": [
                "LLLLLLLLLLLLLLLLLLLLLLLLLLLLLLLLLLLLLLLLLLLLLLLLLLLLLL"
            ],
            "shape_type": "polygon",
            "points": [
                [
                    3547,
                    139
                ],
                [
                    3498,
                    270
                ],
                [
                    3300,
                    315
                ],
                [
                    3276,
                    333
                ],
                [
                    3326,
                    472
                ],
                [
                    3074,
                    485
                ],
                [
                    3076,
                    708
                ],
                [
                    3078,
                    911
                ],
                [
                    3084,
                    1165
                ],
                [
                    3088,
                    1378
                ],
                [
                    3318,
                    1379
                ],
                [
                    3361,
                    1418
                ],
                [
                    3470,
                    1457
                ],
                [
                    3479,
                    1836
                ],
                [
                    3478,
                    1955
                ],
                [
                    3334,
                    1965
                ],
                [
                    3326,
                    1855
                ],
                [
                    3224,
                    1843
                ],
                [
                    3175,
                    1717
                ],
                [
                    3010,
                    1734
                ],
                [
                    3008,
                    1808
                ],
                [
                    3080,
                    1827
                ],
                [
                    3064,
                    1978
                ],
                [
                    2825,
                    1987
                ],
                [
                    2831,
                    2060
                ],
                [
                    3279,
                    2069
                ],
                [
                    3280,
                    2109
                ],
                [
                    3261,
                    2304
                ],
                [
                    3618,
                    2301
                ],
                [
                    3618,
                    2253
                ],
                [
                    3543,
                    2243
                ],
                [
                    3531,
                    2186
                ],
                [
                    3458,
                    2072
                ],
                [
                    3999,
                    2057
                ],
                [
                    4018,
                    2010
                ],
                [
                    4145,
                    1994
                ],
                [
                    4140,
                    1946
                ],
                [
                    4062,
                    1937
                ],
                [
                    3962,
                    1935
                ],
                [
                    3937,
                    1985
                ],
                [
                    3598,
                    1996
                ],
                [
                    3602,
                    1574
                ],
                [
                    3673,
                    1431
                ],
                [
                    3886,
                    1427
                ],
                [
                    3894,
                    1478
                ],
                [
                    4009,
                    1476
                ],
                [
                    4109,
                    1437
                ],
                [
                    4109,
                    1392
                ],
                [
                    4118,
                    1164
                ],
                [
                    4099,
                    330
                ],
                [
                    4073,
                    298
                ],
                [
                    3772,
                    309
                ],
                [
                    3607,
                    289
                ],
                [
                    3547,
                    139
                ]
            ],
            "flags": {},
            "group_id": null
        },
        {
            "label": "Ns",
            "shape_type": "point",
            "points": [
                [
                    2145,
                    450
                ]
            ],
            "flags": {},
            "group_id": null
        },
        {
            "label": "Ne",
            "shape_type": "point",
            "points": [
                [
                    2145,
                    272
                ]
            ],
            "flags": {},
            "group_id": null
        },
        {
            "label": "wlb",
            "shape_type": "rectangle",
            "points": [
                [
                    298,
                    1977
                ],
                [
                    1687,
                    2703
                ]
            ],
            "flags": {},
            "group_id": null
        },
        {
            "label": "wz1",
            "shape_type": "rectangle",
            "points": [
                [
                    3301,
                    2052
                ],
                [
                    3431,
                    2096
                ]
            ],
            "flags": {},
            "group_id": null
        },
        {
            "label": "wz1",
            "shape_type": "rectangle",
            "points": [
                [
                    3015,
                    1735
                ],
                [
                    3177,
                    1784
                ]
            ],
            "flags": {},
            "group_id": null
        },
        {
            "label": "wz1-l",
            "lineType": "LL",
            "shape_type": "line",
            "points": [
                [
                    3416,
                    2086
                ],
                [
                    3443,
                    2041
                ]
            ],
            "flags": {},
            "group_id": null
        },
        {
            "label": "wz1-l",
            "lineType": "LL",
            "shape_type": "line",
            "points": [
                [
                    3164,
                    1771
                ],
                [
                    3216,
                    1876
                ]
            ],
            "flags": {},
            "group_id": null
        },
        {
            "label": "wz3",
            "shape_type": "rectangle",
            "points": [
                [
                    3096,
                    1331
                ],
                [
                    3236,
                    1360
                ]
            ],
            "flags": {},
            "group_id": null
        },
        {
            "label": "wz3",
            "shape_type": "rectangle",
            "points": [
                [
                    3098,
                    1117
                ],
                [
                    3212,
                    1159
                ]
            ],
            "flags": {},
            "group_id": null
        },
        {
            "label": "wz3",
            "shape_type": "rectangle",
            "points": [
                [
                    3083,
                    872
                ],
                [
                    3233,
                    909
                ]
            ],
            "flags": {},
            "group_id": null
        },
        {
            "label": "wz3",
            "shape_type": "rectangle",
            "points": [
                [
                    3090,
                    654
                ],
                [
                    3208,
                    696
                ]
            ],
            "flags": {},
            "group_id": null
        },
        {
            "label": "wz3",
            "shape_type": "rectangle",
            "points": [
                [
                    3094,
                    496
                ],
                [
                    3214,
                    540
                ]
            ],
            "flags": {},
            "group_id": null
        },
        {
            "label": "wz3-l",
            "lineType": "LL",
            "shape_type": "line",
            "points": [
                [
                    3194,
                    516
                ],
                [
                    3489,
                    511
                ]
            ],
            "flags": {},
            "group_id": null
        },
        {
            "label": "wz3-l",
            "lineType": "LL",
            "shape_type": "line",
            "points": [
                [
                    3188,
                    673
                ],
                [
                    3484,
                    690
                ]
            ],
            "flags": {},
            "group_id": null
        },
        {
            "label": "wz3-l",
            "lineType": "LL",
            "shape_type": "line",
            "points": [
                [
                    3203,
                    892
                ],
                [
                    3485,
                    935
                ]
            ],
            "flags": {},
            "group_id": null
        },
        {
            "label": "wz3-l",
            "lineType": "LL",
            "shape_type": "line",
            "points": [
                [
                    3174,
                    1135
                ],
                [
                    3487,
                    1165
                ]
            ],
            "flags": {},
            "group_id": null
        },
        {
            "label": "wz3-l",
            "lineType": "LL",
            "shape_type": "line",
            "points": [
                [
                    3220,
                    1343
                ],
                [
                    3479,
                    1377
                ]
            ],
            "flags": {},
            "group_id": null
        },
        {
            "label": "wz3",
            "shape_type": "rectangle",
            "points": [
                [
                    2811,
                    1449
                ],
                [
                    2966,
                    1515
                ]
            ],
            "flags": {},
            "group_id": null
        },
        {
            "label": "wz3",
            "shape_type": "rectangle",
            "points": [
                [
                    2509,
                    1453
                ],
                [
                    2663,
                    1519
                ]
            ],
            "flags": {},
            "group_id": null
        },
        {
            "label": "wz3",
            "shape_type": "rectangle",
            "points": [
                [
                    2740,
                    1216
                ],
                [
                    2875,
                    1284
                ]
            ],
            "flags": {},
            "group_id": null
        },
        {
            "label": "wz3-l",
            "lineType": "LL",
            "shape_type": "line",
            "points": [
                [
                    2596,
                    1484
                ],
                [
                    2634,
                    1416
                ]
            ],
            "flags": {},
            "group_id": null
        },
        {
            "label": "wz3-l",
            "lineType": "LL",
            "shape_type": "line",
            "points": [
                [
                    2840,
                    1487
                ],
                [
                    2790,
                    1431
                ]
            ],
            "flags": {},
            "group_id": null
        },
        {
            "label": "wz3-l",
            "lineType": "LL",
            "shape_type": "line",
            "points": [
                [
                    2766,
                    1260
                ],
                [
                    2734,
                    1296
                ]
            ],
            "flags": {},
            "group_id": null
        },
        {
            "label": "wz3",
            "shape_type": "rectangle",
            "points": [
                [
                    2366,
                    1451
                ],
                [
                    2484,
                    1497
                ]
            ],
            "flags": {},
            "group_id": null
        },
        {
            "label": "wz3",
            "shape_type": "rectangle",
            "points": [
                [
                    2216,
                    1224
                ],
                [
                    2332,
                    1265
                ]
            ],
            "flags": {},
            "group_id": null
        },
        {
            "label": "wz3",
            "shape_type": "rectangle",
            "points": [
                [
                    2077,
                    1467
                ],
                [
                    2188,
                    1514
                ]
            ],
            "flags": {},
            "group_id": null
        },
        {
            "label": "wz3",
            "shape_type": "rectangle",
            "points": [
                [
                    1915,
                    1476
                ],
                [
                    2067,
                    1506
                ]
            ],
            "flags": {},
            "group_id": null
        },
        {
            "label": "wz3",
            "shape_type": "rectangle",
            "points": [
                [
                    1717,
                    1243
                ],
                [
                    1867,
                    1274
                ]
            ],
            "flags": {},
            "group_id": null
        },
        {
            "label": "wz3",
            "shape_type": "rectangle",
            "points": [
                [
                    1523,
                    1486
                ],
                [
                    1673,
                    1516
                ]
            ],
            "flags": {},
            "group_id": null
        },
        {
            "label": "wz3-l",
            "lineType": "LL",
            "shape_type": "line",
            "points": [
                [
                    1641,
                    1504
                ],
                [
                    1710,
                    1438
                ]
            ],
            "flags": {},
            "group_id": null
        },
        {
            "label": "wz3-l",
            "lineType": "LL",
            "shape_type": "line",
            "points": [
                [
                    1954,
                    1486
                ],
                [
                    1867,
                    1432
                ]
            ],
            "flags": {},
            "group_id": null
        },
        {
            "label": "wz3-l",
            "lineType": "LL",
            "shape_type": "line",
            "points": [
                [
                    1786,
                    1259
                ],
                [
                    1778,
                    1303
                ]
            ],
            "flags": {},
            "group_id": null
        },
        {
            "label": "wz3-l",
            "lineType": "LL",
            "shape_type": "line",
            "points": [
                [
                    2137,
                    1490
                ],
                [
                    2187,
                    1441
                ]
            ],
            "flags": {},
            "group_id": null
        },
        {
            "label": "wz3-l",
            "lineType": "LL",
            "shape_type": "line",
            "points": [
                [
                    2389,
                    1474
                ],
                [
                    2346,
                    1424
                ]
            ],
            "flags": {},
            "group_id": null
        },
        {
            "label": "wz3-l",
            "lineType": "LL",
            "shape_type": "line",
            "points": [
                [
                    2263,
                    1239
                ],
                [
                    2267,
                    1294
                ]
            ],
            "flags": {},
            "group_id": null
        },
        {
            "label": "wz3",
            "shape_type": "rectangle",
            "points": [
                [
                    920,
                    1447
                ],
                [
                    1035,
                    1488
                ]
            ],
            "flags": {},
            "group_id": null
        },
        {
            "label": "wz3",
            "shape_type": "rectangle",
            "points": [
                [
                    1282,
                    1422
                ],
                [
                    1397,
                    1462
                ]
            ],
            "flags": {},
            "group_id": null
        },
        {
            "label": "wz3",
            "shape_type": "rectangle",
            "points": [
                [
                    1119,
                    1213
                ],
                [
                    1235,
                    1258
                ]
            ],
            "flags": {},
            "group_id": null
        },
        {
            "label": "wz3-l",
            "lineType": "LL",
            "shape_type": "line",
            "points": [
                [
                    999,
                    1471
                ],
                [
                    1077,
                    1426
                ]
            ],
            "flags": {},
            "group_id": null
        },
        {
            "label": "wz3-l",
            "lineType": "LL",
            "shape_type": "line",
            "points": [
                [
                    1310,
                    1436
                ],
                [
                    1242,
                    1423
                ]
            ],
            "flags": {},
            "group_id": null
        },
        {
            "label": "wz3-l",
            "lineType": "LL",
            "shape_type": "line",
            "points": [
                [
                    1190,
                    1231
                ],
                [
                    1166,
                    1290
                ]
            ],
            "flags": {},
            "group_id": null
        },
        {
            "label": "wz3",
            "shape_type": "rectangle",
            "points": [
                [
                    703,
                    1431
                ],
                [
                    820,
                    1471
                ]
            ],
            "flags": {},
            "group_id": null
        },
        {
            "label": "wz3",
            "shape_type": "rectangle",
            "points": [
                [
                    536,
                    1222
                ],
                [
                    655,
                    1262
                ]
            ],
            "flags": {},
            "group_id": null
        },
        {
            "label": "wz3",
            "shape_type": "rectangle",
            "points": [
                [
                    334,
                    1455
                ],
                [
                    453,
                    1497
                ]
            ],
            "flags": {},
            "group_id": null
        },
        {
            "label": "wz3-l",
            "lineType": "LL",
            "shape_type": "line",
            "points": [
                [
                    435,
                    1477
                ],
                [
                    498,
                    1443
                ]
            ],
            "flags": {},
            "group_id": null
        },
        {
            "label": "wz3-l",
            "lineType": "LL",
            "shape_type": "line",
            "points": [
                [
                    714,
                    1448
                ],
                [
                    657,
                    1431
                ]
            ],
            "flags": {},
            "group_id": null
        },
        {
            "label": "wz3-l",
            "lineType": "LL",
            "shape_type": "line",
            "points": [
                [
                    591,
                    1241
                ],
                [
                    590,
                    1310
                ]
            ],
            "flags": {},
            "group_id": null
        },
        {
            "label": "wz3",
            "shape_type": "rectangle",
            "points": [
                [
                    2079,
                    643
                ],
                [
                    2266,
                    688
                ]
            ],
            "flags": {},
            "group_id": null
        },
        {
            "label": "wz3-l",
            "lineType": "LL",
            "shape_type": "line",
            "points": [
                [
                    2180,
                    667
                ],
                [
                    2132,
                    532
                ]
            ],
            "flags": {},
            "group_id": null
        }
    ],
    "flags": {},
    "imageData": null,
    "version": "4.5.7"
}