{
    "imageHeight": 2908,
    "imageWidth": 4205,
    "imagePath": "样本6_127_27.png",
    "shapes": [
        {
            "label": "t1",
            "shape_type": "rectangle",
            "points": [
                [
                    3448,
                    213
                ],
                [
                    3505,
                    2022
                ]
            ],
            "flags": {},
            "group_id": null
        },
        {
            "label": "c1",
            "shape_type": "rectangle",
            "points": [
                [
                    3462,
                    213
                ],
                [
                    3491,
                    406
                ]
            ],
            "flags": {},
            "group_id": null
        },
        {
            "label": "d1",
            "shape_type": "rectangle",
            "points": [
                [
                    3267,
                    414
                ],
                [
                    3350,
                    551
                ]
            ],
            "flags": {},
            "group_id": null
        },
        {
            "label": "d1",
            "shape_type": "rectangle",
            "points": [
                [
                    3269,
                    647
                ],
                [
                    3353,
                    785
                ]
            ],
            "flags": {},
            "group_id": null
        },
        {
            "label": "d1",
            "shape_type": "rectangle",
            "points": [
                [
                    3270,
                    863
                ],
                [
                    3354,
                    1000
                ]
            ],
            "flags": {},
            "group_id": null
        },
        {
            "label": "d1",
            "shape_type": "rectangle",
            "points": [
                [
                    3267,
                    1072
                ],
                [
                    3351,
                    1210
                ]
            ],
            "flags": {},
            "group_id": null
        },
        {
            "label": "d1",
            "shape_type": "rectangle",
            "points": [
                [
                    3604,
                    1073
                ],
                [
                    3688,
                    1211
                ]
            ],
            "flags": {},
            "group_id": null
        },
        {
            "label": "d1",
            "shape_type": "rectangle",
            "points": [
                [
                    3608,
                    864
                ],
                [
                    3691,
                    1001
                ]
            ],
            "flags": {},
            "group_id": null
        },
        {
            "label": "d1",
            "shape_type": "rectangle",
            "points": [
                [
                    3607,
                    647
                ],
                [
                    3691,
                    785
                ]
            ],
            "flags": {},
            "group_id": null
        },
        {
            "label": "d1",
            "shape_type": "rectangle",
            "points": [
                [
                    3604,
                    412
                ],
                [
                    3688,
                    551
                ]
            ],
            "flags": {},
            "group_id": null
        },
        {
            "label": "h1",
            "shape_type": "rectangle",
            "points": [
                [
                    3913,
                    229
                ],
                [
                    4096,
                    305
                ]
            ],
            "flags": {},
            "group_id": null
        },
        {
            "label": "h1",
            "shape_type": "rectangle",
            "points": [
                [
                    3897,
                    533
                ],
                [
                    4076,
                    608
                ]
            ],
            "flags": {},
            "group_id": null
        },
        {
            "label": "h1",
            "shape_type": "rectangle",
            "points": [
                [
                    3897,
                    747
                ],
                [
                    4076,
                    824
                ]
            ],
            "flags": {},
            "group_id": null
        },
        {
            "label": "h1",
            "shape_type": "rectangle",
            "points": [
                [
                    3898,
                    987
                ],
                [
                    4077,
                    1063
                ]
            ],
            "flags": {},
            "group_id": null
        },
        {
            "label": "h1",
            "shape_type": "rectangle",
            "points": [
                [
                    3897,
                    1165
                ],
                [
                    4077,
                    1240
                ]
            ],
            "flags": {},
            "group_id": null
        },
        {
            "label": "h1",
            "shape_type": "rectangle",
            "points": [
                [
                    3888,
                    1945
                ],
                [
                    4059,
                    2021
                ]
            ],
            "flags": {},
            "group_id": null
        },
        {
            "label": "v1",
            "shape_type": "rectangle",
            "points": [
                [
                    3258,
                    2229
                ],
                [
                    3592,
                    2317
                ]
            ],
            "flags": {},
            "group_id": null
        },
        {
            "label": "b1",
            "shape_type": "rectangle",
            "points": [
                [
                    3209,
                    1876
                ],
                [
                    3382,
                    2021
                ]
            ],
            "flags": {},
            "group_id": null
        },
        {
            "label": "seven",
            "shape_type": "point",
            "points": [
                [
                    3237,
                    1876
                ]
            ],
            "flags": {},
            "group_id": null
        },
        {
            "label": "thirteen",
            "shape_type": "point",
            "points": [
                [
                    3302,
                    1876
                ]
            ],
            "flags": {},
            "group_id": null
        },
        {
            "label": "eight",
            "shape_type": "point",
            "points": [
                [
                    3368,
                    1876
                ]
            ],
            "flags": {},
            "group_id": null
        },
        {
            "label": "nine",
            "shape_type": "point",
            "points": [
                [
                    3237,
                    1988
                ]
            ],
            "flags": {},
            "group_id": null
        },
        {
            "label": "fourteen",
            "shape_type": "point",
            "points": [
                [
                    3303,
                    1988
                ]
            ],
            "flags": {},
            "group_id": null
        },
        {
            "label": "ten",
            "shape_type": "point",
            "points": [
                [
                    3368,
                    1988
                ]
            ],
            "flags": {},
            "group_id": null
        },
        {
            "label": "seven",
            "shape_type": "point",
            "points": [
                [
                    3210,
                    1990
                ]
            ],
            "flags": {},
            "group_id": null
        },
        {
            "label": "fourteen",
            "shape_type": "point",
            "points": [
                [
                    3210,
                    2021
                ]
            ],
            "flags": {},
            "group_id": null
        },
        {
            "label": "eight",
            "shape_type": "point",
            "points": [
                [
                    3382,
                    1991
                ]
            ],
            "flags": {},
            "group_id": null
        },
        {
            "label": "fourteen",
            "shape_type": "point",
            "points": [
                [
                    3382,
                    2021
                ]
            ],
            "flags": {},
            "group_id": null
        },
        {
            "label": "p1-1",
            "shape_type": "rectangle",
            "points": [
                [
                    3398,
                    1097
                ],
                [
                    3551,
                    1276
                ]
            ],
            "flags": {},
            "group_id": null
        },
        {
            "label": "p1-1",
            "shape_type": "rectangle",
            "points": [
                [
                    3397,
                    911
                ],
                [
                    3550,
                    1090
                ]
            ],
            "flags": {},
            "group_id": null
        },
        {
            "label": "p1-1",
            "shape_type": "rectangle",
            "points": [
                [
                    3399,
                    682
                ],
                [
                    3553,
                    861
                ]
            ],
            "flags": {},
            "group_id": null
        },
        {
            "label": "p1-1",
            "shape_type": "rectangle",
            "points": [
                [
                    3401,
                    459
                ],
                [
                    3554,
                    640
                ]
            ],
            "flags": {},
            "group_id": null
        },
        {
            "label": "g1",
            "shape_type": "rectangle",
            "points": [
                [
                    3435,
                    461
                ],
                [
                    3440,
                    640
                ]
            ],
            "flags": {},
            "group_id": null
        },
        {
            "label": "g1",
            "shape_type": "rectangle",
            "points": [
                [
                    3516,
                    460
                ],
                [
                    3521,
                    640
                ]
            ],
            "flags": {},
            "group_id": null
        },
        {
            "label": "g1",
            "shape_type": "rectangle",
            "points": [
                [
                    3433,
                    682
                ],
                [
                    3439,
                    861
                ]
            ],
            "flags": {},
            "group_id": null
        },
        {
            "label": "g1",
            "shape_type": "rectangle",
            "points": [
                [
                    3515,
                    682
                ],
                [
                    3520,
                    861
                ]
            ],
            "flags": {},
            "group_id": null
        },
        {
            "label": "g1",
            "shape_type": "rectangle",
            "points": [
                [
                    3435,
                    912
                ],
                [
                    3439,
                    1090
                ]
            ],
            "flags": {},
            "group_id": null
        },
        {
            "label": "g1",
            "shape_type": "rectangle",
            "points": [
                [
                    3516,
                    912
                ],
                [
                    3520,
                    1089
                ]
            ],
            "flags": {},
            "group_id": null
        },
        {
            "label": "g1",
            "shape_type": "rectangle",
            "points": [
                [
                    3436,
                    1098
                ],
                [
                    3441,
                    1275
                ]
            ],
            "flags": {},
            "group_id": null
        },
        {
            "label": "g1",
            "shape_type": "rectangle",
            "points": [
                [
                    3517,
                    1097
                ],
                [
                    3522,
                    1275
                ]
            ],
            "flags": {},
            "group_id": null
        },
        {
            "label": "a1-1",
            "shape_type": "rectangle",
            "points": [
                [
                    3398,
                    1119
                ],
                [
                    3429,
                    1248
                ]
            ],
            "flags": {},
            "group_id": null
        },
        {
            "label": "a1-2",
            "shape_type": "rectangle",
            "points": [
                [
                    3522,
                    1115
                ],
                [
                    3551,
                    1250
                ]
            ],
            "flags": {},
            "group_id": null
        },
        {
            "label": "a1-1",
            "shape_type": "rectangle",
            "points": [
                [
                    3397,
                    932
                ],
                [
                    3428,
                    1062
                ]
            ],
            "flags": {},
            "group_id": null
        },
        {
            "label": "a1-2",
            "shape_type": "rectangle",
            "points": [
                [
                    3519,
                    929
                ],
                [
                    3550,
                    1065
                ]
            ],
            "flags": {},
            "group_id": null
        },
        {
            "label": "a1-1",
            "shape_type": "rectangle",
            "points": [
                [
                    3399,
                    698
                ],
                [
                    3430,
                    828
                ]
            ],
            "flags": {},
            "group_id": null
        },
        {
            "label": "a1-2",
            "shape_type": "rectangle",
            "points": [
                [
                    3519,
                    694
                ],
                [
                    3553,
                    830
                ]
            ],
            "flags": {},
            "group_id": null
        },
        {
            "label": "a1-1",
            "shape_type": "rectangle",
            "points": [
                [
                    3402,
                    477
                ],
                [
                    3432,
                    607
                ]
            ],
            "flags": {},
            "group_id": null
        },
        {
            "label": "a1-2",
            "shape_type": "rectangle",
            "points": [
                [
                    3521,
                    472
                ],
                [
                    3554,
                    610
                ]
            ],
            "flags": {},
            "group_id": null
        },
        {
            "label": "n1",
            "shape_type": "rectangle",
            "points": [
                [
                    1851,
                    215
                ],
                [
                    2392,
                    576
                ]
            ],
            "flags": {},
            "group_id": null
        },
        {
            "label": "vt1",
            "shape_type": "rectangle",
            "points": [
                [
                    880,
                    349
                ],
                [
                    1191,
                    659
                ]
            ],
            "flags": {},
            "group_id": null
        },
        {
            "label": "d1",
            "shape_type": "rectangle",
            "points": [
                [
                    1213,
                    645
                ],
                [
                    1296,
                    782
                ]
            ],
            "flags": {},
            "group_id": null
        },
        {
            "label": "v1",
            "shape_type": "rectangle",
            "points": [
                [
                    828,
                    732
                ],
                [
                    1018,
                    804
                ]
            ],
            "flags": {},
            "group_id": null
        },
        {
            "label": "v1",
            "shape_type": "rectangle",
            "points": [
                [
                    539,
                    645
                ],
                [
                    623,
                    783
                ]
            ],
            "flags": {},
            "group_id": null
        },
        {
            "label": "vb1",
            "shape_type": "rectangle",
            "points": [
                [
                    618,
                    458
                ],
                [
                    780,
                    549
                ]
            ],
            "flags": {},
            "group_id": null
        },
        {
            "label": "seven",
            "shape_type": "point",
            "points": [
                [
                    619,
                    459
                ]
            ],
            "flags": {},
            "group_id": null
        },
        {
            "label": "seven",
            "shape_type": "point",
            "points": [
                [
                    628,
                    468
                ]
            ],
            "flags": {},
            "group_id": null
        },
        {
            "label": "eight",
            "shape_type": "point",
            "points": [
                [
                    780,
                    459
                ]
            ],
            "flags": {},
            "group_id": null
        },
        {
            "label": "eight",
            "shape_type": "point",
            "points": [
                [
                    769,
                    468
                ]
            ],
            "flags": {},
            "group_id": null
        },
        {
            "label": "thirteen",
            "shape_type": "point",
            "points": [
                [
                    699,
                    468
                ]
            ],
            "flags": {},
            "group_id": null
        },
        {
            "label": "eleven",
            "shape_type": "point",
            "points": [
                [
                    629,
                    526
                ]
            ],
            "flags": {},
            "group_id": null
        },
        {
            "label": "nine",
            "shape_type": "point",
            "points": [
                [
                    629,
                    538
                ]
            ],
            "flags": {},
            "group_id": null
        },
        {
            "label": "fifteen",
            "shape_type": "point",
            "points": [
                [
                    699,
                    526
                ]
            ],
            "flags": {},
            "group_id": null
        },
        {
            "label": "fourteen",
            "shape_type": "point",
            "points": [
                [
                    699,
                    538
                ]
            ],
            "flags": {},
            "group_id": null
        },
        {
            "label": "twelve",
            "shape_type": "point",
            "points": [
                [
                    769,
                    525
                ]
            ],
            "flags": {},
            "group_id": null
        },
        {
            "label": "ten",
            "shape_type": "point",
            "points": [
                [
                    769,
                    538
                ]
            ],
            "flags": {},
            "group_id": null
        },
        {
            "label": "ten",
            "shape_type": "point",
            "points": [
                [
                    780,
                    549
                ]
            ],
            "flags": {},
            "group_id": null
        },
        {
            "label": "nine",
            "shape_type": "point",
            "points": [
                [
                    619,
                    549
                ]
            ],
            "flags": {},
            "group_id": null
        },
        {
            "label": "vp1-1",
            "shape_type": "rectangle",
            "points": [
                [
                    657,
                    1108
                ],
                [
                    868,
                    1320
                ]
            ],
            "flags": {},
            "group_id": null
        },
        {
            "label": "v1",
            "shape_type": "rectangle",
            "points": [
                [
                    587,
                    1397
                ],
                [
                    918,
                    1490
                ]
            ],
            "flags": {},
            "group_id": null
        },
        {
            "label": "va1",
            "shape_type": "rectangle",
            "points": [
                [
                    671,
                    1236
                ],
                [
                    706,
                    1280
                ]
            ],
            "flags": {},
            "group_id": null
        },
        {
            "label": "va1",
            "shape_type": "rectangle",
            "points": [
                [
                    815,
                    1241
                ],
                [
                    855,
                    1277
                ]
            ],
            "flags": {},
            "group_id": null
        },
        {
            "label": "va1",
            "shape_type": "rectangle",
            "points": [
                [
                    749,
                    1112
                ],
                [
                    790,
                    1152
                ]
            ],
            "flags": {},
            "group_id": null
        },
        {
            "label": "vp1-1",
            "shape_type": "rectangle",
            "points": [
                [
                    1392,
                    1109
                ],
                [
                    1602,
                    1321
                ]
            ],
            "flags": {},
            "group_id": null
        },
        {
            "label": "va1",
            "shape_type": "rectangle",
            "points": [
                [
                    1483,
                    1113
                ],
                [
                    1524,
                    1152
                ]
            ],
            "flags": {},
            "group_id": null
        },
        {
            "label": "va1",
            "shape_type": "rectangle",
            "points": [
                [
                    1405,
                    1237
                ],
                [
                    1441,
                    1279
                ]
            ],
            "flags": {},
            "group_id": null
        },
        {
            "label": "va1",
            "shape_type": "rectangle",
            "points": [
                [
                    1548,
                    1242
                ],
                [
                    1589,
                    1278
                ]
            ],
            "flags": {},
            "group_id": null
        },
        {
            "label": "v1",
            "shape_type": "rectangle",
            "points": [
                [
                    1393,
                    1433
                ],
                [
                    1618,
                    1496
                ]
            ],
            "flags": {},
            "group_id": null
        },
        {
            "label": "v1",
            "shape_type": "rectangle",
            "points": [
                [
                    1987,
                    1435
                ],
                [
                    2212,
                    1498
                ]
            ],
            "flags": {},
            "group_id": null
        },
        {
            "label": "vp1-1",
            "shape_type": "rectangle",
            "points": [
                [
                    1986,
                    1151
                ],
                [
                    2198,
                    1363
                ]
            ],
            "flags": {},
            "group_id": null
        },
        {
            "label": "va1",
            "shape_type": "rectangle",
            "points": [
                [
                    2080,
                    1155
                ],
                [
                    2121,
                    1194
                ]
            ],
            "flags": {},
            "group_id": null
        },
        {
            "label": "va1",
            "shape_type": "rectangle",
            "points": [
                [
                    2001,
                    1279
                ],
                [
                    2037,
                    1322
                ]
            ],
            "flags": {},
            "group_id": null
        },
        {
            "label": "va1",
            "shape_type": "rectangle",
            "points": [
                [
                    2144,
                    1284
                ],
                [
                    2185,
                    1321
                ]
            ],
            "flags": {},
            "group_id": null
        },
        {
            "label": "va1",
            "shape_type": "rectangle",
            "points": [
                [
                    2535,
                    1267
                ],
                [
                    2570,
                    1309
                ]
            ],
            "flags": {},
            "group_id": null
        },
        {
            "label": "va1",
            "shape_type": "rectangle",
            "points": [
                [
                    2614,
                    1142
                ],
                [
                    2654,
                    1181
                ]
            ],
            "flags": {},
            "group_id": null
        },
        {
            "label": "va1",
            "shape_type": "rectangle",
            "points": [
                [
                    2678,
                    1272
                ],
                [
                    2719,
                    1309
                ]
            ],
            "flags": {},
            "group_id": null
        },
        {
            "label": "v1",
            "shape_type": "rectangle",
            "points": [
                [
                    2517,
                    1439
                ],
                [
                    2742,
                    1503
                ]
            ],
            "flags": {},
            "group_id": null
        },
        {
            "label": "vp1-1",
            "shape_type": "rectangle",
            "points": [
                [
                    2520,
                    1139
                ],
                [
                    2733,
                    1351
                ]
            ],
            "flags": {},
            "group_id": null
        },
        {
            "label": "x1",
            "shape_type": "rectangle",
            "points": [
                [
                    3428,
                    1462
                ],
                [
                    3525,
                    1488
                ]
            ],
            "flags": {},
            "group_id": null
        },
        {
            "label": "j1",
            "shape_type": "rectangle",
            "points": [
                [
                    2301,
                    484
                ],
                [
                    2391,
                    558
                ]
            ],
            "flags": {},
            "group_id": null
        },
        {
            "label": "j1",
            "shape_type": "rectangle",
            "points": [
                [
                    2182,
                    273
                ],
                [
                    2231,
                    349
                ]
            ],
            "flags": {},
            "group_id": null
        },
        {
            "label": "j1",
            "shape_type": "rectangle",
            "points": [
                [
                    2153,
                    228
                ],
                [
                    2189,
                    272
                ]
            ],
            "flags": {},
            "group_id": null
        },
        {
            "label": "j1",
            "shape_type": "rectangle",
            "points": [
                [
                    1852,
                    496
                ],
                [
                    1952,
                    575
                ]
            ],
            "flags": {},
            "group_id": null
        },
        {
            "label": "sm",
            "shape_type": "rectangle",
            "points": [
                [
                    1705,
                    1818
                ],
                [
                    3743,
                    2562
                ]
            ],
            "flags": {},
            "group_id": null
        },
        {
            "label": "btl",
            "shape_type": "rectangle",
            "points": [
                [
                    2346,
                    2568
                ],
                [
                    4155,
                    2874
                ]
            ],
            "flags": {},
            "group_id": null
        },
        {
            "label": "mask",
            "lineType": [
                "LLLLL"
            ],
            "shape_type": "polygon",
            "points": [
                [
                    2348,
                    2569
                ],
                [
                    2348,
                    2871
                ],
                [
                    4151,
                    2871
                ],
                [
                    4151,
                    2570
                ],
                [
                    2348,
                    2569
                ]
            ],
            "flags": {},
            "group_id": null
        },
        {
            "label": "mask",
            "lineType": [
                "LLLLLLLLL"
            ],
            "shape_type": "polygon",
            "points": [
                [
                    3254,
                    2335
                ],
                [
                    3580,
                    2336
                ],
                [
                    3596,
                    2330
                ],
                [
                    3611,
                    2282
                ],
                [
                    3608,
                    2269
                ],
                [
                    3515,
                    2221
                ],
                [
                    3308,
                    2225
                ],
                [
                    3235,
                    2251
                ],
                [
                    3254,
                    2335
                ]
            ],
            "flags": {},
            "group_id": null
        },
        {
            "label": "mask",
            "lineType": [
                "LLLLLLLLLLLLLLLLLLLLLLLLLLLLLLLL"
            ],
            "shape_type": "polygon",
            "points": [
                [
                    1746,
                    2577
                ],
                [
                    2268,
                    2570
                ],
                [
                    2278,
                    2510
                ],
                [
                    2805,
                    2513
                ],
                [
                    3000,
                    2510
                ],
                [
                    3010,
                    2454
                ],
                [
                    3035,
                    2390
                ],
                [
                    3101,
                    2287
                ],
                [
                    3153,
                    2252
                ],
                [
                    3221,
                    2225
                ],
                [
                    3277,
                    2219
                ],
                [
                    3498,
                    2214
                ],
                [
                    3654,
                    2228
                ],
                [
                    3753,
                    2230
                ],
                [
                    3760,
                    2194
                ],
                [
                    3760,
                    2164
                ],
                [
                    3660,
                    2166
                ],
                [
                    3515,
                    2155
                ],
                [
                    3260,
                    2161
                ],
                [
                    2976,
                    2141
                ],
                [
                    2822,
                    2094
                ],
                [
                    2656,
                    1910
                ],
                [
                    2638,
                    1883
                ],
                [
                    2070,
                    1870
                ],
                [
                    2048,
                    1813
                ],
                [
                    1783,
                    1813
                ],
                [
                    1710,
                    1812
                ],
                [
                    1706,
                    1820
                ],
                [
                    1708,
                    1873
                ],
                [
                    1745,
                    1886
                ],
                [
                    1746,
                    2070
                ],
                [
                    1746,
                    2577
                ]
            ],
            "flags": {},
            "group_id": null
        },
        {
            "label": "mask",
            "lineType": [
                "LLLLLLLLLLLLLLLLLLLLLLLLLLLLLLLLLLLLLLLLLLL"
            ],
            "shape_type": "polygon",
            "points": [
                [
                    3323,
                    2118
                ],
                [
                    3525,
                    2120
                ],
                [
                    3703,
                    2119
                ],
                [
                    3930,
                    2071
                ],
                [
                    4008,
                    2042
                ],
                [
                    4064,
                    2003
                ],
                [
                    4066,
                    1987
                ],
                [
                    4063,
                    1954
                ],
                [
                    4054,
                    1915
                ],
                [
                    3927,
                    1914
                ],
                [
                    3801,
                    1938
                ],
                [
                    3637,
                    1920
                ],
                [
                    3593,
                    1716
                ],
                [
                    3573,
                    1408
                ],
                [
                    3598,
                    1252
                ],
                [
                    3769,
                    1238
                ],
                [
                    3943,
                    1250
                ],
                [
                    4111,
                    1247
                ],
                [
                    4094,
                    734
                ],
                [
                    4092,
                    507
                ],
                [
                    4113,
                    216
                ],
                [
                    3951,
                    195
                ],
                [
                    3666,
                    217
                ],
                [
                    3500,
                    197
                ],
                [
                    3461,
                    197
                ],
                [
                    3426,
                    212
                ],
                [
                    3314,
                    362
                ],
                [
                    3254,
                    404
                ],
                [
                    3225,
                    454
                ],
                [
                    3161,
                    540
                ],
                [
                    3144,
                    547
                ],
                [
                    3141,
                    736
                ],
                [
                    3146,
                    843
                ],
                [
                    3150,
                    1079
                ],
                [
                    3153,
                    1319
                ],
                [
                    3400,
                    1323
                ],
                [
                    3385,
                    1680
                ],
                [
                    3374,
                    1795
                ],
                [
                    3140,
                    1788
                ],
                [
                    3028,
                    1810
                ],
                [
                    3038,
                    1898
                ],
                [
                    3243,
                    2085
                ],
                [
                    3323,
                    2118
                ]
            ],
            "flags": {},
            "group_id": null
        },
        {
            "label": "mask",
            "lineType": [
                "LLLLLLLLLLLLL"
            ],
            "shape_type": "polygon",
            "points": [
                [
                    2497,
                    1514
                ],
                [
                    2791,
                    1510
                ],
                [
                    2880,
                    1355
                ],
                [
                    2827,
                    1226
                ],
                [
                    2775,
                    1058
                ],
                [
                    2740,
                    1021
                ],
                [
                    2659,
                    1017
                ],
                [
                    2587,
                    1028
                ],
                [
                    2523,
                    1108
                ],
                [
                    2449,
                    1260
                ],
                [
                    2407,
                    1328
                ],
                [
                    2415,
                    1411
                ],
                [
                    2497,
                    1514
                ]
            ],
            "flags": {},
            "group_id": null
        },
        {
            "label": "mask",
            "lineType": [
                "LLLLLLLLLLLLLL"
            ],
            "shape_type": "polygon",
            "points": [
                [
                    2240,
                    1518
                ],
                [
                    2312,
                    1354
                ],
                [
                    2304,
                    1279
                ],
                [
                    2248,
                    1195
                ],
                [
                    2200,
                    1129
                ],
                [
                    2155,
                    1099
                ],
                [
                    2070,
                    1096
                ],
                [
                    2026,
                    1106
                ],
                [
                    1976,
                    1168
                ],
                [
                    1945,
                    1247
                ],
                [
                    1912,
                    1279
                ],
                [
                    1868,
                    1310
                ],
                [
                    1964,
                    1511
                ],
                [
                    2240,
                    1518
                ]
            ],
            "flags": {},
            "group_id": null
        },
        {
            "label": "mask",
            "lineType": [
                "LLLLLLLLLLLL"
            ],
            "shape_type": "polygon",
            "points": [
                [
                    1374,
                    1508
                ],
                [
                    1650,
                    1507
                ],
                [
                    1746,
                    1347
                ],
                [
                    1706,
                    1205
                ],
                [
                    1612,
                    1015
                ],
                [
                    1586,
                    989
                ],
                [
                    1566,
                    979
                ],
                [
                    1459,
                    983
                ],
                [
                    1332,
                    1118
                ],
                [
                    1284,
                    1283
                ],
                [
                    1277,
                    1385
                ],
                [
                    1374,
                    1508
                ]
            ],
            "flags": {},
            "group_id": null
        },
        {
            "label": "mask",
            "lineType": [
                "LLLLLLLLLL"
            ],
            "shape_type": "polygon",
            "points": [
                [
                    572,
                    1504
                ],
                [
                    933,
                    1499
                ],
                [
                    987,
                    1347
                ],
                [
                    961,
                    1116
                ],
                [
                    904,
                    1040
                ],
                [
                    842,
                    1037
                ],
                [
                    731,
                    1036
                ],
                [
                    604,
                    1172
                ],
                [
                    529,
                    1253
                ],
                [
                    572,
                    1504
                ]
            ],
            "flags": {},
            "group_id": null
        },
        {
            "label": "mask",
            "lineType": [
                "LLLLLLLLLLLLLLLL"
            ],
            "shape_type": "polygon",
            "points": [
                [
                    1304,
                    821
                ],
                [
                    1344,
                    654
                ],
                [
                    1207,
                    446
                ],
                [
                    1148,
                    344
                ],
                [
                    1055,
                    320
                ],
                [
                    822,
                    354
                ],
                [
                    755,
                    369
                ],
                [
                    644,
                    359
                ],
                [
                    505,
                    369
                ],
                [
                    494,
                    482
                ],
                [
                    500,
                    634
                ],
                [
                    508,
                    729
                ],
                [
                    516,
                    796
                ],
                [
                    748,
                    824
                ],
                [
                    894,
                    829
                ],
                [
                    1304,
                    821
                ]
            ],
            "flags": {},
            "group_id": null
        },
        {
            "label": "mask",
            "lineType": [
                "LLLLLLLLLL"
            ],
            "shape_type": "polygon",
            "points": [
                [
                    2155,
                    726
                ],
                [
                    2279,
                    668
                ],
                [
                    2413,
                    571
                ],
                [
                    2374,
                    393
                ],
                [
                    2227,
                    215
                ],
                [
                    2078,
                    177
                ],
                [
                    1939,
                    231
                ],
                [
                    1870,
                    371
                ],
                [
                    1824,
                    588
                ],
                [
                    2155,
                    726
                ]
            ],
            "flags": {},
            "group_id": null
        },
        {
            "label": "mask",
            "lineType": [
                "LLLLLLLLL"
            ],
            "shape_type": "polygon",
            "points": [
                [
                    900,
                    1790
                ],
                [
                    900,
                    1839
                ],
                [
                    325,
                    1842
                ],
                [
                    328,
                    2755
                ],
                [
                    1704,
                    2752
                ],
                [
                    1704,
                    1841
                ],
                [
                    1117,
                    1839
                ],
                [
                    1113,
                    1792
                ],
                [
                    900,
                    1790
                ]
            ],
            "flags": {},
            "group_id": null
        },
        {
            "label": "wlb",
            "shape_type": "rectangle",
            "points": [
                [
                    331,
                    1803
                ],
                [
                    1700,
                    2747
                ]
            ],
            "flags": {},
            "group_id": null
        },
        {
            "label": "Ns",
            "shape_type": "point",
            "points": [
                [
                    2123,
                    455
                ]
            ],
            "flags": {},
            "group_id": null
        },
        {
            "label": "Ne",
            "shape_type": "point",
            "points": [
                [
                    2123,
                    274
                ]
            ],
            "flags": {},
            "group_id": null
        },
        {
            "label": "wz1",
            "shape_type": "rectangle",
            "points": [
                [
                    519,
                    370
                ],
                [
                    664,
                    405
                ]
            ],
            "flags": {},
            "group_id": null
        },
        {
            "label": "wz1-l",
            "lineType": "LL",
            "shape_type": "line",
            "points": [
                [
                    626,
                    396
                ],
                [
                    663,
                    467
                ]
            ],
            "flags": {},
            "group_id": null
        },
        {
            "label": "wz1-l",
            "lineType": "LL",
            "shape_type": "line",
            "points": [
                [
                    654,
                    397
                ],
                [
                    733,
                    467
                ]
            ],
            "flags": {},
            "group_id": null
        },
        {
            "label": "wz3",
            "shape_type": "rectangle",
            "points": [
                [
                    865,
                    1288
                ],
                [
                    962,
                    1325
                ]
            ],
            "flags": {},
            "group_id": null
        },
        {
            "label": "wz3",
            "shape_type": "rectangle",
            "points": [
                [
                    550,
                    1272
                ],
                [
                    646,
                    1310
                ]
            ],
            "flags": {},
            "group_id": null
        },
        {
            "label": "wz3",
            "shape_type": "rectangle",
            "points": [
                [
                    752,
                    1048
                ],
                [
                    850,
                    1082
                ]
            ],
            "flags": {},
            "group_id": null
        },
        {
            "label": "wz3-l",
            "lineType": "LL",
            "shape_type": "line",
            "points": [
                [
                    892,
                    1313
                ],
                [
                    836,
                    1267
                ]
            ],
            "flags": {},
            "group_id": null
        },
        {
            "label": "wz3-l",
            "lineType": "LL",
            "shape_type": "line",
            "points": [
                [
                    681,
                    1266
                ],
                [
                    633,
                    1283
                ]
            ],
            "flags": {},
            "group_id": null
        },
        {
            "label": "wz3-l",
            "lineType": "LL",
            "shape_type": "line",
            "points": [
                [
                    802,
                    1078
                ],
                [
                    776,
                    1119
                ]
            ],
            "flags": {},
            "group_id": null
        },
        {
            "label": "wz3",
            "shape_type": "rectangle",
            "points": [
                [
                    1294,
                    1300
                ],
                [
                    1434,
                    1372
                ]
            ],
            "flags": {},
            "group_id": null
        },
        {
            "label": "wz3",
            "shape_type": "rectangle",
            "points": [
                [
                    1574,
                    1294
                ],
                [
                    1709,
                    1368
                ]
            ],
            "flags": {},
            "group_id": null
        },
        {
            "label": "wz3",
            "shape_type": "rectangle",
            "points": [
                [
                    1468,
                    995
                ],
                [
                    1566,
                    1060
                ]
            ],
            "flags": {},
            "group_id": null
        },
        {
            "label": "wz3-l",
            "lineType": "LL",
            "shape_type": "line",
            "points": [
                [
                    1636,
                    1341
                ],
                [
                    1578,
                    1273
                ]
            ],
            "flags": {},
            "group_id": null
        },
        {
            "label": "wz3-l",
            "lineType": "LL",
            "shape_type": "line",
            "points": [
                [
                    1424,
                    1268
                ],
                [
                    1390,
                    1334
                ]
            ],
            "flags": {},
            "group_id": null
        },
        {
            "label": "wz3-l",
            "lineType": "LL",
            "shape_type": "line",
            "points": [
                [
                    1526,
                    1050
                ],
                [
                    1507,
                    1129
                ]
            ],
            "flags": {},
            "group_id": null
        },
        {
            "label": "wz3",
            "shape_type": "rectangle",
            "points": [
                [
                    1879,
                    1317
                ],
                [
                    1976,
                    1351
                ]
            ],
            "flags": {},
            "group_id": null
        },
        {
            "label": "wz3",
            "shape_type": "rectangle",
            "points": [
                [
                    2202,
                    1316
                ],
                [
                    2300,
                    1349
                ]
            ],
            "flags": {},
            "group_id": null
        },
        {
            "label": "wz3",
            "shape_type": "rectangle",
            "points": [
                [
                    2044,
                    1110
                ],
                [
                    2143,
                    1144
                ]
            ],
            "flags": {},
            "group_id": null
        },
        {
            "label": "wz3-l",
            "lineType": "LL",
            "shape_type": "line",
            "points": [
                [
                    2230,
                    1325
                ],
                [
                    2168,
                    1317
                ]
            ],
            "flags": {},
            "group_id": null
        },
        {
            "label": "wz3-l",
            "lineType": "LL",
            "shape_type": "line",
            "points": [
                [
                    2012,
                    1302
                ],
                [
                    1964,
                    1331
                ]
            ],
            "flags": {},
            "group_id": null
        },
        {
            "label": "wz3-l",
            "lineType": "LL",
            "shape_type": "line",
            "points": [
                [
                    2096,
                    1132
                ],
                [
                    2094,
                    1164
                ]
            ],
            "flags": {},
            "group_id": null
        },
        {
            "label": "wz3",
            "shape_type": "rectangle",
            "points": [
                [
                    2424,
                    1337
                ],
                [
                    2572,
                    1402
                ]
            ],
            "flags": {},
            "group_id": null
        },
        {
            "label": "wz3",
            "shape_type": "rectangle",
            "points": [
                [
                    2704,
                    1331
                ],
                [
                    2860,
                    1398
                ]
            ],
            "flags": {},
            "group_id": null
        },
        {
            "label": "wz3",
            "shape_type": "rectangle",
            "points": [
                [
                    2596,
                    1033
                ],
                [
                    2732,
                    1106
                ]
            ],
            "flags": {},
            "group_id": null
        },
        {
            "label": "wz3-l",
            "lineType": "LL",
            "shape_type": "line",
            "points": [
                [
                    2724,
                    1380
                ],
                [
                    2705,
                    1294
                ]
            ],
            "flags": {},
            "group_id": null
        },
        {
            "label": "wz3-l",
            "lineType": "LL",
            "shape_type": "line",
            "points": [
                [
                    2554,
                    1292
                ],
                [
                    2533,
                    1370
                ]
            ],
            "flags": {},
            "group_id": null
        },
        {
            "label": "wz3-l",
            "lineType": "LL",
            "shape_type": "line",
            "points": [
                [
                    2661,
                    1093
                ],
                [
                    2635,
                    1142
                ]
            ],
            "flags": {},
            "group_id": null
        },
        {
            "label": "wz3",
            "shape_type": "rectangle",
            "points": [
                [
                    2050,
                    643
                ],
                [
                    2187,
                    671
                ]
            ],
            "flags": {},
            "group_id": null
        },
        {
            "label": "wz3-l",
            "lineType": "LL",
            "shape_type": "line",
            "points": [
                [
                    2101,
                    656
                ],
                [
                    2129,
                    469
                ]
            ],
            "flags": {},
            "group_id": null
        },
        {
            "label": "wz3",
            "shape_type": "rectangle",
            "points": [
                [
                    3153,
                    547
                ],
                [
                    3250,
                    580
                ]
            ],
            "flags": {},
            "group_id": null
        },
        {
            "label": "wz3",
            "shape_type": "rectangle",
            "points": [
                [
                    3159,
                    745
                ],
                [
                    3256,
                    779
                ]
            ],
            "flags": {},
            "group_id": null
        },
        {
            "label": "wz3",
            "shape_type": "rectangle",
            "points": [
                [
                    3168,
                    966
                ],
                [
                    3263,
                    1000
                ]
            ],
            "flags": {},
            "group_id": null
        },
        {
            "label": "wz3",
            "shape_type": "rectangle",
            "points": [
                [
                    3178,
                    1213
                ],
                [
                    3361,
                    1249
                ]
            ],
            "flags": {},
            "group_id": null
        },
        {
            "label": "wz3-l",
            "lineType": "LL",
            "shape_type": "line",
            "points": [
                [
                    3332,
                    1240
                ],
                [
                    3408,
                    1250
                ]
            ],
            "flags": {},
            "group_id": null
        },
        {
            "label": "wz3-l",
            "lineType": "LL",
            "shape_type": "line",
            "points": [
                [
                    3246,
                    990
                ],
                [
                    3419,
                    1033
                ]
            ],
            "flags": {},
            "group_id": null
        },
        {
            "label": "wz3-l",
            "lineType": "LL",
            "shape_type": "line",
            "points": [
                [
                    3248,
                    766
                ],
                [
                    3408,
                    784
                ]
            ],
            "flags": {},
            "group_id": null
        },
        {
            "label": "wz3-l",
            "lineType": "LL",
            "shape_type": "line",
            "points": [
                [
                    3411,
                    592
                ],
                [
                    3216,
                    564
                ]
            ],
            "flags": {},
            "group_id": null
        },
        {
            "label": "wz1",
            "shape_type": "rectangle",
            "points": [
                [
                    3043,
                    1809
                ],
                [
                    3188,
                    1843
                ]
            ],
            "flags": {},
            "group_id": null
        },
        {
            "label": "wz1",
            "shape_type": "rectangle",
            "points": [
                [
                    3368,
                    2063
                ],
                [
                    3496,
                    2108
                ]
            ],
            "flags": {},
            "group_id": null
        },
        {
            "label": "wz1-l",
            "lineType": "LL",
            "shape_type": "line",
            "points": [
                [
                    3402,
                    2098
                ],
                [
                    3352,
                    2049
                ]
            ],
            "flags": {},
            "group_id": null
        },
        {
            "label": "wz1-l",
            "lineType": "LL",
            "shape_type": "line",
            "points": [
                [
                    3156,
                    1832
                ],
                [
                    3238,
                    1877
                ]
            ],
            "flags": {},
            "group_id": null
        }
    ],
    "flags": {},
    "imageData": null,
    "version": "4.5.7"
}