{
    "imageHeight": 2908,
    "imageWidth": 4205,
    "imagePath": "样本4_96_57.png",
    "shapes": [
        {
            "label": "t1",
            "shape_type": "rectangle",
            "points": [
                [
                    3381,
                    623
                ],
                [
                    3567,
                    2307
                ]
            ],
            "flags": {},
            "group_id": null
        },
        {
            "label": "h1",
            "shape_type": "rectangle",
            "points": [
                [
                    3602,
                    2237
                ],
                [
                    3760,
                    2307
                ]
            ],
            "flags": {},
            "group_id": null
        },
        {
            "label": "v1",
            "shape_type": "rectangle",
            "points": [
                [
                    3162,
                    2428
                ],
                [
                    3492,
                    2519
                ]
            ],
            "flags": {},
            "group_id": null
        },
        {
            "label": "c1",
            "shape_type": "rectangle",
            "points": [
                [
                    3471,
                    623
                ],
                [
                    3476,
                    783
                ]
            ],
            "flags": {},
            "group_id": null
        },
        {
            "label": "p1-1",
            "shape_type": "rectangle",
            "points": [
                [
                    3385,
                    750
                ],
                [
                    3583,
                    941
                ]
            ],
            "flags": {},
            "group_id": null
        },
        {
            "label": "p1-1",
            "shape_type": "rectangle",
            "points": [
                [
                    3384,
                    964
                ],
                [
                    3584,
                    1160
                ]
            ],
            "flags": {},
            "group_id": null
        },
        {
            "label": "p1-1",
            "shape_type": "rectangle",
            "points": [
                [
                    3387,
                    1174
                ],
                [
                    3585,
                    1370
                ]
            ],
            "flags": {},
            "group_id": null
        },
        {
            "label": "p1-1",
            "shape_type": "rectangle",
            "points": [
                [
                    3383,
                    1380
                ],
                [
                    3582,
                    1576
                ]
            ],
            "flags": {},
            "group_id": null
        },
        {
            "label": "a3",
            "shape_type": "rectangle",
            "points": [
                [
                    3420,
                    1601
                ],
                [
                    3443,
                    1658
                ]
            ],
            "flags": {},
            "group_id": null
        },
        {
            "label": "seven",
            "shape_type": "point",
            "points": [
                [
                    2577,
                    2106
                ]
            ],
            "flags": {},
            "group_id": null
        },
        {
            "label": "seven",
            "shape_type": "point",
            "points": [
                [
                    2597,
                    2127
                ]
            ],
            "flags": {},
            "group_id": null
        },
        {
            "label": "eight",
            "shape_type": "point",
            "points": [
                [
                    3117,
                    2107
                ]
            ],
            "flags": {},
            "group_id": null
        },
        {
            "label": "eight",
            "shape_type": "point",
            "points": [
                [
                    3097,
                    2127
                ]
            ],
            "flags": {},
            "group_id": null
        },
        {
            "label": "twentytwo",
            "shape_type": "point",
            "points": [
                [
                    3097,
                    2149
                ]
            ],
            "flags": {},
            "group_id": null
        },
        {
            "label": "twentythere",
            "shape_type": "point",
            "points": [
                [
                    3117,
                    2179
                ]
            ],
            "flags": {},
            "group_id": null
        },
        {
            "label": "twelve",
            "shape_type": "point",
            "points": [
                [
                    3117,
                    2149
                ]
            ],
            "flags": {},
            "group_id": null
        },
        {
            "label": "eleven",
            "shape_type": "point",
            "points": [
                [
                    3097,
                    2179
                ]
            ],
            "flags": {},
            "group_id": null
        },
        {
            "label": "fourteen",
            "shape_type": "point",
            "points": [
                [
                    3097,
                    2306
                ]
            ],
            "flags": {},
            "group_id": null
        },
        {
            "label": "fourteen",
            "shape_type": "point",
            "points": [
                [
                    3117,
                    2307
                ]
            ],
            "flags": {},
            "group_id": null
        },
        {
            "label": "fourteen",
            "shape_type": "point",
            "points": [
                [
                    2597,
                    2307
                ]
            ],
            "flags": {},
            "group_id": null
        },
        {
            "label": "fourteen",
            "shape_type": "point",
            "points": [
                [
                    2577,
                    2307
                ]
            ],
            "flags": {},
            "group_id": null
        },
        {
            "label": "b1",
            "shape_type": "rectangle",
            "points": [
                [
                    2576,
                    2106
                ],
                [
                    3118,
                    2307
                ]
            ],
            "flags": {},
            "group_id": null
        },
        {
            "label": "d1",
            "shape_type": "rectangle",
            "points": [
                [
                    3220,
                    1387
                ],
                [
                    3302,
                    1524
                ]
            ],
            "flags": {},
            "group_id": null
        },
        {
            "label": "d1",
            "shape_type": "rectangle",
            "points": [
                [
                    3222,
                    970
                ],
                [
                    3305,
                    1108
                ]
            ],
            "flags": {},
            "group_id": null
        },
        {
            "label": "d1",
            "shape_type": "rectangle",
            "points": [
                [
                    3221,
                    727
                ],
                [
                    3304,
                    865
                ]
            ],
            "flags": {},
            "group_id": null
        },
        {
            "label": "d1",
            "shape_type": "rectangle",
            "points": [
                [
                    3642,
                    728
                ],
                [
                    3725,
                    865
                ]
            ],
            "flags": {},
            "group_id": null
        },
        {
            "label": "d1",
            "shape_type": "rectangle",
            "points": [
                [
                    3641,
                    972
                ],
                [
                    3725,
                    1109
                ]
            ],
            "flags": {},
            "group_id": null
        },
        {
            "label": "d1",
            "shape_type": "rectangle",
            "points": [
                [
                    3639,
                    1387
                ],
                [
                    3724,
                    1525
                ]
            ],
            "flags": {},
            "group_id": null
        },
        {
            "label": "h1",
            "shape_type": "rectangle",
            "points": [
                [
                    3801,
                    1478
                ],
                [
                    3974,
                    1543
                ]
            ],
            "flags": {},
            "group_id": null
        },
        {
            "label": "h1",
            "shape_type": "rectangle",
            "points": [
                [
                    3805,
                    1249
                ],
                [
                    3978,
                    1316
                ]
            ],
            "flags": {},
            "group_id": null
        },
        {
            "label": "h1",
            "shape_type": "rectangle",
            "points": [
                [
                    3796,
                    1049
                ],
                [
                    3968,
                    1117
                ]
            ],
            "flags": {},
            "group_id": null
        },
        {
            "label": "h1",
            "shape_type": "rectangle",
            "points": [
                [
                    3793,
                    837
                ],
                [
                    3966,
                    906
                ]
            ],
            "flags": {},
            "group_id": null
        },
        {
            "label": "h1",
            "shape_type": "rectangle",
            "points": [
                [
                    3790,
                    713
                ],
                [
                    3962,
                    783
                ]
            ],
            "flags": {},
            "group_id": null
        },
        {
            "label": "g1",
            "shape_type": "rectangle",
            "points": [
                [
                    3412,
                    750
                ],
                [
                    3416,
                    941
                ]
            ],
            "flags": {},
            "group_id": null
        },
        {
            "label": "g1",
            "shape_type": "rectangle",
            "points": [
                [
                    3551,
                    755
                ],
                [
                    3556,
                    941
                ]
            ],
            "flags": {},
            "group_id": null
        },
        {
            "label": "g1",
            "shape_type": "rectangle",
            "points": [
                [
                    3412,
                    965
                ],
                [
                    3417,
                    1159
                ]
            ],
            "flags": {},
            "group_id": null
        },
        {
            "label": "g1",
            "shape_type": "rectangle",
            "points": [
                [
                    3550,
                    970
                ],
                [
                    3556,
                    1160
                ]
            ],
            "flags": {},
            "group_id": null
        },
        {
            "label": "g1",
            "shape_type": "rectangle",
            "points": [
                [
                    3413,
                    1174
                ],
                [
                    3418,
                    1370
                ]
            ],
            "flags": {},
            "group_id": null
        },
        {
            "label": "g1",
            "shape_type": "rectangle",
            "points": [
                [
                    3551,
                    1180
                ],
                [
                    3558,
                    1369
                ]
            ],
            "flags": {},
            "group_id": null
        },
        {
            "label": "g1",
            "shape_type": "rectangle",
            "points": [
                [
                    3411,
                    1380
                ],
                [
                    3415,
                    1576
                ]
            ],
            "flags": {},
            "group_id": null
        },
        {
            "label": "g1",
            "shape_type": "rectangle",
            "points": [
                [
                    3549,
                    1386
                ],
                [
                    3555,
                    1576
                ]
            ],
            "flags": {},
            "group_id": null
        },
        {
            "label": "a1-1",
            "shape_type": "rectangle",
            "points": [
                [
                    3382,
                    1406
                ],
                [
                    3409,
                    1516
                ]
            ],
            "flags": {},
            "group_id": null
        },
        {
            "label": "a1-2",
            "shape_type": "rectangle",
            "points": [
                [
                    3556,
                    1411
                ],
                [
                    3582,
                    1521
                ]
            ],
            "flags": {},
            "group_id": null
        },
        {
            "label": "a1-1",
            "shape_type": "rectangle",
            "points": [
                [
                    3387,
                    1200
                ],
                [
                    3413,
                    1310
                ]
            ],
            "flags": {},
            "group_id": null
        },
        {
            "label": "a1-2",
            "shape_type": "rectangle",
            "points": [
                [
                    3559,
                    1205
                ],
                [
                    3585,
                    1316
                ]
            ],
            "flags": {},
            "group_id": null
        },
        {
            "label": "a1-1",
            "shape_type": "rectangle",
            "points": [
                [
                    3384,
                    990
                ],
                [
                    3411,
                    1100
                ]
            ],
            "flags": {},
            "group_id": null
        },
        {
            "label": "a1-2",
            "shape_type": "rectangle",
            "points": [
                [
                    3557,
                    995
                ],
                [
                    3584,
                    1105
                ]
            ],
            "flags": {},
            "group_id": null
        },
        {
            "label": "a1-1",
            "shape_type": "rectangle",
            "points": [
                [
                    3384,
                    772
                ],
                [
                    3410,
                    883
                ]
            ],
            "flags": {},
            "group_id": null
        },
        {
            "label": "a1-2",
            "shape_type": "rectangle",
            "points": [
                [
                    3556,
                    778
                ],
                [
                    3583,
                    888
                ]
            ],
            "flags": {},
            "group_id": null
        },
        {
            "label": "n1",
            "shape_type": "rectangle",
            "points": [
                [
                    1927,
                    87
                ],
                [
                    2483,
                    537
                ]
            ],
            "flags": {},
            "group_id": null
        },
        {
            "label": "d1",
            "shape_type": "rectangle",
            "points": [
                [
                    919,
                    139
                ],
                [
                    1057,
                    224
                ]
            ],
            "flags": {},
            "group_id": null
        },
        {
            "label": "va4",
            "shape_type": "rectangle",
            "points": [
                [
                    798,
                    418
                ],
                [
                    823,
                    443
                ]
            ],
            "flags": {},
            "group_id": null
        },
        {
            "label": "d1",
            "shape_type": "rectangle",
            "points": [
                [
                    919,
                    1073
                ],
                [
                    1056,
                    1157
                ]
            ],
            "flags": {},
            "group_id": null
        },
        {
            "label": "v1",
            "shape_type": "rectangle",
            "points": [
                [
                    724,
                    1124
                ],
                [
                    857,
                    1195
                ]
            ],
            "flags": {},
            "group_id": null
        },
        {
            "label": "vb1",
            "shape_type": "rectangle",
            "points": [
                [
                    632,
                    532
                ],
                [
                    981,
                    1082
                ]
            ],
            "flags": {},
            "group_id": null
        },
        {
            "label": "seven",
            "shape_type": "point",
            "points": [
                [
                    632,
                    532
                ]
            ],
            "flags": {},
            "group_id": null
        },
        {
            "label": "seven",
            "shape_type": "point",
            "points": [
                [
                    657,
                    556
                ]
            ],
            "flags": {},
            "group_id": null
        },
        {
            "label": "twentytwo",
            "shape_type": "point",
            "points": [
                [
                    787,
                    532
                ]
            ],
            "flags": {},
            "group_id": null
        },
        {
            "label": "twentythere",
            "shape_type": "point",
            "points": [
                [
                    837,
                    556
                ]
            ],
            "flags": {},
            "group_id": null
        },
        {
            "label": "fourteen",
            "shape_type": "point",
            "points": [
                [
                    787,
                    555
                ]
            ],
            "flags": {},
            "group_id": null
        },
        {
            "label": "thirteen",
            "shape_type": "point",
            "points": [
                [
                    837,
                    532
                ]
            ],
            "flags": {},
            "group_id": null
        },
        {
            "label": "eight",
            "shape_type": "point",
            "points": [
                [
                    981,
                    531
                ]
            ],
            "flags": {},
            "group_id": null
        },
        {
            "label": "eight",
            "shape_type": "point",
            "points": [
                [
                    957,
                    556
                ]
            ],
            "flags": {},
            "group_id": null
        },
        {
            "label": "nine",
            "shape_type": "point",
            "points": [
                [
                    657,
                    1057
                ]
            ],
            "flags": {},
            "group_id": null
        },
        {
            "label": "nine",
            "shape_type": "point",
            "points": [
                [
                    633,
                    1081
                ]
            ],
            "flags": {},
            "group_id": null
        },
        {
            "label": "ten",
            "shape_type": "point",
            "points": [
                [
                    957,
                    1057
                ]
            ],
            "flags": {},
            "group_id": null
        },
        {
            "label": "ten",
            "shape_type": "point",
            "points": [
                [
                    981,
                    1081
                ]
            ],
            "flags": {},
            "group_id": null
        },
        {
            "label": "vt1",
            "shape_type": "rectangle",
            "points": [
                [
                    661,
                    182
                ],
                [
                    959,
                    480
                ]
            ],
            "flags": {},
            "group_id": null
        },
        {
            "label": "vp1-1",
            "shape_type": "rectangle",
            "points": [
                [
                    1503,
                    722
                ],
                [
                    1668,
                    886
                ]
            ],
            "flags": {},
            "group_id": null
        },
        {
            "label": "vp1-1",
            "shape_type": "rectangle",
            "points": [
                [
                    2365,
                    750
                ],
                [
                    2531,
                    915
                ]
            ],
            "flags": {},
            "group_id": null
        },
        {
            "label": "vp1-1",
            "shape_type": "rectangle",
            "points": [
                [
                    2127,
                    1520
                ],
                [
                    2291,
                    1686
                ]
            ],
            "flags": {},
            "group_id": null
        },
        {
            "label": "vp1-1",
            "shape_type": "rectangle",
            "points": [
                [
                    2860,
                    1582
                ],
                [
                    3024,
                    1747
                ]
            ],
            "flags": {},
            "group_id": null
        },
        {
            "label": "v1",
            "shape_type": "rectangle",
            "points": [
                [
                    2844,
                    1869
                ],
                [
                    3074,
                    1961
                ]
            ],
            "flags": {},
            "group_id": null
        },
        {
            "label": "v1",
            "shape_type": "rectangle",
            "points": [
                [
                    2113,
                    1809
                ],
                [
                    2343,
                    1901
                ]
            ],
            "flags": {},
            "group_id": null
        },
        {
            "label": "v1",
            "shape_type": "rectangle",
            "points": [
                [
                    2363,
                    1059
                ],
                [
                    2593,
                    1152
                ]
            ],
            "flags": {},
            "group_id": null
        },
        {
            "label": "v1",
            "shape_type": "rectangle",
            "points": [
                [
                    1488,
                    1008
                ],
                [
                    1719,
                    1101
                ]
            ],
            "flags": {},
            "group_id": null
        },
        {
            "label": "va1",
            "shape_type": "rectangle",
            "points": [
                [
                    1482,
                    655
                ],
                [
                    1519,
                    697
                ]
            ],
            "flags": {},
            "group_id": null
        },
        {
            "label": "va1",
            "shape_type": "rectangle",
            "points": [
                [
                    1725,
                    775
                ],
                [
                    1766,
                    814
                ]
            ],
            "flags": {},
            "group_id": null
        },
        {
            "label": "va1",
            "shape_type": "rectangle",
            "points": [
                [
                    1496,
                    925
                ],
                [
                    1537,
                    965
                ]
            ],
            "flags": {},
            "group_id": null
        },
        {
            "label": "va1",
            "shape_type": "rectangle",
            "points": [
                [
                    2359,
                    955
                ],
                [
                    2401,
                    994
                ]
            ],
            "flags": {},
            "group_id": null
        },
        {
            "label": "va1",
            "shape_type": "rectangle",
            "points": [
                [
                    2345,
                    684
                ],
                [
                    2382,
                    727
                ]
            ],
            "flags": {},
            "group_id": null
        },
        {
            "label": "va1",
            "shape_type": "rectangle",
            "points": [
                [
                    2588,
                    804
                ],
                [
                    2630,
                    843
                ]
            ],
            "flags": {},
            "group_id": null
        },
        {
            "label": "va1",
            "shape_type": "rectangle",
            "points": [
                [
                    2837,
                    1515
                ],
                [
                    2875,
                    1558
                ]
            ],
            "flags": {},
            "group_id": null
        },
        {
            "label": "va1",
            "shape_type": "rectangle",
            "points": [
                [
                    3081,
                    1635
                ],
                [
                    3122,
                    1674
                ]
            ],
            "flags": {},
            "group_id": null
        },
        {
            "label": "va1",
            "shape_type": "rectangle",
            "points": [
                [
                    2852,
                    1786
                ],
                [
                    2893,
                    1825
                ]
            ],
            "flags": {},
            "group_id": null
        },
        {
            "label": "va1",
            "shape_type": "rectangle",
            "points": [
                [
                    2120,
                    1726
                ],
                [
                    2161,
                    1764
                ]
            ],
            "flags": {},
            "group_id": null
        },
        {
            "label": "va1",
            "shape_type": "rectangle",
            "points": [
                [
                    2105,
                    1455
                ],
                [
                    2143,
                    1498
                ]
            ],
            "flags": {},
            "group_id": null
        },
        {
            "label": "va1",
            "shape_type": "rectangle",
            "points": [
                [
                    2349,
                    1574
                ],
                [
                    2390,
                    1613
                ]
            ],
            "flags": {},
            "group_id": null
        },
        {
            "label": "k1",
            "shape_type": "rectangle",
            "points": [
                [
                    3096,
                    2148
                ],
                [
                    3117,
                    2179
                ]
            ],
            "flags": {},
            "group_id": null
        },
        {
            "label": "wz4",
            "shape_type": "rectangle",
            "points": [
                [
                    2777,
                    2174
                ],
                [
                    2873,
                    2272
                ]
            ],
            "flags": {},
            "group_id": null
        },
        {
            "label": "btl",
            "shape_type": "rectangle",
            "points": [
                [
                    2348,
                    2566
                ],
                [
                    4153,
                    2870
                ]
            ],
            "flags": {},
            "group_id": null
        },
        {
            "label": "sm",
            "shape_type": "rectangle",
            "points": [
                [
                    332,
                    1186
                ],
                [
                    1881,
                    1942
                ]
            ],
            "flags": {},
            "group_id": null
        },
        {
            "label": "j1",
            "shape_type": "rectangle",
            "points": [
                [
                    2304,
                    492
                ],
                [
                    2483,
                    529
                ]
            ],
            "flags": {},
            "group_id": null
        },
        {
            "label": "j1",
            "shape_type": "rectangle",
            "points": [
                [
                    2326,
                    159
                ],
                [
                    2478,
                    193
                ]
            ],
            "flags": {},
            "group_id": null
        },
        {
            "label": "j1",
            "shape_type": "rectangle",
            "points": [
                [
                    2220,
                    90
                ],
                [
                    2249,
                    123
                ]
            ],
            "flags": {},
            "group_id": null
        },
        {
            "label": "j1",
            "shape_type": "rectangle",
            "points": [
                [
                    1928,
                    343
                ],
                [
                    2111,
                    380
                ]
            ],
            "flags": {},
            "group_id": null
        },
        {
            "label": "k1",
            "shape_type": "rectangle",
            "points": [
                [
                    786,
                    530
                ],
                [
                    838,
                    556
                ]
            ],
            "flags": {},
            "group_id": null
        },
        {
            "label": "wz4",
            "shape_type": "rectangle",
            "points": [
                [
                    754,
                    751
                ],
                [
                    853,
                    848
                ]
            ],
            "flags": {},
            "group_id": null
        },
        {
            "label": "mask",
            "lineType": [
                "LLLLLLLLLLLLLLLLLLLLLLLLLLLLLLLLLLLLLLLLLLLLLLLLLLL"
            ],
            "shape_type": "polygon",
            "points": [
                [
                    2988,
                    1111
                ],
                [
                    2966,
                    939
                ],
                [
                    2967,
                    832
                ],
                [
                    2991,
                    722
                ],
                [
                    3106,
                    669
                ],
                [
                    3265,
                    562
                ],
                [
                    3338,
                    528
                ],
                [
                    3448,
                    530
                ],
                [
                    3533,
                    574
                ],
                [
                    3628,
                    619
                ],
                [
                    3878,
                    676
                ],
                [
                    3967,
                    699
                ],
                [
                    3995,
                    742
                ],
                [
                    4000,
                    956
                ],
                [
                    4004,
                    1126
                ],
                [
                    4017,
                    1277
                ],
                [
                    4017,
                    1333
                ],
                [
                    4002,
                    1541
                ],
                [
                    3980,
                    1583
                ],
                [
                    3726,
                    1676
                ],
                [
                    3653,
                    1687
                ],
                [
                    3601,
                    1767
                ],
                [
                    3593,
                    1844
                ],
                [
                    3587,
                    1939
                ],
                [
                    3580,
                    2150
                ],
                [
                    3580,
                    2218
                ],
                [
                    3678,
                    2211
                ],
                [
                    3838,
                    2225
                ],
                [
                    3944,
                    2248
                ],
                [
                    3990,
                    2269
                ],
                [
                    3986,
                    2306
                ],
                [
                    3984,
                    2356
                ],
                [
                    3517,
                    2438
                ],
                [
                    3519,
                    2516
                ],
                [
                    3175,
                    2556
                ],
                [
                    3045,
                    2389
                ],
                [
                    2487,
                    2369
                ],
                [
                    2426,
                    2367
                ],
                [
                    2457,
                    2290
                ],
                [
                    2564,
                    2072
                ],
                [
                    2993,
                    2081
                ],
                [
                    3280,
                    2086
                ],
                [
                    3364,
                    2086
                ],
                [
                    3364,
                    1821
                ],
                [
                    3375,
                    1667
                ],
                [
                    3350,
                    1595
                ],
                [
                    3227,
                    1571
                ],
                [
                    3045,
                    1561
                ],
                [
                    2966,
                    1339
                ],
                [
                    2920,
                    1223
                ],
                [
                    2988,
                    1111
                ]
            ],
            "flags": {},
            "group_id": null
        },
        {
            "label": "mask",
            "lineType": [
                "LLLLLLLLLLLLLLLLLLLLLLL"
            ],
            "shape_type": "polygon",
            "points": [
                [
                    2812,
                    1993
                ],
                [
                    3038,
                    1974
                ],
                [
                    3094,
                    1973
                ],
                [
                    3126,
                    1889
                ],
                [
                    3164,
                    1821
                ],
                [
                    3195,
                    1781
                ],
                [
                    3299,
                    1738
                ],
                [
                    3330,
                    1703
                ],
                [
                    3332,
                    1656
                ],
                [
                    3252,
                    1623
                ],
                [
                    3208,
                    1608
                ],
                [
                    3100,
                    1600
                ],
                [
                    2893,
                    1513
                ],
                [
                    2866,
                    1489
                ],
                [
                    2724,
                    1500
                ],
                [
                    2690,
                    1520
                ],
                [
                    2672,
                    1608
                ],
                [
                    2676,
                    1632
                ],
                [
                    2773,
                    1637
                ],
                [
                    2803,
                    1670
                ],
                [
                    2825,
                    1729
                ],
                [
                    2817,
                    1771
                ],
                [
                    2812,
                    1993
                ]
            ],
            "flags": {},
            "group_id": null
        },
        {
            "label": "mask",
            "lineType": [
                "LLLLL"
            ],
            "shape_type": "polygon",
            "points": [
                [
                    2340,
                    2560
                ],
                [
                    2330,
                    2872
                ],
                [
                    4156,
                    2870
                ],
                [
                    4151,
                    2567
                ],
                [
                    2340,
                    2560
                ]
            ],
            "flags": {},
            "group_id": null
        },
        {
            "label": "mask",
            "lineType": [
                "LLLLLLLLLLLLLLLLLLL"
            ],
            "shape_type": "polygon",
            "points": [
                [
                    2057,
                    1940
                ],
                [
                    2302,
                    1926
                ],
                [
                    2395,
                    1890
                ],
                [
                    2417,
                    1785
                ],
                [
                    2457,
                    1677
                ],
                [
                    2555,
                    1673
                ],
                [
                    2600,
                    1649
                ],
                [
                    2646,
                    1607
                ],
                [
                    2653,
                    1589
                ],
                [
                    2650,
                    1564
                ],
                [
                    2584,
                    1540
                ],
                [
                    2086,
                    1446
                ],
                [
                    1983,
                    1444
                ],
                [
                    1944,
                    1464
                ],
                [
                    1942,
                    1553
                ],
                [
                    1968,
                    1582
                ],
                [
                    2050,
                    1601
                ],
                [
                    2100,
                    1750
                ],
                [
                    2057,
                    1940
                ]
            ],
            "flags": {},
            "group_id": null
        },
        {
            "label": "mask",
            "lineType": [
                "LLLLLLLLL"
            ],
            "shape_type": "polygon",
            "points": [
                [
                    392,
                    2057
                ],
                [
                    965,
                    2047
                ],
                [
                    975,
                    2007
                ],
                [
                    1291,
                    2002
                ],
                [
                    1296,
                    2048
                ],
                [
                    1846,
                    2061
                ],
                [
                    1836,
                    2745
                ],
                [
                    430,
                    2756
                ],
                [
                    392,
                    2057
                ]
            ],
            "flags": {},
            "group_id": null
        },
        {
            "label": "mask",
            "lineType": [
                "LLLLLLLLLLLLLLLLLLLLLLLLLLLLLLLL"
            ],
            "shape_type": "polygon",
            "points": [
                [
                    348,
                    1951
                ],
                [
                    625,
                    1954
                ],
                [
                    767,
                    1957
                ],
                [
                    808,
                    1921
                ],
                [
                    891,
                    1905
                ],
                [
                    1096,
                    1898
                ],
                [
                    1223,
                    1899
                ],
                [
                    1486,
                    1896
                ],
                [
                    1624,
                    1896
                ],
                [
                    1652,
                    1868
                ],
                [
                    1654,
                    1831
                ],
                [
                    1506,
                    1728
                ],
                [
                    1482,
                    1654
                ],
                [
                    1562,
                    1534
                ],
                [
                    1777,
                    1535
                ],
                [
                    1871,
                    1531
                ],
                [
                    1892,
                    1512
                ],
                [
                    1896,
                    1487
                ],
                [
                    1894,
                    1472
                ],
                [
                    1825,
                    1453
                ],
                [
                    1280,
                    1419
                ],
                [
                    1304,
                    1304
                ],
                [
                    1301,
                    1243
                ],
                [
                    1206,
                    1241
                ],
                [
                    728,
                    1243
                ],
                [
                    692,
                    1209
                ],
                [
                    692,
                    1194
                ],
                [
                    646,
                    1189
                ],
                [
                    557,
                    1181
                ],
                [
                    326,
                    1178
                ],
                [
                    306,
                    1208
                ],
                [
                    348,
                    1951
                ]
            ],
            "flags": {},
            "group_id": null
        },
        {
            "label": "mask",
            "lineType": [
                "LLLLLLLLLLLLLLLLLLLLLLLLLLLLLLL"
            ],
            "shape_type": "polygon",
            "points": [
                [
                    709,
                    1177
                ],
                [
                    718,
                    1203
                ],
                [
                    797,
                    1203
                ],
                [
                    871,
                    1205
                ],
                [
                    886,
                    1171
                ],
                [
                    952,
                    1158
                ],
                [
                    1029,
                    1167
                ],
                [
                    1061,
                    1167
                ],
                [
                    1067,
                    1145
                ],
                [
                    1069,
                    1120
                ],
                [
                    1043,
                    1035
                ],
                [
                    1017,
                    822
                ],
                [
                    1018,
                    603
                ],
                [
                    1018,
                    519
                ],
                [
                    1013,
                    304
                ],
                [
                    1049,
                    261
                ],
                [
                    1074,
                    221
                ],
                [
                    1081,
                    193
                ],
                [
                    1083,
                    131
                ],
                [
                    1023,
                    125
                ],
                [
                    906,
                    133
                ],
                [
                    699,
                    171
                ],
                [
                    639,
                    189
                ],
                [
                    611,
                    316
                ],
                [
                    624,
                    445
                ],
                [
                    601,
                    511
                ],
                [
                    601,
                    589
                ],
                [
                    595,
                    772
                ],
                [
                    597,
                    847
                ],
                [
                    609,
                    1093
                ],
                [
                    709,
                    1177
                ]
            ],
            "flags": {},
            "group_id": null
        },
        {
            "label": "mask",
            "lineType": [
                "LLLLLLLLLLLLLLLLLLLLL"
            ],
            "shape_type": "polygon",
            "points": [
                [
                    1461,
                    1115
                ],
                [
                    1613,
                    1118
                ],
                [
                    1759,
                    1119
                ],
                [
                    1746,
                    1059
                ],
                [
                    1717,
                    959
                ],
                [
                    1716,
                    904
                ],
                [
                    1767,
                    823
                ],
                [
                    1854,
                    815
                ],
                [
                    1870,
                    781
                ],
                [
                    1856,
                    751
                ],
                [
                    1750,
                    736
                ],
                [
                    1622,
                    715
                ],
                [
                    1575,
                    679
                ],
                [
                    1530,
                    646
                ],
                [
                    1422,
                    639
                ],
                [
                    1407,
                    656
                ],
                [
                    1402,
                    693
                ],
                [
                    1454,
                    906
                ],
                [
                    1457,
                    956
                ],
                [
                    1462,
                    1009
                ],
                [
                    1461,
                    1115
                ]
            ],
            "flags": {},
            "group_id": null
        },
        {
            "label": "mask",
            "lineType": [
                "LLLLLLLLLLLLLLLLLL"
            ],
            "shape_type": "polygon",
            "points": [
                [
                    2074,
                    638
                ],
                [
                    1902,
                    420
                ],
                [
                    1901,
                    301
                ],
                [
                    1931,
                    236
                ],
                [
                    2067,
                    105
                ],
                [
                    2100,
                    62
                ],
                [
                    2195,
                    61
                ],
                [
                    2351,
                    81
                ],
                [
                    2508,
                    121
                ],
                [
                    2537,
                    139
                ],
                [
                    2522,
                    189
                ],
                [
                    2330,
                    227
                ],
                [
                    2331,
                    431
                ],
                [
                    2510,
                    430
                ],
                [
                    2510,
                    491
                ],
                [
                    2511,
                    531
                ],
                [
                    2280,
                    588
                ],
                [
                    2074,
                    638
                ]
            ],
            "flags": {},
            "group_id": null
        },
        {
            "label": "mask",
            "lineType": [
                "LLLLLLLLLLLLLLLLLLLLLLLLLLL"
            ],
            "shape_type": "polygon",
            "points": [
                [
                    2259,
                    725
                ],
                [
                    2319,
                    749
                ],
                [
                    2342,
                    952
                ],
                [
                    2350,
                    1023
                ],
                [
                    2350,
                    1078
                ],
                [
                    2343,
                    1164
                ],
                [
                    2376,
                    1173
                ],
                [
                    2462,
                    1176
                ],
                [
                    2578,
                    1181
                ],
                [
                    2605,
                    1169
                ],
                [
                    2609,
                    1151
                ],
                [
                    2610,
                    1092
                ],
                [
                    2602,
                    1031
                ],
                [
                    2573,
                    998
                ],
                [
                    2557,
                    963
                ],
                [
                    2566,
                    916
                ],
                [
                    2592,
                    896
                ],
                [
                    2671,
                    887
                ],
                [
                    2723,
                    836
                ],
                [
                    2723,
                    821
                ],
                [
                    2720,
                    794
                ],
                [
                    2534,
                    764
                ],
                [
                    2486,
                    722
                ],
                [
                    2440,
                    685
                ],
                [
                    2366,
                    661
                ],
                [
                    2262,
                    661
                ],
                [
                    2259,
                    725
                ]
            ],
            "flags": {},
            "group_id": null
        },
        {
            "label": "Ns",
            "shape_type": "point",
            "points": [
                [
                    2201,
                    321
                ]
            ],
            "flags": {},
            "group_id": null
        },
        {
            "label": "Ne",
            "shape_type": "point",
            "points": [
                [
                    2201,
                    147
                ]
            ],
            "flags": {},
            "group_id": null
        },
        {
            "label": "wlb",
            "shape_type": "rectangle",
            "points": [
                [
                    436,
                    2011
                ],
                [
                    1824,
                    2731
                ]
            ],
            "flags": {},
            "group_id": null
        },
        {
            "label": "wz1",
            "shape_type": "rectangle",
            "points": [
                [
                    3324,
                    540
                ],
                [
                    3419,
                    585
                ]
            ],
            "flags": {},
            "group_id": null
        },
        {
            "label": "wz3",
            "shape_type": "rectangle",
            "points": [
                [
                    2992,
                    826
                ],
                [
                    3039,
                    856
                ]
            ],
            "flags": {},
            "group_id": null
        },
        {
            "label": "wz3",
            "shape_type": "rectangle",
            "points": [
                [
                    2989,
                    1048
                ],
                [
                    3035,
                    1079
                ]
            ],
            "flags": {},
            "group_id": null
        },
        {
            "label": "wz3",
            "shape_type": "rectangle",
            "points": [
                [
                    2998,
                    1218
                ],
                [
                    3188,
                    1254
                ]
            ],
            "flags": {},
            "group_id": null
        },
        {
            "label": "wz3",
            "shape_type": "rectangle",
            "points": [
                [
                    3054,
                    1453
                ],
                [
                    3099,
                    1487
                ]
            ],
            "flags": {},
            "group_id": null
        },
        {
            "label": "wz3",
            "shape_type": "rectangle",
            "points": [
                [
                    3166,
                    1628
                ],
                [
                    3315,
                    1712
                ]
            ],
            "flags": {},
            "group_id": null
        },
        {
            "label": "wz1",
            "shape_type": "rectangle",
            "points": [
                [
                    3376,
                    1574
                ],
                [
                    3419,
                    1591
                ]
            ],
            "flags": {},
            "group_id": null
        },
        {
            "label": "wz1",
            "shape_type": "rectangle",
            "points": [
                [
                    3658,
                    1574
                ],
                [
                    3841,
                    1618
                ]
            ],
            "flags": {},
            "group_id": null
        },
        {
            "label": "wz3",
            "shape_type": "rectangle",
            "points": [
                [
                    1948,
                    1464
                ],
                [
                    2166,
                    1556
                ]
            ],
            "flags": {},
            "group_id": null
        },
        {
            "label": "wz3",
            "shape_type": "rectangle",
            "points": [
                [
                    2430,
                    1564
                ],
                [
                    2643,
                    1652
                ]
            ],
            "flags": {},
            "group_id": null
        },
        {
            "label": "wz3",
            "shape_type": "rectangle",
            "points": [
                [
                    2210,
                    1699
                ],
                [
                    2430,
                    1782
                ]
            ],
            "flags": {},
            "group_id": null
        },
        {
            "label": "wz3",
            "shape_type": "rectangle",
            "points": [
                [
                    2680,
                    1526
                ],
                [
                    2865,
                    1617
                ]
            ],
            "flags": {},
            "group_id": null
        },
        {
            "label": "wz3",
            "shape_type": "rectangle",
            "points": [
                [
                    2942,
                    1758
                ],
                [
                    3123,
                    1844
                ]
            ],
            "flags": {},
            "group_id": null
        },
        {
            "label": "wz3",
            "shape_type": "rectangle",
            "points": [
                [
                    2659,
                    796
                ],
                [
                    2708,
                    832
                ]
            ],
            "flags": {},
            "group_id": null
        },
        {
            "label": "wz3",
            "shape_type": "rectangle",
            "points": [
                [
                    2394,
                    993
                ],
                [
                    2442,
                    1024
                ]
            ],
            "flags": {},
            "group_id": null
        },
        {
            "label": "wz3",
            "shape_type": "rectangle",
            "points": [
                [
                    2278,
                    689
                ],
                [
                    2329,
                    721
                ]
            ],
            "flags": {},
            "group_id": null
        },
        {
            "label": "wz3",
            "shape_type": "rectangle",
            "points": [
                [
                    2078,
                    522
                ],
                [
                    2221,
                    570
                ]
            ],
            "flags": {},
            "group_id": null
        },
        {
            "label": "wz3-l",
            "lineType": "LL",
            "shape_type": "line",
            "points": [
                [
                    2172,
                    548
                ],
                [
                    2258,
                    512
                ]
            ],
            "flags": {},
            "group_id": null
        },
        {
            "label": "wz3-l",
            "lineType": "LL",
            "shape_type": "line",
            "points": [
                [
                    2312,
                    704
                ],
                [
                    2360,
                    708
                ]
            ],
            "flags": {},
            "group_id": null
        },
        {
            "label": "wz3-l",
            "lineType": "LL",
            "shape_type": "line",
            "points": [
                [
                    2610,
                    826
                ],
                [
                    2679,
                    818
                ]
            ],
            "flags": {},
            "group_id": null
        },
        {
            "label": "wz3-l",
            "lineType": "LL",
            "shape_type": "line",
            "points": [
                [
                    2382,
                    978
                ],
                [
                    2408,
                    1008
                ]
            ],
            "flags": {},
            "group_id": null
        },
        {
            "label": "wz3-l",
            "lineType": "LL",
            "shape_type": "line",
            "points": [
                [
                    3019,
                    844
                ],
                [
                    3402,
                    842
                ]
            ],
            "flags": {},
            "group_id": null
        },
        {
            "label": "wz1-l",
            "lineType": "LL",
            "shape_type": "line",
            "points": [
                [
                    3403,
                    560
                ],
                [
                    3475,
                    650
                ]
            ],
            "flags": {},
            "group_id": null
        },
        {
            "label": "wz3-l",
            "lineType": "LL",
            "shape_type": "line",
            "points": [
                [
                    3025,
                    1063
                ],
                [
                    3408,
                    1074
                ]
            ],
            "flags": {},
            "group_id": null
        },
        {
            "label": "wz3-l",
            "lineType": "LL",
            "shape_type": "line",
            "points": [
                [
                    3131,
                    1226
                ],
                [
                    3408,
                    1249
                ]
            ],
            "flags": {},
            "group_id": null
        },
        {
            "label": "wz3-l",
            "lineType": "LL",
            "shape_type": "line",
            "points": [
                [
                    3084,
                    1469
                ],
                [
                    3406,
                    1471
                ]
            ],
            "flags": {},
            "group_id": null
        },
        {
            "label": "wz1-l",
            "lineType": "LL",
            "shape_type": "line",
            "points": [
                [
                    3731,
                    1596
                ],
                [
                    3483,
                    1726
                ]
            ],
            "flags": {},
            "group_id": null
        },
        {
            "label": "wz3-l",
            "lineType": "LL",
            "shape_type": "line",
            "points": [
                [
                    3101,
                    1656
                ],
                [
                    3203,
                    1661
                ]
            ],
            "flags": {},
            "group_id": null
        },
        {
            "label": "wz3-l",
            "lineType": "LL",
            "shape_type": "line",
            "points": [
                [
                    2816,
                    1561
                ],
                [
                    2859,
                    1533
                ]
            ],
            "flags": {},
            "group_id": null
        },
        {
            "label": "wz3-l",
            "lineType": "LL",
            "shape_type": "line",
            "points": [
                [
                    2870,
                    1809
                ],
                [
                    3007,
                    1808
                ]
            ],
            "flags": {},
            "group_id": null
        },
        {
            "label": "wz3-l",
            "lineType": "LL",
            "shape_type": "line",
            "points": [
                [
                    2371,
                    1593
                ],
                [
                    2500,
                    1608
                ]
            ],
            "flags": {},
            "group_id": null
        },
        {
            "label": "wz3-l",
            "lineType": "LL",
            "shape_type": "line",
            "points": [
                [
                    2143,
                    1745
                ],
                [
                    2253,
                    1745
                ]
            ],
            "flags": {},
            "group_id": null
        },
        {
            "label": "wz3-l",
            "lineType": "LL",
            "shape_type": "line",
            "points": [
                [
                    2080,
                    1499
                ],
                [
                    2134,
                    1470
                ]
            ],
            "flags": {},
            "group_id": null
        },
        {
            "label": "wz3-l",
            "lineType": "LL",
            "shape_type": "line",
            "points": [
                [
                    1747,
                    784
                ],
                [
                    1818,
                    786
                ]
            ],
            "flags": {},
            "group_id": null
        },
        {
            "label": "wz3-l",
            "lineType": "LL",
            "shape_type": "line",
            "points": [
                [
                    1496,
                    677
                ],
                [
                    1445,
                    679
                ]
            ],
            "flags": {},
            "group_id": null
        },
        {
            "label": "wz3-l",
            "lineType": "LL",
            "shape_type": "line",
            "points": [
                [
                    1518,
                    952
                ],
                [
                    1555,
                    977
                ]
            ],
            "flags": {},
            "group_id": null
        },
        {
            "label": "wz3",
            "shape_type": "rectangle",
            "points": [
                [
                    1797,
                    770
                ],
                [
                    1845,
                    802
                ]
            ],
            "flags": {},
            "group_id": null
        },
        {
            "label": "wz3",
            "shape_type": "rectangle",
            "points": [
                [
                    1416,
                    660
                ],
                [
                    1463,
                    692
                ]
            ],
            "flags": {},
            "group_id": null
        },
        {
            "label": "wz3",
            "shape_type": "rectangle",
            "points": [
                [
                    1532,
                    962
                ],
                [
                    1579,
                    995
                ]
            ],
            "flags": {},
            "group_id": null
        },
        {
            "label": "wz1",
            "shape_type": "rectangle",
            "points": [
                [
                    857,
                    476
                ],
                [
                    900,
                    490
                ]
            ],
            "flags": {},
            "group_id": null
        },
        {
            "label": "wz1-l",
            "lineType": "LL",
            "shape_type": "line",
            "points": [
                [
                    868,
                    482
                ],
                [
                    815,
                    429
                ]
            ],
            "flags": {},
            "group_id": null
        }
    ],
    "flags": {},
    "imageData": null,
    "version": "4.5.7"
}