{
    "imageHeight": 2975,
    "imageWidth": 4210,
    "imagePath": "角塔_含3-2_1.png",
    "shapes": [
        {
            "label": "three",
            "shape_type": "point",
            "points": [
                [
                    647,
                    364
                ]
            ],
            "flags": {},
            "group_id": null
        },
        {
            "label": "four",
            "shape_type": "point",
            "points": [
                [
                    1293,
                    364
                ]
            ],
            "flags": {},
            "group_id": null
        },
        {
            "label": "one",
            "shape_type": "point",
            "points": [
                [
                    1351,
                    1120
                ]
            ],
            "flags": {},
            "group_id": null
        },
        {
            "label": "two",
            "shape_type": "point",
            "points": [
                [
                    1352,
                    475
                ]
            ],
            "flags": {},
            "group_id": null
        },
        {
            "label": "d1",
            "shape_type": "rectangle",
            "points": [
                [
                    1339,
                    1105
                ],
                [
                    1396,
                    1183
                ]
            ],
            "flags": {},
            "group_id": null
        },
        {
            "label": "v1",
            "shape_type": "rectangle",
            "points": [
                [
                    884,
                    1132
                ],
                [
                    1008,
                    1204
                ]
            ],
            "flags": {},
            "group_id": null
        },
        {
            "label": "d1",
            "shape_type": "rectangle",
            "points": [
                [
                    580,
                    1105
                ],
                [
                    636,
                    1183
                ]
            ],
            "flags": {},
            "group_id": null
        },
        {
            "label": "vt10-n",
            "shape_type": "rectangle",
            "points": [
                [
                    643,
                    471
                ],
                [
                    1295,
                    1122
                ]
            ],
            "flags": {},
            "group_id": null
        },
        {
            "label": "vt10-n",
            "shape_type": "rectangle",
            "points": [
                [
                    645,
                    474
                ],
                [
                    1293,
                    1120
                ]
            ],
            "flags": {},
            "group_id": null
        },
        {
            "label": "vp1-6",
            "shape_type": "rectangle",
            "points": [
                [
                    373,
                    1556
                ],
                [
                    656,
                    1838
                ]
            ],
            "flags": {},
            "group_id": null
        },
        {
            "label": "vp1-6",
            "shape_type": "rectangle",
            "points": [
                [
                    975,
                    1556
                ],
                [
                    1255,
                    1838
                ]
            ],
            "flags": {},
            "group_id": null
        },
        {
            "label": "vp1-6",
            "shape_type": "rectangle",
            "points": [
                [
                    1707,
                    1556
                ],
                [
                    1991,
                    1838
                ]
            ],
            "flags": {},
            "group_id": null
        },
        {
            "label": "van",
            "shape_type": "rectangle",
            "points": [
                [
                    938,
                    1780
                ],
                [
                    978,
                    1849
                ]
            ],
            "flags": {},
            "group_id": null
        },
        {
            "label": "van",
            "shape_type": "rectangle",
            "points": [
                [
                    1203,
                    1836
                ],
                [
                    1272,
                    1881
                ]
            ],
            "flags": {},
            "group_id": null
        },
        {
            "label": "van",
            "shape_type": "rectangle",
            "points": [
                [
                    965,
                    1519
                ],
                [
                    1036,
                    1561
                ]
            ],
            "flags": {},
            "group_id": null
        },
        {
            "label": "v1",
            "shape_type": "rectangle",
            "points": [
                [
                    330,
                    1954
                ],
                [
                    679,
                    2023
                ]
            ],
            "flags": {},
            "group_id": null
        },
        {
            "label": "v1",
            "shape_type": "rectangle",
            "points": [
                [
                    961,
                    1954
                ],
                [
                    1308,
                    2023
                ]
            ],
            "flags": {},
            "group_id": null
        },
        {
            "label": "v1",
            "shape_type": "rectangle",
            "points": [
                [
                    1755,
                    1955
                ],
                [
                    1945,
                    2022
                ]
            ],
            "flags": {},
            "group_id": null
        },
        {
            "label": "n1",
            "shape_type": "rectangle",
            "points": [
                [
                    3301,
                    586
                ],
                [
                    3750,
                    1001
                ]
            ],
            "flags": {},
            "group_id": null
        },
        {
            "label": "v1",
            "shape_type": "rectangle",
            "points": [
                [
                    3451,
                    1080
                ],
                [
                    3716,
                    1147
                ]
            ],
            "flags": {},
            "group_id": null
        },
        {
            "label": "btl",
            "shape_type": "rectangle",
            "points": [
                [
                    2321,
                    2585
                ],
                [
                    4064,
                    2872
                ]
            ],
            "flags": {},
            "group_id": null
        },
        {
            "label": "sm",
            "shape_type": "rectangle",
            "points": [
                [
                    159,
                    2182
                ],
                [
                    2311,
                    2869
                ]
            ],
            "flags": {},
            "group_id": null
        },
        {
            "label": "x2",
            "shape_type": "rectangle",
            "points": [
                [
                    632,
                    332
                ],
                [
                    1304,
                    383
                ]
            ],
            "flags": {},
            "group_id": null
        },
        {
            "label": "wz2",
            "shape_type": "rectangle",
            "points": [
                [
                    927,
                    333
                ],
                [
                    1007,
                    363
                ]
            ],
            "flags": {},
            "group_id": null
        },
        {
            "label": "x2",
            "shape_type": "rectangle",
            "points": [
                [
                    1320,
                    465
                ],
                [
                    1364,
                    1135
                ]
            ],
            "flags": {},
            "group_id": null
        },
        {
            "label": "wz2",
            "shape_type": "rectangle",
            "points": [
                [
                    1320,
                    766
                ],
                [
                    1350,
                    856
                ]
            ],
            "flags": {},
            "group_id": null
        },
        {
            "label": "tl",
            "shape_type": "rectangle",
            "points": [
                [
                    2440,
                    577
                ],
                [
                    3273,
                    1147
                ]
            ],
            "flags": {},
            "group_id": null
        },
        {
            "label": "j1",
            "shape_type": "rectangle",
            "points": [
                [
                    3563,
                    586
                ],
                [
                    3749,
                    632
                ]
            ],
            "flags": {},
            "group_id": null
        },
        {
            "label": "j1",
            "shape_type": "rectangle",
            "points": [
                [
                    3616,
                    742
                ],
                [
                    3661,
                    792
                ]
            ],
            "flags": {},
            "group_id": null
        },
        {
            "label": "j1",
            "shape_type": "rectangle",
            "points": [
                [
                    3570,
                    954
                ],
                [
                    3750,
                    1000
                ]
            ],
            "flags": {},
            "group_id": null
        },
        {
            "label": "j1",
            "shape_type": "rectangle",
            "points": [
                [
                    3303,
                    823
                ],
                [
                    3493,
                    871
                ]
            ],
            "flags": {},
            "group_id": null
        },
        {
            "label": "mask",
            "lineType": [
                "LLLLLLLLLLLLLLLL"
            ],
            "shape_type": "polygon",
            "points": [
                [
                    625,
                    301
                ],
                [
                    578,
                    420
                ],
                [
                    570,
                    1046
                ],
                [
                    547,
                    1146
                ],
                [
                    550,
                    1224
                ],
                [
                    1047,
                    1225
                ],
                [
                    1432,
                    1210
                ],
                [
                    1435,
                    1080
                ],
                [
                    1393,
                    978
                ],
                [
                    1415,
                    692
                ],
                [
                    1710,
                    665
                ],
                [
                    1724,
                    557
                ],
                [
                    1386,
                    463
                ],
                [
                    1321,
                    335
                ],
                [
                    945,
                    299
                ],
                [
                    625,
                    301
                ]
            ],
            "flags": {},
            "group_id": null
        },
        {
            "label": "mask",
            "lineType": [
                "LLLLLL"
            ],
            "shape_type": "polygon",
            "points": [
                [
                    554,
                    1505
                ],
                [
                    304,
                    1496
                ],
                [
                    314,
                    2074
                ],
                [
                    718,
                    2036
                ],
                [
                    702,
                    1525
                ],
                [
                    554,
                    1505
                ]
            ],
            "flags": {},
            "group_id": null
        },
        {
            "label": "mask",
            "lineType": [
                "LLLLLLLLLLLLLLLLLL"
            ],
            "shape_type": "polygon",
            "points": [
                [
                    977,
                    1456
                ],
                [
                    911,
                    1534
                ],
                [
                    921,
                    1748
                ],
                [
                    838,
                    1786
                ],
                [
                    818,
                    1851
                ],
                [
                    924,
                    1866
                ],
                [
                    942,
                    2029
                ],
                [
                    962,
                    2034
                ],
                [
                    1329,
                    2044
                ],
                [
                    1319,
                    1948
                ],
                [
                    1338,
                    1829
                ],
                [
                    1299,
                    1755
                ],
                [
                    1379,
                    1664
                ],
                [
                    1489,
                    1655
                ],
                [
                    1492,
                    1574
                ],
                [
                    1301,
                    1566
                ],
                [
                    1084,
                    1438
                ],
                [
                    977,
                    1456
                ]
            ],
            "flags": {},
            "group_id": null
        },
        {
            "label": "mask",
            "lineType": [
                "LLLLLLLLLLLLLL"
            ],
            "shape_type": "polygon",
            "points": [
                [
                    1687,
                    1528
                ],
                [
                    1671,
                    1719
                ],
                [
                    1664,
                    1834
                ],
                [
                    1729,
                    1896
                ],
                [
                    1738,
                    2036
                ],
                [
                    1978,
                    2036
                ],
                [
                    1981,
                    1866
                ],
                [
                    2032,
                    1799
                ],
                [
                    2002,
                    1622
                ],
                [
                    2028,
                    1598
                ],
                [
                    2022,
                    1554
                ],
                [
                    1965,
                    1511
                ],
                [
                    1892,
                    1525
                ],
                [
                    1687,
                    1528
                ]
            ],
            "flags": {},
            "group_id": null
        },
        {
            "label": "mask",
            "lineType": [
                "LLLLLLLLLLLLLLLLLLLLLLLL"
            ],
            "shape_type": "polygon",
            "points": [
                [
                    155,
                    2164
                ],
                [
                    151,
                    2859
                ],
                [
                    221,
                    2869
                ],
                [
                    2168,
                    2867
                ],
                [
                    2283,
                    2805
                ],
                [
                    2315,
                    2745
                ],
                [
                    2320,
                    2727
                ],
                [
                    2315,
                    2672
                ],
                [
                    2291,
                    2664
                ],
                [
                    1280,
                    2640
                ],
                [
                    1278,
                    2587
                ],
                [
                    1166,
                    2567
                ],
                [
                    1155,
                    2474
                ],
                [
                    1511,
                    2457
                ],
                [
                    1560,
                    2387
                ],
                [
                    1700,
                    2394
                ],
                [
                    1705,
                    2309
                ],
                [
                    1655,
                    2244
                ],
                [
                    1540,
                    2267
                ],
                [
                    1351,
                    2247
                ],
                [
                    1266,
                    2262
                ],
                [
                    415,
                    2240
                ],
                [
                    373,
                    2179
                ],
                [
                    155,
                    2164
                ]
            ],
            "flags": {},
            "group_id": null
        },
        {
            "label": "mask",
            "lineType": [
                "LLLLLLLLLLL"
            ],
            "shape_type": "polygon",
            "points": [
                [
                    2321,
                    2575
                ],
                [
                    2323,
                    2845
                ],
                [
                    2321,
                    2871
                ],
                [
                    2335,
                    2872
                ],
                [
                    4066,
                    2873
                ],
                [
                    4064,
                    2577
                ],
                [
                    3818,
                    2578
                ],
                [
                    3216,
                    2576
                ],
                [
                    2724,
                    2578
                ],
                [
                    2414,
                    2577
                ],
                [
                    2321,
                    2575
                ]
            ],
            "flags": {},
            "group_id": null
        },
        {
            "label": "mask",
            "lineType": [
                "LLLLLLLLLLLLLLL"
            ],
            "shape_type": "polygon",
            "points": [
                [
                    2389,
                    1451
                ],
                [
                    2389,
                    2551
                ],
                [
                    2399,
                    2574
                ],
                [
                    3167,
                    2572
                ],
                [
                    3328,
                    2572
                ],
                [
                    3971,
                    2574
                ],
                [
                    3985,
                    2111
                ],
                [
                    3979,
                    1765
                ],
                [
                    3956,
                    1501
                ],
                [
                    3277,
                    1499
                ],
                [
                    3110,
                    1506
                ],
                [
                    2952,
                    1491
                ],
                [
                    2702,
                    1491
                ],
                [
                    2642,
                    1440
                ],
                [
                    2389,
                    1451
                ]
            ],
            "flags": {},
            "group_id": null
        },
        {
            "label": "mask",
            "lineType": [
                "LLLLLL"
            ],
            "shape_type": "polygon",
            "points": [
                [
                    2433,
                    564
                ],
                [
                    2420,
                    1156
                ],
                [
                    2771,
                    1146
                ],
                [
                    3371,
                    1164
                ],
                [
                    3185,
                    581
                ],
                [
                    2433,
                    564
                ]
            ],
            "flags": {},
            "group_id": null
        },
        {
            "label": "mask",
            "lineType": [
                "LLLLLLLLLLL"
            ],
            "shape_type": "polygon",
            "points": [
                [
                    3265,
                    776
                ],
                [
                    3385,
                    636
                ],
                [
                    3770,
                    528
                ],
                [
                    3796,
                    918
                ],
                [
                    3771,
                    1154
                ],
                [
                    3745,
                    1209
                ],
                [
                    3438,
                    1176
                ],
                [
                    3395,
                    1124
                ],
                [
                    3360,
                    931
                ],
                [
                    3286,
                    874
                ],
                [
                    3265,
                    776
                ]
            ],
            "flags": {},
            "group_id": null
        },
        {
            "label": "wlb",
            "shape_type": "rectangle",
            "points": [
                [
                    2417,
                    1482
                ],
                [
                    3956,
                    2572
                ]
            ],
            "flags": {},
            "group_id": null
        },
        {
            "label": "xtl",
            "shape_type": "rectangle",
            "points": [
                [
                    2464,
                    675
                ],
                [
                    2534,
                    716
                ]
            ],
            "flags": {},
            "group_id": null
        },
        {
            "label": "xtl",
            "shape_type": "rectangle",
            "points": [
                [
                    2464,
                    743
                ],
                [
                    2536,
                    784
                ]
            ],
            "flags": {},
            "group_id": null
        },
        {
            "label": "xtl",
            "shape_type": "rectangle",
            "points": [
                [
                    2462,
                    808
                ],
                [
                    2534,
                    852
                ]
            ],
            "flags": {},
            "group_id": null
        },
        {
            "label": "xtl",
            "shape_type": "rectangle",
            "points": [
                [
                    2464,
                    879
                ],
                [
                    2533,
                    920
                ]
            ],
            "flags": {},
            "group_id": null
        },
        {
            "label": "xtl",
            "shape_type": "rectangle",
            "points": [
                [
                    2464,
                    946
                ],
                [
                    2534,
                    986
                ]
            ],
            "flags": {},
            "group_id": null
        },
        {
            "label": "xtl",
            "shape_type": "rectangle",
            "points": [
                [
                    2464,
                    1013
                ],
                [
                    2534,
                    1054
                ]
            ],
            "flags": {},
            "group_id": null
        },
        {
            "label": "xtl",
            "shape_type": "rectangle",
            "points": [
                [
                    2464,
                    1092
                ],
                [
                    2535,
                    1133
                ]
            ],
            "flags": {},
            "group_id": null
        },
        {
            "label": "wztl",
            "shape_type": "rectangle",
            "points": [
                [
                    2563,
                    1079
                ],
                [
                    2730,
                    1133
                ]
            ],
            "flags": {},
            "group_id": null
        },
        {
            "label": "wztl",
            "shape_type": "rectangle",
            "points": [
                [
                    2563,
                    1003
                ],
                [
                    2710,
                    1055
                ]
            ],
            "flags": {},
            "group_id": null
        },
        {
            "label": "wztl",
            "shape_type": "rectangle",
            "points": [
                [
                    2561,
                    928
                ],
                [
                    2712,
                    981
                ]
            ],
            "flags": {},
            "group_id": null
        },
        {
            "label": "wztl",
            "shape_type": "rectangle",
            "points": [
                [
                    2561,
                    856
                ],
                [
                    2710,
                    911
                ]
            ],
            "flags": {},
            "group_id": null
        },
        {
            "label": "wztl",
            "shape_type": "rectangle",
            "points": [
                [
                    2559,
                    792
                ],
                [
                    2813,
                    846
                ]
            ],
            "flags": {},
            "group_id": null
        },
        {
            "label": "wztl",
            "shape_type": "rectangle",
            "points": [
                [
                    2558,
                    723
                ],
                [
                    2852,
                    781
                ]
            ],
            "flags": {},
            "group_id": null
        },
        {
            "label": "wztl",
            "shape_type": "rectangle",
            "points": [
                [
                    2559,
                    665
                ],
                [
                    2834,
                    718
                ]
            ],
            "flags": {},
            "group_id": null
        },
        {
            "label": "xtl",
            "shape_type": "rectangle",
            "points": [
                [
                    2909,
                    690
                ],
                [
                    2974,
                    716
                ]
            ],
            "flags": {},
            "group_id": null
        },
        {
            "label": "xtl",
            "shape_type": "rectangle",
            "points": [
                [
                    2912,
                    750
                ],
                [
                    2971,
                    776
                ]
            ],
            "flags": {},
            "group_id": null
        },
        {
            "label": "xtl",
            "shape_type": "rectangle",
            "points": [
                [
                    2911,
                    831
                ],
                [
                    2971,
                    836
                ]
            ],
            "flags": {},
            "group_id": null
        },
        {
            "label": "xtl",
            "shape_type": "rectangle",
            "points": [
                [
                    2912,
                    876
                ],
                [
                    2970,
                    921
                ]
            ],
            "flags": {},
            "group_id": null
        },
        {
            "label": "xtl",
            "shape_type": "rectangle",
            "points": [
                [
                    2909,
                    945
                ],
                [
                    2976,
                    988
                ]
            ],
            "flags": {},
            "group_id": null
        },
        {
            "label": "xtl",
            "shape_type": "rectangle",
            "points": [
                [
                    2910,
                    1011
                ],
                [
                    2977,
                    1056
                ]
            ],
            "flags": {},
            "group_id": null
        },
        {
            "label": "xtl",
            "shape_type": "rectangle",
            "points": [
                [
                    2920,
                    1087
                ],
                [
                    2969,
                    1136
                ]
            ],
            "flags": {},
            "group_id": null
        },
        {
            "label": "wztl",
            "shape_type": "rectangle",
            "points": [
                [
                    2999,
                    1083
                ],
                [
                    3263,
                    1135
                ]
            ],
            "flags": {},
            "group_id": null
        },
        {
            "label": "wztl",
            "shape_type": "rectangle",
            "points": [
                [
                    3000,
                    1012
                ],
                [
                    3226,
                    1064
                ]
            ],
            "flags": {},
            "group_id": null
        },
        {
            "label": "wztl",
            "shape_type": "rectangle",
            "points": [
                [
                    3000,
                    936
                ],
                [
                    3225,
                    987
                ]
            ],
            "flags": {},
            "group_id": null
        },
        {
            "label": "wztl",
            "shape_type": "rectangle",
            "points": [
                [
                    3000,
                    867
                ],
                [
                    3226,
                    922
                ]
            ],
            "flags": {},
            "group_id": null
        },
        {
            "label": "wztl",
            "shape_type": "rectangle",
            "points": [
                [
                    3001,
                    796
                ],
                [
                    3172,
                    848
                ]
            ],
            "flags": {},
            "group_id": null
        },
        {
            "label": "wztl",
            "shape_type": "rectangle",
            "points": [
                [
                    3000,
                    729
                ],
                [
                    3188,
                    780
                ]
            ],
            "flags": {},
            "group_id": null
        },
        {
            "label": "wztl",
            "shape_type": "rectangle",
            "points": [
                [
                    3000,
                    664
                ],
                [
                    3188,
                    716
                ]
            ],
            "flags": {},
            "group_id": null
        },
        {
            "label": "Ns",
            "shape_type": "point",
            "points": [
                [
                    3524,
                    808
                ]
            ],
            "flags": {},
            "group_id": null
        },
        {
            "label": "Ne",
            "shape_type": "point",
            "points": [
                [
                    3636,
                    715
                ]
            ],
            "flags": {},
            "group_id": null
        },
        {
            "label": "wz3",
            "shape_type": "rectangle",
            "points": [
                [
                    834,
                    1792
                ],
                [
                    937,
                    1838
                ]
            ],
            "flags": {},
            "group_id": null
        },
        {
            "label": "wz3",
            "shape_type": "rectangle",
            "points": [
                [
                    1224,
                    1870
                ],
                [
                    1323,
                    1918
                ]
            ],
            "flags": {},
            "group_id": null
        },
        {
            "label": "wz1",
            "shape_type": "rectangle",
            "points": [
                [
                    1336,
                    1594
                ],
                [
                    1468,
                    1638
                ]
            ],
            "flags": {},
            "group_id": null
        },
        {
            "label": "wz3",
            "shape_type": "rectangle",
            "points": [
                [
                    971,
                    1478
                ],
                [
                    1076,
                    1524
                ]
            ],
            "flags": {},
            "group_id": null
        },
        {
            "label": "wz3-l",
            "lineType": "LL",
            "shape_type": "line",
            "points": [
                [
                    1248,
                    1895
                ],
                [
                    1215,
                    1862
                ]
            ],
            "flags": {},
            "group_id": null
        },
        {
            "label": "wz3-l",
            "lineType": "LL",
            "shape_type": "line",
            "points": [
                [
                    898,
                    1802
                ],
                [
                    948,
                    1812
                ]
            ],
            "flags": {},
            "group_id": null
        },
        {
            "label": "wz3-l",
            "lineType": "LL",
            "shape_type": "line",
            "points": [
                [
                    993,
                    1491
                ],
                [
                    986,
                    1532
                ]
            ],
            "flags": {},
            "group_id": null
        },
        {
            "label": "wz1-l",
            "lineType": "LL",
            "shape_type": "line",
            "points": [
                [
                    1366,
                    1605
                ],
                [
                    1046,
                    1570
                ]
            ],
            "flags": {},
            "group_id": null
        },
        {
            "label": "wz1",
            "shape_type": "rectangle",
            "points": [
                [
                    1381,
                    576
                ],
                [
                    1681,
                    642
                ]
            ],
            "flags": {},
            "group_id": null
        },
        {
            "label": "wz1-l",
            "lineType": "LL",
            "shape_type": "line",
            "points": [
                [
                    1438,
                    612
                ],
                [
                    1044,
                    798
                ]
            ],
            "flags": {},
            "group_id": null
        },
        {
            "label": "wz1-l",
            "lineType": "LL",
            "shape_type": "line",
            "points": [
                [
                    1360,
                    1618
                ],
                [
                    989,
                    1762
                ]
            ],
            "flags": {},
            "group_id": null
        },
        {
            "label": "wz1-l",
            "lineType": "LL",
            "shape_type": "line",
            "points": [
                [
                    1363,
                    1614
                ],
                [
                    1180,
                    1823
                ]
            ],
            "flags": {},
            "group_id": null
        }
    ],
    "flags": {},
    "imageData": null,
    "version": "4.5.7"
}