{
    "imageHeight": 2977,
    "imageWidth": 4210,
    "imagePath": "00-仿生树-汇总_1.png",
    "shapes": [
        {
            "label": "wz1",
            "shape_type": "rectangle",
            "points": [
                [
                    780,
                    681
                ],
                [
                    911,
                    726
                ]
            ],
            "flags": {},
            "group_id": null
        },
        {
            "label": "vs1",
            "shape_type": "rectangle",
            "points": [
                [
                    651,
                    486
                ],
                [
                    828,
                    669
                ]
            ],
            "flags": {},
            "group_id": null
        },
        {
            "label": "wz1",
            "shape_type": "rectangle",
            "points": [
                [
                    865,
                    575
                ],
                [
                    963,
                    619
                ]
            ],
            "flags": {},
            "group_id": null
        },
        {
            "label": "wz1-l",
            "lineType": "LL",
            "shape_type": "line",
            "points": [
                [
                    895,
                    598
                ],
                [
                    818,
                    562
                ]
            ],
            "flags": {},
            "group_id": null
        },
        {
            "label": "d1",
            "shape_type": "rectangle",
            "points": [
                [
                    835,
                    435
                ],
                [
                    977,
                    522
                ]
            ],
            "flags": {},
            "group_id": null
        },
        {
            "label": "d1",
            "shape_type": "rectangle",
            "points": [
                [
                    834,
                    981
                ],
                [
                    977,
                    1069
                ]
            ],
            "flags": {},
            "group_id": null
        },
        {
            "label": "vb1",
            "shape_type": "rectangle",
            "points": [
                [
                    685,
                    862
                ],
                [
                    780,
                    1028
                ]
            ],
            "flags": {},
            "group_id": null
        },
        {
            "label": "wz1",
            "shape_type": "rectangle",
            "points": [
                [
                    609,
                    899
                ],
                [
                    632,
                    932
                ]
            ],
            "flags": {},
            "group_id": null
        },
        {
            "label": "wz1-l",
            "lineType": "LL",
            "shape_type": "line",
            "points": [
                [
                    622,
                    918
                ],
                [
                    687,
                    903
                ]
            ],
            "flags": {},
            "group_id": null
        },
        {
            "label": "wz1-l",
            "lineType": "LL",
            "shape_type": "line",
            "points": [
                [
                    624,
                    923
                ],
                [
                    687,
                    987
                ]
            ],
            "flags": {},
            "group_id": null
        },
        {
            "label": "v1",
            "shape_type": "rectangle",
            "points": [
                [
                    793,
                    1335
                ],
                [
                    989,
                    1411
                ]
            ],
            "flags": {},
            "group_id": null
        },
        {
            "label": "j1",
            "shape_type": "rectangle",
            "points": [
                [
                    1343,
                    441
                ],
                [
                    1436,
                    523
                ]
            ],
            "flags": {},
            "group_id": null
        },
        {
            "label": "wz3",
            "shape_type": "rectangle",
            "points": [
                [
                    1538,
                    687
                ],
                [
                    1654,
                    736
                ]
            ],
            "flags": {},
            "group_id": null
        },
        {
            "label": "j1",
            "shape_type": "rectangle",
            "points": [
                [
                    1728,
                    568
                ],
                [
                    1816,
                    651
                ]
            ],
            "flags": {},
            "group_id": null
        },
        {
            "label": "j1",
            "shape_type": "rectangle",
            "points": [
                [
                    1575,
                    179
                ],
                [
                    1608,
                    224
                ]
            ],
            "flags": {},
            "group_id": null
        },
        {
            "label": "j1",
            "shape_type": "rectangle",
            "points": [
                [
                    1492,
                    237
                ],
                [
                    1583,
                    321
                ]
            ],
            "flags": {},
            "group_id": null
        },
        {
            "label": "n1",
            "shape_type": "rectangle",
            "points": [
                [
                    1342,
                    175
                ],
                [
                    1817,
                    652
                ]
            ],
            "flags": {},
            "group_id": null
        },
        {
            "label": "wz3-l",
            "lineType": "LL",
            "shape_type": "line",
            "points": [
                [
                    1594,
                    717
                ],
                [
                    1623,
                    457
                ]
            ],
            "flags": {},
            "group_id": null
        },
        {
            "label": "wz3",
            "shape_type": "rectangle",
            "points": [
                [
                    2122,
                    1169
                ],
                [
                    2369,
                    1283
                ]
            ],
            "flags": {},
            "group_id": null
        },
        {
            "label": "wz3",
            "shape_type": "rectangle",
            "points": [
                [
                    2534,
                    1313
                ],
                [
                    2780,
                    1427
                ]
            ],
            "flags": {},
            "group_id": null
        },
        {
            "label": "wz3",
            "shape_type": "rectangle",
            "points": [
                [
                    2534,
                    1080
                ],
                [
                    2782,
                    1195
                ]
            ],
            "flags": {},
            "group_id": null
        },
        {
            "label": "va1",
            "shape_type": "rectangle",
            "points": [
                [
                    2486,
                    1171
                ],
                [
                    2531,
                    1208
                ]
            ],
            "flags": {},
            "group_id": null
        },
        {
            "label": "va1",
            "shape_type": "rectangle",
            "points": [
                [
                    2371,
                    1214
                ],
                [
                    2409,
                    1259
                ]
            ],
            "flags": {},
            "group_id": null
        },
        {
            "label": "va1",
            "shape_type": "rectangle",
            "points": [
                [
                    2476,
                    1307
                ],
                [
                    2521,
                    1348
                ]
            ],
            "flags": {},
            "group_id": null
        },
        {
            "label": "vp2-1",
            "shape_type": "rectangle",
            "points": [
                [
                    2424,
                    1210
                ],
                [
                    2508,
                    1294
                ]
            ],
            "flags": {},
            "group_id": null
        },
        {
            "label": "v1",
            "shape_type": "rectangle",
            "points": [
                [
                    2353,
                    1408
                ],
                [
                    2564,
                    1464
                ]
            ],
            "flags": {},
            "group_id": null
        },
        {
            "label": "wz3-l",
            "lineType": "LL",
            "shape_type": "line",
            "points": [
                [
                    2262,
                    1235
                ],
                [
                    2379,
                    1235
                ]
            ],
            "flags": {},
            "group_id": null
        },
        {
            "label": "wz3-l",
            "lineType": "LL",
            "shape_type": "line",
            "points": [
                [
                    2506,
                    1183
                ],
                [
                    2609,
                    1147
                ]
            ],
            "flags": {},
            "group_id": null
        },
        {
            "label": "wz3-l",
            "lineType": "LL",
            "shape_type": "line",
            "points": [
                [
                    2501,
                    1327
                ],
                [
                    2581,
                    1350
                ]
            ],
            "flags": {},
            "group_id": null
        },
        {
            "label": "v1",
            "shape_type": "rectangle",
            "points": [
                [
                    2353,
                    941
                ],
                [
                    2563,
                    996
                ]
            ],
            "flags": {},
            "group_id": null
        },
        {
            "label": "wz1",
            "shape_type": "rectangle",
            "points": [
                [
                    2548,
                    807
                ],
                [
                    2819,
                    908
                ]
            ],
            "flags": {},
            "group_id": null
        },
        {
            "label": "wz1-l",
            "lineType": "LL",
            "shape_type": "line",
            "points": [
                [
                    2621,
                    850
                ],
                [
                    2503,
                    809
                ]
            ],
            "flags": {},
            "group_id": null
        },
        {
            "label": "wz1",
            "shape_type": "rectangle",
            "points": [
                [
                    2578,
                    566
                ],
                [
                    2850,
                    666
                ]
            ],
            "flags": {},
            "group_id": null
        },
        {
            "label": "wz1-l",
            "lineType": "LL",
            "shape_type": "line",
            "points": [
                [
                    2675,
                    603
                ],
                [
                    2526,
                    659
                ]
            ],
            "flags": {},
            "group_id": null
        },
        {
            "label": "wz1",
            "shape_type": "rectangle",
            "points": [
                [
                    2065,
                    606
                ],
                [
                    2336,
                    707
                ]
            ],
            "flags": {},
            "group_id": null
        },
        {
            "label": "wz1-l",
            "lineType": "LL",
            "shape_type": "line",
            "points": [
                [
                    2284,
                    633
                ],
                [
                    2377,
                    714
                ]
            ],
            "flags": {},
            "group_id": null
        },
        {
            "label": "va1",
            "shape_type": "rectangle",
            "points": [
                [
                    2372,
                    692
                ],
                [
                    2408,
                    736
                ]
            ],
            "flags": {},
            "group_id": null
        },
        {
            "label": "va1",
            "shape_type": "rectangle",
            "points": [
                [
                    2487,
                    649
                ],
                [
                    2530,
                    686
                ]
            ],
            "flags": {},
            "group_id": null
        },
        {
            "label": "va1",
            "shape_type": "rectangle",
            "points": [
                [
                    2478,
                    785
                ],
                [
                    2520,
                    824
                ]
            ],
            "flags": {},
            "group_id": null
        },
        {
            "label": "vp2-1",
            "shape_type": "rectangle",
            "points": [
                [
                    2423,
                    687
                ],
                [
                    2508,
                    770
                ]
            ],
            "flags": {},
            "group_id": null
        },
        {
            "label": "v1",
            "shape_type": "rectangle",
            "points": [
                [
                    2389,
                    388
                ],
                [
                    2536,
                    442
                ]
            ],
            "flags": {},
            "group_id": null
        },
        {
            "label": "va1",
            "shape_type": "rectangle",
            "points": [
                [
                    2478,
                    317
                ],
                [
                    2519,
                    357
                ]
            ],
            "flags": {},
            "group_id": null
        },
        {
            "label": "va1",
            "shape_type": "rectangle",
            "points": [
                [
                    2372,
                    225
                ],
                [
                    2408,
                    268
                ]
            ],
            "flags": {},
            "group_id": null
        },
        {
            "label": "va1",
            "shape_type": "rectangle",
            "points": [
                [
                    2487,
                    181
                ],
                [
                    2530,
                    218
                ]
            ],
            "flags": {},
            "group_id": null
        },
        {
            "label": "vp2-1",
            "shape_type": "rectangle",
            "points": [
                [
                    2423,
                    220
                ],
                [
                    2508,
                    304
                ]
            ],
            "flags": {},
            "group_id": null
        },
        {
            "label": "wz1",
            "shape_type": "rectangle",
            "points": [
                [
                    3470,
                    148
                ],
                [
                    3592,
                    193
                ]
            ],
            "flags": {},
            "group_id": null
        },
        {
            "label": "wz1",
            "shape_type": "rectangle",
            "points": [
                [
                    3287,
                    284
                ],
                [
                    3558,
                    406
                ]
            ],
            "flags": {},
            "group_id": null
        },
        {
            "label": "wz3",
            "shape_type": "rectangle",
            "points": [
                [
                    3308,
                    456
                ],
                [
                    3502,
                    483
                ]
            ],
            "flags": {},
            "group_id": null
        },
        {
            "label": "wz3",
            "shape_type": "rectangle",
            "points": [
                [
                    3308,
                    529
                ],
                [
                    3446,
                    555
                ]
            ],
            "flags": {},
            "group_id": null
        },
        {
            "label": "wz1-l",
            "lineType": "LL",
            "shape_type": "line",
            "points": [
                [
                    3562,
                    175
                ],
                [
                    3669,
                    258
                ]
            ],
            "flags": {},
            "group_id": null
        },
        {
            "label": "wz1-l",
            "lineType": "LL",
            "shape_type": "line",
            "points": [
                [
                    3482,
                    316
                ],
                [
                    3674,
                    398
                ]
            ],
            "flags": {},
            "group_id": null
        },
        {
            "label": "wz3-l",
            "lineType": "LL",
            "shape_type": "line",
            "points": [
                [
                    3461,
                    470
                ],
                [
                    3680,
                    500
                ]
            ],
            "flags": {},
            "group_id": null
        },
        {
            "label": "wz3-l",
            "lineType": "LL",
            "shape_type": "line",
            "points": [
                [
                    3422,
                    546
                ],
                [
                    3672,
                    552
                ]
            ],
            "flags": {},
            "group_id": null
        },
        {
            "label": "a1-1",
            "shape_type": "rectangle",
            "points": [
                [
                    3661,
                    237
                ],
                [
                    3685,
                    334
                ]
            ],
            "flags": {},
            "group_id": null
        },
        {
            "label": "a1-2",
            "shape_type": "rectangle",
            "points": [
                [
                    3740,
                    237
                ],
                [
                    3765,
                    334
                ]
            ],
            "flags": {},
            "group_id": null
        },
        {
            "label": "a1-1",
            "shape_type": "rectangle",
            "points": [
                [
                    3661,
                    358
                ],
                [
                    3685,
                    454
                ]
            ],
            "flags": {},
            "group_id": null
        },
        {
            "label": "a1-2",
            "shape_type": "rectangle",
            "points": [
                [
                    3740,
                    358
                ],
                [
                    3765,
                    454
                ]
            ],
            "flags": {},
            "group_id": null
        },
        {
            "label": "g1",
            "shape_type": "rectangle",
            "points": [
                [
                    3683,
                    235
                ],
                [
                    3691,
                    344
                ]
            ],
            "flags": {},
            "group_id": null
        },
        {
            "label": "g1",
            "shape_type": "rectangle",
            "points": [
                [
                    3734,
                    235
                ],
                [
                    3742,
                    343
                ]
            ],
            "flags": {},
            "group_id": null
        },
        {
            "label": "g1",
            "shape_type": "rectangle",
            "points": [
                [
                    3683,
                    355
                ],
                [
                    3692,
                    464
                ]
            ],
            "flags": {},
            "group_id": null
        },
        {
            "label": "g1",
            "shape_type": "rectangle",
            "points": [
                [
                    3733,
                    356
                ],
                [
                    3742,
                    464
                ]
            ],
            "flags": {},
            "group_id": null
        },
        {
            "label": "p1-2",
            "shape_type": "rectangle",
            "points": [
                [
                    3682,
                    353
                ],
                [
                    3743,
                    465
                ]
            ],
            "flags": {},
            "group_id": null
        },
        {
            "label": "p1-2",
            "shape_type": "rectangle",
            "points": [
                [
                    3682,
                    234
                ],
                [
                    3743,
                    344
                ]
            ],
            "flags": {},
            "group_id": null
        },
        {
            "label": "c1",
            "shape_type": "rectangle",
            "points": [
                [
                    3708,
                    100
                ],
                [
                    3717,
                    231
                ]
            ],
            "flags": {},
            "group_id": null
        },
        {
            "label": "wz1",
            "shape_type": "rectangle",
            "points": [
                [
                    3545,
                    1229
                ],
                [
                    3642,
                    1274
                ]
            ],
            "flags": {},
            "group_id": null
        },
        {
            "label": "wz1-l",
            "lineType": "LL",
            "shape_type": "line",
            "points": [
                [
                    3615,
                    1257
                ],
                [
                    3697,
                    1329
                ]
            ],
            "flags": {},
            "group_id": null
        },
        {
            "label": "s1",
            "shape_type": "rectangle",
            "points": [
                [
                    3562,
                    93
                ],
                [
                    3866,
                    1787
                ]
            ],
            "flags": {},
            "group_id": null
        },
        {
            "label": "h1",
            "shape_type": "rectangle",
            "points": [
                [
                    3942,
                    168
                ],
                [
                    4076,
                    234
                ]
            ],
            "flags": {},
            "group_id": null
        },
        {
            "label": "h1",
            "shape_type": "rectangle",
            "points": [
                [
                    3937,
                    268
                ],
                [
                    4071,
                    334
                ]
            ],
            "flags": {},
            "group_id": null
        },
        {
            "label": "h1",
            "shape_type": "rectangle",
            "points": [
                [
                    3942,
                    389
                ],
                [
                    4076,
                    455
                ]
            ],
            "flags": {},
            "group_id": null
        },
        {
            "label": "h1",
            "shape_type": "rectangle",
            "points": [
                [
                    3941,
                    512
                ],
                [
                    4077,
                    579
                ]
            ],
            "flags": {},
            "group_id": null
        },
        {
            "label": "h1",
            "shape_type": "rectangle",
            "points": [
                [
                    3944,
                    1721
                ],
                [
                    4078,
                    1787
                ]
            ],
            "flags": {},
            "group_id": null
        },
        {
            "label": "wz1",
            "shape_type": "rectangle",
            "points": [
                [
                    3645,
                    1827
                ],
                [
                    3776,
                    1872
                ]
            ],
            "flags": {},
            "group_id": null
        },
        {
            "label": "wz1-l",
            "lineType": "LL",
            "shape_type": "line",
            "points": [
                [
                    3690,
                    1844
                ],
                [
                    3608,
                    1800
                ]
            ],
            "flags": {},
            "group_id": null
        },
        {
            "label": "v1",
            "shape_type": "rectangle",
            "points": [
                [
                    3320,
                    1882
                ],
                [
                    3545,
                    1961
                ]
            ],
            "flags": {},
            "group_id": null
        },
        {
            "label": "b1",
            "shape_type": "rectangle",
            "points": [
                [
                    3186,
                    1637
                ],
                [
                    3325,
                    1754
                ]
            ],
            "flags": {},
            "group_id": null
        },
        {
            "label": "wz3",
            "shape_type": "rectangle",
            "points": [
                [
                    3211,
                    1687
                ],
                [
                    3235,
                    1720
                ]
            ],
            "flags": {},
            "group_id": null
        },
        {
            "label": "wz3",
            "shape_type": "rectangle",
            "points": [
                [
                    3277,
                    1687
                ],
                [
                    3300,
                    1720
                ]
            ],
            "flags": {},
            "group_id": null
        },
        {
            "label": "wz3-l",
            "lineType": "LL",
            "shape_type": "line",
            "points": [
                [
                    3289,
                    1703
                ],
                [
                    3322,
                    1705
                ]
            ],
            "flags": {},
            "group_id": null
        },
        {
            "label": "wz3-l",
            "lineType": "LL",
            "shape_type": "line",
            "points": [
                [
                    3223,
                    1706
                ],
                [
                    3189,
                    1705
                ]
            ],
            "flags": {},
            "group_id": null
        },
        {
            "label": "sm",
            "shape_type": "rectangle",
            "points": [
                [
                    2032,
                    1748
                ],
                [
                    3927,
                    2550
                ]
            ],
            "flags": {},
            "group_id": null
        },
        {
            "label": "btl",
            "shape_type": "rectangle",
            "points": [
                [
                    2348,
                    2603
                ],
                [
                    4164,
                    2912
                ]
            ],
            "flags": {},
            "group_id": null
        },
        {
            "label": "mask",
            "lineType": [
                "LLLLLLLLLLLL"
            ],
            "shape_type": "polygon",
            "points": [
                [
                    1023,
                    438
                ],
                [
                    903,
                    411
                ],
                [
                    723,
                    446
                ],
                [
                    611,
                    506
                ],
                [
                    563,
                    773
                ],
                [
                    561,
                    920
                ],
                [
                    636,
                    1288
                ],
                [
                    733,
                    1390
                ],
                [
                    813,
                    1433
                ],
                [
                    936,
                    1445
                ],
                [
                    1033,
                    1438
                ],
                [
                    1023,
                    438
                ]
            ],
            "flags": {},
            "group_id": null
        },
        {
            "label": "mask",
            "lineType": [
                "LLLLLLLLLL"
            ],
            "shape_type": "polygon",
            "points": [
                [
                    1758,
                    153
                ],
                [
                    1551,
                    151
                ],
                [
                    1386,
                    301
                ],
                [
                    1268,
                    500
                ],
                [
                    1373,
                    665
                ],
                [
                    1553,
                    768
                ],
                [
                    1648,
                    763
                ],
                [
                    1788,
                    730
                ],
                [
                    1851,
                    653
                ],
                [
                    1758,
                    153
                ]
            ],
            "flags": {},
            "group_id": null
        },
        {
            "label": "mask",
            "lineType": [
                "LLLLLLLLLL"
            ],
            "shape_type": "polygon",
            "points": [
                [
                    2556,
                    473
                ],
                [
                    2438,
                    473
                ],
                [
                    2351,
                    458
                ],
                [
                    2313,
                    308
                ],
                [
                    2336,
                    218
                ],
                [
                    2423,
                    163
                ],
                [
                    2503,
                    148
                ],
                [
                    2558,
                    158
                ],
                [
                    2591,
                    281
                ],
                [
                    2556,
                    473
                ]
            ],
            "flags": {},
            "group_id": null
        },
        {
            "label": "mask",
            "lineType": [
                "LLLLLLLLLLL"
            ],
            "shape_type": "polygon",
            "points": [
                [
                    2856,
                    540
                ],
                [
                    2161,
                    553
                ],
                [
                    2056,
                    588
                ],
                [
                    2026,
                    673
                ],
                [
                    2176,
                    863
                ],
                [
                    2298,
                    983
                ],
                [
                    2363,
                    1015
                ],
                [
                    2576,
                    1028
                ],
                [
                    2793,
                    960
                ],
                [
                    2851,
                    890
                ],
                [
                    2856,
                    540
                ]
            ],
            "flags": {},
            "group_id": null
        },
        {
            "label": "mask",
            "lineType": [
                "LLLLLLLLLLL"
            ],
            "shape_type": "polygon",
            "points": [
                [
                    2806,
                    1048
                ],
                [
                    2513,
                    1058
                ],
                [
                    2146,
                    1148
                ],
                [
                    2093,
                    1168
                ],
                [
                    2113,
                    1271
                ],
                [
                    2321,
                    1473
                ],
                [
                    2401,
                    1496
                ],
                [
                    2566,
                    1498
                ],
                [
                    2726,
                    1463
                ],
                [
                    2813,
                    1413
                ],
                [
                    2806,
                    1048
                ]
            ],
            "flags": {},
            "group_id": null
        },
        {
            "label": "mask",
            "lineType": [
                "LLLLLLLLLLLLLLLLLLL"
            ],
            "shape_type": "polygon",
            "points": [
                [
                    2006,
                    1721
                ],
                [
                    2013,
                    2556
                ],
                [
                    2703,
                    2568
                ],
                [
                    2841,
                    2501
                ],
                [
                    2906,
                    2441
                ],
                [
                    3726,
                    2446
                ],
                [
                    3753,
                    2376
                ],
                [
                    3883,
                    2201
                ],
                [
                    3938,
                    2158
                ],
                [
                    3956,
                    2113
                ],
                [
                    3958,
                    2076
                ],
                [
                    3868,
                    2066
                ],
                [
                    2756,
                    2056
                ],
                [
                    2733,
                    1953
                ],
                [
                    2673,
                    1903
                ],
                [
                    2553,
                    1863
                ],
                [
                    2373,
                    1796
                ],
                [
                    2281,
                    1758
                ],
                [
                    2006,
                    1721
                ]
            ],
            "flags": {},
            "group_id": null
        },
        {
            "label": "mask",
            "lineType": [
                "LLLLL"
            ],
            "shape_type": "polygon",
            "points": [
                [
                    2336,
                    2586
                ],
                [
                    2341,
                    2921
                ],
                [
                    4173,
                    2923
                ],
                [
                    4171,
                    2593
                ],
                [
                    2336,
                    2586
                ]
            ],
            "flags": {},
            "group_id": null
        },
        {
            "label": "mask",
            "lineType": [
                "LLLLLLLLLLL"
            ],
            "shape_type": "polygon",
            "points": [
                [
                    1169,
                    1898
                ],
                [
                    1164,
                    1866
                ],
                [
                    1102,
                    1855
                ],
                [
                    959,
                    1856
                ],
                [
                    932,
                    1866
                ],
                [
                    932,
                    1893
                ],
                [
                    355,
                    1901
                ],
                [
                    364,
                    2776
                ],
                [
                    1760,
                    2781
                ],
                [
                    1755,
                    1890
                ],
                [
                    1169,
                    1898
                ]
            ],
            "flags": {},
            "group_id": null
        },
        {
            "label": "mask",
            "lineType": [
                "LLLLLLLLLLLLLLLLLLLLLLLLLLLLLLLLLLLLLLLLLLLLLLLLLLLLLLLLLLLLLLLLLLLLL"
            ],
            "shape_type": "polygon",
            "points": [
                [
                    4072,
                    155
                ],
                [
                    3818,
                    145
                ],
                [
                    3741,
                    96
                ],
                [
                    3715,
                    84
                ],
                [
                    3673,
                    84
                ],
                [
                    3576,
                    123
                ],
                [
                    3468,
                    145
                ],
                [
                    3421,
                    189
                ],
                [
                    3356,
                    254
                ],
                [
                    3290,
                    277
                ],
                [
                    3248,
                    335
                ],
                [
                    3270,
                    585
                ],
                [
                    3406,
                    598
                ],
                [
                    3523,
                    655
                ],
                [
                    3547,
                    707
                ],
                [
                    3607,
                    750
                ],
                [
                    3645,
                    774
                ],
                [
                    3672,
                    930
                ],
                [
                    3665,
                    1182
                ],
                [
                    3660,
                    1238
                ],
                [
                    3598,
                    1206
                ],
                [
                    3540,
                    1224
                ],
                [
                    3521,
                    1248
                ],
                [
                    3527,
                    1308
                ],
                [
                    3592,
                    1321
                ],
                [
                    3643,
                    1336
                ],
                [
                    3667,
                    1422
                ],
                [
                    3673,
                    1639
                ],
                [
                    3676,
                    1722
                ],
                [
                    3647,
                    1754
                ],
                [
                    3547,
                    1758
                ],
                [
                    3347,
                    1732
                ],
                [
                    3346,
                    1643
                ],
                [
                    3317,
                    1628
                ],
                [
                    3178,
                    1622
                ],
                [
                    3163,
                    1713
                ],
                [
                    3158,
                    1763
                ],
                [
                    2833,
                    1773
                ],
                [
                    2838,
                    1813
                ],
                [
                    2870,
                    1841
                ],
                [
                    3302,
                    1844
                ],
                [
                    3298,
                    1919
                ],
                [
                    3302,
                    1963
                ],
                [
                    3317,
                    1972
                ],
                [
                    3550,
                    1981
                ],
                [
                    3618,
                    1932
                ],
                [
                    3715,
                    1897
                ],
                [
                    3780,
                    1892
                ],
                [
                    3803,
                    1874
                ],
                [
                    3796,
                    1833
                ],
                [
                    4046,
                    1837
                ],
                [
                    4081,
                    1812
                ],
                [
                    4101,
                    1789
                ],
                [
                    4105,
                    1753
                ],
                [
                    4086,
                    1721
                ],
                [
                    4053,
                    1708
                ],
                [
                    3965,
                    1709
                ],
                [
                    3938,
                    1719
                ],
                [
                    3926,
                    1751
                ],
                [
                    3905,
                    1766
                ],
                [
                    3746,
                    1759
                ],
                [
                    3743,
                    774
                ],
                [
                    3810,
                    768
                ],
                [
                    3866,
                    747
                ],
                [
                    3911,
                    637
                ],
                [
                    4005,
                    581
                ],
                [
                    4087,
                    558
                ],
                [
                    4101,
                    191
                ],
                [
                    4072,
                    155
                ]
            ],
            "flags": {},
            "group_id": null
        },
        {
            "label": "wlb",
            "shape_type": "rectangle",
            "points": [
                [
                    368,
                    1868
                ],
                [
                    1744,
                    2763
                ]
            ],
            "flags": {},
            "group_id": null
        },
        {
            "label": "Ns",
            "shape_type": "point",
            "points": [
                [
                    1624,
                    458
                ]
            ],
            "flags": {},
            "group_id": null
        },
        {
            "label": "Ne",
            "shape_type": "point",
            "points": [
                [
                    1623,
                    276
                ]
            ],
            "flags": {},
            "group_id": null
        }
    ],
    "flags": {},
    "imageData": null,
    "version": "4.5.7"
}