{
    "imageHeight": 2975,
    "imageWidth": 4210,
    "imagePath": "20160829-增城区-广州增城麻车村东-L-张武雄（10米围杆+一体化机柜，联通自建，加局端：增城麻车）.png",
    "shapes": [
        {
            "label": "n1",
            "shape_type": "rectangle",
            "points": [
                [
                    633,
                    233
                ],
                [
                    820,
                    371
                ]
            ],
            "flags": {},
            "group_id": null
        },
        {
            "label": "va1",
            "shape_type": "rectangle",
            "points": [
                [
                    1463,
                    241
                ],
                [
                    1530,
                    283
                ]
            ],
            "flags": {},
            "group_id": null
        },
        {
            "label": "va1",
            "shape_type": "rectangle",
            "points": [
                [
                    1330,
                    317
                ],
                [
                    1374,
                    385
                ]
            ],
            "flags": {},
            "group_id": null
        },
        {
            "label": "va1",
            "shape_type": "rectangle",
            "points": [
                [
                    1596,
                    314
                ],
                [
                    1663,
                    360
                ]
            ],
            "flags": {},
            "group_id": null
        },
        {
            "label": "va1",
            "shape_type": "rectangle",
            "points": [
                [
                    1331,
                    473
                ],
                [
                    1376,
                    540
                ]
            ],
            "flags": {},
            "group_id": null
        },
        {
            "label": "va1",
            "shape_type": "rectangle",
            "points": [
                [
                    1461,
                    571
                ],
                [
                    1528,
                    618
                ]
            ],
            "flags": {},
            "group_id": null
        },
        {
            "label": "va1",
            "shape_type": "rectangle",
            "points": [
                [
                    1624,
                    472
                ],
                [
                    1666,
                    540
                ]
            ],
            "flags": {},
            "group_id": null
        },
        {
            "label": "vt1",
            "shape_type": "rectangle",
            "points": [
                [
                    1450,
                    379
                ],
                [
                    1547,
                    478
                ]
            ],
            "flags": {},
            "group_id": null
        },
        {
            "label": "x1",
            "shape_type": "rectangle",
            "points": [
                [
                    881,
                    785
                ],
                [
                    1905,
                    854
                ]
            ],
            "flags": {},
            "group_id": null
        },
        {
            "label": "x1",
            "shape_type": "rectangle",
            "points": [
                [
                    870,
                    1024
                ],
                [
                    940,
                    1791
                ]
            ],
            "flags": {},
            "group_id": null
        },
        {
            "label": "x1",
            "shape_type": "rectangle",
            "points": [
                [
                    1563,
                    1022
                ],
                [
                    1632,
                    1793
                ]
            ],
            "flags": {},
            "group_id": null
        },
        {
            "label": "vb1",
            "shape_type": "rectangle",
            "points": [
                [
                    801,
                    1050
                ],
                [
                    1692,
                    1761
                ]
            ],
            "flags": {},
            "group_id": null
        },
        {
            "label": "d1",
            "shape_type": "rectangle",
            "points": [
                [
                    843,
                    1765
                ],
                [
                    948,
                    1857
                ]
            ],
            "flags": {},
            "group_id": null
        },
        {
            "label": "d1",
            "shape_type": "rectangle",
            "points": [
                [
                    1720,
                    1770
                ],
                [
                    1821,
                    1860
                ]
            ],
            "flags": {},
            "group_id": null
        },
        {
            "label": "v1",
            "shape_type": "rectangle",
            "points": [
                [
                    1211,
                    1837
                ],
                [
                    1455,
                    1903
                ]
            ],
            "flags": {},
            "group_id": null
        },
        {
            "label": "c1",
            "shape_type": "rectangle",
            "points": [
                [
                    3404,
                    174
                ],
                [
                    3410,
                    291
                ]
            ],
            "flags": {},
            "group_id": null
        },
        {
            "label": "a1-1",
            "shape_type": "rectangle",
            "points": [
                [
                    3229,
                    312
                ],
                [
                    3262,
                    433
                ]
            ],
            "flags": {},
            "group_id": null
        },
        {
            "label": "a1-2",
            "shape_type": "rectangle",
            "points": [
                [
                    3551,
                    312
                ],
                [
                    3585,
                    432
                ]
            ],
            "flags": {},
            "group_id": null
        },
        {
            "label": "a1-1",
            "shape_type": "rectangle",
            "points": [
                [
                    3229,
                    507
                ],
                [
                    3262,
                    627
                ]
            ],
            "flags": {},
            "group_id": null
        },
        {
            "label": "a1-2",
            "shape_type": "rectangle",
            "points": [
                [
                    3553,
                    507
                ],
                [
                    3586,
                    627
                ]
            ],
            "flags": {},
            "group_id": null
        },
        {
            "label": "a1-4",
            "shape_type": "rectangle",
            "points": [
                [
                    3396,
                    316
                ],
                [
                    3418,
                    433
                ]
            ],
            "flags": {},
            "group_id": null
        },
        {
            "label": "a1-4",
            "shape_type": "rectangle",
            "points": [
                [
                    3396,
                    511
                ],
                [
                    3418,
                    627
                ]
            ],
            "flags": {},
            "group_id": null
        },
        {
            "label": "a1-1",
            "shape_type": "rectangle",
            "points": [
                [
                    3325,
                    687
                ],
                [
                    3358,
                    807
                ]
            ],
            "flags": {},
            "group_id": null
        },
        {
            "label": "a1-2",
            "shape_type": "rectangle",
            "points": [
                [
                    3452,
                    687
                ],
                [
                    3486,
                    808
                ]
            ],
            "flags": {},
            "group_id": null
        },
        {
            "label": "a1-4",
            "shape_type": "rectangle",
            "points": [
                [
                    3390,
                    684
                ],
                [
                    3412,
                    798
                ]
            ],
            "flags": {},
            "group_id": null
        },
        {
            "label": "p1-1",
            "shape_type": "rectangle",
            "points": [
                [
                    3228,
                    309
                ],
                [
                    3586,
                    449
                ]
            ],
            "flags": {},
            "group_id": null
        },
        {
            "label": "p1-1",
            "shape_type": "rectangle",
            "points": [
                [
                    3229,
                    503
                ],
                [
                    3586,
                    644
                ]
            ],
            "flags": {},
            "group_id": null
        },
        {
            "label": "g1",
            "shape_type": "rectangle",
            "points": [
                [
                    3264,
                    309
                ],
                [
                    3273,
                    449
                ]
            ],
            "flags": {},
            "group_id": null
        },
        {
            "label": "g1",
            "shape_type": "rectangle",
            "points": [
                [
                    3542,
                    310
                ],
                [
                    3549,
                    449
                ]
            ],
            "flags": {},
            "group_id": null
        },
        {
            "label": "g1",
            "shape_type": "rectangle",
            "points": [
                [
                    3264,
                    502
                ],
                [
                    3273,
                    644
                ]
            ],
            "flags": {},
            "group_id": null
        },
        {
            "label": "g1",
            "shape_type": "rectangle",
            "points": [
                [
                    3541,
                    503
                ],
                [
                    3550,
                    644
                ]
            ],
            "flags": {},
            "group_id": null
        },
        {
            "label": "g1",
            "shape_type": "rectangle",
            "points": [
                [
                    3360,
                    683
                ],
                [
                    3369,
                    824
                ]
            ],
            "flags": {},
            "group_id": null
        },
        {
            "label": "g1",
            "shape_type": "rectangle",
            "points": [
                [
                    3441,
                    682
                ],
                [
                    3450,
                    824
                ]
            ],
            "flags": {},
            "group_id": null
        },
        {
            "label": "x1",
            "shape_type": "rectangle",
            "points": [
                [
                    3325,
                    983
                ],
                [
                    3493,
                    1052
                ]
            ],
            "flags": {},
            "group_id": null
        },
        {
            "label": "t1",
            "shape_type": "rectangle",
            "points": [
                [
                    3356,
                    173
                ],
                [
                    3454,
                    1608
                ]
            ],
            "flags": {},
            "group_id": null
        },
        {
            "label": "h1",
            "shape_type": "rectangle",
            "points": [
                [
                    3607,
                    241
                ],
                [
                    3765,
                    305
                ]
            ],
            "flags": {},
            "group_id": null
        },
        {
            "label": "h1",
            "shape_type": "rectangle",
            "points": [
                [
                    3607,
                    499
                ],
                [
                    3764,
                    565
                ]
            ],
            "flags": {},
            "group_id": null
        },
        {
            "label": "a3",
            "shape_type": "rectangle",
            "points": [
                [
                    3177,
                    1348
                ],
                [
                    3208,
                    1422
                ]
            ],
            "flags": {},
            "group_id": null
        },
        {
            "label": "a3",
            "shape_type": "rectangle",
            "points": [
                [
                    3128,
                    1349
                ],
                [
                    3156,
                    1420
                ]
            ],
            "flags": {},
            "group_id": null
        },
        {
            "label": "a3",
            "shape_type": "rectangle",
            "points": [
                [
                    3075,
                    1348
                ],
                [
                    3104,
                    1421
                ]
            ],
            "flags": {},
            "group_id": null
        },
        {
            "label": "x1",
            "shape_type": "rectangle",
            "points": [
                [
                    2927,
                    1382
                ],
                [
                    2996,
                    1609
                ]
            ],
            "flags": {},
            "group_id": null
        },
        {
            "label": "x1",
            "shape_type": "rectangle",
            "points": [
                [
                    3442,
                    1386
                ],
                [
                    3510,
                    1611
                ]
            ],
            "flags": {},
            "group_id": null
        },
        {
            "label": "b1",
            "shape_type": "rectangle",
            "points": [
                [
                    3024,
                    1438
                ],
                [
                    3415,
                    1611
                ]
            ],
            "flags": {},
            "group_id": null
        },
        {
            "label": "v1",
            "shape_type": "rectangle",
            "points": [
                [
                    3095,
                    1673
                ],
                [
                    3338,
                    1745
                ]
            ],
            "flags": {},
            "group_id": null
        },
        {
            "label": "p1-1",
            "shape_type": "rectangle",
            "points": [
                [
                    3324,
                    683
                ],
                [
                    3487,
                    824
                ]
            ],
            "flags": {},
            "group_id": null
        },
        {
            "label": "va4",
            "shape_type": "rectangle",
            "points": [
                [
                    1113,
                    1054
                ],
                [
                    1137,
                    1078
                ]
            ],
            "flags": {},
            "group_id": null
        },
        {
            "label": "va4",
            "shape_type": "rectangle",
            "points": [
                [
                    1187,
                    1055
                ],
                [
                    1213,
                    1078
                ]
            ],
            "flags": {},
            "group_id": null
        },
        {
            "label": "twentythere",
            "shape_type": "point",
            "points": [
                [
                    1227,
                    1053
                ]
            ],
            "flags": {},
            "group_id": null
        },
        {
            "label": "twentytwo",
            "shape_type": "point",
            "points": [
                [
                    1276,
                    1071
                ]
            ],
            "flags": {},
            "group_id": null
        },
        {
            "label": "twentythere",
            "shape_type": "point",
            "points": [
                [
                    1287,
                    1053
                ]
            ],
            "flags": {},
            "group_id": null
        },
        {
            "label": "twentytwo",
            "shape_type": "point",
            "points": [
                [
                    1333,
                    1071
                ]
            ],
            "flags": {},
            "group_id": null
        },
        {
            "label": "one",
            "shape_type": "point",
            "points": [
                [
                    1079,
                    1053
                ]
            ],
            "flags": {},
            "group_id": null
        },
        {
            "label": "two",
            "shape_type": "point",
            "points": [
                [
                    1080,
                    434
                ]
            ],
            "flags": {},
            "group_id": null
        },
        {
            "label": "three",
            "shape_type": "point",
            "points": [
                [
                    1235,
                    972
                ]
            ],
            "flags": {},
            "group_id": null
        },
        {
            "label": "four",
            "shape_type": "point",
            "points": [
                [
                    1736,
                    973
                ]
            ],
            "flags": {},
            "group_id": null
        },
        {
            "label": "thirteen",
            "shape_type": "point",
            "points": [
                [
                    3045,
                    1441
                ]
            ],
            "flags": {},
            "group_id": null
        },
        {
            "label": "thirteen",
            "shape_type": "point",
            "points": [
                [
                    3413,
                    1439
                ]
            ],
            "flags": {},
            "group_id": null
        },
        {
            "label": "fourteen",
            "shape_type": "point",
            "points": [
                [
                    3414,
                    1608
                ]
            ],
            "flags": {},
            "group_id": null
        },
        {
            "label": "fourteen",
            "shape_type": "point",
            "points": [
                [
                    3045,
                    1607
                ]
            ],
            "flags": {},
            "group_id": null
        },
        {
            "label": "fourteen",
            "shape_type": "point",
            "points": [
                [
                    3026,
                    1609
                ]
            ],
            "flags": {},
            "group_id": null
        },
        {
            "label": "fourteen",
            "shape_type": "point",
            "points": [
                [
                    3394,
                    1608
                ]
            ],
            "flags": {},
            "group_id": null
        },
        {
            "label": "thirteen",
            "shape_type": "point",
            "points": [
                [
                    3393,
                    1440
                ]
            ],
            "flags": {},
            "group_id": null
        },
        {
            "label": "thirteen",
            "shape_type": "point",
            "points": [
                [
                    3025,
                    1439
                ]
            ],
            "flags": {},
            "group_id": null
        },
        {
            "label": "ten",
            "shape_type": "point",
            "points": [
                [
                    1110,
                    1740
                ]
            ],
            "flags": {},
            "group_id": null
        },
        {
            "label": "nine",
            "shape_type": "point",
            "points": [
                [
                    1132,
                    1740
                ]
            ],
            "flags": {},
            "group_id": null
        },
        {
            "label": "ten",
            "shape_type": "point",
            "points": [
                [
                    1480,
                    1738
                ]
            ],
            "flags": {},
            "group_id": null
        },
        {
            "label": "nine",
            "shape_type": "point",
            "points": [
                [
                    1499,
                    1739
                ]
            ],
            "flags": {},
            "group_id": null
        },
        {
            "label": "eight",
            "shape_type": "point",
            "points": [
                [
                    1110,
                    1073
                ]
            ],
            "flags": {},
            "group_id": null
        },
        {
            "label": "seven",
            "shape_type": "point",
            "points": [
                [
                    1132,
                    1073
                ]
            ],
            "flags": {},
            "group_id": null
        },
        {
            "label": "thirteen",
            "shape_type": "point",
            "points": [
                [
                    1277,
                    1053
                ]
            ],
            "flags": {},
            "group_id": null
        },
        {
            "label": "thirteen",
            "shape_type": "point",
            "points": [
                [
                    1333,
                    1054
                ]
            ],
            "flags": {},
            "group_id": null
        },
        {
            "label": "fourteen",
            "shape_type": "point",
            "points": [
                [
                    1286,
                    1073
                ]
            ],
            "flags": {},
            "group_id": null
        },
        {
            "label": "fourteen",
            "shape_type": "point",
            "points": [
                [
                    1227,
                    1073
                ]
            ],
            "flags": {},
            "group_id": null
        },
        {
            "label": "eight",
            "shape_type": "point",
            "points": [
                [
                    1479,
                    1072
                ]
            ],
            "flags": {},
            "group_id": null
        },
        {
            "label": "seven",
            "shape_type": "point",
            "points": [
                [
                    1499,
                    1072
                ]
            ],
            "flags": {},
            "group_id": null
        },
        {
            "label": "j1",
            "shape_type": "rectangle",
            "points": [
                [
                    634,
                    234
                ],
                [
                    669,
                    278
                ]
            ],
            "flags": {},
            "group_id": null
        },
        {
            "label": "j1",
            "shape_type": "rectangle",
            "points": [
                [
                    643,
                    291
                ],
                [
                    685,
                    362
                ]
            ],
            "flags": {},
            "group_id": null
        },
        {
            "label": "wz2",
            "shape_type": "rectangle",
            "points": [
                [
                    1052,
                    697
                ],
                [
                    1077,
                    787
                ]
            ],
            "flags": {},
            "group_id": null
        },
        {
            "label": "x2",
            "shape_type": "rectangle",
            "points": [
                [
                    1052,
                    421
                ],
                [
                    1089,
                    1065
                ]
            ],
            "flags": {},
            "group_id": null
        },
        {
            "label": "wz2",
            "shape_type": "rectangle",
            "points": [
                [
                    1439,
                    941
                ],
                [
                    1531,
                    970
                ]
            ],
            "flags": {},
            "group_id": null
        },
        {
            "label": "x2",
            "shape_type": "rectangle",
            "points": [
                [
                    1225,
                    942
                ],
                [
                    1748,
                    989
                ]
            ],
            "flags": {},
            "group_id": null
        },
        {
            "label": "k1",
            "shape_type": "rectangle",
            "points": [
                [
                    1277,
                    1052
                ],
                [
                    1335,
                    1073
                ]
            ],
            "flags": {},
            "group_id": null
        },
        {
            "label": "k1",
            "shape_type": "rectangle",
            "points": [
                [
                    1226,
                    1052
                ],
                [
                    1277,
                    1074
                ]
            ],
            "flags": {},
            "group_id": null
        },
        {
            "label": "wz4",
            "shape_type": "rectangle",
            "points": [
                [
                    1214,
                    1391
                ],
                [
                    1349,
                    1444
                ]
            ],
            "flags": {},
            "group_id": null
        },
        {
            "label": "sm",
            "shape_type": "rectangle",
            "points": [
                [
                    200,
                    2226
                ],
                [
                    2006,
                    2808
                ]
            ],
            "flags": {},
            "group_id": null
        },
        {
            "label": "btl",
            "shape_type": "rectangle",
            "points": [
                [
                    2324,
                    2586
                ],
                [
                    4070,
                    2876
                ]
            ],
            "flags": {},
            "group_id": null
        },
        {
            "label": "wz4",
            "shape_type": "rectangle",
            "points": [
                [
                    3132,
                    1502
                ],
                [
                    3268,
                    1553
                ]
            ],
            "flags": {},
            "group_id": null
        },
        {
            "label": "mask",
            "lineType": [
                "LLLLLLLLLLLL"
            ],
            "shape_type": "polygon",
            "points": [
                [
                    737,
                    442
                ],
                [
                    825,
                    434
                ],
                [
                    859,
                    396
                ],
                [
                    859,
                    336
                ],
                [
                    831,
                    276
                ],
                [
                    757,
                    238
                ],
                [
                    691,
                    216
                ],
                [
                    623,
                    204
                ],
                [
                    597,
                    252
                ],
                [
                    581,
                    334
                ],
                [
                    585,
                    412
                ],
                [
                    737,
                    442
                ]
            ],
            "flags": {},
            "group_id": null
        },
        {
            "label": "mask",
            "lineType": [
                "LLLLLLLLLLLLLLLLLL"
            ],
            "shape_type": "polygon",
            "points": [
                [
                    1003,
                    354
                ],
                [
                    1331,
                    230
                ],
                [
                    1477,
                    210
                ],
                [
                    1659,
                    212
                ],
                [
                    1771,
                    286
                ],
                [
                    1883,
                    482
                ],
                [
                    1985,
                    722
                ],
                [
                    1977,
                    898
                ],
                [
                    1919,
                    1092
                ],
                [
                    1913,
                    1548
                ],
                [
                    1919,
                    1838
                ],
                [
                    1627,
                    2032
                ],
                [
                    1273,
                    2038
                ],
                [
                    755,
                    1930
                ],
                [
                    709,
                    1462
                ],
                [
                    711,
                    1134
                ],
                [
                    773,
                    826
                ],
                [
                    1003,
                    354
                ]
            ],
            "flags": {},
            "group_id": null
        },
        {
            "label": "mask",
            "lineType": [
                "LLLLLLLLLLLLLLLL"
            ],
            "shape_type": "polygon",
            "points": [
                [
                    2799,
                    812
                ],
                [
                    2733,
                    680
                ],
                [
                    2733,
                    528
                ],
                [
                    2771,
                    324
                ],
                [
                    3307,
                    160
                ],
                [
                    3511,
                    156
                ],
                [
                    3721,
                    158
                ],
                [
                    3809,
                    194
                ],
                [
                    3831,
                    740
                ],
                [
                    3679,
                    1400
                ],
                [
                    3659,
                    1686
                ],
                [
                    3573,
                    1788
                ],
                [
                    2989,
                    1788
                ],
                [
                    2777,
                    1670
                ],
                [
                    2729,
                    1500
                ],
                [
                    2799,
                    812
                ]
            ],
            "flags": {},
            "group_id": null
        },
        {
            "label": "mask",
            "lineType": [
                "LLLLLLLL"
            ],
            "shape_type": "polygon",
            "points": [
                [
                    2331,
                    1804
                ],
                [
                    3213,
                    1834
                ],
                [
                    3981,
                    1856
                ],
                [
                    4009,
                    1904
                ],
                [
                    3989,
                    2528
                ],
                [
                    2947,
                    2526
                ],
                [
                    2339,
                    2524
                ],
                [
                    2331,
                    1804
                ]
            ],
            "flags": {},
            "group_id": null
        },
        {
            "label": "mask",
            "lineType": [
                "LLLLL"
            ],
            "shape_type": "polygon",
            "points": [
                [
                    2322,
                    2582
                ],
                [
                    4070,
                    2581
                ],
                [
                    4072,
                    2878
                ],
                [
                    2322,
                    2878
                ],
                [
                    2322,
                    2582
                ]
            ],
            "flags": {},
            "group_id": null
        },
        {
            "label": "mask",
            "lineType": [
                "LLLLLL"
            ],
            "shape_type": "polygon",
            "points": [
                [
                    177,
                    2198
                ],
                [
                    1797,
                    2216
                ],
                [
                    2009,
                    2598
                ],
                [
                    2021,
                    2836
                ],
                [
                    201,
                    2834
                ],
                [
                    177,
                    2198
                ]
            ],
            "flags": {},
            "group_id": null
        },
        {
            "label": "Ns",
            "shape_type": "point",
            "points": [
                [
                    816,
                    367
                ]
            ],
            "flags": {},
            "group_id": null
        },
        {
            "label": "Ne",
            "shape_type": "point",
            "points": [
                [
                    700,
                    301
                ]
            ],
            "flags": {},
            "group_id": null
        },
        {
            "label": "wlb",
            "shape_type": "rectangle",
            "points": [
                [
                    2373,
                    1824
                ],
                [
                    3975,
                    2513
                ]
            ],
            "flags": {},
            "group_id": null
        },
        {
            "label": "wz1",
            "shape_type": "rectangle",
            "points": [
                [
                    1191,
                    971
                ],
                [
                    1408,
                    1023
                ]
            ],
            "flags": {},
            "group_id": null
        },
        {
            "label": "wz1",
            "shape_type": "rectangle",
            "points": [
                [
                    1189,
                    1135
                ],
                [
                    1405,
                    1183
                ]
            ],
            "flags": {},
            "group_id": null
        },
        {
            "label": "wz1-l",
            "lineType": "LL",
            "shape_type": "line",
            "points": [
                [
                    1213,
                    1164
                ],
                [
                    1125,
                    1070
                ]
            ],
            "flags": {},
            "group_id": null
        },
        {
            "label": "wz1-l",
            "lineType": "LL",
            "shape_type": "line",
            "points": [
                [
                    1254,
                    1010
                ],
                [
                    1214,
                    1063
                ]
            ],
            "flags": {},
            "group_id": null
        },
        {
            "label": "wz1",
            "shape_type": "rectangle",
            "points": [
                [
                    3205,
                    1257
                ],
                [
                    3424,
                    1311
                ]
            ],
            "flags": {},
            "group_id": null
        },
        {
            "label": "wz1",
            "shape_type": "rectangle",
            "points": [
                [
                    2818,
                    1255
                ],
                [
                    3037,
                    1310
                ]
            ],
            "flags": {},
            "group_id": null
        },
        {
            "label": "wz1-l",
            "lineType": "LL",
            "shape_type": "line",
            "points": [
                [
                    3248,
                    1303
                ],
                [
                    3196,
                    1359
                ]
            ],
            "flags": {},
            "group_id": null
        },
        {
            "label": "wz1-l",
            "lineType": "LL",
            "shape_type": "line",
            "points": [
                [
                    3017,
                    1299
                ],
                [
                    3081,
                    1359
                ]
            ],
            "flags": {},
            "group_id": null
        },
        {
            "label": "wz1-l",
            "lineType": "LL",
            "shape_type": "line",
            "points": [
                [
                    3029,
                    1294
                ],
                [
                    3142,
                    1356
                ]
            ],
            "flags": {},
            "group_id": null
        },
        {
            "label": "wz3",
            "shape_type": "rectangle",
            "points": [
                [
                    2871,
                    727
                ],
                [
                    3148,
                    789
                ]
            ],
            "flags": {},
            "group_id": null
        },
        {
            "label": "wz3",
            "shape_type": "rectangle",
            "points": [
                [
                    2832,
                    544
                ],
                [
                    3231,
                    605
                ]
            ],
            "flags": {},
            "group_id": null
        },
        {
            "label": "wz3",
            "shape_type": "rectangle",
            "points": [
                [
                    2851,
                    353
                ],
                [
                    3213,
                    409
                ]
            ],
            "flags": {},
            "group_id": null
        },
        {
            "label": "wz3-l",
            "lineType": "LL",
            "shape_type": "line",
            "points": [
                [
                    3278,
                    418
                ],
                [
                    3175,
                    395
                ]
            ],
            "flags": {},
            "group_id": null
        },
        {
            "label": "wz3-l",
            "lineType": "LL",
            "shape_type": "line",
            "points": [
                [
                    3275,
                    596
                ],
                [
                    3163,
                    589
                ]
            ],
            "flags": {},
            "group_id": null
        },
        {
            "label": "wz3-l",
            "lineType": "LL",
            "shape_type": "line",
            "points": [
                [
                    3334,
                    769
                ],
                [
                    3107,
                    763
                ]
            ],
            "flags": {},
            "group_id": null
        }
    ],
    "flags": {},
    "imageData": null,
    "version": "4.5.7"
}