{
    "imageHeight": 2975,
    "imageWidth": 4210,
    "imagePath": "20201116-番禺-广州广深港东新南-5G-李兆华（局端：广深港东新，利旧机房，利旧35米通信杆第四平台，铁塔）_2.png",
    "shapes": [
        {
            "label": "c1",
            "shape_type": "rectangle",
            "points": [
                [
                    2740,
                    211
                ],
                [
                    2752,
                    419
                ]
            ],
            "flags": {},
            "group_id": null
        },
        {
            "label": "a1-4",
            "shape_type": "rectangle",
            "points": [
                [
                    2676,
                    498
                ],
                [
                    2701,
                    635
                ]
            ],
            "flags": {},
            "group_id": null
        },
        {
            "label": "a1-4",
            "shape_type": "rectangle",
            "points": [
                [
                    2729,
                    502
                ],
                [
                    2755,
                    639
                ]
            ],
            "flags": {},
            "group_id": null
        },
        {
            "label": "a1-4",
            "shape_type": "rectangle",
            "points": [
                [
                    2791,
                    499
                ],
                [
                    2817,
                    635
                ]
            ],
            "flags": {},
            "group_id": null
        },
        {
            "label": "a1-4",
            "shape_type": "rectangle",
            "points": [
                [
                    2675,
                    843
                ],
                [
                    2702,
                    980
                ]
            ],
            "flags": {},
            "group_id": null
        },
        {
            "label": "a1-4",
            "shape_type": "rectangle",
            "points": [
                [
                    2729,
                    845
                ],
                [
                    2754,
                    983
                ]
            ],
            "flags": {},
            "group_id": null
        },
        {
            "label": "a1-4",
            "shape_type": "rectangle",
            "points": [
                [
                    2790,
                    843
                ],
                [
                    2816,
                    979
                ]
            ],
            "flags": {},
            "group_id": null
        },
        {
            "label": "a1-4",
            "shape_type": "rectangle",
            "points": [
                [
                    2674,
                    1197
                ],
                [
                    2699,
                    1334
                ]
            ],
            "flags": {},
            "group_id": null
        },
        {
            "label": "a1-4",
            "shape_type": "rectangle",
            "points": [
                [
                    2732,
                    1198
                ],
                [
                    2757,
                    1334
                ]
            ],
            "flags": {},
            "group_id": null
        },
        {
            "label": "a1-4",
            "shape_type": "rectangle",
            "points": [
                [
                    2787,
                    1198
                ],
                [
                    2810,
                    1333
                ]
            ],
            "flags": {},
            "group_id": null
        },
        {
            "label": "a1-4",
            "shape_type": "rectangle",
            "points": [
                [
                    2667,
                    1567
                ],
                [
                    2692,
                    1705
                ]
            ],
            "flags": {},
            "group_id": null
        },
        {
            "label": "a1-4",
            "shape_type": "rectangle",
            "points": [
                [
                    2791,
                    1568
                ],
                [
                    2817,
                    1705
                ]
            ],
            "flags": {},
            "group_id": null
        },
        {
            "label": "x1",
            "shape_type": "rectangle",
            "points": [
                [
                    2645,
                    2150
                ],
                [
                    2849,
                    2237
                ]
            ],
            "flags": {},
            "group_id": null
        },
        {
            "label": "t1",
            "shape_type": "rectangle",
            "points": [
                [
                    2711,
                    211
                ],
                [
                    2780,
                    2341
                ]
            ],
            "flags": {},
            "group_id": null
        },
        {
            "label": "p1-1",
            "shape_type": "rectangle",
            "points": [
                [
                    2676,
                    457
                ],
                [
                    2817,
                    750
                ]
            ],
            "flags": {},
            "group_id": null
        },
        {
            "label": "p1-1",
            "shape_type": "rectangle",
            "points": [
                [
                    2676,
                    805
                ],
                [
                    2815,
                    1096
                ]
            ],
            "flags": {},
            "group_id": null
        },
        {
            "label": "p1-1",
            "shape_type": "rectangle",
            "points": [
                [
                    2674,
                    1164
                ],
                [
                    2810,
                    1453
                ]
            ],
            "flags": {},
            "group_id": null
        },
        {
            "label": "p1-1",
            "shape_type": "rectangle",
            "points": [
                [
                    2667,
                    1519
                ],
                [
                    2818,
                    1808
                ]
            ],
            "flags": {},
            "group_id": null
        },
        {
            "label": "b1",
            "shape_type": "rectangle",
            "points": [
                [
                    2966,
                    2060
                ],
                [
                    3275,
                    2341
                ]
            ],
            "flags": {},
            "group_id": null
        },
        {
            "label": "h1",
            "shape_type": "rectangle",
            "points": [
                [
                    3768,
                    401
                ],
                [
                    3916,
                    457
                ]
            ],
            "flags": {},
            "group_id": null
        },
        {
            "label": "h1",
            "shape_type": "rectangle",
            "points": [
                [
                    3769,
                    768
                ],
                [
                    3918,
                    823
                ]
            ],
            "flags": {},
            "group_id": null
        },
        {
            "label": "h1",
            "shape_type": "rectangle",
            "points": [
                [
                    3768,
                    1138
                ],
                [
                    3918,
                    1193
                ]
            ],
            "flags": {},
            "group_id": null
        },
        {
            "label": "h1",
            "shape_type": "rectangle",
            "points": [
                [
                    3769,
                    1494
                ],
                [
                    3918,
                    1548
                ]
            ],
            "flags": {},
            "group_id": null
        },
        {
            "label": "g1",
            "shape_type": "rectangle",
            "points": [
                [
                    2688,
                    458
                ],
                [
                    2693,
                    747
                ]
            ],
            "flags": {},
            "group_id": null
        },
        {
            "label": "g1",
            "shape_type": "rectangle",
            "points": [
                [
                    2739,
                    461
                ],
                [
                    2746,
                    750
                ]
            ],
            "flags": {},
            "group_id": null
        },
        {
            "label": "g1",
            "shape_type": "rectangle",
            "points": [
                [
                    2796,
                    457
                ],
                [
                    2802,
                    747
                ]
            ],
            "flags": {},
            "group_id": null
        },
        {
            "label": "g1",
            "shape_type": "rectangle",
            "points": [
                [
                    2687,
                    805
                ],
                [
                    2693,
                    1094
                ]
            ],
            "flags": {},
            "group_id": null
        },
        {
            "label": "g1",
            "shape_type": "rectangle",
            "points": [
                [
                    2739,
                    805
                ],
                [
                    2744,
                    1094
                ]
            ],
            "flags": {},
            "group_id": null
        },
        {
            "label": "g1",
            "shape_type": "rectangle",
            "points": [
                [
                    2796,
                    804
                ],
                [
                    2802,
                    1095
                ]
            ],
            "flags": {},
            "group_id": null
        },
        {
            "label": "g1",
            "shape_type": "rectangle",
            "points": [
                [
                    2686,
                    1164
                ],
                [
                    2693,
                    1453
                ]
            ],
            "flags": {},
            "group_id": null
        },
        {
            "label": "g1",
            "shape_type": "rectangle",
            "points": [
                [
                    2743,
                    1164
                ],
                [
                    2748,
                    1452
                ]
            ],
            "flags": {},
            "group_id": null
        },
        {
            "label": "g1",
            "shape_type": "rectangle",
            "points": [
                [
                    2797,
                    1165
                ],
                [
                    2804,
                    1454
                ]
            ],
            "flags": {},
            "group_id": null
        },
        {
            "label": "g1",
            "shape_type": "rectangle",
            "points": [
                [
                    2687,
                    1520
                ],
                [
                    2693,
                    1810
                ]
            ],
            "flags": {},
            "group_id": null
        },
        {
            "label": "g1",
            "shape_type": "rectangle",
            "points": [
                [
                    2796,
                    1520
                ],
                [
                    2803,
                    1809
                ]
            ],
            "flags": {},
            "group_id": null
        },
        {
            "label": "seven",
            "shape_type": "point",
            "points": [
                [
                    2988,
                    2059
                ]
            ],
            "flags": {},
            "group_id": null
        },
        {
            "label": "eight",
            "shape_type": "point",
            "points": [
                [
                    3256,
                    2061
                ]
            ],
            "flags": {},
            "group_id": null
        },
        {
            "label": "twentytwo",
            "shape_type": "point",
            "points": [
                [
                    3003,
                    2118
                ]
            ],
            "flags": {},
            "group_id": null
        },
        {
            "label": "twentythere",
            "shape_type": "point",
            "points": [
                [
                    2994,
                    2137
                ]
            ],
            "flags": {},
            "group_id": null
        },
        {
            "label": "fourteen",
            "shape_type": "point",
            "points": [
                [
                    3246,
                    2312
                ]
            ],
            "flags": {},
            "group_id": null
        },
        {
            "label": "fourteen",
            "shape_type": "point",
            "points": [
                [
                    2994,
                    2312
                ]
            ],
            "flags": {},
            "group_id": null
        },
        {
            "label": "eleven",
            "shape_type": "point",
            "points": [
                [
                    2995,
                    2298
                ]
            ],
            "flags": {},
            "group_id": null
        },
        {
            "label": "twelve",
            "shape_type": "point",
            "points": [
                [
                    3244,
                    2298
                ]
            ],
            "flags": {},
            "group_id": null
        },
        {
            "label": "fourteen",
            "shape_type": "point",
            "points": [
                [
                    3237,
                    2312
                ]
            ],
            "flags": {},
            "group_id": null
        },
        {
            "label": "fourteen",
            "shape_type": "point",
            "points": [
                [
                    3005,
                    2312
                ]
            ],
            "flags": {},
            "group_id": null
        },
        {
            "label": "fifteen",
            "shape_type": "point",
            "points": [
                [
                    3004,
                    2298
                ]
            ],
            "flags": {},
            "group_id": null
        },
        {
            "label": "fifteen",
            "shape_type": "point",
            "points": [
                [
                    3237,
                    2298
                ]
            ],
            "flags": {},
            "group_id": null
        },
        {
            "label": "eleven",
            "shape_type": "point",
            "points": [
                [
                    2995,
                    2090
                ]
            ],
            "flags": {},
            "group_id": null
        },
        {
            "label": "fifteen",
            "shape_type": "point",
            "points": [
                [
                    3003,
                    2090
                ]
            ],
            "flags": {},
            "group_id": null
        },
        {
            "label": "twelve",
            "shape_type": "point",
            "points": [
                [
                    3246,
                    2090
                ]
            ],
            "flags": {},
            "group_id": null
        },
        {
            "label": "fifteen",
            "shape_type": "point",
            "points": [
                [
                    3236,
                    2090
                ]
            ],
            "flags": {},
            "group_id": null
        },
        {
            "label": "nine",
            "shape_type": "point",
            "points": [
                [
                    2987,
                    2080
                ]
            ],
            "flags": {},
            "group_id": null
        },
        {
            "label": "ten",
            "shape_type": "point",
            "points": [
                [
                    3256,
                    2080
                ]
            ],
            "flags": {},
            "group_id": null
        },
        {
            "label": "thirteen",
            "shape_type": "point",
            "points": [
                [
                    2994,
                    2080
                ]
            ],
            "flags": {},
            "group_id": null
        },
        {
            "label": "thirteen",
            "shape_type": "point",
            "points": [
                [
                    3004,
                    2078
                ]
            ],
            "flags": {},
            "group_id": null
        },
        {
            "label": "thirteen",
            "shape_type": "point",
            "points": [
                [
                    3236,
                    2080
                ]
            ],
            "flags": {},
            "group_id": null
        },
        {
            "label": "thirteen",
            "shape_type": "point",
            "points": [
                [
                    3245,
                    2080
                ]
            ],
            "flags": {},
            "group_id": null
        },
        {
            "label": "eleven",
            "shape_type": "point",
            "points": [
                [
                    2994,
                    2117
                ]
            ],
            "flags": {},
            "group_id": null
        },
        {
            "label": "twelve",
            "shape_type": "point",
            "points": [
                [
                    3004,
                    2136
                ]
            ],
            "flags": {},
            "group_id": null
        },
        {
            "label": "eight",
            "shape_type": "point",
            "points": [
                [
                    3274,
                    2313
                ]
            ],
            "flags": {},
            "group_id": null
        },
        {
            "label": "fourteen",
            "shape_type": "point",
            "points": [
                [
                    3275,
                    2341
                ]
            ],
            "flags": {},
            "group_id": null
        },
        {
            "label": "fourteen",
            "shape_type": "point",
            "points": [
                [
                    2967,
                    2341
                ]
            ],
            "flags": {},
            "group_id": null
        },
        {
            "label": "seven",
            "shape_type": "point",
            "points": [
                [
                    2966,
                    2313
                ]
            ],
            "flags": {},
            "group_id": null
        },
        {
            "label": "btl",
            "shape_type": "rectangle",
            "points": [
                [
                    2323,
                    2580
                ],
                [
                    4063,
                    2868
                ]
            ],
            "flags": {},
            "group_id": null
        },
        {
            "label": "wz4",
            "shape_type": "rectangle",
            "points": [
                [
                    3058,
                    2140
                ],
                [
                    3193,
                    2248
                ]
            ],
            "flags": {},
            "group_id": null
        },
        {
            "label": "k1",
            "shape_type": "rectangle",
            "points": [
                [
                    2994,
                    2116
                ],
                [
                    3004,
                    2136
                ]
            ],
            "flags": {},
            "group_id": null
        },
        {
            "label": "sm",
            "shape_type": "rectangle",
            "points": [
                [
                    199,
                    1499
                ],
                [
                    2136,
                    2799
                ]
            ],
            "flags": {},
            "group_id": null
        },
        {
            "label": "mask",
            "lineType": [
                "LLLLLLLLLLLLLLLL"
            ],
            "shape_type": "polygon",
            "points": [
                [
                    2185,
                    2207
                ],
                [
                    2455,
                    1857
                ],
                [
                    2563,
                    1085
                ],
                [
                    2555,
                    460
                ],
                [
                    2588,
                    232
                ],
                [
                    2678,
                    157
                ],
                [
                    3413,
                    225
                ],
                [
                    3928,
                    340
                ],
                [
                    3968,
                    415
                ],
                [
                    4030,
                    607
                ],
                [
                    4030,
                    1150
                ],
                [
                    3905,
                    1840
                ],
                [
                    3875,
                    2245
                ],
                [
                    3845,
                    2412
                ],
                [
                    2175,
                    2410
                ],
                [
                    2185,
                    2207
                ]
            ],
            "flags": {},
            "group_id": null
        },
        {
            "label": "mask",
            "lineType": [
                "LLLLL"
            ],
            "shape_type": "polygon",
            "points": [
                [
                    2319,
                    2578
                ],
                [
                    4064,
                    2579
                ],
                [
                    4067,
                    2872
                ],
                [
                    2322,
                    2874
                ],
                [
                    2319,
                    2578
                ]
            ],
            "flags": {},
            "group_id": null
        },
        {
            "label": "mask",
            "lineType": [
                "LLLLLLLLLLLLLLLLLLL"
            ],
            "shape_type": "polygon",
            "points": [
                [
                    1784,
                    1516
                ],
                [
                    2029,
                    1528
                ],
                [
                    2115,
                    1561
                ],
                [
                    2164,
                    1820
                ],
                [
                    2135,
                    1916
                ],
                [
                    2042,
                    2111
                ],
                [
                    1995,
                    2216
                ],
                [
                    2019,
                    2385
                ],
                [
                    2025,
                    2570
                ],
                [
                    2005,
                    2811
                ],
                [
                    1869,
                    2851
                ],
                [
                    1619,
                    2841
                ],
                [
                    452,
                    2821
                ],
                [
                    205,
                    2818
                ],
                [
                    174,
                    2741
                ],
                [
                    192,
                    2265
                ],
                [
                    179,
                    1715
                ],
                [
                    194,
                    1485
                ],
                [
                    1784,
                    1516
                ]
            ],
            "flags": {},
            "group_id": null
        },
        {
            "label": "wz1",
            "shape_type": "rectangle",
            "points": [
                [
                    2919,
                    1891
                ],
                [
                    3149,
                    1940
                ]
            ],
            "flags": {},
            "group_id": null
        },
        {
            "label": "wz1-l",
            "lineType": "LL",
            "shape_type": "line",
            "points": [
                [
                    2943,
                    1912
                ],
                [
                    2773,
                    2016
                ]
            ],
            "flags": {},
            "group_id": null
        },
        {
            "label": "wz3",
            "shape_type": "rectangle",
            "points": [
                [
                    3077,
                    1615
                ],
                [
                    3298,
                    1678
                ]
            ],
            "flags": {},
            "group_id": null
        },
        {
            "label": "wz3",
            "shape_type": "rectangle",
            "points": [
                [
                    3075,
                    1270
                ],
                [
                    3303,
                    1328
                ]
            ],
            "flags": {},
            "group_id": null
        },
        {
            "label": "wz3",
            "shape_type": "rectangle",
            "points": [
                [
                    3074,
                    901
                ],
                [
                    3310,
                    965
                ]
            ],
            "flags": {},
            "group_id": null
        },
        {
            "label": "wz3",
            "shape_type": "rectangle",
            "points": [
                [
                    3071,
                    546
                ],
                [
                    3307,
                    607
                ]
            ],
            "flags": {},
            "group_id": null
        },
        {
            "label": "wz3-l",
            "lineType": "LL",
            "shape_type": "line",
            "points": [
                [
                    3121,
                    1646
                ],
                [
                    2803,
                    1654
                ]
            ],
            "flags": {},
            "group_id": null
        },
        {
            "label": "wz3-l",
            "lineType": "LL",
            "shape_type": "line",
            "points": [
                [
                    3113,
                    1304
                ],
                [
                    2793,
                    1288
                ]
            ],
            "flags": {},
            "group_id": null
        },
        {
            "label": "wz3-l",
            "lineType": "LL",
            "shape_type": "line",
            "points": [
                [
                    3105,
                    924
                ],
                [
                    2801,
                    942
                ]
            ],
            "flags": {},
            "group_id": null
        },
        {
            "label": "wz3-l",
            "lineType": "LL",
            "shape_type": "line",
            "points": [
                [
                    3091,
                    582
                ],
                [
                    2803,
                    590
                ]
            ],
            "flags": {},
            "group_id": null
        }
    ],
    "flags": {},
    "imageData": null,
    "version": "4.5.7"
}