{
    "imageHeight": 3055,
    "imageWidth": 4210,
    "imagePath": "GX0793-山水华府南移动（铁塔公司）5G无线基站天馈线安装示意图.png",
    "shapes": [
        {
            "label": "vt3",
            "shape_type": "rectangle",
            "points": [
                [
                    1136,
                    233
                ],
                [
                    1597,
                    660
                ]
            ],
            "flags": {},
            "group_id": null
        },
        {
            "label": "vb1",
            "shape_type": "rectangle",
            "points": [
                [
                    1666,
                    311
                ],
                [
                    1892,
                    447
                ]
            ],
            "flags": {},
            "group_id": null
        },
        {
            "label": "d1",
            "shape_type": "rectangle",
            "points": [
                [
                    1854,
                    569
                ],
                [
                    1937,
                    706
                ]
            ],
            "flags": {},
            "group_id": null
        },
        {
            "label": "v1",
            "shape_type": "rectangle",
            "points": [
                [
                    1419,
                    672
                ],
                [
                    1676,
                    744
                ]
            ],
            "flags": {},
            "group_id": null
        },
        {
            "label": "d1",
            "shape_type": "rectangle",
            "points": [
                [
                    1129,
                    577
                ],
                [
                    1212,
                    713
                ]
            ],
            "flags": {},
            "group_id": null
        },
        {
            "label": "vp2-2",
            "shape_type": "rectangle",
            "points": [
                [
                    1442,
                    1145
                ],
                [
                    1634,
                    1311
                ]
            ],
            "flags": {},
            "group_id": null
        },
        {
            "label": "va1",
            "shape_type": "rectangle",
            "points": [
                [
                    1666,
                    1084
                ],
                [
                    1707,
                    1155
                ]
            ],
            "flags": {},
            "group_id": null
        },
        {
            "label": "va1",
            "shape_type": "rectangle",
            "points": [
                [
                    1354,
                    1073
                ],
                [
                    1420,
                    1135
                ]
            ],
            "flags": {},
            "group_id": null
        },
        {
            "label": "va1",
            "shape_type": "rectangle",
            "points": [
                [
                    1500,
                    1351
                ],
                [
                    1573,
                    1397
                ]
            ],
            "flags": {},
            "group_id": null
        },
        {
            "label": "v1",
            "shape_type": "rectangle",
            "points": [
                [
                    1414,
                    1442
                ],
                [
                    1698,
                    1484
                ]
            ],
            "flags": {},
            "group_id": null
        },
        {
            "label": "n1",
            "shape_type": "rectangle",
            "points": [
                [
                    3363,
                    123
                ],
                [
                    4070,
                    611
                ]
            ],
            "flags": {},
            "group_id": null
        },
        {
            "label": "v1",
            "shape_type": "rectangle",
            "points": [
                [
                    3594,
                    632
                ],
                [
                    3870,
                    705
                ]
            ],
            "flags": {},
            "group_id": null
        },
        {
            "label": "n1",
            "shape_type": "rectangle",
            "points": [
                [
                    240,
                    112
                ],
                [
                    332,
                    300
                ]
            ],
            "flags": {},
            "group_id": null
        },
        {
            "label": "h1",
            "shape_type": "rectangle",
            "points": [
                [
                    188,
                    315
                ],
                [
                    437,
                    422
                ]
            ],
            "flags": {},
            "group_id": null
        },
        {
            "label": "h1",
            "shape_type": "rectangle",
            "points": [
                [
                    165,
                    780
                ],
                [
                    413,
                    886
                ]
            ],
            "flags": {},
            "group_id": null
        },
        {
            "label": "h1",
            "shape_type": "rectangle",
            "points": [
                [
                    166,
                    1020
                ],
                [
                    412,
                    1127
                ]
            ],
            "flags": {},
            "group_id": null
        },
        {
            "label": "h1",
            "shape_type": "rectangle",
            "points": [
                [
                    166,
                    1216
                ],
                [
                    412,
                    1322
                ]
            ],
            "flags": {},
            "group_id": null
        },
        {
            "label": "b1",
            "shape_type": "rectangle",
            "points": [
                [
                    990,
                    2223
                ],
                [
                    1564,
                    2554
                ]
            ],
            "flags": {},
            "group_id": null
        },
        {
            "label": "v1",
            "shape_type": "rectangle",
            "points": [
                [
                    564,
                    2597
                ],
                [
                    769,
                    2676
                ]
            ],
            "flags": {},
            "group_id": null
        },
        {
            "label": "t3-r",
            "shape_type": "rectangle",
            "points": [
                [
                    409,
                    194
                ],
                [
                    861,
                    2554
                ]
            ],
            "flags": {},
            "group_id": null
        },
        {
            "label": "c1",
            "shape_type": "rectangle",
            "points": [
                [
                    634,
                    193
                ],
                [
                    635,
                    428
                ]
            ],
            "flags": {},
            "group_id": null
        },
        {
            "label": "g1",
            "shape_type": "rectangle",
            "points": [
                [
                    451,
                    674
                ],
                [
                    459,
                    883
                ]
            ],
            "flags": {},
            "group_id": null
        },
        {
            "label": "g1",
            "shape_type": "rectangle",
            "points": [
                [
                    510,
                    669
                ],
                [
                    518,
                    879
                ]
            ],
            "flags": {},
            "group_id": null
        },
        {
            "label": "g1",
            "shape_type": "rectangle",
            "points": [
                [
                    596,
                    669
                ],
                [
                    606,
                    879
                ]
            ],
            "flags": {},
            "group_id": null
        },
        {
            "label": "g1",
            "shape_type": "rectangle",
            "points": [
                [
                    663,
                    669
                ],
                [
                    672,
                    880
                ]
            ],
            "flags": {},
            "group_id": null
        },
        {
            "label": "g1",
            "shape_type": "rectangle",
            "points": [
                [
                    751,
                    669
                ],
                [
                    760,
                    880
                ]
            ],
            "flags": {},
            "group_id": null
        },
        {
            "label": "g1",
            "shape_type": "rectangle",
            "points": [
                [
                    814,
                    672
                ],
                [
                    823,
                    880
                ]
            ],
            "flags": {},
            "group_id": null
        },
        {
            "label": "a1-2",
            "shape_type": "rectangle",
            "points": [
                [
                    828,
                    698
                ],
                [
                    858,
                    817
                ]
            ],
            "flags": {},
            "group_id": null
        },
        {
            "label": "a1-2",
            "shape_type": "rectangle",
            "points": [
                [
                    766,
                    697
                ],
                [
                    795,
                    816
                ]
            ],
            "flags": {},
            "group_id": null
        },
        {
            "label": "a1-4",
            "shape_type": "rectangle",
            "points": [
                [
                    657,
                    693
                ],
                [
                    679,
                    809
                ]
            ],
            "flags": {},
            "group_id": null
        },
        {
            "label": "a1-4",
            "shape_type": "rectangle",
            "points": [
                [
                    590,
                    694
                ],
                [
                    612,
                    810
                ]
            ],
            "flags": {},
            "group_id": null
        },
        {
            "label": "a1-1",
            "shape_type": "rectangle",
            "points": [
                [
                    478,
                    694
                ],
                [
                    507,
                    812
                ]
            ],
            "flags": {},
            "group_id": null
        },
        {
            "label": "a1-1",
            "shape_type": "rectangle",
            "points": [
                [
                    420,
                    698
                ],
                [
                    448,
                    817
                ]
            ],
            "flags": {},
            "group_id": null
        },
        {
            "label": "p1-2",
            "shape_type": "rectangle",
            "points": [
                [
                    419,
                    668
                ],
                [
                    858,
                    884
                ]
            ],
            "flags": {},
            "group_id": null
        },
        {
            "label": "g1",
            "shape_type": "rectangle",
            "points": [
                [
                    524,
                    946
                ],
                [
                    534,
                    1156
                ]
            ],
            "flags": {},
            "group_id": null
        },
        {
            "label": "g1",
            "shape_type": "rectangle",
            "points": [
                [
                    625,
                    947
                ],
                [
                    634,
                    1156
                ]
            ],
            "flags": {},
            "group_id": null
        },
        {
            "label": "g1",
            "shape_type": "rectangle",
            "points": [
                [
                    758,
                    946
                ],
                [
                    768,
                    1157
                ]
            ],
            "flags": {},
            "group_id": null
        },
        {
            "label": "a1-2",
            "shape_type": "rectangle",
            "points": [
                [
                    773,
                    974
                ],
                [
                    802,
                    1093
                ]
            ],
            "flags": {},
            "group_id": null
        },
        {
            "label": "a1-4",
            "shape_type": "rectangle",
            "points": [
                [
                    619,
                    971
                ],
                [
                    641,
                    1086
                ]
            ],
            "flags": {},
            "group_id": null
        },
        {
            "label": "a1-1",
            "shape_type": "rectangle",
            "points": [
                [
                    494,
                    967
                ],
                [
                    521,
                    1085
                ]
            ],
            "flags": {},
            "group_id": null
        },
        {
            "label": "p1-2",
            "shape_type": "rectangle",
            "points": [
                [
                    493,
                    945
                ],
                [
                    802,
                    1157
                ]
            ],
            "flags": {},
            "group_id": null
        },
        {
            "label": "g1",
            "shape_type": "rectangle",
            "points": [
                [
                    525,
                    1191
                ],
                [
                    535,
                    1402
                ]
            ],
            "flags": {},
            "group_id": null
        },
        {
            "label": "g1",
            "shape_type": "rectangle",
            "points": [
                [
                    627,
                    1192
                ],
                [
                    636,
                    1402
                ]
            ],
            "flags": {},
            "group_id": null
        },
        {
            "label": "g1",
            "shape_type": "rectangle",
            "points": [
                [
                    760,
                    1191
                ],
                [
                    768,
                    1402
                ]
            ],
            "flags": {},
            "group_id": null
        },
        {
            "label": "a1-2",
            "shape_type": "rectangle",
            "points": [
                [
                    774,
                    1220
                ],
                [
                    803,
                    1338
                ]
            ],
            "flags": {},
            "group_id": null
        },
        {
            "label": "a1-4",
            "shape_type": "rectangle",
            "points": [
                [
                    620,
                    1215
                ],
                [
                    642,
                    1332
                ]
            ],
            "flags": {},
            "group_id": null
        },
        {
            "label": "a1-1",
            "shape_type": "rectangle",
            "points": [
                [
                    494,
                    1212
                ],
                [
                    522,
                    1330
                ]
            ],
            "flags": {},
            "group_id": null
        },
        {
            "label": "p1-2",
            "shape_type": "rectangle",
            "points": [
                [
                    493,
                    1191
                ],
                [
                    803,
                    1402
                ]
            ],
            "flags": {},
            "group_id": null
        },
        {
            "label": "x1",
            "shape_type": "rectangle",
            "points": [
                [
                    497,
                    1570
                ],
                [
                    784,
                    1601
                ]
            ],
            "flags": {},
            "group_id": null
        },
        {
            "label": "seven",
            "shape_type": "point",
            "points": [
                [
                    1666,
                    312
                ]
            ],
            "flags": {},
            "group_id": null
        },
        {
            "label": "eight",
            "shape_type": "point",
            "points": [
                [
                    1891,
                    312
                ]
            ],
            "flags": {},
            "group_id": null
        },
        {
            "label": "nine",
            "shape_type": "point",
            "points": [
                [
                    1666,
                    447
                ]
            ],
            "flags": {},
            "group_id": null
        },
        {
            "label": "ten",
            "shape_type": "point",
            "points": [
                [
                    1892,
                    447
                ]
            ],
            "flags": {},
            "group_id": null
        },
        {
            "label": "seven",
            "shape_type": "point",
            "points": [
                [
                    990,
                    2223
                ]
            ],
            "flags": {},
            "group_id": null
        },
        {
            "label": "eight",
            "shape_type": "point",
            "points": [
                [
                    1563,
                    2223
                ]
            ],
            "flags": {},
            "group_id": null
        },
        {
            "label": "fourteen",
            "shape_type": "point",
            "points": [
                [
                    989,
                    2554
                ]
            ],
            "flags": {},
            "group_id": null
        },
        {
            "label": "fourteen",
            "shape_type": "point",
            "points": [
                [
                    1563,
                    2553
                ]
            ],
            "flags": {},
            "group_id": null
        },
        {
            "label": "wz4",
            "shape_type": "rectangle",
            "points": [
                [
                    1720,
                    367
                ],
                [
                    1803,
                    395
                ]
            ],
            "flags": {},
            "group_id": null
        },
        {
            "label": "wz4",
            "shape_type": "rectangle",
            "points": [
                [
                    1188,
                    2336
                ],
                [
                    1322,
                    2381
                ]
            ],
            "flags": {},
            "group_id": null
        },
        {
            "label": "tl",
            "shape_type": "rectangle",
            "points": [
                [
                    2389,
                    88
                ],
                [
                    3361,
                    782
                ]
            ],
            "flags": {},
            "group_id": null
        },
        {
            "label": "j1",
            "shape_type": "rectangle",
            "points": [
                [
                    3365,
                    134
                ],
                [
                    3658,
                    198
                ]
            ],
            "flags": {},
            "group_id": null
        },
        {
            "label": "j1",
            "shape_type": "rectangle",
            "points": [
                [
                    3699,
                    125
                ],
                [
                    3737,
                    168
                ]
            ],
            "flags": {},
            "group_id": null
        },
        {
            "label": "j1",
            "shape_type": "rectangle",
            "points": [
                [
                    3803,
                    271
                ],
                [
                    4069,
                    335
                ]
            ],
            "flags": {},
            "group_id": null
        },
        {
            "label": "j1",
            "shape_type": "rectangle",
            "points": [
                [
                    3703,
                    547
                ],
                [
                    3996,
                    610
                ]
            ],
            "flags": {},
            "group_id": null
        },
        {
            "label": "sm",
            "shape_type": "rectangle",
            "points": [
                [
                    2262,
                    2174
                ],
                [
                    3981,
                    2575
                ]
            ],
            "flags": {},
            "group_id": null
        },
        {
            "label": "btl",
            "shape_type": "rectangle",
            "points": [
                [
                    2255,
                    2664
                ],
                [
                    4103,
                    2976
                ]
            ],
            "flags": {},
            "group_id": null
        },
        {
            "label": "mask",
            "lineType": [
                "LLLLLLLLLLL"
            ],
            "shape_type": "polygon",
            "points": [
                [
                    2362,
                    86
                ],
                [
                    3371,
                    85
                ],
                [
                    3338,
                    148
                ],
                [
                    3359,
                    235
                ],
                [
                    3378,
                    308
                ],
                [
                    3376,
                    526
                ],
                [
                    2944,
                    543
                ],
                [
                    2848,
                    601
                ],
                [
                    2771,
                    824
                ],
                [
                    2443,
                    796
                ],
                [
                    2362,
                    86
                ]
            ],
            "flags": {},
            "group_id": null
        },
        {
            "label": "mask",
            "lineType": [
                "LLLLLLLLLLLLL"
            ],
            "shape_type": "polygon",
            "points": [
                [
                    3358,
                    201
                ],
                [
                    3354,
                    148
                ],
                [
                    3371,
                    125
                ],
                [
                    3707,
                    105
                ],
                [
                    3916,
                    125
                ],
                [
                    4019,
                    174
                ],
                [
                    4073,
                    265
                ],
                [
                    4084,
                    353
                ],
                [
                    4009,
                    680
                ],
                [
                    3941,
                    730
                ],
                [
                    3750,
                    732
                ],
                [
                    3556,
                    719
                ],
                [
                    3358,
                    201
                ]
            ],
            "flags": {},
            "group_id": null
        },
        {
            "label": "mask",
            "lineType": [
                "LLLLL"
            ],
            "shape_type": "polygon",
            "points": [
                [
                    2219,
                    832
                ],
                [
                    2223,
                    1657
                ],
                [
                    4105,
                    1663
                ],
                [
                    4101,
                    855
                ],
                [
                    2219,
                    832
                ]
            ],
            "flags": {},
            "group_id": null
        },
        {
            "label": "mask",
            "lineType": [
                "LLLLLLL"
            ],
            "shape_type": "polygon",
            "points": [
                [
                    2256,
                    2141
                ],
                [
                    2244,
                    2586
                ],
                [
                    3996,
                    2592
                ],
                [
                    4023,
                    2482
                ],
                [
                    3849,
                    2249
                ],
                [
                    3760,
                    2204
                ],
                [
                    2256,
                    2141
                ]
            ],
            "flags": {},
            "group_id": null
        },
        {
            "label": "mask",
            "lineType": [
                "LLLLL"
            ],
            "shape_type": "polygon",
            "points": [
                [
                    2247,
                    2652
                ],
                [
                    2246,
                    2974
                ],
                [
                    4106,
                    2978
                ],
                [
                    4105,
                    2640
                ],
                [
                    2247,
                    2652
                ]
            ],
            "flags": {},
            "group_id": null
        },
        {
            "label": "mask",
            "lineType": [
                "LLLLLLLLLLLLLLLLLLLLLL"
            ],
            "shape_type": "polygon",
            "points": [
                [
                    183,
                    2639
                ],
                [
                    633,
                    2728
                ],
                [
                    1177,
                    2704
                ],
                [
                    1718,
                    2659
                ],
                [
                    1824,
                    2603
                ],
                [
                    1747,
                    2441
                ],
                [
                    1644,
                    2142
                ],
                [
                    948,
                    2098
                ],
                [
                    972,
                    1066
                ],
                [
                    950,
                    635
                ],
                [
                    875,
                    189
                ],
                [
                    845,
                    156
                ],
                [
                    769,
                    151
                ],
                [
                    630,
                    163
                ],
                [
                    540,
                    259
                ],
                [
                    233,
                    312
                ],
                [
                    178,
                    316
                ],
                [
                    143,
                    397
                ],
                [
                    133,
                    681
                ],
                [
                    135,
                    880
                ],
                [
                    137,
                    2203
                ],
                [
                    183,
                    2639
                ]
            ],
            "flags": {},
            "group_id": null
        },
        {
            "label": "mask",
            "lineType": [
                "LLLLLLLLL"
            ],
            "shape_type": "polygon",
            "points": [
                [
                    210,
                    305
                ],
                [
                    249,
                    302
                ],
                [
                    308,
                    243
                ],
                [
                    379,
                    145
                ],
                [
                    361,
                    115
                ],
                [
                    322,
                    102
                ],
                [
                    235,
                    107
                ],
                [
                    205,
                    109
                ],
                [
                    210,
                    305
                ]
            ],
            "flags": {},
            "group_id": null
        },
        {
            "label": "mask",
            "lineType": [
                "LLLLLLLLLLLLLLLLLLLLL"
            ],
            "shape_type": "polygon",
            "points": [
                [
                    1095,
                    414
                ],
                [
                    1075,
                    283
                ],
                [
                    1102,
                    248
                ],
                [
                    1268,
                    209
                ],
                [
                    1388,
                    202
                ],
                [
                    1495,
                    213
                ],
                [
                    1575,
                    222
                ],
                [
                    1642,
                    242
                ],
                [
                    1884,
                    276
                ],
                [
                    1914,
                    288
                ],
                [
                    1951,
                    358
                ],
                [
                    1995,
                    582
                ],
                [
                    2010,
                    666
                ],
                [
                    1988,
                    712
                ],
                [
                    1927,
                    738
                ],
                [
                    1838,
                    766
                ],
                [
                    1667,
                    765
                ],
                [
                    1388,
                    761
                ],
                [
                    1288,
                    767
                ],
                [
                    1098,
                    728
                ],
                [
                    1095,
                    414
                ]
            ],
            "flags": {},
            "group_id": null
        },
        {
            "label": "mask",
            "lineType": [
                "LLLLLLLLLLLLLLLL"
            ],
            "shape_type": "polygon",
            "points": [
                [
                    1266,
                    1105
                ],
                [
                    1211,
                    1003
                ],
                [
                    1225,
                    949
                ],
                [
                    1330,
                    939
                ],
                [
                    1631,
                    949
                ],
                [
                    1945,
                    972
                ],
                [
                    1944,
                    1037
                ],
                [
                    1925,
                    1282
                ],
                [
                    1908,
                    1334
                ],
                [
                    1836,
                    1452
                ],
                [
                    1760,
                    1486
                ],
                [
                    1702,
                    1498
                ],
                [
                    1398,
                    1489
                ],
                [
                    1338,
                    1457
                ],
                [
                    1319,
                    1374
                ],
                [
                    1266,
                    1105
                ]
            ],
            "flags": {},
            "group_id": null
        },
        {
            "label": "wlb",
            "shape_type": "rectangle",
            "points": [
                [
                    2241,
                    854
                ],
                [
                    4103,
                    1635
                ]
            ],
            "flags": {},
            "group_id": null
        },
        {
            "label": "xtl",
            "shape_type": "rectangle",
            "points": [
                [
                    2512,
                    109
                ],
                [
                    2583,
                    149
                ]
            ],
            "flags": {},
            "group_id": null
        },
        {
            "label": "xtl",
            "shape_type": "rectangle",
            "points": [
                [
                    2513,
                    179
                ],
                [
                    2583,
                    220
                ]
            ],
            "flags": {},
            "group_id": null
        },
        {
            "label": "xtl",
            "shape_type": "rectangle",
            "points": [
                [
                    2512,
                    253
                ],
                [
                    2583,
                    292
                ]
            ],
            "flags": {},
            "group_id": null
        },
        {
            "label": "xtl",
            "shape_type": "rectangle",
            "points": [
                [
                    2513,
                    322
                ],
                [
                    2584,
                    365
                ]
            ],
            "flags": {},
            "group_id": null
        },
        {
            "label": "xtl",
            "shape_type": "rectangle",
            "points": [
                [
                    2513,
                    395
                ],
                [
                    2583,
                    436
                ]
            ],
            "flags": {},
            "group_id": null
        },
        {
            "label": "xtl",
            "shape_type": "rectangle",
            "points": [
                [
                    2513,
                    467
                ],
                [
                    2583,
                    507
                ]
            ],
            "flags": {},
            "group_id": null
        },
        {
            "label": "xtl",
            "shape_type": "rectangle",
            "points": [
                [
                    2524,
                    597
                ],
                [
                    2602,
                    603
                ]
            ],
            "flags": {},
            "group_id": null
        },
        {
            "label": "xtl",
            "shape_type": "rectangle",
            "points": [
                [
                    2527,
                    674
                ],
                [
                    2604,
                    680
                ]
            ],
            "flags": {},
            "group_id": null
        },
        {
            "label": "xtl",
            "shape_type": "rectangle",
            "points": [
                [
                    2551,
                    733
                ],
                [
                    2584,
                    768
                ]
            ],
            "flags": {},
            "group_id": null
        },
        {
            "label": "wztl",
            "shape_type": "rectangle",
            "points": [
                [
                    2645,
                    726
                ],
                [
                    2721,
                    777
                ]
            ],
            "flags": {},
            "group_id": null
        },
        {
            "label": "wztl",
            "shape_type": "rectangle",
            "points": [
                [
                    2642,
                    569
                ],
                [
                    2756,
                    621
                ]
            ],
            "flags": {},
            "group_id": null
        },
        {
            "label": "wztl",
            "shape_type": "rectangle",
            "points": [
                [
                    2643,
                    644
                ],
                [
                    2759,
                    698
                ]
            ],
            "flags": {},
            "group_id": null
        },
        {
            "label": "wztl",
            "shape_type": "rectangle",
            "points": [
                [
                    2628,
                    455
                ],
                [
                    2784,
                    509
                ]
            ],
            "flags": {},
            "group_id": null
        },
        {
            "label": "wztl",
            "shape_type": "rectangle",
            "points": [
                [
                    2613,
                    232
                ],
                [
                    2878,
                    285
                ]
            ],
            "flags": {},
            "group_id": null
        },
        {
            "label": "wztl",
            "shape_type": "rectangle",
            "points": [
                [
                    2622,
                    303
                ],
                [
                    2795,
                    356
                ]
            ],
            "flags": {},
            "group_id": null
        },
        {
            "label": "wztl",
            "shape_type": "rectangle",
            "points": [
                [
                    2624,
                    376
                ],
                [
                    2852,
                    429
                ]
            ],
            "flags": {},
            "group_id": null
        },
        {
            "label": "wztl",
            "shape_type": "rectangle",
            "points": [
                [
                    2612,
                    98
                ],
                [
                    2904,
                    150
                ]
            ],
            "flags": {},
            "group_id": null
        },
        {
            "label": "wztl",
            "shape_type": "rectangle",
            "points": [
                [
                    2613,
                    161
                ],
                [
                    2920,
                    216
                ]
            ],
            "flags": {},
            "group_id": null
        },
        {
            "label": "xtl",
            "shape_type": "rectangle",
            "points": [
                [
                    3025,
                    116
                ],
                [
                    3090,
                    143
                ]
            ],
            "flags": {},
            "group_id": null
        },
        {
            "label": "xtl",
            "shape_type": "rectangle",
            "points": [
                [
                    3026,
                    179
                ],
                [
                    3090,
                    207
                ]
            ],
            "flags": {},
            "group_id": null
        },
        {
            "label": "xtl",
            "shape_type": "rectangle",
            "points": [
                [
                    3026,
                    265
                ],
                [
                    3090,
                    270
                ]
            ],
            "flags": {},
            "group_id": null
        },
        {
            "label": "xtl",
            "shape_type": "rectangle",
            "points": [
                [
                    3017,
                    316
                ],
                [
                    3074,
                    359
                ]
            ],
            "flags": {},
            "group_id": null
        },
        {
            "label": "xtl",
            "shape_type": "rectangle",
            "points": [
                [
                    3017,
                    386
                ],
                [
                    3086,
                    431
                ]
            ],
            "flags": {},
            "group_id": null
        },
        {
            "label": "xtl",
            "shape_type": "rectangle",
            "points": [
                [
                    3017,
                    459
                ],
                [
                    3086,
                    503
                ]
            ],
            "flags": {},
            "group_id": null
        },
        {
            "label": "wztl",
            "shape_type": "rectangle",
            "points": [
                [
                    3122,
                    458
                ],
                [
                    3359,
                    510
                ]
            ],
            "flags": {},
            "group_id": null
        },
        {
            "label": "wztl",
            "shape_type": "rectangle",
            "points": [
                [
                    3122,
                    378
                ],
                [
                    3359,
                    431
                ]
            ],
            "flags": {},
            "group_id": null
        },
        {
            "label": "wztl",
            "shape_type": "rectangle",
            "points": [
                [
                    3121,
                    306
                ],
                [
                    3358,
                    358
                ]
            ],
            "flags": {},
            "group_id": null
        },
        {
            "label": "wztl",
            "shape_type": "rectangle",
            "points": [
                [
                    3123,
                    229
                ],
                [
                    3304,
                    283
                ]
            ],
            "flags": {},
            "group_id": null
        },
        {
            "label": "wztl",
            "shape_type": "rectangle",
            "points": [
                [
                    3124,
                    89
                ],
                [
                    3317,
                    142
                ]
            ],
            "flags": {},
            "group_id": null
        },
        {
            "label": "wztl",
            "shape_type": "rectangle",
            "points": [
                [
                    3122,
                    155
                ],
                [
                    3317,
                    209
                ]
            ],
            "flags": {},
            "group_id": null
        },
        {
            "label": "Ns",
            "shape_type": "point",
            "points": [
                [
                    3719,
                    362
                ]
            ],
            "flags": {},
            "group_id": null
        },
        {
            "label": "Ne",
            "shape_type": "point",
            "points": [
                [
                    3718,
                    218
                ]
            ],
            "flags": {},
            "group_id": null
        },
        {
            "label": "wz1",
            "shape_type": "rectangle",
            "points": [
                [
                    718,
                    171
                ],
                [
                    813,
                    217
                ]
            ],
            "flags": {},
            "group_id": null
        },
        {
            "label": "wz1-l",
            "lineType": "LL",
            "shape_type": "line",
            "points": [
                [
                    736,
                    196
                ],
                [
                    633,
                    336
                ]
            ],
            "flags": {},
            "group_id": null
        },
        {
            "label": "wz3",
            "shape_type": "rectangle",
            "points": [
                [
                    1240,
                    985
                ],
                [
                    1491,
                    1053
                ]
            ],
            "flags": {},
            "group_id": null
        },
        {
            "label": "wz3",
            "shape_type": "rectangle",
            "points": [
                [
                    1684,
                    975
                ],
                [
                    1914,
                    1044
                ]
            ],
            "flags": {},
            "group_id": null
        },
        {
            "label": "wz3",
            "shape_type": "rectangle",
            "points": [
                [
                    1621,
                    1326
                ],
                [
                    1868,
                    1394
                ]
            ],
            "flags": {},
            "group_id": null
        },
        {
            "label": "wz3-l",
            "lineType": "LL",
            "shape_type": "line",
            "points": [
                [
                    1380,
                    1094
                ],
                [
                    1351,
                    1035
                ]
            ],
            "flags": {},
            "group_id": null
        },
        {
            "label": "wz3-l",
            "lineType": "LL",
            "shape_type": "line",
            "points": [
                [
                    1745,
                    1020
                ],
                [
                    1696,
                    1098
                ]
            ],
            "flags": {},
            "group_id": null
        },
        {
            "label": "wz3-l",
            "lineType": "LL",
            "shape_type": "line",
            "points": [
                [
                    1557,
                    1379
                ],
                [
                    1646,
                    1361
                ]
            ],
            "flags": {},
            "group_id": null
        }
    ],
    "flags": {},
    "imageData": null,
    "version": "4.5.7"
}