{
    "imageHeight": 2978,
    "imageWidth": 4210,
    "imagePath": "GX0973-万科新里程南（铁塔公司）5G无线基站天馈线安装示意图.png",
    "shapes": [
        {
            "label": "v1",
            "shape_type": "rectangle",
            "points": [
                [
                    3537,
                    630
                ],
                [
                    3792,
                    696
                ]
            ],
            "flags": {},
            "group_id": null
        },
        {
            "label": "n1",
            "shape_type": "rectangle",
            "points": [
                [
                    3260,
                    215
                ],
                [
                    4002,
                    630
                ]
            ],
            "flags": {},
            "group_id": null
        },
        {
            "label": "vt3",
            "shape_type": "rectangle",
            "points": [
                [
                    714,
                    715
                ],
                [
                    889,
                    891
                ]
            ],
            "flags": {},
            "group_id": null
        },
        {
            "label": "vb1",
            "shape_type": "rectangle",
            "points": [
                [
                    589,
                    777
                ],
                [
                    628,
                    815
                ]
            ],
            "flags": {},
            "group_id": null
        },
        {
            "label": "seven",
            "shape_type": "point",
            "points": [
                [
                    589,
                    778
                ]
            ],
            "flags": {},
            "group_id": null
        },
        {
            "label": "eight",
            "shape_type": "point",
            "points": [
                [
                    627,
                    778
                ]
            ],
            "flags": {},
            "group_id": null
        },
        {
            "label": "nine",
            "shape_type": "point",
            "points": [
                [
                    589,
                    815
                ]
            ],
            "flags": {},
            "group_id": null
        },
        {
            "label": "ten",
            "shape_type": "point",
            "points": [
                [
                    627,
                    814
                ]
            ],
            "flags": {},
            "group_id": null
        },
        {
            "label": "h1",
            "shape_type": "rectangle",
            "points": [
                [
                    1884,
                    686
                ],
                [
                    2146,
                    801
                ]
            ],
            "flags": {},
            "group_id": null
        },
        {
            "label": "h1",
            "shape_type": "rectangle",
            "points": [
                [
                    1876,
                    867
                ],
                [
                    2138,
                    982
                ]
            ],
            "flags": {},
            "group_id": null
        },
        {
            "label": "h1",
            "shape_type": "rectangle",
            "points": [
                [
                    1878,
                    1173
                ],
                [
                    2138,
                    1286
                ]
            ],
            "flags": {},
            "group_id": null
        },
        {
            "label": "h1",
            "shape_type": "rectangle",
            "points": [
                [
                    1882,
                    1443
                ],
                [
                    2142,
                    1562
                ]
            ],
            "flags": {},
            "group_id": null
        },
        {
            "label": "h1",
            "shape_type": "rectangle",
            "points": [
                [
                    1834,
                    2466
                ],
                [
                    2089,
                    2578
                ]
            ],
            "flags": {},
            "group_id": null
        },
        {
            "label": "v1",
            "shape_type": "rectangle",
            "points": [
                [
                    1147,
                    2626
                ],
                [
                    1364,
                    2710
                ]
            ],
            "flags": {},
            "group_id": null
        },
        {
            "label": "b1",
            "shape_type": "rectangle",
            "points": [
                [
                    1251,
                    2373
                ],
                [
                    1329,
                    2577
                ]
            ],
            "flags": {},
            "group_id": null
        },
        {
            "label": "seven",
            "shape_type": "point",
            "points": [
                [
                    1251,
                    2374
                ]
            ],
            "flags": {},
            "group_id": null
        },
        {
            "label": "eight",
            "shape_type": "point",
            "points": [
                [
                    1329,
                    2374
                ]
            ],
            "flags": {},
            "group_id": null
        },
        {
            "label": "fourteen",
            "shape_type": "point",
            "points": [
                [
                    1252,
                    2577
                ]
            ],
            "flags": {},
            "group_id": null
        },
        {
            "label": "fourteen",
            "shape_type": "point",
            "points": [
                [
                    1328,
                    2577
                ]
            ],
            "flags": {},
            "group_id": null
        },
        {
            "label": "v1",
            "shape_type": "rectangle",
            "points": [
                [
                    780,
                    2079
                ],
                [
                    967,
                    2110
                ]
            ],
            "flags": {},
            "group_id": null
        },
        {
            "label": "vp1-3",
            "shape_type": "rectangle",
            "points": [
                [
                    730,
                    1773
                ],
                [
                    958,
                    2000
                ]
            ],
            "flags": {},
            "group_id": null
        },
        {
            "label": "va1",
            "shape_type": "rectangle",
            "points": [
                [
                    987,
                    1924
                ],
                [
                    1017,
                    1964
                ]
            ],
            "flags": {},
            "group_id": null
        },
        {
            "label": "va1",
            "shape_type": "rectangle",
            "points": [
                [
                    958,
                    1960
                ],
                [
                    994,
                    2002
                ]
            ],
            "flags": {},
            "group_id": null
        },
        {
            "label": "va1",
            "shape_type": "rectangle",
            "points": [
                [
                    694,
                    1978
                ],
                [
                    738,
                    2011
                ]
            ],
            "flags": {},
            "group_id": null
        },
        {
            "label": "van",
            "shape_type": "rectangle",
            "points": [
                [
                    669,
                    1922
                ],
                [
                    702,
                    1964
                ]
            ],
            "flags": {},
            "group_id": null
        },
        {
            "label": "van",
            "shape_type": "rectangle",
            "points": [
                [
                    795,
                    1710
                ],
                [
                    839,
                    1736
                ]
            ],
            "flags": {},
            "group_id": null
        },
        {
            "label": "van",
            "shape_type": "rectangle",
            "points": [
                [
                    850,
                    1709
                ],
                [
                    895,
                    1736
                ]
            ],
            "flags": {},
            "group_id": null
        },
        {
            "label": "v1",
            "shape_type": "rectangle",
            "points": [
                [
                    780,
                    1614
                ],
                [
                    967,
                    1645
                ]
            ],
            "flags": {},
            "group_id": null
        },
        {
            "label": "vp1-3",
            "shape_type": "rectangle",
            "points": [
                [
                    729,
                    1308
                ],
                [
                    958,
                    1537
                ]
            ],
            "flags": {},
            "group_id": null
        },
        {
            "label": "va1",
            "shape_type": "rectangle",
            "points": [
                [
                    987,
                    1459
                ],
                [
                    1017,
                    1499
                ]
            ],
            "flags": {},
            "group_id": null
        },
        {
            "label": "va1",
            "shape_type": "rectangle",
            "points": [
                [
                    845,
                    1241
                ],
                [
                    883,
                    1277
                ]
            ],
            "flags": {},
            "group_id": null
        },
        {
            "label": "va1",
            "shape_type": "rectangle",
            "points": [
                [
                    792,
                    1245
                ],
                [
                    828,
                    1277
                ]
            ],
            "flags": {},
            "group_id": null
        },
        {
            "label": "va1",
            "shape_type": "rectangle",
            "points": [
                [
                    698,
                    1505
                ],
                [
                    730,
                    1545
                ]
            ],
            "flags": {},
            "group_id": null
        },
        {
            "label": "van",
            "shape_type": "rectangle",
            "points": [
                [
                    955,
                    1512
                ],
                [
                    994,
                    1550
                ]
            ],
            "flags": {},
            "group_id": null
        },
        {
            "label": "van",
            "shape_type": "rectangle",
            "points": [
                [
                    671,
                    1454
                ],
                [
                    701,
                    1502
                ]
            ],
            "flags": {},
            "group_id": null
        },
        {
            "label": "d1",
            "shape_type": "rectangle",
            "points": [
                [
                    972,
                    1000
                ],
                [
                    1007,
                    1048
                ]
            ],
            "flags": {},
            "group_id": null
        },
        {
            "label": "d1",
            "shape_type": "rectangle",
            "points": [
                [
                    522,
                    998
                ],
                [
                    557,
                    1046
                ]
            ],
            "flags": {},
            "group_id": null
        },
        {
            "label": "v1",
            "shape_type": "rectangle",
            "points": [
                [
                    684,
                    1027
                ],
                [
                    792,
                    1058
                ]
            ],
            "flags": {},
            "group_id": null
        },
        {
            "label": "c1",
            "shape_type": "rectangle",
            "points": [
                [
                    1644,
                    613
                ],
                [
                    1646,
                    810
                ]
            ],
            "flags": {},
            "group_id": null
        },
        {
            "label": "a1-1",
            "shape_type": "rectangle",
            "points": [
                [
                    1471,
                    797
                ],
                [
                    1494,
                    897
                ]
            ],
            "flags": {},
            "group_id": null
        },
        {
            "label": "a1-1",
            "shape_type": "rectangle",
            "points": [
                [
                    1528,
                    796
                ],
                [
                    1550,
                    896
                ]
            ],
            "flags": {},
            "group_id": null
        },
        {
            "label": "a1-1",
            "shape_type": "rectangle",
            "points": [
                [
                    1600,
                    795
                ],
                [
                    1623,
                    892
                ]
            ],
            "flags": {},
            "group_id": null
        },
        {
            "label": "a1-2",
            "shape_type": "rectangle",
            "points": [
                [
                    1666,
                    796
                ],
                [
                    1691,
                    895
                ]
            ],
            "flags": {},
            "group_id": null
        },
        {
            "label": "a1-2",
            "shape_type": "rectangle",
            "points": [
                [
                    1734,
                    791
                ],
                [
                    1758,
                    891
                ]
            ],
            "flags": {},
            "group_id": null
        },
        {
            "label": "a1-2",
            "shape_type": "rectangle",
            "points": [
                [
                    1791,
                    791
                ],
                [
                    1815,
                    891
                ]
            ],
            "flags": {},
            "group_id": null
        },
        {
            "label": "g1",
            "shape_type": "rectangle",
            "points": [
                [
                    1781,
                    785
                ],
                [
                    1787,
                    944
                ]
            ],
            "flags": {},
            "group_id": null
        },
        {
            "label": "g1",
            "shape_type": "rectangle",
            "points": [
                [
                    1724,
                    786
                ],
                [
                    1730,
                    944
                ]
            ],
            "flags": {},
            "group_id": null
        },
        {
            "label": "g1",
            "shape_type": "rectangle",
            "points": [
                [
                    1655,
                    789
                ],
                [
                    1662,
                    948
                ]
            ],
            "flags": {},
            "group_id": null
        },
        {
            "label": "g1",
            "shape_type": "rectangle",
            "points": [
                [
                    1627,
                    790
                ],
                [
                    1634,
                    947
                ]
            ],
            "flags": {},
            "group_id": null
        },
        {
            "label": "g1",
            "shape_type": "rectangle",
            "points": [
                [
                    1555,
                    794
                ],
                [
                    1563,
                    954
                ]
            ],
            "flags": {},
            "group_id": null
        },
        {
            "label": "g1",
            "shape_type": "rectangle",
            "points": [
                [
                    1499,
                    795
                ],
                [
                    1506,
                    952
                ]
            ],
            "flags": {},
            "group_id": null
        },
        {
            "label": "p1-2",
            "shape_type": "rectangle",
            "points": [
                [
                    1471,
                    785
                ],
                [
                    1815,
                    945
                ]
            ],
            "flags": {},
            "group_id": null
        },
        {
            "label": "a1-1",
            "shape_type": "rectangle",
            "points": [
                [
                    1475,
                    1105
                ],
                [
                    1499,
                    1206
                ]
            ],
            "flags": {},
            "group_id": null
        },
        {
            "label": "a1-1",
            "shape_type": "rectangle",
            "points": [
                [
                    1526,
                    1102
                ],
                [
                    1550,
                    1202
                ]
            ],
            "flags": {},
            "group_id": null
        },
        {
            "label": "a1-1",
            "shape_type": "rectangle",
            "points": [
                [
                    1605,
                    1100
                ],
                [
                    1630,
                    1200
                ]
            ],
            "flags": {},
            "group_id": null
        },
        {
            "label": "a1-2",
            "shape_type": "rectangle",
            "points": [
                [
                    1671,
                    1097
                ],
                [
                    1694,
                    1196
                ]
            ],
            "flags": {},
            "group_id": null
        },
        {
            "label": "a1-2",
            "shape_type": "rectangle",
            "points": [
                [
                    1734,
                    1097
                ],
                [
                    1758,
                    1197
                ]
            ],
            "flags": {},
            "group_id": null
        },
        {
            "label": "a1-2",
            "shape_type": "rectangle",
            "points": [
                [
                    1795,
                    1096
                ],
                [
                    1819,
                    1197
                ]
            ],
            "flags": {},
            "group_id": null
        },
        {
            "label": "g1",
            "shape_type": "rectangle",
            "points": [
                [
                    1780,
                    1095
                ],
                [
                    1786,
                    1255
                ]
            ],
            "flags": {},
            "group_id": null
        },
        {
            "label": "g1",
            "shape_type": "rectangle",
            "points": [
                [
                    1719,
                    1096
                ],
                [
                    1726,
                    1254
                ]
            ],
            "flags": {},
            "group_id": null
        },
        {
            "label": "g1",
            "shape_type": "rectangle",
            "points": [
                [
                    1655,
                    1095
                ],
                [
                    1662,
                    1255
                ]
            ],
            "flags": {},
            "group_id": null
        },
        {
            "label": "g1",
            "shape_type": "rectangle",
            "points": [
                [
                    1635,
                    1095
                ],
                [
                    1641,
                    1254
                ]
            ],
            "flags": {},
            "group_id": null
        },
        {
            "label": "g1",
            "shape_type": "rectangle",
            "points": [
                [
                    1555,
                    1100
                ],
                [
                    1562,
                    1259
                ]
            ],
            "flags": {},
            "group_id": null
        },
        {
            "label": "g1",
            "shape_type": "rectangle",
            "points": [
                [
                    1505,
                    1101
                ],
                [
                    1511,
                    1259
                ]
            ],
            "flags": {},
            "group_id": null
        },
        {
            "label": "p1-2",
            "shape_type": "rectangle",
            "points": [
                [
                    1475,
                    1095
                ],
                [
                    1820,
                    1260
                ]
            ],
            "flags": {},
            "group_id": null
        },
        {
            "label": "a1-1",
            "shape_type": "rectangle",
            "points": [
                [
                    1474,
                    1402
                ],
                [
                    1497,
                    1502
                ]
            ],
            "flags": {},
            "group_id": null
        },
        {
            "label": "a1-1",
            "shape_type": "rectangle",
            "points": [
                [
                    1525,
                    1398
                ],
                [
                    1549,
                    1497
                ]
            ],
            "flags": {},
            "group_id": null
        },
        {
            "label": "a1-1",
            "shape_type": "rectangle",
            "points": [
                [
                    1605,
                    1396
                ],
                [
                    1629,
                    1496
                ]
            ],
            "flags": {},
            "group_id": null
        },
        {
            "label": "a1-2",
            "shape_type": "rectangle",
            "points": [
                [
                    1668,
                    1394
                ],
                [
                    1694,
                    1492
                ]
            ],
            "flags": {},
            "group_id": null
        },
        {
            "label": "a1-2",
            "shape_type": "rectangle",
            "points": [
                [
                    1732,
                    1393
                ],
                [
                    1759,
                    1491
                ]
            ],
            "flags": {},
            "group_id": null
        },
        {
            "label": "a1-2",
            "shape_type": "rectangle",
            "points": [
                [
                    1793,
                    1394
                ],
                [
                    1818,
                    1492
                ]
            ],
            "flags": {},
            "group_id": null
        },
        {
            "label": "g1",
            "shape_type": "rectangle",
            "points": [
                [
                    1779,
                    1391
                ],
                [
                    1784,
                    1549
                ]
            ],
            "flags": {},
            "group_id": null
        },
        {
            "label": "g1",
            "shape_type": "rectangle",
            "points": [
                [
                    1718,
                    1391
                ],
                [
                    1724,
                    1550
                ]
            ],
            "flags": {},
            "group_id": null
        },
        {
            "label": "g1",
            "shape_type": "rectangle",
            "points": [
                [
                    1654,
                    1391
                ],
                [
                    1660,
                    1550
                ]
            ],
            "flags": {},
            "group_id": null
        },
        {
            "label": "g1",
            "shape_type": "rectangle",
            "points": [
                [
                    1633,
                    1391
                ],
                [
                    1640,
                    1549
                ]
            ],
            "flags": {},
            "group_id": null
        },
        {
            "label": "g1",
            "shape_type": "rectangle",
            "points": [
                [
                    1554,
                    1395
                ],
                [
                    1561,
                    1555
                ]
            ],
            "flags": {},
            "group_id": null
        },
        {
            "label": "g1",
            "shape_type": "rectangle",
            "points": [
                [
                    1502,
                    1396
                ],
                [
                    1508,
                    1555
                ]
            ],
            "flags": {},
            "group_id": null
        },
        {
            "label": "p1-2",
            "shape_type": "rectangle",
            "points": [
                [
                    1475,
                    1390
                ],
                [
                    1817,
                    1555
                ]
            ],
            "flags": {},
            "group_id": null
        },
        {
            "label": "x1",
            "shape_type": "rectangle",
            "points": [
                [
                    1521,
                    1759
                ],
                [
                    1760,
                    1785
                ]
            ],
            "flags": {},
            "group_id": null
        },
        {
            "label": "t3-l",
            "shape_type": "rectangle",
            "points": [
                [
                    1458,
                    612
                ],
                [
                    1833,
                    2579
                ]
            ],
            "flags": {},
            "group_id": null
        },
        {
            "label": "tl",
            "shape_type": "rectangle",
            "points": [
                [
                    2290,
                    175
                ],
                [
                    3187,
                    817
                ]
            ],
            "flags": {},
            "group_id": null
        },
        {
            "label": "sm",
            "shape_type": "rectangle",
            "points": [
                [
                    2333,
                    2105
                ],
                [
                    3945,
                    2455
                ]
            ],
            "flags": {},
            "group_id": null
        },
        {
            "label": "btl",
            "shape_type": "rectangle",
            "points": [
                [
                    2326,
                    2538
                ],
                [
                    4041,
                    2827
                ]
            ],
            "flags": {},
            "group_id": null
        },
        {
            "label": "j1",
            "shape_type": "rectangle",
            "points": [
                [
                    3617,
                    216
                ],
                [
                    3652,
                    256
                ]
            ],
            "flags": {},
            "group_id": null
        },
        {
            "label": "j1",
            "shape_type": "rectangle",
            "points": [
                [
                    3744,
                    257
                ],
                [
                    3981,
                    317
                ]
            ],
            "flags": {},
            "group_id": null
        },
        {
            "label": "j1",
            "shape_type": "rectangle",
            "points": [
                [
                    3726,
                    572
                ],
                [
                    4001,
                    629
                ]
            ],
            "flags": {},
            "group_id": null
        },
        {
            "label": "j1",
            "shape_type": "rectangle",
            "points": [
                [
                    3261,
                    525
                ],
                [
                    3539,
                    585
                ]
            ],
            "flags": {},
            "group_id": null
        },
        {
            "label": "mask",
            "lineType": [
                "LLLLLLLLLLLLLLLLL"
            ],
            "shape_type": "polygon",
            "points": [
                [
                    2254,
                    156
                ],
                [
                    3164,
                    170
                ],
                [
                    3206,
                    270
                ],
                [
                    3225,
                    400
                ],
                [
                    3226,
                    477
                ],
                [
                    3229,
                    549
                ],
                [
                    3224,
                    589
                ],
                [
                    3134,
                    604
                ],
                [
                    2901,
                    595
                ],
                [
                    2741,
                    595
                ],
                [
                    2699,
                    604
                ],
                [
                    2679,
                    630
                ],
                [
                    2636,
                    832
                ],
                [
                    2577,
                    837
                ],
                [
                    2356,
                    809
                ],
                [
                    2309,
                    549
                ],
                [
                    2254,
                    156
                ]
            ],
            "flags": {},
            "group_id": null
        },
        {
            "label": "mask",
            "lineType": [
                "LLLLLLLLLLLLLLLL"
            ],
            "shape_type": "polygon",
            "points": [
                [
                    3277,
                    614
                ],
                [
                    3251,
                    590
                ],
                [
                    3247,
                    525
                ],
                [
                    3276,
                    454
                ],
                [
                    3439,
                    367
                ],
                [
                    3600,
                    242
                ],
                [
                    3617,
                    192
                ],
                [
                    3700,
                    189
                ],
                [
                    4009,
                    242
                ],
                [
                    3992,
                    304
                ],
                [
                    4002,
                    584
                ],
                [
                    4005,
                    640
                ],
                [
                    3959,
                    679
                ],
                [
                    3867,
                    705
                ],
                [
                    3474,
                    732
                ],
                [
                    3277,
                    614
                ]
            ],
            "flags": {},
            "group_id": null
        },
        {
            "label": "mask",
            "lineType": [
                "LLLLL"
            ],
            "shape_type": "polygon",
            "points": [
                [
                    2291,
                    947
                ],
                [
                    2309,
                    1769
                ],
                [
                    4044,
                    1760
                ],
                [
                    4041,
                    1017
                ],
                [
                    2291,
                    947
                ]
            ],
            "flags": {},
            "group_id": null
        },
        {
            "label": "mask",
            "lineType": [
                "LLLLLLLL"
            ],
            "shape_type": "polygon",
            "points": [
                [
                    2320,
                    2079
                ],
                [
                    2340,
                    2481
                ],
                [
                    3977,
                    2479
                ],
                [
                    3965,
                    2402
                ],
                [
                    3926,
                    2329
                ],
                [
                    3789,
                    2184
                ],
                [
                    3785,
                    2110
                ],
                [
                    2320,
                    2079
                ]
            ],
            "flags": {},
            "group_id": null
        },
        {
            "label": "mask",
            "lineType": [
                "LLLLL"
            ],
            "shape_type": "polygon",
            "points": [
                [
                    2324,
                    2527
                ],
                [
                    2321,
                    2827
                ],
                [
                    4036,
                    2827
                ],
                [
                    4044,
                    2534
                ],
                [
                    2324,
                    2527
                ]
            ],
            "flags": {},
            "group_id": null
        },
        {
            "label": "mask",
            "lineType": [
                "LLLLLLLLLLLLLLLLLLLLLLLLLLLLLLLLLLLLLLLL"
            ],
            "shape_type": "polygon",
            "points": [
                [
                    485,
                    2652
                ],
                [
                    710,
                    2684
                ],
                [
                    1344,
                    2757
                ],
                [
                    1441,
                    2730
                ],
                [
                    1517,
                    2681
                ],
                [
                    1720,
                    2662
                ],
                [
                    1930,
                    2647
                ],
                [
                    2164,
                    2634
                ],
                [
                    2089,
                    2417
                ],
                [
                    1869,
                    1942
                ],
                [
                    1919,
                    1722
                ],
                [
                    2111,
                    1606
                ],
                [
                    2217,
                    1535
                ],
                [
                    2169,
                    632
                ],
                [
                    1734,
                    589
                ],
                [
                    1544,
                    561
                ],
                [
                    1424,
                    596
                ],
                [
                    1221,
                    630
                ],
                [
                    1170,
                    711
                ],
                [
                    1231,
                    829
                ],
                [
                    1396,
                    817
                ],
                [
                    1394,
                    947
                ],
                [
                    1380,
                    1125
                ],
                [
                    1355,
                    1222
                ],
                [
                    1226,
                    1250
                ],
                [
                    1191,
                    1300
                ],
                [
                    1250,
                    1374
                ],
                [
                    1420,
                    1379
                ],
                [
                    1452,
                    1594
                ],
                [
                    1447,
                    1747
                ],
                [
                    1440,
                    1919
                ],
                [
                    1435,
                    2040
                ],
                [
                    1415,
                    2200
                ],
                [
                    1337,
                    2286
                ],
                [
                    1167,
                    2384
                ],
                [
                    1074,
                    2482
                ],
                [
                    906,
                    2496
                ],
                [
                    745,
                    2501
                ],
                [
                    486,
                    2547
                ],
                [
                    485,
                    2652
                ]
            ],
            "flags": {},
            "group_id": null
        },
        {
            "label": "mask",
            "lineType": [
                "LLLLLLLLLLLLLLLLLLL"
            ],
            "shape_type": "polygon",
            "points": [
                [
                    520,
                    2141
                ],
                [
                    679,
                    2157
                ],
                [
                    922,
                    2134
                ],
                [
                    1067,
                    2134
                ],
                [
                    1191,
                    2091
                ],
                [
                    1200,
                    2001
                ],
                [
                    1189,
                    1937
                ],
                [
                    1125,
                    1825
                ],
                [
                    935,
                    1712
                ],
                [
                    850,
                    1691
                ],
                [
                    768,
                    1700
                ],
                [
                    745,
                    1722
                ],
                [
                    707,
                    1782
                ],
                [
                    668,
                    1866
                ],
                [
                    636,
                    1912
                ],
                [
                    590,
                    1953
                ],
                [
                    516,
                    1981
                ],
                [
                    509,
                    1987
                ],
                [
                    520,
                    2141
                ]
            ],
            "flags": {},
            "group_id": null
        },
        {
            "label": "mask",
            "lineType": [
                "LLLLLLLLLLLLLLLLLLLLLLL"
            ],
            "shape_type": "polygon",
            "points": [
                [
                    712,
                    1657
                ],
                [
                    846,
                    1653
                ],
                [
                    969,
                    1671
                ],
                [
                    1009,
                    1608
                ],
                [
                    1056,
                    1573
                ],
                [
                    1120,
                    1527
                ],
                [
                    1134,
                    1499
                ],
                [
                    1122,
                    1434
                ],
                [
                    1091,
                    1292
                ],
                [
                    1097,
                    1245
                ],
                [
                    1099,
                    1208
                ],
                [
                    1039,
                    1173
                ],
                [
                    1000,
                    1172
                ],
                [
                    889,
                    1176
                ],
                [
                    802,
                    1182
                ],
                [
                    740,
                    1202
                ],
                [
                    706,
                    1214
                ],
                [
                    690,
                    1241
                ],
                [
                    605,
                    1481
                ],
                [
                    597,
                    1497
                ],
                [
                    585,
                    1541
                ],
                [
                    585,
                    1573
                ],
                [
                    712,
                    1657
                ]
            ],
            "flags": {},
            "group_id": null
        },
        {
            "label": "mask",
            "lineType": [
                "LLLLLLLLLLLLLLLLLLLLLL"
            ],
            "shape_type": "polygon",
            "points": [
                [
                    495,
                    1078
                ],
                [
                    654,
                    1086
                ],
                [
                    805,
                    1081
                ],
                [
                    1049,
                    1079
                ],
                [
                    1043,
                    1016
                ],
                [
                    1016,
                    944
                ],
                [
                    975,
                    850
                ],
                [
                    956,
                    742
                ],
                [
                    894,
                    686
                ],
                [
                    852,
                    674
                ],
                [
                    779,
                    665
                ],
                [
                    726,
                    679
                ],
                [
                    663,
                    698
                ],
                [
                    594,
                    714
                ],
                [
                    566,
                    728
                ],
                [
                    557,
                    791
                ],
                [
                    564,
                    840
                ],
                [
                    595,
                    900
                ],
                [
                    583,
                    949
                ],
                [
                    540,
                    965
                ],
                [
                    502,
                    985
                ],
                [
                    495,
                    1078
                ]
            ],
            "flags": {},
            "group_id": null
        },
        {
            "label": "wlb",
            "shape_type": "rectangle",
            "points": [
                [
                    2326,
                    983
                ],
                [
                    4038,
                    1739
                ]
            ],
            "flags": {},
            "group_id": null
        },
        {
            "label": "xtl",
            "shape_type": "rectangle",
            "points": [
                [
                    2438,
                    774
                ],
                [
                    2472,
                    807
                ]
            ],
            "flags": {},
            "group_id": null
        },
        {
            "label": "xtl",
            "shape_type": "rectangle",
            "points": [
                [
                    2419,
                    721
                ],
                [
                    2491,
                    725
                ]
            ],
            "flags": {},
            "group_id": null
        },
        {
            "label": "xtl",
            "shape_type": "rectangle",
            "points": [
                [
                    2415,
                    646
                ],
                [
                    2488,
                    654
                ]
            ],
            "flags": {},
            "group_id": null
        },
        {
            "label": "xtl",
            "shape_type": "rectangle",
            "points": [
                [
                    2403,
                    526
                ],
                [
                    2470,
                    564
                ]
            ],
            "flags": {},
            "group_id": null
        },
        {
            "label": "xtl",
            "shape_type": "rectangle",
            "points": [
                [
                    2404,
                    460
                ],
                [
                    2471,
                    500
                ]
            ],
            "flags": {},
            "group_id": null
        },
        {
            "label": "xtl",
            "shape_type": "rectangle",
            "points": [
                [
                    2404,
                    393
                ],
                [
                    2470,
                    432
                ]
            ],
            "flags": {},
            "group_id": null
        },
        {
            "label": "xtl",
            "shape_type": "rectangle",
            "points": [
                [
                    2405,
                    327
                ],
                [
                    2470,
                    367
                ]
            ],
            "flags": {},
            "group_id": null
        },
        {
            "label": "xtl",
            "shape_type": "rectangle",
            "points": [
                [
                    2403,
                    263
                ],
                [
                    2470,
                    301
                ]
            ],
            "flags": {},
            "group_id": null
        },
        {
            "label": "xtl",
            "shape_type": "rectangle",
            "points": [
                [
                    2403,
                    196
                ],
                [
                    2470,
                    235
                ]
            ],
            "flags": {},
            "group_id": null
        },
        {
            "label": "wztl",
            "shape_type": "rectangle",
            "points": [
                [
                    2497,
                    187
                ],
                [
                    2767,
                    236
                ]
            ],
            "flags": {},
            "group_id": null
        },
        {
            "label": "wztl",
            "shape_type": "rectangle",
            "points": [
                [
                    2498,
                    245
                ],
                [
                    2784,
                    294
                ]
            ],
            "flags": {},
            "group_id": null
        },
        {
            "label": "wztl",
            "shape_type": "rectangle",
            "points": [
                [
                    2497,
                    310
                ],
                [
                    2745,
                    360
                ]
            ],
            "flags": {},
            "group_id": null
        },
        {
            "label": "wztl",
            "shape_type": "rectangle",
            "points": [
                [
                    2504,
                    375
                ],
                [
                    2668,
                    425
                ]
            ],
            "flags": {},
            "group_id": null
        },
        {
            "label": "wztl",
            "shape_type": "rectangle",
            "points": [
                [
                    2506,
                    444
                ],
                [
                    2721,
                    493
                ]
            ],
            "flags": {},
            "group_id": null
        },
        {
            "label": "wztl",
            "shape_type": "rectangle",
            "points": [
                [
                    2508,
                    510
                ],
                [
                    2656,
                    560
                ]
            ],
            "flags": {},
            "group_id": null
        },
        {
            "label": "wztl",
            "shape_type": "rectangle",
            "points": [
                [
                    2522,
                    619
                ],
                [
                    2631,
                    669
                ]
            ],
            "flags": {},
            "group_id": null
        },
        {
            "label": "wztl",
            "shape_type": "rectangle",
            "points": [
                [
                    2524,
                    692
                ],
                [
                    2634,
                    739
                ]
            ],
            "flags": {},
            "group_id": null
        },
        {
            "label": "wztl",
            "shape_type": "rectangle",
            "points": [
                [
                    2526,
                    766
                ],
                [
                    2601,
                    818
                ]
            ],
            "flags": {},
            "group_id": null
        },
        {
            "label": "wztl",
            "shape_type": "rectangle",
            "points": [
                [
                    2967,
                    516
                ],
                [
                    3186,
                    567
                ]
            ],
            "flags": {},
            "group_id": null
        },
        {
            "label": "wztl",
            "shape_type": "rectangle",
            "points": [
                [
                    2967,
                    445
                ],
                [
                    3187,
                    494
                ]
            ],
            "flags": {},
            "group_id": null
        },
        {
            "label": "wztl",
            "shape_type": "rectangle",
            "points": [
                [
                    2966,
                    377
                ],
                [
                    3190,
                    429
                ]
            ],
            "flags": {},
            "group_id": null
        },
        {
            "label": "wztl",
            "shape_type": "rectangle",
            "points": [
                [
                    2970,
                    307
                ],
                [
                    3138,
                    357
                ]
            ],
            "flags": {},
            "group_id": null
        },
        {
            "label": "wztl",
            "shape_type": "rectangle",
            "points": [
                [
                    2968,
                    239
                ],
                [
                    3149,
                    290
                ]
            ],
            "flags": {},
            "group_id": null
        },
        {
            "label": "wztl",
            "shape_type": "rectangle",
            "points": [
                [
                    2969,
                    177
                ],
                [
                    3148,
                    228
                ]
            ],
            "flags": {},
            "group_id": null
        },
        {
            "label": "xtl",
            "shape_type": "rectangle",
            "points": [
                [
                    2878,
                    203
                ],
                [
                    2938,
                    227
                ]
            ],
            "flags": {},
            "group_id": null
        },
        {
            "label": "xtl",
            "shape_type": "rectangle",
            "points": [
                [
                    2879,
                    261
                ],
                [
                    2940,
                    288
                ]
            ],
            "flags": {},
            "group_id": null
        },
        {
            "label": "xtl",
            "shape_type": "rectangle",
            "points": [
                [
                    2878,
                    340
                ],
                [
                    2939,
                    347
                ]
            ],
            "flags": {},
            "group_id": null
        },
        {
            "label": "xtl",
            "shape_type": "rectangle",
            "points": [
                [
                    2870,
                    386
                ],
                [
                    2924,
                    429
                ]
            ],
            "flags": {},
            "group_id": null
        },
        {
            "label": "xtl",
            "shape_type": "rectangle",
            "points": [
                [
                    2870,
                    454
                ],
                [
                    2935,
                    493
                ]
            ],
            "flags": {},
            "group_id": null
        },
        {
            "label": "xtl",
            "shape_type": "rectangle",
            "points": [
                [
                    2867,
                    518
                ],
                [
                    2935,
                    560
                ]
            ],
            "flags": {},
            "group_id": null
        },
        {
            "label": "Ns",
            "shape_type": "point",
            "points": [
                [
                    3636,
                    426
                ]
            ],
            "flags": {},
            "group_id": null
        },
        {
            "label": "Ne",
            "shape_type": "point",
            "points": [
                [
                    3635,
                    294
                ]
            ],
            "flags": {},
            "group_id": null
        },
        {
            "label": "wz1",
            "shape_type": "rectangle",
            "points": [
                [
                    1238,
                    690
                ],
                [
                    1382,
                    724
                ]
            ],
            "flags": {},
            "group_id": null
        },
        {
            "label": "wz1",
            "shape_type": "rectangle",
            "points": [
                [
                    1494,
                    597
                ],
                [
                    1575,
                    634
                ]
            ],
            "flags": {},
            "group_id": null
        },
        {
            "label": "wz1",
            "shape_type": "rectangle",
            "points": [
                [
                    1238,
                    1297
                ],
                [
                    1380,
                    1331
                ]
            ],
            "flags": {},
            "group_id": null
        },
        {
            "label": "wz1-l",
            "lineType": "LL",
            "shape_type": "line",
            "points": [
                [
                    1358,
                    1317
                ],
                [
                    1488,
                    1405
                ]
            ],
            "flags": {},
            "group_id": null
        },
        {
            "label": "wz1-l",
            "lineType": "LL",
            "shape_type": "line",
            "points": [
                [
                    1351,
                    710
                ],
                [
                    1624,
                    791
                ]
            ],
            "flags": {},
            "group_id": null
        },
        {
            "label": "wz1-l",
            "lineType": "LL",
            "shape_type": "line",
            "points": [
                [
                    1542,
                    617
                ],
                [
                    1643,
                    725
                ]
            ],
            "flags": {},
            "group_id": null
        },
        {
            "label": "wz3",
            "shape_type": "rectangle",
            "points": [
                [
                    525,
                    1992
                ],
                [
                    694,
                    2053
                ]
            ],
            "flags": {},
            "group_id": null
        },
        {
            "label": "wz3",
            "shape_type": "rectangle",
            "points": [
                [
                    1009,
                    1978
                ],
                [
                    1169,
                    2040
                ]
            ],
            "flags": {},
            "group_id": null
        },
        {
            "label": "wz3-l",
            "lineType": "LL",
            "shape_type": "line",
            "points": [
                [
                    716,
                    1994
                ],
                [
                    642,
                    2019
                ]
            ],
            "flags": {},
            "group_id": null
        },
        {
            "label": "wz3-l",
            "lineType": "LL",
            "shape_type": "line",
            "points": [
                [
                    980,
                    1988
                ],
                [
                    1030,
                    2007
                ]
            ],
            "flags": {},
            "group_id": null
        },
        {
            "label": "wz3",
            "shape_type": "rectangle",
            "points": [
                [
                    611,
                    1535
                ],
                [
                    694,
                    1549
                ]
            ],
            "flags": {},
            "group_id": null
        },
        {
            "label": "wz3",
            "shape_type": "rectangle",
            "points": [
                [
                    1021,
                    1489
                ],
                [
                    1102,
                    1504
                ]
            ],
            "flags": {},
            "group_id": null
        },
        {
            "label": "wz3",
            "shape_type": "rectangle",
            "points": [
                [
                    725,
                    1230
                ],
                [
                    808,
                    1244
                ]
            ],
            "flags": {},
            "group_id": null
        },
        {
            "label": "wz3",
            "shape_type": "rectangle",
            "points": [
                [
                    906,
                    1202
                ],
                [
                    1066,
                    1261
                ]
            ],
            "flags": {},
            "group_id": null
        },
        {
            "label": "wz3-l",
            "lineType": "LL",
            "shape_type": "line",
            "points": [
                [
                    783,
                    1238
                ],
                [
                    802,
                    1263
                ]
            ],
            "flags": {},
            "group_id": null
        },
        {
            "label": "wz3-l",
            "lineType": "LL",
            "shape_type": "line",
            "points": [
                [
                    916,
                    1245
                ],
                [
                    869,
                    1255
                ]
            ],
            "flags": {},
            "group_id": null
        },
        {
            "label": "wz3-l",
            "lineType": "LL",
            "shape_type": "line",
            "points": [
                [
                    678,
                    1540
                ],
                [
                    716,
                    1531
                ]
            ],
            "flags": {},
            "group_id": null
        },
        {
            "label": "wz3-l",
            "lineType": "LL",
            "shape_type": "line",
            "points": [
                [
                    1031,
                    1496
                ],
                [
                    1005,
                    1484
                ]
            ],
            "flags": {},
            "group_id": null
        }
    ],
    "flags": {},
    "imageData": null,
    "version": "4.5.7"
}