{
    "imageHeight": 2978,
    "imageWidth": 4210,
    "imagePath": "HY0568-名士花园工艺楼(添臣聚融)5G无线基站天馈线安装示意图.png",
    "shapes": [
        {
            "label": "t1",
            "shape_type": "rectangle",
            "points": [
                [
                    895,
                    957
                ],
                [
                    955,
                    2579
                ]
            ],
            "flags": {},
            "group_id": null
        },
        {
            "label": "c1",
            "shape_type": "rectangle",
            "points": [
                [
                    923,
                    959
                ],
                [
                    927,
                    1098
                ]
            ],
            "flags": {},
            "group_id": null
        },
        {
            "label": "h1",
            "shape_type": "rectangle",
            "points": [
                [
                    446,
                    960
                ],
                [
                    679,
                    1059
                ]
            ],
            "flags": {},
            "group_id": null
        },
        {
            "label": "h1",
            "shape_type": "rectangle",
            "points": [
                [
                    444,
                    1227
                ],
                [
                    669,
                    1325
                ]
            ],
            "flags": {},
            "group_id": null
        },
        {
            "label": "h1",
            "shape_type": "rectangle",
            "points": [
                [
                    442,
                    1350
                ],
                [
                    672,
                    1448
                ]
            ],
            "flags": {},
            "group_id": null
        },
        {
            "label": "h1",
            "shape_type": "rectangle",
            "points": [
                [
                    442,
                    1483
                ],
                [
                    671,
                    1581
                ]
            ],
            "flags": {},
            "group_id": null
        },
        {
            "label": "n1",
            "shape_type": "rectangle",
            "points": [
                [
                    3120,
                    281
                ],
                [
                    3868,
                    742
                ]
            ],
            "flags": {},
            "group_id": null
        },
        {
            "label": "v1",
            "shape_type": "rectangle",
            "points": [
                [
                    3452,
                    820
                ],
                [
                    3704,
                    889
                ]
            ],
            "flags": {},
            "group_id": null
        },
        {
            "label": "v1",
            "shape_type": "rectangle",
            "points": [
                [
                    1467,
                    2149
                ],
                [
                    1844,
                    2217
                ]
            ],
            "flags": {},
            "group_id": null
        },
        {
            "label": "vp1-1",
            "shape_type": "rectangle",
            "points": [
                [
                    1593,
                    1847
                ],
                [
                    1689,
                    1940
                ]
            ],
            "flags": {},
            "group_id": null
        },
        {
            "label": "va1",
            "shape_type": "rectangle",
            "points": [
                [
                    1608,
                    1722
                ],
                [
                    1676,
                    1760
                ]
            ],
            "flags": {},
            "group_id": null
        },
        {
            "label": "va1",
            "shape_type": "rectangle",
            "points": [
                [
                    1754,
                    1940
                ],
                [
                    1806,
                    2007
                ]
            ],
            "flags": {},
            "group_id": null
        },
        {
            "label": "va1",
            "shape_type": "rectangle",
            "points": [
                [
                    1480,
                    1942
                ],
                [
                    1530,
                    2007
                ]
            ],
            "flags": {},
            "group_id": null
        },
        {
            "label": "vt1",
            "shape_type": "rectangle",
            "points": [
                [
                    1293,
                    342
                ],
                [
                    1468,
                    516
                ]
            ],
            "flags": {},
            "group_id": null
        },
        {
            "label": "b1",
            "shape_type": "rectangle",
            "points": [
                [
                    1523,
                    445
                ],
                [
                    1561,
                    499
                ]
            ],
            "flags": {},
            "group_id": null
        },
        {
            "label": "v1",
            "shape_type": "rectangle",
            "points": [
                [
                    1335,
                    610
                ],
                [
                    1426,
                    658
                ]
            ],
            "flags": {},
            "group_id": null
        },
        {
            "label": "d1",
            "shape_type": "rectangle",
            "points": [
                [
                    1147,
                    587
                ],
                [
                    1201,
                    677
                ]
            ],
            "flags": {},
            "group_id": null
        },
        {
            "label": "d1",
            "shape_type": "rectangle",
            "points": [
                [
                    1573,
                    587
                ],
                [
                    1627,
                    678
                ]
            ],
            "flags": {},
            "group_id": null
        },
        {
            "label": "b1",
            "shape_type": "rectangle",
            "points": [
                [
                    1008,
                    2402
                ],
                [
                    1141,
                    2579
                ]
            ],
            "flags": {},
            "group_id": null
        },
        {
            "label": "x1",
            "shape_type": "rectangle",
            "points": [
                [
                    874,
                    2157
                ],
                [
                    978,
                    2223
                ]
            ],
            "flags": {},
            "group_id": null
        },
        {
            "label": "a1-1",
            "shape_type": "rectangle",
            "points": [
                [
                    829,
                    1082
                ],
                [
                    853,
                    1186
                ]
            ],
            "flags": {},
            "group_id": null
        },
        {
            "label": "g1",
            "shape_type": "rectangle",
            "points": [
                [
                    854,
                    1076
                ],
                [
                    860,
                    1194
                ]
            ],
            "flags": {},
            "group_id": null
        },
        {
            "label": "g1",
            "shape_type": "rectangle",
            "points": [
                [
                    989,
                    1076
                ],
                [
                    994,
                    1194
                ]
            ],
            "flags": {},
            "group_id": null
        },
        {
            "label": "a1-2",
            "shape_type": "rectangle",
            "points": [
                [
                    998,
                    1081
                ],
                [
                    1022,
                    1186
                ]
            ],
            "flags": {},
            "group_id": null
        },
        {
            "label": "a1-3",
            "shape_type": "rectangle",
            "points": [
                [
                    912,
                    1079
                ],
                [
                    937,
                    1189
                ]
            ],
            "flags": {},
            "group_id": null
        },
        {
            "label": "p1-1",
            "shape_type": "rectangle",
            "points": [
                [
                    828,
                    1077
                ],
                [
                    1023,
                    1195
                ]
            ],
            "flags": {},
            "group_id": null
        },
        {
            "label": "a1-1",
            "shape_type": "rectangle",
            "points": [
                [
                    837,
                    1205
                ],
                [
                    852,
                    1256
                ]
            ],
            "flags": {},
            "group_id": null
        },
        {
            "label": "g1",
            "shape_type": "rectangle",
            "points": [
                [
                    854,
                    1202
                ],
                [
                    860,
                    1320
                ]
            ],
            "flags": {},
            "group_id": null
        },
        {
            "label": "a1-1",
            "shape_type": "rectangle",
            "points": [
                [
                    824,
                    1259
                ],
                [
                    849,
                    1309
                ]
            ],
            "flags": {},
            "group_id": null
        },
        {
            "label": "a1-2",
            "shape_type": "rectangle",
            "points": [
                [
                    997,
                    1205
                ],
                [
                    1012,
                    1257
                ]
            ],
            "flags": {},
            "group_id": null
        },
        {
            "label": "a1-2",
            "shape_type": "rectangle",
            "points": [
                [
                    999,
                    1258
                ],
                [
                    1024,
                    1308
                ]
            ],
            "flags": {},
            "group_id": null
        },
        {
            "label": "g1",
            "shape_type": "rectangle",
            "points": [
                [
                    989,
                    1202
                ],
                [
                    995,
                    1320
                ]
            ],
            "flags": {},
            "group_id": null
        },
        {
            "label": "a1-4",
            "shape_type": "rectangle",
            "points": [
                [
                    917,
                    1205
                ],
                [
                    932,
                    1256
                ]
            ],
            "flags": {},
            "group_id": null
        },
        {
            "label": "a1-4",
            "shape_type": "rectangle",
            "points": [
                [
                    914,
                    1268
                ],
                [
                    933,
                    1317
                ]
            ],
            "flags": {},
            "group_id": null
        },
        {
            "label": "p1-1",
            "shape_type": "rectangle",
            "points": [
                [
                    825,
                    1202
                ],
                [
                    1025,
                    1321
                ]
            ],
            "flags": {},
            "group_id": null
        },
        {
            "label": "a1-1",
            "shape_type": "rectangle",
            "points": [
                [
                    828,
                    1375
                ],
                [
                    853,
                    1479
                ]
            ],
            "flags": {},
            "group_id": null
        },
        {
            "label": "g1",
            "shape_type": "rectangle",
            "points": [
                [
                    855,
                    1371
                ],
                [
                    859,
                    1488
                ]
            ],
            "flags": {},
            "group_id": null
        },
        {
            "label": "g1",
            "shape_type": "rectangle",
            "points": [
                [
                    990,
                    1371
                ],
                [
                    995,
                    1488
                ]
            ],
            "flags": {},
            "group_id": null
        },
        {
            "label": "a1-2",
            "shape_type": "rectangle",
            "points": [
                [
                    998,
                    1375
                ],
                [
                    1022,
                    1478
                ]
            ],
            "flags": {},
            "group_id": null
        },
        {
            "label": "a1-3",
            "shape_type": "rectangle",
            "points": [
                [
                    911,
                    1375
                ],
                [
                    938,
                    1485
                ]
            ],
            "flags": {},
            "group_id": null
        },
        {
            "label": "p1-1",
            "shape_type": "rectangle",
            "points": [
                [
                    827,
                    1369
                ],
                [
                    1022,
                    1488
                ]
            ],
            "flags": {},
            "group_id": null
        },
        {
            "label": "a1-1",
            "shape_type": "rectangle",
            "points": [
                [
                    829,
                    1510
                ],
                [
                    853,
                    1614
                ]
            ],
            "flags": {},
            "group_id": null
        },
        {
            "label": "g1",
            "shape_type": "rectangle",
            "points": [
                [
                    855,
                    1505
                ],
                [
                    860,
                    1624
                ]
            ],
            "flags": {},
            "group_id": null
        },
        {
            "label": "a1-3",
            "shape_type": "rectangle",
            "points": [
                [
                    912,
                    1508
                ],
                [
                    938,
                    1621
                ]
            ],
            "flags": {},
            "group_id": null
        },
        {
            "label": "g1",
            "shape_type": "rectangle",
            "points": [
                [
                    989,
                    1504
                ],
                [
                    995,
                    1623
                ]
            ],
            "flags": {},
            "group_id": null
        },
        {
            "label": "a1-2",
            "shape_type": "rectangle",
            "points": [
                [
                    997,
                    1511
                ],
                [
                    1023,
                    1615
                ]
            ],
            "flags": {},
            "group_id": null
        },
        {
            "label": "p1-1",
            "shape_type": "rectangle",
            "points": [
                [
                    828,
                    1504
                ],
                [
                    1023,
                    1624
                ]
            ],
            "flags": {},
            "group_id": null
        },
        {
            "label": "v1",
            "shape_type": "rectangle",
            "points": [
                [
                    808,
                    2617
                ],
                [
                    999,
                    2691
                ]
            ],
            "flags": {},
            "group_id": null
        },
        {
            "label": "seven",
            "shape_type": "point",
            "points": [
                [
                    1523,
                    445
                ]
            ],
            "flags": {},
            "group_id": null
        },
        {
            "label": "eight",
            "shape_type": "point",
            "points": [
                [
                    1563,
                    446
                ]
            ],
            "flags": {},
            "group_id": null
        },
        {
            "label": "nine",
            "shape_type": "point",
            "points": [
                [
                    1523,
                    500
                ]
            ],
            "flags": {},
            "group_id": null
        },
        {
            "label": "ten",
            "shape_type": "point",
            "points": [
                [
                    1561,
                    500
                ]
            ],
            "flags": {},
            "group_id": null
        },
        {
            "label": "twelve",
            "shape_type": "point",
            "points": [
                [
                    1561,
                    472
                ]
            ],
            "flags": {},
            "group_id": null
        },
        {
            "label": "seven",
            "shape_type": "point",
            "points": [
                [
                    1010,
                    2401
                ]
            ],
            "flags": {},
            "group_id": null
        },
        {
            "label": "eight",
            "shape_type": "point",
            "points": [
                [
                    1142,
                    2403
                ]
            ],
            "flags": {},
            "group_id": null
        },
        {
            "label": "fourteen",
            "shape_type": "point",
            "points": [
                [
                    1007,
                    2579
                ]
            ],
            "flags": {},
            "group_id": null
        },
        {
            "label": "fourteen",
            "shape_type": "point",
            "points": [
                [
                    1140,
                    2578
                ]
            ],
            "flags": {},
            "group_id": null
        },
        {
            "label": "g1",
            "shape_type": "rectangle",
            "points": [
                [
                    921,
                    1077
                ],
                [
                    928,
                    1194
                ]
            ],
            "flags": {},
            "group_id": null
        },
        {
            "label": "g1",
            "shape_type": "rectangle",
            "points": [
                [
                    922,
                    1202
                ],
                [
                    927,
                    1321
                ]
            ],
            "flags": {},
            "group_id": null
        },
        {
            "label": "g1",
            "shape_type": "rectangle",
            "points": [
                [
                    922,
                    1370
                ],
                [
                    926,
                    1487
                ]
            ],
            "flags": {},
            "group_id": null
        },
        {
            "label": "g1",
            "shape_type": "rectangle",
            "points": [
                [
                    922,
                    1505
                ],
                [
                    927,
                    1622
                ]
            ],
            "flags": {},
            "group_id": null
        },
        {
            "label": "tl",
            "shape_type": "rectangle",
            "points": [
                [
                    2080,
                    197
                ],
                [
                    2979,
                    803
                ]
            ],
            "flags": {},
            "group_id": null
        },
        {
            "label": "j1",
            "shape_type": "rectangle",
            "points": [
                [
                    3502,
                    283
                ],
                [
                    3539,
                    322
                ]
            ],
            "flags": {},
            "group_id": null
        },
        {
            "label": "j1",
            "shape_type": "rectangle",
            "points": [
                [
                    3122,
                    306
                ],
                [
                    3390,
                    364
                ]
            ],
            "flags": {},
            "group_id": null
        },
        {
            "label": "j1",
            "shape_type": "rectangle",
            "points": [
                [
                    3620,
                    408
                ],
                [
                    3865,
                    468
                ]
            ],
            "flags": {},
            "group_id": null
        },
        {
            "label": "j1",
            "shape_type": "rectangle",
            "points": [
                [
                    3482,
                    680
                ],
                [
                    3754,
                    739
                ]
            ],
            "flags": {},
            "group_id": null
        },
        {
            "label": "sm",
            "shape_type": "rectangle",
            "points": [
                [
                    2215,
                    1804
                ],
                [
                    3827,
                    2152
                ]
            ],
            "flags": {},
            "group_id": null
        },
        {
            "label": "btl",
            "shape_type": "rectangle",
            "points": [
                [
                    2326,
                    2539
                ],
                [
                    4040,
                    2826
                ]
            ],
            "flags": {},
            "group_id": null
        },
        {
            "label": "mask",
            "lineType": [
                "LLLLLLLLL"
            ],
            "shape_type": "polygon",
            "points": [
                [
                    2049,
                    182
                ],
                [
                    2970,
                    183
                ],
                [
                    3001,
                    600
                ],
                [
                    2506,
                    638
                ],
                [
                    2467,
                    756
                ],
                [
                    2435,
                    838
                ],
                [
                    2147,
                    817
                ],
                [
                    2062,
                    646
                ],
                [
                    2049,
                    182
                ]
            ],
            "flags": {},
            "group_id": null
        },
        {
            "label": "mask",
            "lineType": [
                "LLLLLLLLLLLLLLLLLLLL"
            ],
            "shape_type": "polygon",
            "points": [
                [
                    3099,
                    409
                ],
                [
                    3101,
                    296
                ],
                [
                    3137,
                    272
                ],
                [
                    3297,
                    269
                ],
                [
                    3439,
                    267
                ],
                [
                    3608,
                    254
                ],
                [
                    3737,
                    310
                ],
                [
                    3886,
                    361
                ],
                [
                    3899,
                    438
                ],
                [
                    3887,
                    491
                ],
                [
                    3866,
                    569
                ],
                [
                    3809,
                    687
                ],
                [
                    3801,
                    713
                ],
                [
                    3787,
                    786
                ],
                [
                    3770,
                    849
                ],
                [
                    3747,
                    908
                ],
                [
                    3712,
                    910
                ],
                [
                    3417,
                    907
                ],
                [
                    3300,
                    612
                ],
                [
                    3099,
                    409
                ]
            ],
            "flags": {},
            "group_id": null
        },
        {
            "label": "mask",
            "lineType": [
                "LLLLL"
            ],
            "shape_type": "polygon",
            "points": [
                [
                    2149,
                    866
                ],
                [
                    2167,
                    1657
                ],
                [
                    3916,
                    1642
                ],
                [
                    3933,
                    929
                ],
                [
                    2149,
                    866
                ]
            ],
            "flags": {},
            "group_id": null
        },
        {
            "label": "mask",
            "lineType": [
                "LLLLLL"
            ],
            "shape_type": "polygon",
            "points": [
                [
                    2199,
                    1777
                ],
                [
                    2228,
                    2158
                ],
                [
                    3850,
                    2178
                ],
                [
                    3843,
                    2013
                ],
                [
                    3591,
                    1819
                ],
                [
                    2199,
                    1777
                ]
            ],
            "flags": {},
            "group_id": null
        },
        {
            "label": "mask",
            "lineType": [
                "LLLLL"
            ],
            "shape_type": "polygon",
            "points": [
                [
                    2316,
                    2513
                ],
                [
                    2307,
                    2825
                ],
                [
                    4047,
                    2828
                ],
                [
                    4042,
                    2501
                ],
                [
                    2316,
                    2513
                ]
            ],
            "flags": {},
            "group_id": null
        },
        {
            "label": "mask",
            "lineType": [
                "LLLLLLLLLLLLLLLLLLLLLLLLLLLLLLLLL"
            ],
            "shape_type": "polygon",
            "points": [
                [
                    466,
                    2596
                ],
                [
                    497,
                    2637
                ],
                [
                    618,
                    2687
                ],
                [
                    963,
                    2742
                ],
                [
                    1212,
                    2702
                ],
                [
                    1771,
                    2678
                ],
                [
                    1934,
                    2580
                ],
                [
                    1897,
                    2489
                ],
                [
                    1468,
                    2447
                ],
                [
                    1166,
                    2377
                ],
                [
                    1093,
                    2297
                ],
                [
                    1056,
                    2166
                ],
                [
                    1030,
                    2041
                ],
                [
                    1036,
                    1678
                ],
                [
                    1189,
                    1598
                ],
                [
                    1203,
                    1511
                ],
                [
                    1263,
                    1392
                ],
                [
                    1269,
                    1302
                ],
                [
                    1271,
                    1140
                ],
                [
                    1229,
                    1056
                ],
                [
                    986,
                    939
                ],
                [
                    903,
                    926
                ],
                [
                    760,
                    923
                ],
                [
                    593,
                    923
                ],
                [
                    506,
                    930
                ],
                [
                    433,
                    976
                ],
                [
                    418,
                    1088
                ],
                [
                    411,
                    1152
                ],
                [
                    411,
                    1622
                ],
                [
                    880,
                    1653
                ],
                [
                    792,
                    2476
                ],
                [
                    466,
                    2523
                ],
                [
                    466,
                    2596
                ]
            ],
            "flags": {},
            "group_id": null
        },
        {
            "label": "mask",
            "lineType": [
                "LLLLLLLLLLLLLLLLLLLLLL"
            ],
            "shape_type": "polygon",
            "points": [
                [
                    1070,
                    2001
                ],
                [
                    1068,
                    2081
                ],
                [
                    1089,
                    2173
                ],
                [
                    1113,
                    2225
                ],
                [
                    1303,
                    2239
                ],
                [
                    1566,
                    2275
                ],
                [
                    1898,
                    2235
                ],
                [
                    1994,
                    2072
                ],
                [
                    2102,
                    1948
                ],
                [
                    2140,
                    1850
                ],
                [
                    2186,
                    1770
                ],
                [
                    2184,
                    1730
                ],
                [
                    2136,
                    1712
                ],
                [
                    1893,
                    1678
                ],
                [
                    1586,
                    1621
                ],
                [
                    1512,
                    1525
                ],
                [
                    1363,
                    1509
                ],
                [
                    1279,
                    1530
                ],
                [
                    1239,
                    1543
                ],
                [
                    1227,
                    1585
                ],
                [
                    1228,
                    1757
                ],
                [
                    1070,
                    2001
                ]
            ],
            "flags": {},
            "group_id": null
        },
        {
            "label": "mask",
            "lineType": [
                "LLLLLLLLLLLLL"
            ],
            "shape_type": "polygon",
            "points": [
                [
                    1091,
                    710
                ],
                [
                    1292,
                    722
                ],
                [
                    1545,
                    725
                ],
                [
                    1652,
                    713
                ],
                [
                    1699,
                    644
                ],
                [
                    1624,
                    531
                ],
                [
                    1608,
                    445
                ],
                [
                    1558,
                    283
                ],
                [
                    1453,
                    309
                ],
                [
                    1271,
                    309
                ],
                [
                    1235,
                    319
                ],
                [
                    1110,
                    533
                ],
                [
                    1091,
                    710
                ]
            ],
            "flags": {},
            "group_id": null
        },
        {
            "label": "wlb",
            "shape_type": "rectangle",
            "points": [
                [
                    2186,
                    887
                ],
                [
                    3903,
                    1630
                ]
            ],
            "flags": {},
            "group_id": null
        },
        {
            "label": "xtl",
            "shape_type": "rectangle",
            "points": [
                [
                    2192,
                    216
                ],
                [
                    2259,
                    254
                ]
            ],
            "flags": {},
            "group_id": null
        },
        {
            "label": "xtl",
            "shape_type": "rectangle",
            "points": [
                [
                    2193,
                    282
                ],
                [
                    2258,
                    321
                ]
            ],
            "flags": {},
            "group_id": null
        },
        {
            "label": "xtl",
            "shape_type": "rectangle",
            "points": [
                [
                    2192,
                    346
                ],
                [
                    2258,
                    386
                ]
            ],
            "flags": {},
            "group_id": null
        },
        {
            "label": "xtl",
            "shape_type": "rectangle",
            "points": [
                [
                    2192,
                    414
                ],
                [
                    2259,
                    452
                ]
            ],
            "flags": {},
            "group_id": null
        },
        {
            "label": "xtl",
            "shape_type": "rectangle",
            "points": [
                [
                    2193,
                    480
                ],
                [
                    2259,
                    518
                ]
            ],
            "flags": {},
            "group_id": null
        },
        {
            "label": "xtl",
            "shape_type": "rectangle",
            "points": [
                [
                    2191,
                    546
                ],
                [
                    2258,
                    585
                ]
            ],
            "flags": {},
            "group_id": null
        },
        {
            "label": "xtl",
            "shape_type": "rectangle",
            "points": [
                [
                    2193,
                    639
                ],
                [
                    2259,
                    646
                ]
            ],
            "flags": {},
            "group_id": null
        },
        {
            "label": "xtl",
            "shape_type": "rectangle",
            "points": [
                [
                    2194,
                    718
                ],
                [
                    2261,
                    724
                ]
            ],
            "flags": {},
            "group_id": null
        },
        {
            "label": "xtl",
            "shape_type": "rectangle",
            "points": [
                [
                    2217,
                    773
                ],
                [
                    2248,
                    805
                ]
            ],
            "flags": {},
            "group_id": null
        },
        {
            "label": "wztl",
            "shape_type": "rectangle",
            "points": [
                [
                    2307,
                    688
                ],
                [
                    2412,
                    738
                ]
            ],
            "flags": {},
            "group_id": null
        },
        {
            "label": "wztl",
            "shape_type": "rectangle",
            "points": [
                [
                    2305,
                    610
                ],
                [
                    2411,
                    659
                ]
            ],
            "flags": {},
            "group_id": null
        },
        {
            "label": "wztl",
            "shape_type": "rectangle",
            "points": [
                [
                    2299,
                    526
                ],
                [
                    2490,
                    576
                ]
            ],
            "flags": {},
            "group_id": null
        },
        {
            "label": "wztl",
            "shape_type": "rectangle",
            "points": [
                [
                    2295,
                    461
                ],
                [
                    2508,
                    512
                ]
            ],
            "flags": {},
            "group_id": null
        },
        {
            "label": "wztl",
            "shape_type": "rectangle",
            "points": [
                [
                    2290,
                    392
                ],
                [
                    2555,
                    446
                ]
            ],
            "flags": {},
            "group_id": null
        },
        {
            "label": "wztl",
            "shape_type": "rectangle",
            "points": [
                [
                    2285,
                    330
                ],
                [
                    2530,
                    379
                ]
            ],
            "flags": {},
            "group_id": null
        },
        {
            "label": "wztl",
            "shape_type": "rectangle",
            "points": [
                [
                    2285,
                    265
                ],
                [
                    2430,
                    314
                ]
            ],
            "flags": {},
            "group_id": null
        },
        {
            "label": "wztl",
            "shape_type": "rectangle",
            "points": [
                [
                    2285,
                    205
                ],
                [
                    2555,
                    255
                ]
            ],
            "flags": {},
            "group_id": null
        },
        {
            "label": "xtl",
            "shape_type": "rectangle",
            "points": [
                [
                    2667,
                    223
                ],
                [
                    2726,
                    247
                ]
            ],
            "flags": {},
            "group_id": null
        },
        {
            "label": "xtl",
            "shape_type": "rectangle",
            "points": [
                [
                    2667,
                    281
                ],
                [
                    2726,
                    307
                ]
            ],
            "flags": {},
            "group_id": null
        },
        {
            "label": "xtl",
            "shape_type": "rectangle",
            "points": [
                [
                    2668,
                    360
                ],
                [
                    2726,
                    365
                ]
            ],
            "flags": {},
            "group_id": null
        },
        {
            "label": "xtl",
            "shape_type": "rectangle",
            "points": [
                [
                    2658,
                    406
                ],
                [
                    2713,
                    448
                ]
            ],
            "flags": {},
            "group_id": null
        },
        {
            "label": "xtl",
            "shape_type": "rectangle",
            "points": [
                [
                    2659,
                    472
                ],
                [
                    2723,
                    514
                ]
            ],
            "flags": {},
            "group_id": null
        },
        {
            "label": "xtl",
            "shape_type": "rectangle",
            "points": [
                [
                    2659,
                    539
                ],
                [
                    2723,
                    580
                ]
            ],
            "flags": {},
            "group_id": null
        },
        {
            "label": "wztl",
            "shape_type": "rectangle",
            "points": [
                [
                    2756,
                    539
                ],
                [
                    2975,
                    587
                ]
            ],
            "flags": {},
            "group_id": null
        },
        {
            "label": "wztl",
            "shape_type": "rectangle",
            "points": [
                [
                    2755,
                    462
                ],
                [
                    2975,
                    514
                ]
            ],
            "flags": {},
            "group_id": null
        },
        {
            "label": "wztl",
            "shape_type": "rectangle",
            "points": [
                [
                    2756,
                    398
                ],
                [
                    2974,
                    447
                ]
            ],
            "flags": {},
            "group_id": null
        },
        {
            "label": "wztl",
            "shape_type": "rectangle",
            "points": [
                [
                    2758,
                    325
                ],
                [
                    2924,
                    377
                ]
            ],
            "flags": {},
            "group_id": null
        },
        {
            "label": "wztl",
            "shape_type": "rectangle",
            "points": [
                [
                    2757,
                    260
                ],
                [
                    2937,
                    310
                ]
            ],
            "flags": {},
            "group_id": null
        },
        {
            "label": "wztl",
            "shape_type": "rectangle",
            "points": [
                [
                    2757,
                    198
                ],
                [
                    2937,
                    247
                ]
            ],
            "flags": {},
            "group_id": null
        },
        {
            "label": "Ns",
            "shape_type": "point",
            "points": [
                [
                    3521,
                    516
                ]
            ],
            "flags": {},
            "group_id": null
        },
        {
            "label": "Ne",
            "shape_type": "point",
            "points": [
                [
                    3520,
                    384
                ]
            ],
            "flags": {},
            "group_id": null
        },
        {
            "label": "wz3",
            "shape_type": "rectangle",
            "points": [
                [
                    671,
                    1080
                ],
                [
                    797,
                    1122
                ]
            ],
            "flags": {},
            "group_id": null
        },
        {
            "label": "wz1",
            "shape_type": "rectangle",
            "points": [
                [
                    1111,
                    1101
                ],
                [
                    1231,
                    1208
                ]
            ],
            "flags": {},
            "group_id": null
        },
        {
            "label": "wz1",
            "shape_type": "rectangle",
            "points": [
                [
                    1052,
                    1333
                ],
                [
                    1216,
                    1375
                ]
            ],
            "flags": {},
            "group_id": null
        },
        {
            "label": "wz3",
            "shape_type": "rectangle",
            "points": [
                [
                    1050,
                    1412
                ],
                [
                    1173,
                    1454
                ]
            ],
            "flags": {},
            "group_id": null
        },
        {
            "label": "wz3",
            "shape_type": "rectangle",
            "points": [
                [
                    1039,
                    1542
                ],
                [
                    1164,
                    1583
                ]
            ],
            "flags": {},
            "group_id": null
        },
        {
            "label": "wz3-l",
            "lineType": "LL",
            "shape_type": "line",
            "points": [
                [
                    1011,
                    1566
                ],
                [
                    1063,
                    1564
                ]
            ],
            "flags": {},
            "group_id": null
        },
        {
            "label": "wz3-l",
            "lineType": "LL",
            "shape_type": "line",
            "points": [
                [
                    1012,
                    1436
                ],
                [
                    1087,
                    1434
                ]
            ],
            "flags": {},
            "group_id": null
        },
        {
            "label": "wz1-l",
            "lineType": "LL",
            "shape_type": "line",
            "points": [
                [
                    1018,
                    1298
                ],
                [
                    1070,
                    1348
                ]
            ],
            "flags": {},
            "group_id": null
        },
        {
            "label": "wz1-l",
            "lineType": "LL",
            "shape_type": "line",
            "points": [
                [
                    846,
                    1209
                ],
                [
                    1135,
                    1159
                ]
            ],
            "flags": {},
            "group_id": null
        },
        {
            "label": "wz3-l",
            "lineType": "LL",
            "shape_type": "line",
            "points": [
                [
                    772,
                    1105
                ],
                [
                    837,
                    1117
                ]
            ],
            "flags": {},
            "group_id": null
        },
        {
            "label": "wz1",
            "shape_type": "rectangle",
            "points": [
                [
                    1251,
                    1540
                ],
                [
                    1461,
                    1725
                ]
            ],
            "flags": {},
            "group_id": null
        },
        {
            "label": "wz1",
            "shape_type": "rectangle",
            "points": [
                [
                    1901,
                    1734
                ],
                [
                    2172,
                    1917
                ]
            ],
            "flags": {},
            "group_id": null
        },
        {
            "label": "wz1",
            "shape_type": "rectangle",
            "points": [
                [
                    1094,
                    1996
                ],
                [
                    1371,
                    2181
                ]
            ],
            "flags": {},
            "group_id": null
        },
        {
            "label": "wz1-l",
            "lineType": "LL",
            "shape_type": "line",
            "points": [
                [
                    1427,
                    1618
                ],
                [
                    1630,
                    1729
                ]
            ],
            "flags": {},
            "group_id": null
        },
        {
            "label": "wz1-l",
            "lineType": "LL",
            "shape_type": "line",
            "points": [
                [
                    1934,
                    1811
                ],
                [
                    1778,
                    1966
                ]
            ],
            "flags": {},
            "group_id": null
        },
        {
            "label": "wz1-l",
            "lineType": "LL",
            "shape_type": "line",
            "points": [
                [
                    1330,
                    2079
                ],
                [
                    1502,
                    1983
                ]
            ],
            "flags": {},
            "group_id": null
        },
        {
            "label": "wz1-l",
            "lineType": "LL",
            "shape_type": "line",
            "points": [
                [
                    921,
                    1219
                ],
                [
                    1121,
                    1154
                ]
            ],
            "flags": {},
            "group_id": null
        },
        {
            "label": "wz1-l",
            "lineType": "LL",
            "shape_type": "line",
            "points": [
                [
                    1002,
                    1216
                ],
                [
                    1136,
                    1170
                ]
            ],
            "flags": {},
            "group_id": null
        },
        {
            "label": "wz1-l",
            "lineType": "LL",
            "shape_type": "line",
            "points": [
                [
                    925,
                    1298
                ],
                [
                    1074,
                    1349
                ]
            ],
            "flags": {},
            "group_id": null
        },
        {
            "label": "wz1-l",
            "lineType": "LL",
            "shape_type": "line",
            "points": [
                [
                    839,
                    1293
                ],
                [
                    1065,
                    1356
                ]
            ],
            "flags": {},
            "group_id": null
        }
    ],
    "flags": {},
    "imageData": null,
    "version": "4.5.7"
}