{
    "imageHeight": 3055,
    "imageWidth": 4210,
    "imagePath": "LX0695-大华紫郡（铁塔公司）5G无线基站天馈线安装示意图.png",
    "shapes": [
        {
            "label": "c1",
            "shape_type": "rectangle",
            "points": [
                [
                    804,
                    1819
                ],
                [
                    806,
                    1951
                ]
            ],
            "flags": {},
            "group_id": null
        },
        {
            "label": "c1",
            "shape_type": "rectangle",
            "points": [
                [
                    878,
                    1820
                ],
                [
                    879,
                    1952
                ]
            ],
            "flags": {},
            "group_id": null
        },
        {
            "label": "c1",
            "shape_type": "rectangle",
            "points": [
                [
                    952,
                    1819
                ],
                [
                    954,
                    1953
                ]
            ],
            "flags": {},
            "group_id": null
        },
        {
            "label": "a1-1",
            "shape_type": "rectangle",
            "points": [
                [
                    783,
                    1941
                ],
                [
                    803,
                    2013
                ]
            ],
            "flags": {},
            "group_id": null
        },
        {
            "label": "a1-2",
            "shape_type": "rectangle",
            "points": [
                [
                    811,
                    1942
                ],
                [
                    830,
                    2013
                ]
            ],
            "flags": {},
            "group_id": null
        },
        {
            "label": "a1-1",
            "shape_type": "rectangle",
            "points": [
                [
                    830,
                    1942
                ],
                [
                    850,
                    2013
                ]
            ],
            "flags": {},
            "group_id": null
        },
        {
            "label": "a1-1",
            "shape_type": "rectangle",
            "points": [
                [
                    855,
                    1941
                ],
                [
                    875,
                    2013
                ]
            ],
            "flags": {},
            "group_id": null
        },
        {
            "label": "a1-2",
            "shape_type": "rectangle",
            "points": [
                [
                    884,
                    1941
                ],
                [
                    903,
                    2012
                ]
            ],
            "flags": {},
            "group_id": null
        },
        {
            "label": "a1-2",
            "shape_type": "rectangle",
            "points": [
                [
                    908,
                    1941
                ],
                [
                    928,
                    2013
                ]
            ],
            "flags": {},
            "group_id": null
        },
        {
            "label": "a1-1",
            "shape_type": "rectangle",
            "points": [
                [
                    928,
                    1946
                ],
                [
                    947,
                    2017
                ]
            ],
            "flags": {},
            "group_id": null
        },
        {
            "label": "a1-2",
            "shape_type": "rectangle",
            "points": [
                [
                    955,
                    1945
                ],
                [
                    975,
                    2016
                ]
            ],
            "flags": {},
            "group_id": null
        },
        {
            "label": "a1-1",
            "shape_type": "rectangle",
            "points": [
                [
                    783,
                    2050
                ],
                [
                    802,
                    2121
                ]
            ],
            "flags": {},
            "group_id": null
        },
        {
            "label": "a1-2",
            "shape_type": "rectangle",
            "points": [
                [
                    883,
                    2049
                ],
                [
                    903,
                    2120
                ]
            ],
            "flags": {},
            "group_id": null
        },
        {
            "label": "a1-2",
            "shape_type": "rectangle",
            "points": [
                [
                    955,
                    2053
                ],
                [
                    974,
                    2124
                ]
            ],
            "flags": {},
            "group_id": null
        },
        {
            "label": "a1-1",
            "shape_type": "rectangle",
            "points": [
                [
                    775,
                    2156
                ],
                [
                    801,
                    2256
                ]
            ],
            "flags": {},
            "group_id": null
        },
        {
            "label": "a1-2",
            "shape_type": "rectangle",
            "points": [
                [
                    885,
                    2155
                ],
                [
                    912,
                    2256
                ]
            ],
            "flags": {},
            "group_id": null
        },
        {
            "label": "a1-2",
            "shape_type": "rectangle",
            "points": [
                [
                    958,
                    2159
                ],
                [
                    984,
                    2260
                ]
            ],
            "flags": {},
            "group_id": null
        },
        {
            "label": "x1",
            "shape_type": "rectangle",
            "points": [
                [
                    762,
                    2293
                ],
                [
                    1002,
                    2363
                ]
            ],
            "flags": {},
            "group_id": null
        },
        {
            "label": "t10",
            "shape_type": "rectangle",
            "points": [
                [
                    798,
                    1819
                ],
                [
                    962,
                    2612
                ]
            ],
            "flags": {},
            "group_id": null
        },
        {
            "label": "b1",
            "shape_type": "rectangle",
            "points": [
                [
                    656,
                    2611
                ],
                [
                    1061,
                    2771
                ]
            ],
            "flags": {},
            "group_id": null
        },
        {
            "label": "seven",
            "shape_type": "point",
            "points": [
                [
                    656,
                    2611
                ]
            ],
            "flags": {},
            "group_id": null
        },
        {
            "label": "thirteen",
            "shape_type": "point",
            "points": [
                [
                    677,
                    2611
                ]
            ],
            "flags": {},
            "group_id": null
        },
        {
            "label": "thirteen",
            "shape_type": "point",
            "points": [
                [
                    1035,
                    2611
                ]
            ],
            "flags": {},
            "group_id": null
        },
        {
            "label": "eight",
            "shape_type": "point",
            "points": [
                [
                    1061,
                    2611
                ]
            ],
            "flags": {},
            "group_id": null
        },
        {
            "label": "eleven",
            "shape_type": "point",
            "points": [
                [
                    1061,
                    2634
                ]
            ],
            "flags": {},
            "group_id": null
        },
        {
            "label": "eleven",
            "shape_type": "point",
            "points": [
                [
                    1060,
                    2673
                ]
            ],
            "flags": {},
            "group_id": null
        },
        {
            "label": "ten",
            "shape_type": "point",
            "points": [
                [
                    1093,
                    2673
                ]
            ],
            "flags": {},
            "group_id": null
        },
        {
            "label": "eight",
            "shape_type": "point",
            "points": [
                [
                    1093,
                    2634
                ]
            ],
            "flags": {},
            "group_id": null
        },
        {
            "label": "fourteen",
            "shape_type": "point",
            "points": [
                [
                    1061,
                    2771
                ]
            ],
            "flags": {},
            "group_id": null
        },
        {
            "label": "fourteen",
            "shape_type": "point",
            "points": [
                [
                    1035,
                    2771
                ]
            ],
            "flags": {},
            "group_id": null
        },
        {
            "label": "fourteen",
            "shape_type": "point",
            "points": [
                [
                    677,
                    2771
                ]
            ],
            "flags": {},
            "group_id": null
        },
        {
            "label": "fourteen",
            "shape_type": "point",
            "points": [
                [
                    656,
                    2771
                ]
            ],
            "flags": {},
            "group_id": null
        },
        {
            "label": "v1",
            "shape_type": "rectangle",
            "points": [
                [
                    911,
                    2817
                ],
                [
                    1167,
                    2891
                ]
            ],
            "flags": {},
            "group_id": null
        },
        {
            "label": "h1",
            "shape_type": "rectangle",
            "points": [
                [
                    283,
                    2556
                ],
                [
                    448,
                    2615
                ]
            ],
            "flags": {},
            "group_id": null
        },
        {
            "label": "h1",
            "shape_type": "rectangle",
            "points": [
                [
                    268,
                    2276
                ],
                [
                    432,
                    2335
                ]
            ],
            "flags": {},
            "group_id": null
        },
        {
            "label": "h1",
            "shape_type": "rectangle",
            "points": [
                [
                    267,
                    2146
                ],
                [
                    429,
                    2204
                ]
            ],
            "flags": {},
            "group_id": null
        },
        {
            "label": "h1",
            "shape_type": "rectangle",
            "points": [
                [
                    268,
                    1996
                ],
                [
                    432,
                    2055
                ]
            ],
            "flags": {},
            "group_id": null
        },
        {
            "label": "h1",
            "shape_type": "rectangle",
            "points": [
                [
                    267,
                    1870
                ],
                [
                    430,
                    1929
                ]
            ],
            "flags": {},
            "group_id": null
        },
        {
            "label": "v1",
            "shape_type": "rectangle",
            "points": [
                [
                    1330,
                    1762
                ],
                [
                    1673,
                    1833
                ]
            ],
            "flags": {},
            "group_id": null
        },
        {
            "label": "vp2-2",
            "shape_type": "rectangle",
            "points": [
                [
                    1315,
                    1159
                ],
                [
                    1726,
                    1498
                ]
            ],
            "flags": {},
            "group_id": null
        },
        {
            "label": "d1",
            "shape_type": "rectangle",
            "points": [
                [
                    1580,
                    721
                ],
                [
                    1645,
                    830
                ]
            ],
            "flags": {},
            "group_id": null
        },
        {
            "label": "d1",
            "shape_type": "rectangle",
            "points": [
                [
                    714,
                    719
                ],
                [
                    779,
                    827
                ]
            ],
            "flags": {},
            "group_id": null
        },
        {
            "label": "v1",
            "shape_type": "rectangle",
            "points": [
                [
                    1026,
                    793
                ],
                [
                    1231,
                    850
                ]
            ],
            "flags": {},
            "group_id": null
        },
        {
            "label": "vt10-n",
            "shape_type": "rectangle",
            "points": [
                [
                    666,
                    264
                ],
                [
                    975,
                    534
                ]
            ],
            "flags": {},
            "group_id": null
        },
        {
            "label": "n1",
            "shape_type": "rectangle",
            "points": [
                [
                    316,
                    231
                ],
                [
                    355,
                    471
                ]
            ],
            "flags": {},
            "group_id": null
        },
        {
            "label": "seven",
            "shape_type": "point",
            "points": [
                [
                    1221,
                    267
                ]
            ],
            "flags": {},
            "group_id": null
        },
        {
            "label": "seven",
            "shape_type": "point",
            "points": [
                [
                    1237,
                    283
                ]
            ],
            "flags": {},
            "group_id": null
        },
        {
            "label": "eight",
            "shape_type": "point",
            "points": [
                [
                    1793,
                    283
                ]
            ],
            "flags": {},
            "group_id": null
        },
        {
            "label": "eight",
            "shape_type": "point",
            "points": [
                [
                    1810,
                    266
                ]
            ],
            "flags": {},
            "group_id": null
        },
        {
            "label": "ten",
            "shape_type": "point",
            "points": [
                [
                    1811,
                    544
                ]
            ],
            "flags": {},
            "group_id": null
        },
        {
            "label": "ten",
            "shape_type": "point",
            "points": [
                [
                    1793,
                    529
                ]
            ],
            "flags": {},
            "group_id": null
        },
        {
            "label": "nine",
            "shape_type": "point",
            "points": [
                [
                    1236,
                    528
                ]
            ],
            "flags": {},
            "group_id": null
        },
        {
            "label": "nine",
            "shape_type": "point",
            "points": [
                [
                    1220,
                    545
                ]
            ],
            "flags": {},
            "group_id": null
        },
        {
            "label": "twentyone",
            "shape_type": "point",
            "points": [
                [
                    1228,
                    418
                ]
            ],
            "flags": {},
            "group_id": null
        },
        {
            "label": "twentytwo",
            "shape_type": "point",
            "points": [
                [
                    1236,
                    440
                ]
            ],
            "flags": {},
            "group_id": null
        },
        {
            "label": "twentythere",
            "shape_type": "point",
            "points": [
                [
                    1220,
                    472
                ]
            ],
            "flags": {},
            "group_id": null
        },
        {
            "label": "nine",
            "shape_type": "point",
            "points": [
                [
                    1220,
                    344
                ]
            ],
            "flags": {},
            "group_id": null
        },
        {
            "label": "ten",
            "shape_type": "point",
            "points": [
                [
                    1237,
                    344
                ]
            ],
            "flags": {},
            "group_id": null
        },
        {
            "label": "eleven",
            "shape_type": "point",
            "points": [
                [
                    1220,
                    441
                ]
            ],
            "flags": {},
            "group_id": null
        },
        {
            "label": "vb1",
            "shape_type": "rectangle",
            "points": [
                [
                    1221,
                    266
                ],
                [
                    1811,
                    546
                ]
            ],
            "flags": {},
            "group_id": null
        },
        {
            "label": "v1",
            "shape_type": "rectangle",
            "points": [
                [
                    3560,
                    717
                ],
                [
                    3834,
                    789
                ]
            ],
            "flags": {},
            "group_id": null
        },
        {
            "label": "n1",
            "shape_type": "rectangle",
            "points": [
                [
                    3309,
                    210
                ],
                [
                    4020,
                    641
                ]
            ],
            "flags": {},
            "group_id": null
        },
        {
            "label": "va1",
            "shape_type": "rectangle",
            "points": [
                [
                    1654,
                    1248
                ],
                [
                    1700,
                    1321
                ]
            ],
            "flags": {},
            "group_id": null
        },
        {
            "label": "va1",
            "shape_type": "rectangle",
            "points": [
                [
                    1467,
                    1549
                ],
                [
                    1541,
                    1595
                ]
            ],
            "flags": {},
            "group_id": null
        },
        {
            "label": "va1",
            "shape_type": "rectangle",
            "points": [
                [
                    1317,
                    1262
                ],
                [
                    1387,
                    1303
                ]
            ],
            "flags": {},
            "group_id": null
        },
        {
            "label": "b1",
            "shape_type": "rectangle",
            "points": [
                [
                    1060,
                    2634
                ],
                [
                    1093,
                    2673
                ]
            ],
            "flags": {},
            "group_id": null
        },
        {
            "label": "van",
            "shape_type": "rectangle",
            "points": [
                [
                    1210,
                    1445
                ],
                [
                    1269,
                    1513
                ]
            ],
            "flags": {},
            "group_id": null
        },
        {
            "label": "van",
            "shape_type": "rectangle",
            "points": [
                [
                    1281,
                    1545
                ],
                [
                    1350,
                    1601
                ]
            ],
            "flags": {},
            "group_id": null
        },
        {
            "label": "van",
            "shape_type": "rectangle",
            "points": [
                [
                    1657,
                    1547
                ],
                [
                    1728,
                    1600
                ]
            ],
            "flags": {},
            "group_id": null
        },
        {
            "label": "van",
            "shape_type": "rectangle",
            "points": [
                [
                    1747,
                    1439
                ],
                [
                    1795,
                    1511
                ]
            ],
            "flags": {},
            "group_id": null
        },
        {
            "label": "van",
            "shape_type": "rectangle",
            "points": [
                [
                    1419,
                    1089
                ],
                [
                    1492,
                    1138
                ]
            ],
            "flags": {},
            "group_id": null
        },
        {
            "label": "van",
            "shape_type": "rectangle",
            "points": [
                [
                    1544,
                    1082
                ],
                [
                    1610,
                    1143
                ]
            ],
            "flags": {},
            "group_id": null
        },
        {
            "label": "va1",
            "shape_type": "rectangle",
            "points": [
                [
                    790,
                    246
                ],
                [
                    846,
                    278
                ]
            ],
            "flags": {},
            "group_id": null
        },
        {
            "label": "va1",
            "shape_type": "rectangle",
            "points": [
                [
                    953,
                    504
                ],
                [
                    992,
                    562
                ]
            ],
            "flags": {},
            "group_id": null
        },
        {
            "label": "va1",
            "shape_type": "rectangle",
            "points": [
                [
                    633,
                    501
                ],
                [
                    676,
                    559
                ]
            ],
            "flags": {},
            "group_id": null
        },
        {
            "label": "thirteen",
            "shape_type": "point",
            "points": [
                [
                    1220,
                    418
                ]
            ],
            "flags": {},
            "group_id": null
        },
        {
            "label": "eight",
            "shape_type": "point",
            "points": [
                [
                    1236,
                    419
                ]
            ],
            "flags": {},
            "group_id": null
        },
        {
            "label": "wz4",
            "shape_type": "rectangle",
            "points": [
                [
                    1407,
                    399
                ],
                [
                    1467,
                    442
                ]
            ],
            "flags": {},
            "group_id": null
        },
        {
            "label": "wz4",
            "shape_type": "rectangle",
            "points": [
                [
                    796,
                    2643
                ],
                [
                    859,
                    2690
                ]
            ],
            "flags": {},
            "group_id": null
        },
        {
            "label": "btl",
            "shape_type": "rectangle",
            "points": [
                [
                    2258,
                    2668
                ],
                [
                    4103,
                    2978
                ]
            ],
            "flags": {},
            "group_id": null
        },
        {
            "label": "sm",
            "shape_type": "rectangle",
            "points": [
                [
                    2244,
                    2186
                ],
                [
                    3989,
                    2565
                ]
            ],
            "flags": {},
            "group_id": null
        },
        {
            "label": "tl",
            "shape_type": "rectangle",
            "points": [
                [
                    2334,
                    88
                ],
                [
                    3303,
                    780
                ]
            ],
            "flags": {},
            "group_id": null
        },
        {
            "label": "j1",
            "shape_type": "rectangle",
            "points": [
                [
                    3663,
                    210
                ],
                [
                    3700,
                    254
                ]
            ],
            "flags": {},
            "group_id": null
        },
        {
            "label": "j1",
            "shape_type": "rectangle",
            "points": [
                [
                    3720,
                    244
                ],
                [
                    3937,
                    306
                ]
            ],
            "flags": {},
            "group_id": null
        },
        {
            "label": "j1",
            "shape_type": "rectangle",
            "points": [
                [
                    3754,
                    575
                ],
                [
                    4019,
                    638
                ]
            ],
            "flags": {},
            "group_id": null
        },
        {
            "label": "j1",
            "shape_type": "rectangle",
            "points": [
                [
                    3309,
                    563
                ],
                [
                    3600,
                    627
                ]
            ],
            "flags": {},
            "group_id": null
        },
        {
            "label": "p1-2",
            "shape_type": "rectangle",
            "points": [
                [
                    784,
                    1939
                ],
                [
                    975,
                    2017
                ]
            ],
            "flags": {},
            "group_id": null
        },
        {
            "label": "p1-2",
            "shape_type": "rectangle",
            "points": [
                [
                    783,
                    2049
                ],
                [
                    975,
                    2124
                ]
            ],
            "flags": {},
            "group_id": null
        },
        {
            "label": "p1-2",
            "shape_type": "rectangle",
            "points": [
                [
                    775,
                    2154
                ],
                [
                    984,
                    2260
                ]
            ],
            "flags": {},
            "group_id": null
        },
        {
            "label": "mask",
            "lineType": [
                "LLLLLLLLLLLLLLLLL"
            ],
            "shape_type": "polygon",
            "points": [
                [
                    2306,
                    94
                ],
                [
                    3319,
                    89
                ],
                [
                    3340,
                    261
                ],
                [
                    3335,
                    489
                ],
                [
                    3329,
                    515
                ],
                [
                    3320,
                    524
                ],
                [
                    3057,
                    532
                ],
                [
                    2821,
                    536
                ],
                [
                    2771,
                    605
                ],
                [
                    2729,
                    774
                ],
                [
                    2687,
                    790
                ],
                [
                    2610,
                    810
                ],
                [
                    2496,
                    801
                ],
                [
                    2425,
                    769
                ],
                [
                    2357,
                    601
                ],
                [
                    2350,
                    280
                ],
                [
                    2306,
                    94
                ]
            ],
            "flags": {},
            "group_id": null
        },
        {
            "label": "mask",
            "lineType": [
                "LLLLLLLLLLLLLLLLLLLLL"
            ],
            "shape_type": "polygon",
            "points": [
                [
                    3281,
                    658
                ],
                [
                    3253,
                    586
                ],
                [
                    3312,
                    554
                ],
                [
                    3375,
                    530
                ],
                [
                    3581,
                    466
                ],
                [
                    3602,
                    362
                ],
                [
                    3636,
                    273
                ],
                [
                    3651,
                    213
                ],
                [
                    3679,
                    192
                ],
                [
                    3758,
                    197
                ],
                [
                    3926,
                    219
                ],
                [
                    3957,
                    245
                ],
                [
                    4019,
                    407
                ],
                [
                    4045,
                    542
                ],
                [
                    4052,
                    646
                ],
                [
                    4024,
                    678
                ],
                [
                    3911,
                    753
                ],
                [
                    3845,
                    812
                ],
                [
                    3511,
                    806
                ],
                [
                    3515,
                    689
                ],
                [
                    3281,
                    658
                ]
            ],
            "flags": {},
            "group_id": null
        },
        {
            "label": "mask",
            "lineType": [
                "LLLLL"
            ],
            "shape_type": "polygon",
            "points": [
                [
                    2236,
                    902
                ],
                [
                    2232,
                    1749
                ],
                [
                    4106,
                    1748
                ],
                [
                    4101,
                    911
                ],
                [
                    2236,
                    902
                ]
            ],
            "flags": {},
            "group_id": null
        },
        {
            "label": "mask",
            "lineType": [
                "LLLLLLLLL"
            ],
            "shape_type": "polygon",
            "points": [
                [
                    2240,
                    2168
                ],
                [
                    2237,
                    2584
                ],
                [
                    4023,
                    2595
                ],
                [
                    4012,
                    2507
                ],
                [
                    3889,
                    2242
                ],
                [
                    3822,
                    2212
                ],
                [
                    3704,
                    2198
                ],
                [
                    3457,
                    2184
                ],
                [
                    2240,
                    2168
                ]
            ],
            "flags": {},
            "group_id": null
        },
        {
            "label": "mask",
            "lineType": [
                "LLLLL"
            ],
            "shape_type": "polygon",
            "points": [
                [
                    2254,
                    2655
                ],
                [
                    2248,
                    2974
                ],
                [
                    4106,
                    2977
                ],
                [
                    4101,
                    2653
                ],
                [
                    2254,
                    2655
                ]
            ],
            "flags": {},
            "group_id": null
        },
        {
            "label": "mask",
            "lineType": [
                "LLLLLLLLLLLLLLLLLLLLLLLLLLLL"
            ],
            "shape_type": "polygon",
            "points": [
                [
                    254,
                    2824
                ],
                [
                    456,
                    2858
                ],
                [
                    721,
                    2917
                ],
                [
                    974,
                    2934
                ],
                [
                    1177,
                    2928
                ],
                [
                    1246,
                    2904
                ],
                [
                    1384,
                    2874
                ],
                [
                    1492,
                    2847
                ],
                [
                    1552,
                    2805
                ],
                [
                    1553,
                    2752
                ],
                [
                    1497,
                    2717
                ],
                [
                    1324,
                    2692
                ],
                [
                    1227,
                    2669
                ],
                [
                    1164,
                    2572
                ],
                [
                    1142,
                    2485
                ],
                [
                    1129,
                    2002
                ],
                [
                    1054,
                    1923
                ],
                [
                    1004,
                    1819
                ],
                [
                    959,
                    1795
                ],
                [
                    873,
                    1754
                ],
                [
                    751,
                    1697
                ],
                [
                    689,
                    1685
                ],
                [
                    523,
                    1698
                ],
                [
                    493,
                    1709
                ],
                [
                    228,
                    1872
                ],
                [
                    241,
                    2377
                ],
                [
                    253,
                    2610
                ],
                [
                    254,
                    2824
                ]
            ],
            "flags": {},
            "group_id": null
        },
        {
            "label": "mask",
            "lineType": [
                "LLLLLLLLLLLLLLLLLLLLL"
            ],
            "shape_type": "polygon",
            "points": [
                [
                    1016,
                    1604
                ],
                [
                    1103,
                    1688
                ],
                [
                    1286,
                    1854
                ],
                [
                    1628,
                    1870
                ],
                [
                    1752,
                    1834
                ],
                [
                    2017,
                    1640
                ],
                [
                    2007,
                    1504
                ],
                [
                    1986,
                    1360
                ],
                [
                    1968,
                    1254
                ],
                [
                    1922,
                    1152
                ],
                [
                    1746,
                    999
                ],
                [
                    1738,
                    990
                ],
                [
                    1641,
                    992
                ],
                [
                    1583,
                    988
                ],
                [
                    1516,
                    994
                ],
                [
                    1388,
                    1020
                ],
                [
                    1146,
                    1144
                ],
                [
                    1091,
                    1160
                ],
                [
                    1073,
                    1195
                ],
                [
                    1043,
                    1288
                ],
                [
                    1016,
                    1604
                ]
            ],
            "flags": {},
            "group_id": null
        },
        {
            "label": "mask",
            "lineType": [
                "LLLLLLLLLLLLLLLL"
            ],
            "shape_type": "polygon",
            "points": [
                [
                    646,
                    849
                ],
                [
                    1072,
                    890
                ],
                [
                    1498,
                    875
                ],
                [
                    1758,
                    885
                ],
                [
                    1781,
                    713
                ],
                [
                    1857,
                    513
                ],
                [
                    1859,
                    297
                ],
                [
                    1828,
                    244
                ],
                [
                    1686,
                    214
                ],
                [
                    1396,
                    217
                ],
                [
                    1127,
                    215
                ],
                [
                    844,
                    197
                ],
                [
                    639,
                    363
                ],
                [
                    638,
                    378
                ],
                [
                    596,
                    518
                ],
                [
                    646,
                    849
                ]
            ],
            "flags": {},
            "group_id": null
        },
        {
            "label": "mask",
            "lineType": [
                "LLLLL"
            ],
            "shape_type": "polygon",
            "points": [
                [
                    280,
                    203
                ],
                [
                    381,
                    208
                ],
                [
                    385,
                    484
                ],
                [
                    274,
                    485
                ],
                [
                    280,
                    203
                ]
            ],
            "flags": {},
            "group_id": null
        },
        {
            "label": "wlb",
            "shape_type": "rectangle",
            "points": [
                [
                    2245,
                    914
                ],
                [
                    4101,
                    1725
                ]
            ],
            "flags": {},
            "group_id": null
        },
        {
            "label": "xtl",
            "shape_type": "rectangle",
            "points": [
                [
                    2454,
                    108
                ],
                [
                    2527,
                    150
                ]
            ],
            "flags": {},
            "group_id": null
        },
        {
            "label": "wztl",
            "shape_type": "rectangle",
            "points": [
                [
                    2554,
                    99
                ],
                [
                    2847,
                    151
                ]
            ],
            "flags": {},
            "group_id": null
        },
        {
            "label": "xtl",
            "shape_type": "rectangle",
            "points": [
                [
                    2968,
                    116
                ],
                [
                    3034,
                    142
                ]
            ],
            "flags": {},
            "group_id": null
        },
        {
            "label": "wztl",
            "shape_type": "rectangle",
            "points": [
                [
                    3067,
                    91
                ],
                [
                    3261,
                    143
                ]
            ],
            "flags": {},
            "group_id": null
        },
        {
            "label": "wztl",
            "shape_type": "rectangle",
            "points": [
                [
                    3065,
                    158
                ],
                [
                    3263,
                    209
                ]
            ],
            "flags": {},
            "group_id": null
        },
        {
            "label": "xtl",
            "shape_type": "rectangle",
            "points": [
                [
                    2970,
                    181
                ],
                [
                    3032,
                    208
                ]
            ],
            "flags": {},
            "group_id": null
        },
        {
            "label": "wztl",
            "shape_type": "rectangle",
            "points": [
                [
                    2555,
                    162
                ],
                [
                    2865,
                    216
                ]
            ],
            "flags": {},
            "group_id": null
        },
        {
            "label": "xtl",
            "shape_type": "rectangle",
            "points": [
                [
                    2455,
                    181
                ],
                [
                    2527,
                    222
                ]
            ],
            "flags": {},
            "group_id": null
        },
        {
            "label": "xtl",
            "shape_type": "rectangle",
            "points": [
                [
                    2455,
                    252
                ],
                [
                    2526,
                    294
                ]
            ],
            "flags": {},
            "group_id": null
        },
        {
            "label": "wztl",
            "shape_type": "rectangle",
            "points": [
                [
                    2555,
                    232
                ],
                [
                    2821,
                    286
                ]
            ],
            "flags": {},
            "group_id": null
        },
        {
            "label": "xtl",
            "shape_type": "rectangle",
            "points": [
                [
                    2968,
                    265
                ],
                [
                    3033,
                    272
                ]
            ],
            "flags": {},
            "group_id": null
        },
        {
            "label": "wztl",
            "shape_type": "rectangle",
            "points": [
                [
                    3069,
                    230
                ],
                [
                    3247,
                    283
                ]
            ],
            "flags": {},
            "group_id": null
        },
        {
            "label": "wztl",
            "shape_type": "rectangle",
            "points": [
                [
                    3065,
                    306
                ],
                [
                    3301,
                    360
                ]
            ],
            "flags": {},
            "group_id": null
        },
        {
            "label": "xtl",
            "shape_type": "rectangle",
            "points": [
                [
                    2960,
                    317
                ],
                [
                    3018,
                    360
                ]
            ],
            "flags": {},
            "group_id": null
        },
        {
            "label": "wztl",
            "shape_type": "rectangle",
            "points": [
                [
                    2566,
                    305
                ],
                [
                    2739,
                    356
                ]
            ],
            "flags": {},
            "group_id": null
        },
        {
            "label": "xtl",
            "shape_type": "rectangle",
            "points": [
                [
                    2454,
                    323
                ],
                [
                    2527,
                    365
                ]
            ],
            "flags": {},
            "group_id": null
        },
        {
            "label": "xtl",
            "shape_type": "rectangle",
            "points": [
                [
                    2454,
                    395
                ],
                [
                    2527,
                    436
                ]
            ],
            "flags": {},
            "group_id": null
        },
        {
            "label": "wztl",
            "shape_type": "rectangle",
            "points": [
                [
                    2567,
                    376
                ],
                [
                    2795,
                    430
                ]
            ],
            "flags": {},
            "group_id": null
        },
        {
            "label": "xtl",
            "shape_type": "rectangle",
            "points": [
                [
                    2960,
                    387
                ],
                [
                    3029,
                    431
                ]
            ],
            "flags": {},
            "group_id": null
        },
        {
            "label": "wztl",
            "shape_type": "rectangle",
            "points": [
                [
                    3065,
                    379
                ],
                [
                    3302,
                    430
                ]
            ],
            "flags": {},
            "group_id": null
        },
        {
            "label": "wztl",
            "shape_type": "rectangle",
            "points": [
                [
                    3065,
                    458
                ],
                [
                    3301,
                    511
                ]
            ],
            "flags": {},
            "group_id": null
        },
        {
            "label": "xtl",
            "shape_type": "rectangle",
            "points": [
                [
                    2959,
                    459
                ],
                [
                    3029,
                    504
                ]
            ],
            "flags": {},
            "group_id": null
        },
        {
            "label": "wztl",
            "shape_type": "rectangle",
            "points": [
                [
                    2570,
                    457
                ],
                [
                    2728,
                    510
                ]
            ],
            "flags": {},
            "group_id": null
        },
        {
            "label": "xtl",
            "shape_type": "rectangle",
            "points": [
                [
                    2455,
                    467
                ],
                [
                    2527,
                    508
                ]
            ],
            "flags": {},
            "group_id": null
        },
        {
            "label": "xtl",
            "shape_type": "rectangle",
            "points": [
                [
                    2467,
                    597
                ],
                [
                    2546,
                    605
                ]
            ],
            "flags": {},
            "group_id": null
        },
        {
            "label": "wztl",
            "shape_type": "rectangle",
            "points": [
                [
                    2585,
                    569
                ],
                [
                    2700,
                    620
                ]
            ],
            "flags": {},
            "group_id": null
        },
        {
            "label": "wztl",
            "shape_type": "rectangle",
            "points": [
                [
                    2587,
                    645
                ],
                [
                    2702,
                    697
                ]
            ],
            "flags": {},
            "group_id": null
        },
        {
            "label": "xtl",
            "shape_type": "rectangle",
            "points": [
                [
                    2469,
                    675
                ],
                [
                    2548,
                    682
                ]
            ],
            "flags": {},
            "group_id": null
        },
        {
            "label": "xtl",
            "shape_type": "rectangle",
            "points": [
                [
                    2493,
                    734
                ],
                [
                    2529,
                    769
                ]
            ],
            "flags": {},
            "group_id": null
        },
        {
            "label": "wztl",
            "shape_type": "rectangle",
            "points": [
                [
                    2588,
                    727
                ],
                [
                    2664,
                    780
                ]
            ],
            "flags": {},
            "group_id": null
        },
        {
            "label": "Ns",
            "shape_type": "point",
            "points": [
                [
                    3683,
                    447
                ]
            ],
            "flags": {},
            "group_id": null
        },
        {
            "label": "Ne",
            "shape_type": "point",
            "points": [
                [
                    3683,
                    306
                ]
            ],
            "flags": {},
            "group_id": null
        },
        {
            "label": "wz1",
            "shape_type": "rectangle",
            "points": [
                [
                    1601,
                    1014
                ],
                [
                    1744,
                    1039
                ]
            ],
            "flags": {},
            "group_id": null
        },
        {
            "label": "wz3",
            "shape_type": "rectangle",
            "points": [
                [
                    1751,
                    1264
                ],
                [
                    1934,
                    1342
                ]
            ],
            "flags": {},
            "group_id": null
        },
        {
            "label": "wz1",
            "shape_type": "rectangle",
            "points": [
                [
                    1804,
                    1558
                ],
                [
                    1948,
                    1582
                ]
            ],
            "flags": {},
            "group_id": null
        },
        {
            "label": "wz3",
            "shape_type": "rectangle",
            "points": [
                [
                    1445,
                    1634
                ],
                [
                    1648,
                    1714
                ]
            ],
            "flags": {},
            "group_id": null
        },
        {
            "label": "wz1",
            "shape_type": "rectangle",
            "points": [
                [
                    1050,
                    1557
                ],
                [
                    1192,
                    1584
                ]
            ],
            "flags": {},
            "group_id": null
        },
        {
            "label": "wz3",
            "shape_type": "rectangle",
            "points": [
                [
                    1100,
                    1175
                ],
                [
                    1268,
                    1257
                ]
            ],
            "flags": {},
            "group_id": null
        },
        {
            "label": "wz1-l",
            "lineType": "LL",
            "shape_type": "line",
            "points": [
                [
                    1635,
                    1024
                ],
                [
                    1505,
                    1150
                ]
            ],
            "flags": {},
            "group_id": null
        },
        {
            "label": "wz3-l",
            "lineType": "LL",
            "shape_type": "line",
            "points": [
                [
                    1768,
                    1314
                ],
                [
                    1678,
                    1293
                ]
            ],
            "flags": {},
            "group_id": null
        },
        {
            "label": "wz3-l",
            "lineType": "LL",
            "shape_type": "line",
            "points": [
                [
                    1241,
                    1228
                ],
                [
                    1334,
                    1284
                ]
            ],
            "flags": {},
            "group_id": null
        },
        {
            "label": "wz1-l",
            "lineType": "LL",
            "shape_type": "line",
            "points": [
                [
                    1164,
                    1566
                ],
                [
                    1306,
                    1508
                ]
            ],
            "flags": {},
            "group_id": null
        },
        {
            "label": "wz1-l",
            "lineType": "LL",
            "shape_type": "line",
            "points": [
                [
                    1838,
                    1578
                ],
                [
                    1706,
                    1503
                ]
            ],
            "flags": {},
            "group_id": null
        },
        {
            "label": "wz1",
            "shape_type": "rectangle",
            "points": [
                [
                    520,
                    1714
                ],
                [
                    657,
                    1747
                ]
            ],
            "flags": {},
            "group_id": null
        },
        {
            "label": "wz3",
            "shape_type": "rectangle",
            "points": [
                [
                    538,
                    2065
                ],
                [
                    614,
                    2095
                ]
            ],
            "flags": {},
            "group_id": null
        },
        {
            "label": "wz3",
            "shape_type": "rectangle",
            "points": [
                [
                    536,
                    2185
                ],
                [
                    611,
                    2213
                ]
            ],
            "flags": {},
            "group_id": null
        },
        {
            "label": "wz1",
            "shape_type": "rectangle",
            "points": [
                [
                    581,
                    2315
                ],
                [
                    742,
                    2356
                ]
            ],
            "flags": {},
            "group_id": null
        },
        {
            "label": "wz1",
            "shape_type": "rectangle",
            "points": [
                [
                    1001,
                    2439
                ],
                [
                    1022,
                    2468
                ]
            ],
            "flags": {},
            "group_id": null
        },
        {
            "label": "wz1-l",
            "lineType": "LL",
            "shape_type": "line",
            "points": [
                [
                    611,
                    1731
                ],
                [
                    827,
                    1953
                ]
            ],
            "flags": {},
            "group_id": null
        },
        {
            "label": "wz3-l",
            "lineType": "LL",
            "shape_type": "line",
            "points": [
                [
                    578,
                    2082
                ],
                [
                    794,
                    2090
                ]
            ],
            "flags": {},
            "group_id": null
        },
        {
            "label": "wz3-l",
            "lineType": "LL",
            "shape_type": "line",
            "points": [
                [
                    589,
                    2202
                ],
                [
                    789,
                    2210
                ]
            ],
            "flags": {},
            "group_id": null
        },
        {
            "label": "wz1-l",
            "lineType": "LL",
            "shape_type": "line",
            "points": [
                [
                    719,
                    2336
                ],
                [
                    804,
                    2428
                ]
            ],
            "flags": {},
            "group_id": null
        },
        {
            "label": "wz1-l",
            "lineType": "LL",
            "shape_type": "line",
            "points": [
                [
                    1008,
                    2457
                ],
                [
                    876,
                    2395
                ]
            ],
            "flags": {},
            "group_id": null
        },
        {
            "label": "wz1-l",
            "lineType": "LL",
            "shape_type": "line",
            "points": [
                [
                    629,
                    1724
                ],
                [
                    921,
                    1954
                ]
            ],
            "flags": {},
            "group_id": null
        },
        {
            "label": "wz1-l",
            "lineType": "LL",
            "shape_type": "line",
            "points": [
                [
                    648,
                    1727
                ],
                [
                    958,
                    1948
                ]
            ],
            "flags": {},
            "group_id": null
        }
    ],
    "flags": {},
    "imageData": null,
    "version": "4.5.7"
}