{
    "imageHeight": 3055,
    "imageWidth": 4210,
    "imagePath": "PY0289-北土村(铁塔公司)5G无线基站天馈线安装示意图.png",
    "shapes": [
        {
            "label": "n1",
            "shape_type": "rectangle",
            "points": [
                [
                    3289,
                    122
                ],
                [
                    4102,
                    538
                ]
            ],
            "flags": {},
            "group_id": null
        },
        {
            "label": "v1",
            "shape_type": "rectangle",
            "points": [
                [
                    3594,
                    630
                ],
                [
                    3871,
                    705
                ]
            ],
            "flags": {},
            "group_id": null
        },
        {
            "label": "n1",
            "shape_type": "rectangle",
            "points": [
                [
                    2141,
                    112
                ],
                [
                    2234,
                    301
                ]
            ],
            "flags": {},
            "group_id": null
        },
        {
            "label": "h1",
            "shape_type": "rectangle",
            "points": [
                [
                    183,
                    478
                ],
                [
                    437,
                    585
                ]
            ],
            "flags": {},
            "group_id": null
        },
        {
            "label": "h1",
            "shape_type": "rectangle",
            "points": [
                [
                    184,
                    841
                ],
                [
                    435,
                    948
                ]
            ],
            "flags": {},
            "group_id": null
        },
        {
            "label": "b1",
            "shape_type": "rectangle",
            "points": [
                [
                    987,
                    2700
                ],
                [
                    1043,
                    2766
                ]
            ],
            "flags": {},
            "group_id": null
        },
        {
            "label": "v1",
            "shape_type": "rectangle",
            "points": [
                [
                    945,
                    2813
                ],
                [
                    1150,
                    2892
                ]
            ],
            "flags": {},
            "group_id": null
        },
        {
            "label": "t1",
            "shape_type": "rectangle",
            "points": [
                [
                    890,
                    307
                ],
                [
                    977,
                    2766
                ]
            ],
            "flags": {},
            "group_id": null
        },
        {
            "label": "h1",
            "shape_type": "rectangle",
            "points": [
                [
                    1369,
                    2659
                ],
                [
                    1604,
                    2766
                ]
            ],
            "flags": {},
            "group_id": null
        },
        {
            "label": "v1",
            "shape_type": "rectangle",
            "points": [
                [
                    1417,
                    2265
                ],
                [
                    1854,
                    2346
                ]
            ],
            "flags": {},
            "group_id": null
        },
        {
            "label": "vp1-1",
            "shape_type": "rectangle",
            "points": [
                [
                    1504,
                    1662
                ],
                [
                    1699,
                    1858
                ]
            ],
            "flags": {},
            "group_id": null
        },
        {
            "label": "va1",
            "shape_type": "rectangle",
            "points": [
                [
                    1756,
                    1681
                ],
                [
                    1809,
                    1753
                ]
            ],
            "flags": {},
            "group_id": null
        },
        {
            "label": "va1",
            "shape_type": "rectangle",
            "points": [
                [
                    1418,
                    1646
                ],
                [
                    1491,
                    1694
                ]
            ],
            "flags": {},
            "group_id": null
        },
        {
            "label": "vt1",
            "shape_type": "rectangle",
            "points": [
                [
                    1466,
                    676
                ],
                [
                    1565,
                    775
                ]
            ],
            "flags": {},
            "group_id": null
        },
        {
            "label": "d1",
            "shape_type": "rectangle",
            "points": [
                [
                    1319,
                    870
                ],
                [
                    1377,
                    939
                ]
            ],
            "flags": {},
            "group_id": null
        },
        {
            "label": "v1",
            "shape_type": "rectangle",
            "points": [
                [
                    1428,
                    876
                ],
                [
                    1598,
                    928
                ]
            ],
            "flags": {},
            "group_id": null
        },
        {
            "label": "d1",
            "shape_type": "rectangle",
            "points": [
                [
                    1639,
                    871
                ],
                [
                    1697,
                    939
                ]
            ],
            "flags": {},
            "group_id": null
        },
        {
            "label": "b1",
            "shape_type": "rectangle",
            "points": [
                [
                    965,
                    2637
                ],
                [
                    991,
                    2672
                ]
            ],
            "flags": {},
            "group_id": null
        },
        {
            "label": "vb1",
            "shape_type": "rectangle",
            "points": [
                [
                    1521,
                    610
                ],
                [
                    1547,
                    644
                ]
            ],
            "flags": {},
            "group_id": null
        },
        {
            "label": "vb1",
            "shape_type": "rectangle",
            "points": [
                [
                    1551,
                    608
                ],
                [
                    1579,
                    640
                ]
            ],
            "flags": {},
            "group_id": null
        },
        {
            "label": "x1",
            "shape_type": "rectangle",
            "points": [
                [
                    878,
                    1739
                ],
                [
                    990,
                    1809
                ]
            ],
            "flags": {},
            "group_id": null
        },
        {
            "label": "c1",
            "shape_type": "rectangle",
            "points": [
                [
                    932,
                    307
                ],
                [
                    933,
                    406
                ]
            ],
            "flags": {},
            "group_id": null
        },
        {
            "label": "g1",
            "shape_type": "rectangle",
            "points": [
                [
                    743,
                    456
                ],
                [
                    752,
                    665
                ]
            ],
            "flags": {},
            "group_id": null
        },
        {
            "label": "g1",
            "shape_type": "rectangle",
            "points": [
                [
                    806,
                    450
                ],
                [
                    815,
                    660
                ]
            ],
            "flags": {},
            "group_id": null
        },
        {
            "label": "g1",
            "shape_type": "rectangle",
            "points": [
                [
                    875,
                    452
                ],
                [
                    884,
                    662
                ]
            ],
            "flags": {},
            "group_id": null
        },
        {
            "label": "g1",
            "shape_type": "rectangle",
            "points": [
                [
                    957,
                    450
                ],
                [
                    966,
                    660
                ]
            ],
            "flags": {},
            "group_id": null
        },
        {
            "label": "g1",
            "shape_type": "rectangle",
            "points": [
                [
                    1038,
                    452
                ],
                [
                    1046,
                    663
                ]
            ],
            "flags": {},
            "group_id": null
        },
        {
            "label": "g1",
            "shape_type": "rectangle",
            "points": [
                [
                    1105,
                    452
                ],
                [
                    1114,
                    662
                ]
            ],
            "flags": {},
            "group_id": null
        },
        {
            "label": "a1-1",
            "shape_type": "rectangle",
            "points": [
                [
                    709,
                    468
                ],
                [
                    739,
                    588
                ]
            ],
            "flags": {},
            "group_id": null
        },
        {
            "label": "a1-1",
            "shape_type": "rectangle",
            "points": [
                [
                    773,
                    471
                ],
                [
                    802,
                    589
                ]
            ],
            "flags": {},
            "group_id": null
        },
        {
            "label": "a1-2",
            "shape_type": "rectangle",
            "points": [
                [
                    889,
                    475
                ],
                [
                    919,
                    595
                ]
            ],
            "flags": {},
            "group_id": null
        },
        {
            "label": "a1-2",
            "shape_type": "rectangle",
            "points": [
                [
                    970,
                    475
                ],
                [
                    1000,
                    594
                ]
            ],
            "flags": {},
            "group_id": null
        },
        {
            "label": "a1-2",
            "shape_type": "rectangle",
            "points": [
                [
                    1052,
                    475
                ],
                [
                    1080,
                    595
                ]
            ],
            "flags": {},
            "group_id": null
        },
        {
            "label": "a1-2",
            "shape_type": "rectangle",
            "points": [
                [
                    1119,
                    475
                ],
                [
                    1149,
                    593
                ]
            ],
            "flags": {},
            "group_id": null
        },
        {
            "label": "p1-1",
            "shape_type": "rectangle",
            "points": [
                [
                    709,
                    449
                ],
                [
                    1150,
                    666
                ]
            ],
            "flags": {},
            "group_id": null
        },
        {
            "label": "g1",
            "shape_type": "rectangle",
            "points": [
                [
                    744,
                    765
                ],
                [
                    754,
                    975
                ]
            ],
            "flags": {},
            "group_id": null
        },
        {
            "label": "g1",
            "shape_type": "rectangle",
            "points": [
                [
                    809,
                    761
                ],
                [
                    818,
                    970
                ]
            ],
            "flags": {},
            "group_id": null
        },
        {
            "label": "g1",
            "shape_type": "rectangle",
            "points": [
                [
                    904,
                    761
                ],
                [
                    914,
                    971
                ]
            ],
            "flags": {},
            "group_id": null
        },
        {
            "label": "g1",
            "shape_type": "rectangle",
            "points": [
                [
                    959,
                    761
                ],
                [
                    968,
                    971
                ]
            ],
            "flags": {},
            "group_id": null
        },
        {
            "label": "g1",
            "shape_type": "rectangle",
            "points": [
                [
                    1044,
                    761
                ],
                [
                    1054,
                    971
                ]
            ],
            "flags": {},
            "group_id": null
        },
        {
            "label": "g1",
            "shape_type": "rectangle",
            "points": [
                [
                    1108,
                    762
                ],
                [
                    1116,
                    973
                ]
            ],
            "flags": {},
            "group_id": null
        },
        {
            "label": "a1-2",
            "shape_type": "rectangle",
            "points": [
                [
                    1122,
                    781
                ],
                [
                    1151,
                    900
                ]
            ],
            "flags": {},
            "group_id": null
        },
        {
            "label": "a1-2",
            "shape_type": "rectangle",
            "points": [
                [
                    1059,
                    782
                ],
                [
                    1089,
                    901
                ]
            ],
            "flags": {},
            "group_id": null
        },
        {
            "label": "a1-2",
            "shape_type": "rectangle",
            "points": [
                [
                    971,
                    781
                ],
                [
                    1000,
                    900
                ]
            ],
            "flags": {},
            "group_id": null
        },
        {
            "label": "a1-4",
            "shape_type": "rectangle",
            "points": [
                [
                    899,
                    782
                ],
                [
                    920,
                    899
                ]
            ],
            "flags": {},
            "group_id": null
        },
        {
            "label": "a1-1",
            "shape_type": "rectangle",
            "points": [
                [
                    711,
                    779
                ],
                [
                    740,
                    898
                ]
            ],
            "flags": {},
            "group_id": null
        },
        {
            "label": "p1-1",
            "shape_type": "rectangle",
            "points": [
                [
                    710,
                    761
                ],
                [
                    1152,
                    977
                ]
            ],
            "flags": {},
            "group_id": null
        },
        {
            "label": "seven",
            "shape_type": "point",
            "points": [
                [
                    1521,
                    610
                ]
            ],
            "flags": {},
            "group_id": null
        },
        {
            "label": "eight",
            "shape_type": "point",
            "points": [
                [
                    1547,
                    610
                ]
            ],
            "flags": {},
            "group_id": null
        },
        {
            "label": "nine",
            "shape_type": "point",
            "points": [
                [
                    1522,
                    644
                ]
            ],
            "flags": {},
            "group_id": null
        },
        {
            "label": "ten",
            "shape_type": "point",
            "points": [
                [
                    1547,
                    644
                ]
            ],
            "flags": {},
            "group_id": null
        },
        {
            "label": "seven",
            "shape_type": "point",
            "points": [
                [
                    1551,
                    608
                ]
            ],
            "flags": {},
            "group_id": null
        },
        {
            "label": "eight",
            "shape_type": "point",
            "points": [
                [
                    1579,
                    608
                ]
            ],
            "flags": {},
            "group_id": null
        },
        {
            "label": "nine",
            "shape_type": "point",
            "points": [
                [
                    1552,
                    640
                ]
            ],
            "flags": {},
            "group_id": null
        },
        {
            "label": "ten",
            "shape_type": "point",
            "points": [
                [
                    1580,
                    640
                ]
            ],
            "flags": {},
            "group_id": null
        },
        {
            "label": "eleven",
            "shape_type": "point",
            "points": [
                [
                    965,
                    2637
                ]
            ],
            "flags": {},
            "group_id": null
        },
        {
            "label": "eleven",
            "shape_type": "point",
            "points": [
                [
                    965,
                    2672
                ]
            ],
            "flags": {},
            "group_id": null
        },
        {
            "label": "eight",
            "shape_type": "point",
            "points": [
                [
                    990,
                    2637
                ]
            ],
            "flags": {},
            "group_id": null
        },
        {
            "label": "ten",
            "shape_type": "point",
            "points": [
                [
                    991,
                    2671
                ]
            ],
            "flags": {},
            "group_id": null
        },
        {
            "label": "seven",
            "shape_type": "point",
            "points": [
                [
                    987,
                    2700
                ]
            ],
            "flags": {},
            "group_id": null
        },
        {
            "label": "eight",
            "shape_type": "point",
            "points": [
                [
                    1042,
                    2700
                ]
            ],
            "flags": {},
            "group_id": null
        },
        {
            "label": "fourteen",
            "shape_type": "point",
            "points": [
                [
                    986,
                    2765
                ]
            ],
            "flags": {},
            "group_id": null
        },
        {
            "label": "fourteen",
            "shape_type": "point",
            "points": [
                [
                    1043,
                    2765
                ]
            ],
            "flags": {},
            "group_id": null
        },
        {
            "label": "va1",
            "shape_type": "rectangle",
            "points": [
                [
                    1551,
                    1918
                ],
                [
                    1621,
                    1972
                ]
            ],
            "flags": {},
            "group_id": null
        },
        {
            "label": "sm",
            "shape_type": "rectangle",
            "points": [
                [
                    2312,
                    1996
                ],
                [
                    4059,
                    2383
                ]
            ],
            "flags": {},
            "group_id": null
        },
        {
            "label": "btl",
            "shape_type": "rectangle",
            "points": [
                [
                    2256,
                    2665
                ],
                [
                    4102,
                    2977
                ]
            ],
            "flags": {},
            "group_id": null
        },
        {
            "label": "tl",
            "shape_type": "rectangle",
            "points": [
                [
                    2312,
                    197
                ],
                [
                    3287,
                    869
                ]
            ],
            "flags": {},
            "group_id": null
        },
        {
            "label": "j1",
            "shape_type": "rectangle",
            "points": [
                [
                    3289,
                    262
                ],
                [
                    3593,
                    333
                ]
            ],
            "flags": {},
            "group_id": null
        },
        {
            "label": "j1",
            "shape_type": "rectangle",
            "points": [
                [
                    3803,
                    465
                ],
                [
                    4098,
                    530
                ]
            ],
            "flags": {},
            "group_id": null
        },
        {
            "label": "j1",
            "shape_type": "rectangle",
            "points": [
                [
                    3794,
                    134
                ],
                [
                    4057,
                    211
                ]
            ],
            "flags": {},
            "group_id": null
        },
        {
            "label": "j1",
            "shape_type": "rectangle",
            "points": [
                [
                    3696,
                    124
                ],
                [
                    3737,
                    169
                ]
            ],
            "flags": {},
            "group_id": null
        },
        {
            "label": "va1",
            "shape_type": "rectangle",
            "points": [
                [
                    1618,
                    1910
                ],
                [
                    1667,
                    1973
                ]
            ],
            "flags": {},
            "group_id": null
        },
        {
            "label": "va1",
            "shape_type": "rectangle",
            "points": [
                [
                    1393,
                    1712
                ],
                [
                    1467,
                    1762
                ]
            ],
            "flags": {},
            "group_id": null
        },
        {
            "label": "va1",
            "shape_type": "rectangle",
            "points": [
                [
                    1726,
                    1612
                ],
                [
                    1780,
                    1675
                ]
            ],
            "flags": {},
            "group_id": null
        },
        {
            "label": "mask",
            "lineType": [
                "LLLLLLLLLLLLL"
            ],
            "shape_type": "polygon",
            "points": [
                [
                    1528,
                    1011
                ],
                [
                    1620,
                    1011
                ],
                [
                    1712,
                    994
                ],
                [
                    1753,
                    934
                ],
                [
                    1786,
                    829
                ],
                [
                    1737,
                    661
                ],
                [
                    1593,
                    555
                ],
                [
                    1414,
                    570
                ],
                [
                    1339,
                    616
                ],
                [
                    1271,
                    728
                ],
                [
                    1264,
                    851
                ],
                [
                    1299,
                    993
                ],
                [
                    1528,
                    1011
                ]
            ],
            "flags": {},
            "group_id": null
        },
        {
            "label": "mask",
            "lineType": [
                "LLLLLLLLLLLLLLLLLLLLLLLLLLLLLLLLLLLLLLLLLL"
            ],
            "shape_type": "polygon",
            "points": [
                [
                    2059,
                    416
                ],
                [
                    2085,
                    391
                ],
                [
                    2092,
                    318
                ],
                [
                    2089,
                    257
                ],
                [
                    1991,
                    214
                ],
                [
                    1699,
                    199
                ],
                [
                    1427,
                    199
                ],
                [
                    1144,
                    194
                ],
                [
                    772,
                    194
                ],
                [
                    485,
                    195
                ],
                [
                    131,
                    233
                ],
                [
                    131,
                    300
                ],
                [
                    145,
                    644
                ],
                [
                    150,
                    975
                ],
                [
                    350,
                    1090
                ],
                [
                    788,
                    1137
                ],
                [
                    820,
                    2735
                ],
                [
                    141,
                    2752
                ],
                [
                    152,
                    2811
                ],
                [
                    270,
                    2843
                ],
                [
                    830,
                    2888
                ],
                [
                    855,
                    2937
                ],
                [
                    993,
                    2941
                ],
                [
                    1145,
                    2938
                ],
                [
                    1188,
                    2906
                ],
                [
                    1741,
                    2847
                ],
                [
                    1714,
                    2679
                ],
                [
                    1580,
                    2643
                ],
                [
                    1154,
                    2352
                ],
                [
                    1039,
                    2169
                ],
                [
                    985,
                    1915
                ],
                [
                    997,
                    1824
                ],
                [
                    1003,
                    1726
                ],
                [
                    1000,
                    1462
                ],
                [
                    1023,
                    1226
                ],
                [
                    1057,
                    1032
                ],
                [
                    1117,
                    1019
                ],
                [
                    1170,
                    900
                ],
                [
                    1176,
                    749
                ],
                [
                    1237,
                    457
                ],
                [
                    1275,
                    403
                ],
                [
                    2059,
                    416
                ]
            ],
            "flags": {},
            "group_id": null
        },
        {
            "label": "mask",
            "lineType": [
                "LLLLLLLLLLLLLLLLLLLLLLL"
            ],
            "shape_type": "polygon",
            "points": [
                [
                    1749,
                    1387
                ],
                [
                    2106,
                    1414
                ],
                [
                    2174,
                    1865
                ],
                [
                    2240,
                    1871
                ],
                [
                    2317,
                    1871
                ],
                [
                    2335,
                    1890
                ],
                [
                    2315,
                    1967
                ],
                [
                    2186,
                    2060
                ],
                [
                    2199,
                    2146
                ],
                [
                    2021,
                    2251
                ],
                [
                    1936,
                    2370
                ],
                [
                    1749,
                    2449
                ],
                [
                    1389,
                    2424
                ],
                [
                    1237,
                    2277
                ],
                [
                    1046,
                    2124
                ],
                [
                    1019,
                    1956
                ],
                [
                    1002,
                    1887
                ],
                [
                    1016,
                    1775
                ],
                [
                    1019,
                    1626
                ],
                [
                    1012,
                    1554
                ],
                [
                    1016,
                    1442
                ],
                [
                    1021,
                    1395
                ],
                [
                    1749,
                    1387
                ]
            ],
            "flags": {},
            "group_id": null
        },
        {
            "label": "mask",
            "lineType": [
                "LLLLLLLLL"
            ],
            "shape_type": "polygon",
            "points": [
                [
                    2161,
                    336
                ],
                [
                    2204,
                    300
                ],
                [
                    2258,
                    201
                ],
                [
                    2260,
                    151
                ],
                [
                    2257,
                    109
                ],
                [
                    2121,
                    91
                ],
                [
                    2109,
                    269
                ],
                [
                    2110,
                    312
                ],
                [
                    2161,
                    336
                ]
            ],
            "flags": {},
            "group_id": null
        },
        {
            "label": "mask",
            "lineType": [
                "LLLLLLLLLLLLL"
            ],
            "shape_type": "polygon",
            "points": [
                [
                    2371,
                    157
                ],
                [
                    2574,
                    165
                ],
                [
                    3094,
                    148
                ],
                [
                    3240,
                    159
                ],
                [
                    3267,
                    206
                ],
                [
                    3262,
                    322
                ],
                [
                    3307,
                    407
                ],
                [
                    3336,
                    562
                ],
                [
                    3321,
                    655
                ],
                [
                    2561,
                    903
                ],
                [
                    2379,
                    839
                ],
                [
                    2284,
                    200
                ],
                [
                    2371,
                    157
                ]
            ],
            "flags": {},
            "group_id": null
        },
        {
            "label": "mask",
            "lineType": [
                "LLLLLLLLLLLLLLLLLLLL"
            ],
            "shape_type": "polygon",
            "points": [
                [
                    2403,
                    892
                ],
                [
                    2491,
                    936
                ],
                [
                    2696,
                    967
                ],
                [
                    3177,
                    963
                ],
                [
                    3756,
                    962
                ],
                [
                    4054,
                    970
                ],
                [
                    4083,
                    995
                ],
                [
                    4087,
                    1406
                ],
                [
                    4073,
                    1790
                ],
                [
                    4070,
                    1880
                ],
                [
                    2872,
                    1891
                ],
                [
                    2420,
                    1891
                ],
                [
                    2333,
                    1868
                ],
                [
                    2199,
                    1865
                ],
                [
                    2186,
                    1825
                ],
                [
                    2165,
                    1615
                ],
                [
                    2149,
                    1336
                ],
                [
                    2133,
                    1104
                ],
                [
                    2173,
                    908
                ],
                [
                    2403,
                    892
                ]
            ],
            "flags": {},
            "group_id": null
        },
        {
            "label": "mask",
            "lineType": [
                "LLLLLLLLLLLL"
            ],
            "shape_type": "polygon",
            "points": [
                [
                    2473,
                    2001
                ],
                [
                    2691,
                    2008
                ],
                [
                    3045,
                    2008
                ],
                [
                    3898,
                    2032
                ],
                [
                    4049,
                    2211
                ],
                [
                    4084,
                    2322
                ],
                [
                    4078,
                    2397
                ],
                [
                    3910,
                    2427
                ],
                [
                    2759,
                    2411
                ],
                [
                    2283,
                    2401
                ],
                [
                    2306,
                    1988
                ],
                [
                    2473,
                    2001
                ]
            ],
            "flags": {},
            "group_id": null
        },
        {
            "label": "mask",
            "lineType": [
                "LLLLL"
            ],
            "shape_type": "polygon",
            "points": [
                [
                    2255,
                    2663
                ],
                [
                    2255,
                    2981
                ],
                [
                    4103,
                    2980
                ],
                [
                    4104,
                    2662
                ],
                [
                    2255,
                    2663
                ]
            ],
            "flags": {},
            "group_id": null
        },
        {
            "label": "mask",
            "lineType": [
                "LLLLLLLLLLLLLL"
            ],
            "shape_type": "polygon",
            "points": [
                [
                    3731,
                    807
                ],
                [
                    3857,
                    787
                ],
                [
                    3979,
                    731
                ],
                [
                    4089,
                    559
                ],
                [
                    4101,
                    533
                ],
                [
                    4099,
                    95
                ],
                [
                    3651,
                    93
                ],
                [
                    3313,
                    139
                ],
                [
                    3285,
                    187
                ],
                [
                    3271,
                    249
                ],
                [
                    3279,
                    329
                ],
                [
                    3335,
                    395
                ],
                [
                    3463,
                    699
                ],
                [
                    3731,
                    807
                ]
            ],
            "flags": {},
            "group_id": null
        },
        {
            "label": "Ns",
            "shape_type": "point",
            "points": [
                [
                    3718,
                    362
                ]
            ],
            "flags": {},
            "group_id": null
        },
        {
            "label": "Ne",
            "shape_type": "point",
            "points": [
                [
                    3718,
                    220
                ]
            ],
            "flags": {},
            "group_id": null
        },
        {
            "label": "xtl",
            "shape_type": "rectangle",
            "points": [
                [
                    2951,
                    223
                ],
                [
                    3013,
                    248
                ]
            ],
            "flags": {},
            "group_id": null
        },
        {
            "label": "xtl",
            "shape_type": "rectangle",
            "points": [
                [
                    2951,
                    285
                ],
                [
                    3014,
                    313
                ]
            ],
            "flags": {},
            "group_id": null
        },
        {
            "label": "xtl",
            "shape_type": "rectangle",
            "points": [
                [
                    2950,
                    371
                ],
                [
                    3014,
                    377
                ]
            ],
            "flags": {},
            "group_id": null
        },
        {
            "label": "xtl",
            "shape_type": "rectangle",
            "points": [
                [
                    2941,
                    422
                ],
                [
                    2999,
                    465
                ]
            ],
            "flags": {},
            "group_id": null
        },
        {
            "label": "xtl",
            "shape_type": "rectangle",
            "points": [
                [
                    2942,
                    493
                ],
                [
                    3010,
                    535
                ]
            ],
            "flags": {},
            "group_id": null
        },
        {
            "label": "xtl",
            "shape_type": "rectangle",
            "points": [
                [
                    2942,
                    566
                ],
                [
                    3009,
                    608
                ]
            ],
            "flags": {},
            "group_id": null
        },
        {
            "label": "wztl",
            "shape_type": "rectangle",
            "points": [
                [
                    3045,
                    564
                ],
                [
                    3282,
                    616
                ]
            ],
            "flags": {},
            "group_id": null
        },
        {
            "label": "wztl",
            "shape_type": "rectangle",
            "points": [
                [
                    3046,
                    484
                ],
                [
                    3282,
                    536
                ]
            ],
            "flags": {},
            "group_id": null
        },
        {
            "label": "wztl",
            "shape_type": "rectangle",
            "points": [
                [
                    3045,
                    413
                ],
                [
                    3282,
                    465
                ]
            ],
            "flags": {},
            "group_id": null
        },
        {
            "label": "wztl",
            "shape_type": "rectangle",
            "points": [
                [
                    3048,
                    336
                ],
                [
                    3228,
                    388
                ]
            ],
            "flags": {},
            "group_id": null
        },
        {
            "label": "wztl",
            "shape_type": "rectangle",
            "points": [
                [
                    3048,
                    264
                ],
                [
                    3241,
                    316
                ]
            ],
            "flags": {},
            "group_id": null
        },
        {
            "label": "wztl",
            "shape_type": "rectangle",
            "points": [
                [
                    3048,
                    196
                ],
                [
                    3241,
                    248
                ]
            ],
            "flags": {},
            "group_id": null
        },
        {
            "label": "wztl",
            "shape_type": "rectangle",
            "points": [
                [
                    2536,
                    204
                ],
                [
                    2827,
                    256
                ]
            ],
            "flags": {},
            "group_id": null
        },
        {
            "label": "wztl",
            "shape_type": "rectangle",
            "points": [
                [
                    2536,
                    270
                ],
                [
                    2843,
                    321
                ]
            ],
            "flags": {},
            "group_id": null
        },
        {
            "label": "wztl",
            "shape_type": "rectangle",
            "points": [
                [
                    2536,
                    339
                ],
                [
                    2801,
                    390
                ]
            ],
            "flags": {},
            "group_id": null
        },
        {
            "label": "wztl",
            "shape_type": "rectangle",
            "points": [
                [
                    2541,
                    409
                ],
                [
                    2828,
                    465
                ]
            ],
            "flags": {},
            "group_id": null
        },
        {
            "label": "wztl",
            "shape_type": "rectangle",
            "points": [
                [
                    2548,
                    482
                ],
                [
                    2777,
                    535
                ]
            ],
            "flags": {},
            "group_id": null
        },
        {
            "label": "wztl",
            "shape_type": "rectangle",
            "points": [
                [
                    2551,
                    552
                ],
                [
                    2757,
                    605
                ]
            ],
            "flags": {},
            "group_id": null
        },
        {
            "label": "wztl",
            "shape_type": "rectangle",
            "points": [
                [
                    2555,
                    642
                ],
                [
                    2672,
                    694
                ]
            ],
            "flags": {},
            "group_id": null
        },
        {
            "label": "wztl",
            "shape_type": "rectangle",
            "points": [
                [
                    2559,
                    727
                ],
                [
                    2673,
                    780
                ]
            ],
            "flags": {},
            "group_id": null
        },
        {
            "label": "wztl",
            "shape_type": "rectangle",
            "points": [
                [
                    2553,
                    817
                ],
                [
                    2628,
                    870
                ]
            ],
            "flags": {},
            "group_id": null
        },
        {
            "label": "xtl",
            "shape_type": "rectangle",
            "points": [
                [
                    2456,
                    825
                ],
                [
                    2490,
                    859
                ]
            ],
            "flags": {},
            "group_id": null
        },
        {
            "label": "xtl",
            "shape_type": "rectangle",
            "points": [
                [
                    2438,
                    759
                ],
                [
                    2510,
                    764
                ]
            ],
            "flags": {},
            "group_id": null
        },
        {
            "label": "xtl",
            "shape_type": "rectangle",
            "points": [
                [
                    2435,
                    674
                ],
                [
                    2508,
                    680
                ]
            ],
            "flags": {},
            "group_id": null
        },
        {
            "label": "xtl",
            "shape_type": "rectangle",
            "points": [
                [
                    2440,
                    567
                ],
                [
                    2511,
                    608
                ]
            ],
            "flags": {},
            "group_id": null
        },
        {
            "label": "xtl",
            "shape_type": "rectangle",
            "points": [
                [
                    2437,
                    501
                ],
                [
                    2507,
                    542
                ]
            ],
            "flags": {},
            "group_id": null
        },
        {
            "label": "xtl",
            "shape_type": "rectangle",
            "points": [
                [
                    2440,
                    423
                ],
                [
                    2510,
                    465
                ]
            ],
            "flags": {},
            "group_id": null
        },
        {
            "label": "xtl",
            "shape_type": "rectangle",
            "points": [
                [
                    2436,
                    358
                ],
                [
                    2507,
                    399
                ]
            ],
            "flags": {},
            "group_id": null
        },
        {
            "label": "xtl",
            "shape_type": "rectangle",
            "points": [
                [
                    2436,
                    287
                ],
                [
                    2507,
                    327
                ]
            ],
            "flags": {},
            "group_id": null
        },
        {
            "label": "xtl",
            "shape_type": "rectangle",
            "points": [
                [
                    2437,
                    214
                ],
                [
                    2507,
                    256
                ]
            ],
            "flags": {},
            "group_id": null
        },
        {
            "label": "wlb",
            "shape_type": "rectangle",
            "points": [
                [
                    2199,
                    917
                ],
                [
                    4055,
                    1863
                ]
            ],
            "flags": {},
            "group_id": null
        },
        {
            "label": "wz1",
            "shape_type": "rectangle",
            "points": [
                [
                    1222,
                    268
                ],
                [
                    2075,
                    330
                ]
            ],
            "flags": {},
            "group_id": null
        },
        {
            "label": "wz3",
            "shape_type": "rectangle",
            "points": [
                [
                    903,
                    257
                ],
                [
                    967,
                    287
                ]
            ],
            "flags": {},
            "group_id": null
        },
        {
            "label": "wz1",
            "shape_type": "rectangle",
            "points": [
                [
                    141,
                    242
                ],
                [
                    743,
                    298
                ]
            ],
            "flags": {},
            "group_id": null
        },
        {
            "label": "wz1-l",
            "lineType": "LL",
            "shape_type": "line",
            "points": [
                [
                    695,
                    287
                ],
                [
                    785,
                    475
                ]
            ],
            "flags": {},
            "group_id": null
        },
        {
            "label": "wz3-l",
            "lineType": "LL",
            "shape_type": "line",
            "points": [
                [
                    932,
                    281
                ],
                [
                    933,
                    352
                ]
            ],
            "flags": {},
            "group_id": null
        },
        {
            "label": "wz1-l",
            "lineType": "LL",
            "shape_type": "line",
            "points": [
                [
                    1328,
                    321
                ],
                [
                    1136,
                    486
                ]
            ],
            "flags": {},
            "group_id": null
        },
        {
            "label": "wz1",
            "shape_type": "rectangle",
            "points": [
                [
                    1022,
                    1471
                ],
                [
                    1430,
                    1601
                ]
            ],
            "flags": {},
            "group_id": null
        },
        {
            "label": "wz1-l",
            "lineType": "LL",
            "shape_type": "line",
            "points": [
                [
                    1407,
                    1560
                ],
                [
                    1434,
                    1653
                ]
            ],
            "flags": {},
            "group_id": null
        },
        {
            "label": "wz1",
            "shape_type": "rectangle",
            "points": [
                [
                    1703,
                    1453
                ],
                [
                    2102,
                    1601
                ]
            ],
            "flags": {},
            "group_id": null
        },
        {
            "label": "wz1",
            "shape_type": "rectangle",
            "points": [
                [
                    1899,
                    1873
                ],
                [
                    2308,
                    2002
                ]
            ],
            "flags": {},
            "group_id": null
        },
        {
            "label": "wz1",
            "shape_type": "rectangle",
            "points": [
                [
                    1739,
                    2082
                ],
                [
                    2142,
                    2232
                ]
            ],
            "flags": {},
            "group_id": null
        },
        {
            "label": "wz1",
            "shape_type": "rectangle",
            "points": [
                [
                    1061,
                    1965
                ],
                [
                    1467,
                    2095
                ]
            ],
            "flags": {},
            "group_id": null
        },
        {
            "label": "wz1",
            "shape_type": "rectangle",
            "points": [
                [
                    1019,
                    1760
                ],
                [
                    1404,
                    1900
                ]
            ],
            "flags": {},
            "group_id": null
        },
        {
            "label": "wz3",
            "shape_type": "rectangle",
            "points": [
                [
                    1529,
                    2355
                ],
                [
                    1718,
                    2413
                ]
            ],
            "flags": {},
            "group_id": null
        },
        {
            "label": "wz1-l",
            "lineType": "LL",
            "shape_type": "line",
            "points": [
                [
                    1453,
                    2025
                ],
                [
                    1577,
                    1963
                ]
            ],
            "flags": {},
            "group_id": null
        },
        {
            "label": "wz1-l",
            "lineType": "LL",
            "shape_type": "line",
            "points": [
                [
                    1758,
                    2105
                ],
                [
                    1651,
                    1959
                ]
            ],
            "flags": {},
            "group_id": null
        },
        {
            "label": "wz1-l",
            "lineType": "LL",
            "shape_type": "line",
            "points": [
                [
                    1911,
                    1916
                ],
                [
                    1799,
                    1705
                ]
            ],
            "flags": {},
            "group_id": null
        },
        {
            "label": "wz1-l",
            "lineType": "LL",
            "shape_type": "line",
            "points": [
                [
                    1794,
                    1571
                ],
                [
                    1760,
                    1631
                ]
            ],
            "flags": {},
            "group_id": null
        },
        {
            "label": "wz1-l",
            "lineType": "LL",
            "shape_type": "line",
            "points": [
                [
                    1359,
                    1814
                ],
                [
                    1418,
                    1753
                ]
            ],
            "flags": {},
            "group_id": null
        },
        {
            "label": "wz1-l",
            "lineType": "LL",
            "shape_type": "line",
            "points": [
                [
                    1246,
                    308
                ],
                [
                    725,
                    474
                ]
            ],
            "flags": {},
            "group_id": null
        },
        {
            "label": "wz1-l",
            "lineType": "LL",
            "shape_type": "line",
            "points": [
                [
                    1317,
                    309
                ],
                [
                    990,
                    485
                ]
            ],
            "flags": {},
            "group_id": null
        },
        {
            "label": "wz1-l",
            "lineType": "LL",
            "shape_type": "line",
            "points": [
                [
                    720,
                    285
                ],
                [
                    904,
                    495
                ]
            ],
            "flags": {},
            "group_id": null
        },
        {
            "label": "wz1-l",
            "lineType": "LL",
            "shape_type": "line",
            "points": [
                [
                    730,
                    278
                ],
                [
                    1078,
                    487
                ]
            ],
            "flags": {},
            "group_id": null
        }
    ],
    "flags": {},
    "imageData": null,
    "version": "4.5.7"
}