{
    "imageHeight": 2911,
    "imageWidth": 4210,
    "imagePath": "TQ0713-张庄路汽配城(铁塔公司)5G无线基站天馈线安装示意图.png",
    "shapes": [
        {
            "label": "v1",
            "shape_type": "rectangle",
            "points": [
                [
                    3516,
                    854
                ],
                [
                    3782,
                    925
                ]
            ],
            "flags": {},
            "group_id": null
        },
        {
            "label": "n1",
            "shape_type": "rectangle",
            "points": [
                [
                    3199,
                    259
                ],
                [
                    4018,
                    705
                ]
            ],
            "flags": {},
            "group_id": null
        },
        {
            "label": "n1",
            "shape_type": "rectangle",
            "points": [
                [
                    1983,
                    253
                ],
                [
                    2022,
                    492
                ]
            ],
            "flags": {},
            "group_id": null
        },
        {
            "label": "d1",
            "shape_type": "rectangle",
            "points": [
                [
                    1056,
                    920
                ],
                [
                    1111,
                    984
                ]
            ],
            "flags": {},
            "group_id": null
        },
        {
            "label": "d1",
            "shape_type": "rectangle",
            "points": [
                [
                    1362,
                    918
                ],
                [
                    1416,
                    985
                ]
            ],
            "flags": {},
            "group_id": null
        },
        {
            "label": "v1",
            "shape_type": "rectangle",
            "points": [
                [
                    1161,
                    925
                ],
                [
                    1323,
                    975
                ]
            ],
            "flags": {},
            "group_id": null
        },
        {
            "label": "vt9",
            "shape_type": "rectangle",
            "points": [
                [
                    1077,
                    602
                ],
                [
                    1204,
                    729
                ]
            ],
            "flags": {},
            "group_id": null
        },
        {
            "label": "vb1",
            "shape_type": "rectangle",
            "points": [
                [
                    1453,
                    635
                ],
                [
                    1505,
                    732
                ]
            ],
            "flags": {},
            "group_id": null
        },
        {
            "label": "seven",
            "shape_type": "point",
            "points": [
                [
                    1454,
                    635
                ]
            ],
            "flags": {},
            "group_id": null
        },
        {
            "label": "eight",
            "shape_type": "point",
            "points": [
                [
                    1505,
                    635
                ]
            ],
            "flags": {},
            "group_id": null
        },
        {
            "label": "nine",
            "shape_type": "point",
            "points": [
                [
                    1453,
                    731
                ]
            ],
            "flags": {},
            "group_id": null
        },
        {
            "label": "ten",
            "shape_type": "point",
            "points": [
                [
                    1505,
                    732
                ]
            ],
            "flags": {},
            "group_id": null
        },
        {
            "label": "eleven",
            "shape_type": "point",
            "points": [
                [
                    1452,
                    683
                ]
            ],
            "flags": {},
            "group_id": null
        },
        {
            "label": "twelve",
            "shape_type": "point",
            "points": [
                [
                    1505,
                    684
                ]
            ],
            "flags": {},
            "group_id": null
        },
        {
            "label": "v1",
            "shape_type": "rectangle",
            "points": [
                [
                    1630,
                    2162
                ],
                [
                    2064,
                    2222
                ]
            ],
            "flags": {},
            "group_id": null
        },
        {
            "label": "vp1-1",
            "shape_type": "rectangle",
            "points": [
                [
                    1698,
                    1758
                ],
                [
                    1885,
                    1946
                ]
            ],
            "flags": {},
            "group_id": null
        },
        {
            "label": "va1",
            "shape_type": "rectangle",
            "points": [
                [
                    1778,
                    1651
                ],
                [
                    1833,
                    1714
                ]
            ],
            "flags": {},
            "group_id": null
        },
        {
            "label": "va1",
            "shape_type": "rectangle",
            "points": [
                [
                    1915,
                    1916
                ],
                [
                    1985,
                    1962
                ]
            ],
            "flags": {},
            "group_id": null
        },
        {
            "label": "va1",
            "shape_type": "rectangle",
            "points": [
                [
                    1601,
                    1881
                ],
                [
                    1650,
                    1948
                ]
            ],
            "flags": {},
            "group_id": null
        },
        {
            "label": "h1",
            "shape_type": "rectangle",
            "points": [
                [
                    357,
                    1069
                ],
                [
                    597,
                    1171
                ]
            ],
            "flags": {},
            "group_id": null
        },
        {
            "label": "h1",
            "shape_type": "rectangle",
            "points": [
                [
                    356,
                    1243
                ],
                [
                    599,
                    1344
                ]
            ],
            "flags": {},
            "group_id": null
        },
        {
            "label": "h1",
            "shape_type": "rectangle",
            "points": [
                [
                    355,
                    1427
                ],
                [
                    600,
                    1528
                ]
            ],
            "flags": {},
            "group_id": null
        },
        {
            "label": "h1",
            "shape_type": "rectangle",
            "points": [
                [
                    357,
                    1622
                ],
                [
                    597,
                    1724
                ]
            ],
            "flags": {},
            "group_id": null
        },
        {
            "label": "h1",
            "shape_type": "rectangle",
            "points": [
                [
                    358,
                    1792
                ],
                [
                    602,
                    1893
                ]
            ],
            "flags": {},
            "group_id": null
        },
        {
            "label": "c1",
            "shape_type": "rectangle",
            "points": [
                [
                    853,
                    1015
                ],
                [
                    859,
                    1162
                ]
            ],
            "flags": {},
            "group_id": null
        },
        {
            "label": "z1",
            "shape_type": "rectangle",
            "points": [
                [
                    780,
                    1255
                ],
                [
                    928,
                    1396
                ]
            ],
            "flags": {},
            "group_id": null
        },
        {
            "label": "a1-1",
            "shape_type": "rectangle",
            "points": [
                [
                    789,
                    1271
                ],
                [
                    815,
                    1379
                ]
            ],
            "flags": {},
            "group_id": null
        },
        {
            "label": "a1-1",
            "shape_type": "rectangle",
            "points": [
                [
                    827,
                    1271
                ],
                [
                    853,
                    1378
                ]
            ],
            "flags": {},
            "group_id": null
        },
        {
            "label": "a1-2",
            "shape_type": "rectangle",
            "points": [
                [
                    899,
                    1272
                ],
                [
                    924,
                    1379
                ]
            ],
            "flags": {},
            "group_id": null
        },
        {
            "label": "g1",
            "shape_type": "rectangle",
            "points": [
                [
                    815,
                    1266
                ],
                [
                    822,
                    1388
                ]
            ],
            "flags": {},
            "group_id": null
        },
        {
            "label": "g1",
            "shape_type": "rectangle",
            "points": [
                [
                    854,
                    1266
                ],
                [
                    860,
                    1388
                ]
            ],
            "flags": {},
            "group_id": null
        },
        {
            "label": "g1",
            "shape_type": "rectangle",
            "points": [
                [
                    889,
                    1266
                ],
                [
                    896,
                    1389
                ]
            ],
            "flags": {},
            "group_id": null
        },
        {
            "label": "p1-1",
            "shape_type": "rectangle",
            "points": [
                [
                    789,
                    1266
                ],
                [
                    924,
                    1390
                ]
            ],
            "flags": {},
            "group_id": null
        },
        {
            "label": "a1-1",
            "shape_type": "rectangle",
            "points": [
                [
                    789,
                    1445
                ],
                [
                    816,
                    1552
                ]
            ],
            "flags": {},
            "group_id": null
        },
        {
            "label": "a1-1",
            "shape_type": "rectangle",
            "points": [
                [
                    827,
                    1445
                ],
                [
                    853,
                    1553
                ]
            ],
            "flags": {},
            "group_id": null
        },
        {
            "label": "a1-2",
            "shape_type": "rectangle",
            "points": [
                [
                    899,
                    1446
                ],
                [
                    923,
                    1554
                ]
            ],
            "flags": {},
            "group_id": null
        },
        {
            "label": "g1",
            "shape_type": "rectangle",
            "points": [
                [
                    816,
                    1441
                ],
                [
                    822,
                    1562
                ]
            ],
            "flags": {},
            "group_id": null
        },
        {
            "label": "g1",
            "shape_type": "rectangle",
            "points": [
                [
                    854,
                    1441
                ],
                [
                    860,
                    1563
                ]
            ],
            "flags": {},
            "group_id": null
        },
        {
            "label": "g1",
            "shape_type": "rectangle",
            "points": [
                [
                    889,
                    1440
                ],
                [
                    895,
                    1563
                ]
            ],
            "flags": {},
            "group_id": null
        },
        {
            "label": "a1-1",
            "shape_type": "rectangle",
            "points": [
                [
                    789,
                    1596
                ],
                [
                    815,
                    1706
                ]
            ],
            "flags": {},
            "group_id": null
        },
        {
            "label": "a1-1",
            "shape_type": "rectangle",
            "points": [
                [
                    832,
                    1596
                ],
                [
                    858,
                    1705
                ]
            ],
            "flags": {},
            "group_id": null
        },
        {
            "label": "a1-2",
            "shape_type": "rectangle",
            "points": [
                [
                    899,
                    1597
                ],
                [
                    923,
                    1704
                ]
            ],
            "flags": {},
            "group_id": null
        },
        {
            "label": "g1",
            "shape_type": "rectangle",
            "points": [
                [
                    815,
                    1590
                ],
                [
                    821,
                    1713
                ]
            ],
            "flags": {},
            "group_id": null
        },
        {
            "label": "g1",
            "shape_type": "rectangle",
            "points": [
                [
                    859,
                    1592
                ],
                [
                    864,
                    1713
                ]
            ],
            "flags": {},
            "group_id": null
        },
        {
            "label": "g1",
            "shape_type": "rectangle",
            "points": [
                [
                    890,
                    1592
                ],
                [
                    896,
                    1714
                ]
            ],
            "flags": {},
            "group_id": null
        },
        {
            "label": "p1-1",
            "shape_type": "rectangle",
            "points": [
                [
                    788,
                    1439
                ],
                [
                    924,
                    1562
                ]
            ],
            "flags": {},
            "group_id": null
        },
        {
            "label": "p1-1",
            "shape_type": "rectangle",
            "points": [
                [
                    789,
                    1590
                ],
                [
                    923,
                    1714
                ]
            ],
            "flags": {},
            "group_id": null
        },
        {
            "label": "z1",
            "shape_type": "rectangle",
            "points": [
                [
                    780,
                    1396
                ],
                [
                    928,
                    1734
                ]
            ],
            "flags": {},
            "group_id": null
        },
        {
            "label": "a1-1",
            "shape_type": "rectangle",
            "points": [
                [
                    789,
                    1771
                ],
                [
                    814,
                    1879
                ]
            ],
            "flags": {},
            "group_id": null
        },
        {
            "label": "a1-1",
            "shape_type": "rectangle",
            "points": [
                [
                    832,
                    1771
                ],
                [
                    858,
                    1879
                ]
            ],
            "flags": {},
            "group_id": null
        },
        {
            "label": "a1-2",
            "shape_type": "rectangle",
            "points": [
                [
                    899,
                    1770
                ],
                [
                    925,
                    1879
                ]
            ],
            "flags": {},
            "group_id": null
        },
        {
            "label": "g1",
            "shape_type": "rectangle",
            "points": [
                [
                    816,
                    1766
                ],
                [
                    822,
                    1887
                ]
            ],
            "flags": {},
            "group_id": null
        },
        {
            "label": "g1",
            "shape_type": "rectangle",
            "points": [
                [
                    858,
                    1766
                ],
                [
                    865,
                    1887
                ]
            ],
            "flags": {},
            "group_id": null
        },
        {
            "label": "g1",
            "shape_type": "rectangle",
            "points": [
                [
                    890,
                    1766
                ],
                [
                    896,
                    1887
                ]
            ],
            "flags": {},
            "group_id": null
        },
        {
            "label": "p1-1",
            "shape_type": "rectangle",
            "points": [
                [
                    788,
                    1766
                ],
                [
                    925,
                    1887
                ]
            ],
            "flags": {},
            "group_id": null
        },
        {
            "label": "h1",
            "shape_type": "rectangle",
            "points": [
                [
                    380,
                    2500
                ],
                [
                    606,
                    2600
                ]
            ],
            "flags": {},
            "group_id": null
        },
        {
            "label": "b1",
            "shape_type": "rectangle",
            "points": [
                [
                    937,
                    2551
                ],
                [
                    991,
                    2599
                ]
            ],
            "flags": {},
            "group_id": null
        },
        {
            "label": "seven",
            "shape_type": "point",
            "points": [
                [
                    937,
                    2503
                ]
            ],
            "flags": {},
            "group_id": null
        },
        {
            "label": "eight",
            "shape_type": "point",
            "points": [
                [
                    990,
                    2503
                ]
            ],
            "flags": {},
            "group_id": null
        },
        {
            "label": "eleven",
            "shape_type": "point",
            "points": [
                [
                    937,
                    2550
                ]
            ],
            "flags": {},
            "group_id": null
        },
        {
            "label": "twelve",
            "shape_type": "point",
            "points": [
                [
                    990,
                    2551
                ]
            ],
            "flags": {},
            "group_id": null
        },
        {
            "label": "fourteen",
            "shape_type": "point",
            "points": [
                [
                    937,
                    2598
                ]
            ],
            "flags": {},
            "group_id": null
        },
        {
            "label": "fourteen",
            "shape_type": "point",
            "points": [
                [
                    990,
                    2599
                ]
            ],
            "flags": {},
            "group_id": null
        },
        {
            "label": "v1",
            "shape_type": "rectangle",
            "points": [
                [
                    853,
                    2666
                ],
                [
                    1049,
                    2742
                ]
            ],
            "flags": {},
            "group_id": null
        },
        {
            "label": "",
            "shape_type": "",
            "points": [],
            "flags": {},
            "group_id": null
        },
        {
            "label": "t9",
            "shape_type": "rectangle",
            "points": [
                [
                    779,
                    1015
                ],
                [
                    929,
                    2599
                ]
            ],
            "flags": {},
            "group_id": null
        },
        {
            "label": "b1",
            "shape_type": "rectangle",
            "points": [
                [
                    937,
                    2502
                ],
                [
                    991,
                    2552
                ]
            ],
            "flags": {},
            "group_id": null
        },
        {
            "label": "btl",
            "shape_type": "rectangle",
            "points": [
                [
                    2342,
                    2538
                ],
                [
                    4101,
                    2835
                ]
            ],
            "flags": {},
            "group_id": null
        },
        {
            "label": "sm",
            "shape_type": "rectangle",
            "points": [
                [
                    2356,
                    2064
                ],
                [
                    4015,
                    2444
                ]
            ],
            "flags": {},
            "group_id": null
        },
        {
            "label": "tl",
            "shape_type": "rectangle",
            "points": [
                [
                    2240,
                    333
                ],
                [
                    3168,
                    930
                ]
            ],
            "flags": {},
            "group_id": null
        },
        {
            "label": "j1",
            "shape_type": "rectangle",
            "points": [
                [
                    3612,
                    301
                ],
                [
                    3648,
                    344
                ]
            ],
            "flags": {},
            "group_id": null
        },
        {
            "label": "j1",
            "shape_type": "rectangle",
            "points": [
                [
                    3753,
                    264
                ],
                [
                    4002,
                    324
                ]
            ],
            "flags": {},
            "group_id": null
        },
        {
            "label": "j1",
            "shape_type": "rectangle",
            "points": [
                [
                    3730,
                    615
                ],
                [
                    4013,
                    676
                ]
            ],
            "flags": {},
            "group_id": null
        },
        {
            "label": "j1",
            "shape_type": "rectangle",
            "points": [
                [
                    3202,
                    380
                ],
                [
                    3491,
                    441
                ]
            ],
            "flags": {},
            "group_id": null
        },
        {
            "label": "mask",
            "lineType": [
                "LLLLLLLLLLLLLLLLLLLLLLLLLLLLLLLLLL"
            ],
            "shape_type": "polygon",
            "points": [
                [
                    682,
                    1126
                ],
                [
                    576,
                    1059
                ],
                [
                    345,
                    1053
                ],
                [
                    326,
                    1901
                ],
                [
                    790,
                    1929
                ],
                [
                    786,
                    2131
                ],
                [
                    775,
                    2545
                ],
                [
                    357,
                    2479
                ],
                [
                    358,
                    2500
                ],
                [
                    361,
                    2567
                ],
                [
                    509,
                    2641
                ],
                [
                    840,
                    2649
                ],
                [
                    837,
                    2757
                ],
                [
                    1058,
                    2756
                ],
                [
                    1066,
                    2653
                ],
                [
                    1113,
                    2647
                ],
                [
                    1667,
                    2648
                ],
                [
                    1664,
                    2579
                ],
                [
                    1000,
                    2581
                ],
                [
                    997,
                    2491
                ],
                [
                    921,
                    2499
                ],
                [
                    923,
                    1972
                ],
                [
                    1060,
                    1973
                ],
                [
                    1147,
                    1969
                ],
                [
                    1144,
                    1910
                ],
                [
                    949,
                    1844
                ],
                [
                    967,
                    1511
                ],
                [
                    1059,
                    1491
                ],
                [
                    1189,
                    1498
                ],
                [
                    1186,
                    1404
                ],
                [
                    1069,
                    1384
                ],
                [
                    971,
                    1360
                ],
                [
                    858,
                    984
                ],
                [
                    682,
                    1126
                ]
            ],
            "flags": {},
            "group_id": null
        },
        {
            "label": "mask",
            "lineType": [
                "LLLLLLLLLLLLLLLLLLLLLLLLLLLLLLL"
            ],
            "shape_type": "polygon",
            "points": [
                [
                    1042,
                    989
                ],
                [
                    1059,
                    912
                ],
                [
                    1122,
                    916
                ],
                [
                    1135,
                    843
                ],
                [
                    1081,
                    722
                ],
                [
                    1009,
                    758
                ],
                [
                    1001,
                    725
                ],
                [
                    989,
                    700
                ],
                [
                    930,
                    681
                ],
                [
                    928,
                    649
                ],
                [
                    998,
                    684
                ],
                [
                    1060,
                    641
                ],
                [
                    1116,
                    582
                ],
                [
                    1113,
                    530
                ],
                [
                    1151,
                    513
                ],
                [
                    1211,
                    639
                ],
                [
                    1291,
                    664
                ],
                [
                    1443,
                    665
                ],
                [
                    1442,
                    621
                ],
                [
                    1515,
                    619
                ],
                [
                    1517,
                    746
                ],
                [
                    1394,
                    733
                ],
                [
                    1324,
                    725
                ],
                [
                    1246,
                    782
                ],
                [
                    1206,
                    860
                ],
                [
                    1330,
                    928
                ],
                [
                    1411,
                    910
                ],
                [
                    1418,
                    923
                ],
                [
                    1426,
                    986
                ],
                [
                    1387,
                    995
                ],
                [
                    1042,
                    989
                ]
            ],
            "flags": {},
            "group_id": null
        },
        {
            "label": "mask",
            "lineType": [
                "LLLLLLLLLLLLLLL"
            ],
            "shape_type": "polygon",
            "points": [
                [
                    1684,
                    1529
                ],
                [
                    1434,
                    1744
                ],
                [
                    1277,
                    1821
                ],
                [
                    1252,
                    2036
                ],
                [
                    1287,
                    2129
                ],
                [
                    1584,
                    2344
                ],
                [
                    2209,
                    2344
                ],
                [
                    2222,
                    2124
                ],
                [
                    2259,
                    2064
                ],
                [
                    2292,
                    2006
                ],
                [
                    2274,
                    1934
                ],
                [
                    2214,
                    1861
                ],
                [
                    2174,
                    1806
                ],
                [
                    2092,
                    1544
                ],
                [
                    1684,
                    1529
                ]
            ],
            "flags": {},
            "group_id": null
        },
        {
            "label": "mask",
            "lineType": [
                "LLLLLLLLLLLLLL"
            ],
            "shape_type": "polygon",
            "points": [
                [
                    2230,
                    419
                ],
                [
                    2220,
                    279
                ],
                [
                    2365,
                    319
                ],
                [
                    2779,
                    309
                ],
                [
                    3214,
                    299
                ],
                [
                    3162,
                    499
                ],
                [
                    3197,
                    601
                ],
                [
                    3194,
                    776
                ],
                [
                    2699,
                    776
                ],
                [
                    2554,
                    969
                ],
                [
                    2377,
                    959
                ],
                [
                    2327,
                    924
                ],
                [
                    2327,
                    447
                ],
                [
                    2230,
                    419
                ]
            ],
            "flags": {},
            "group_id": null
        },
        {
            "label": "mask",
            "lineType": [
                "LLLLLLLLLLLLLLLLLLL"
            ],
            "shape_type": "polygon",
            "points": [
                [
                    3185,
                    463
                ],
                [
                    3190,
                    411
                ],
                [
                    3205,
                    361
                ],
                [
                    3638,
                    253
                ],
                [
                    4018,
                    249
                ],
                [
                    4001,
                    328
                ],
                [
                    3779,
                    366
                ],
                [
                    3712,
                    588
                ],
                [
                    4029,
                    588
                ],
                [
                    4026,
                    686
                ],
                [
                    3696,
                    730
                ],
                [
                    3792,
                    832
                ],
                [
                    3805,
                    957
                ],
                [
                    3478,
                    951
                ],
                [
                    3491,
                    867
                ],
                [
                    3583,
                    743
                ],
                [
                    3579,
                    569
                ],
                [
                    3473,
                    511
                ],
                [
                    3185,
                    463
                ]
            ],
            "flags": {},
            "group_id": null
        },
        {
            "label": "mask",
            "lineType": [
                "LLLLLLL"
            ],
            "shape_type": "polygon",
            "points": [
                [
                    2309,
                    1084
                ],
                [
                    2297,
                    1892
                ],
                [
                    4097,
                    1874
                ],
                [
                    4099,
                    1144
                ],
                [
                    2586,
                    1140
                ],
                [
                    2566,
                    1085
                ],
                [
                    2309,
                    1084
                ]
            ],
            "flags": {},
            "group_id": null
        },
        {
            "label": "mask",
            "lineType": [
                "LLLLLLLLLLLLL"
            ],
            "shape_type": "polygon",
            "points": [
                [
                    2334,
                    2057
                ],
                [
                    2332,
                    2128
                ],
                [
                    2365,
                    2137
                ],
                [
                    2363,
                    2476
                ],
                [
                    4022,
                    2470
                ],
                [
                    4027,
                    2381
                ],
                [
                    3197,
                    2372
                ],
                [
                    3209,
                    2330
                ],
                [
                    3453,
                    2311
                ],
                [
                    3470,
                    2212
                ],
                [
                    3764,
                    2182
                ],
                [
                    3784,
                    2105
                ],
                [
                    2334,
                    2057
                ]
            ],
            "flags": {},
            "group_id": null
        },
        {
            "label": "mask",
            "lineType": [
                "LLLLL"
            ],
            "shape_type": "polygon",
            "points": [
                [
                    2328,
                    2525
                ],
                [
                    2327,
                    2835
                ],
                [
                    4103,
                    2834
                ],
                [
                    4100,
                    2527
                ],
                [
                    2328,
                    2525
                ]
            ],
            "flags": {},
            "group_id": null
        },
        {
            "label": "mask",
            "lineType": [
                "LLLLL"
            ],
            "shape_type": "polygon",
            "points": [
                [
                    1944,
                    229
                ],
                [
                    1954,
                    510
                ],
                [
                    2034,
                    507
                ],
                [
                    2034,
                    222
                ],
                [
                    1944,
                    229
                ]
            ],
            "flags": {},
            "group_id": null
        },
        {
            "label": "wlb",
            "shape_type": "rectangle",
            "points": [
                [
                    2333,
                    1101
                ],
                [
                    4098,
                    1852
                ]
            ],
            "flags": {},
            "group_id": null
        },
        {
            "label": "Ns",
            "shape_type": "point",
            "points": [
                [
                    3628,
                    532
                ]
            ],
            "flags": {},
            "group_id": null
        },
        {
            "label": "Ne",
            "shape_type": "point",
            "points": [
                [
                    3628,
                    395
                ]
            ],
            "flags": {},
            "group_id": null
        },
        {
            "label": "wztl",
            "shape_type": "rectangle",
            "points": [
                [
                    2936,
                    683
                ],
                [
                    3163,
                    736
                ]
            ],
            "flags": {},
            "group_id": null
        },
        {
            "label": "wztl",
            "shape_type": "rectangle",
            "points": [
                [
                    2941,
                    609
                ],
                [
                    3166,
                    661
                ]
            ],
            "flags": {},
            "group_id": null
        },
        {
            "label": "wztl",
            "shape_type": "rectangle",
            "points": [
                [
                    2937,
                    541
                ],
                [
                    3167,
                    596
                ]
            ],
            "flags": {},
            "group_id": null
        },
        {
            "label": "wztl",
            "shape_type": "rectangle",
            "points": [
                [
                    2940,
                    470
                ],
                [
                    3114,
                    520
                ]
            ],
            "flags": {},
            "group_id": null
        },
        {
            "label": "wztl",
            "shape_type": "rectangle",
            "points": [
                [
                    2937,
                    397
                ],
                [
                    3123,
                    452
                ]
            ],
            "flags": {},
            "group_id": null
        },
        {
            "label": "wztl",
            "shape_type": "rectangle",
            "points": [
                [
                    2939,
                    336
                ],
                [
                    3122,
                    386
                ]
            ],
            "flags": {},
            "group_id": null
        },
        {
            "label": "xtl",
            "shape_type": "rectangle",
            "points": [
                [
                    2846,
                    361
                ],
                [
                    2911,
                    386
                ]
            ],
            "flags": {},
            "group_id": null
        },
        {
            "label": "xtl",
            "shape_type": "rectangle",
            "points": [
                [
                    2844,
                    420
                ],
                [
                    2908,
                    448
                ]
            ],
            "flags": {},
            "group_id": null
        },
        {
            "label": "xtl",
            "shape_type": "rectangle",
            "points": [
                [
                    2845,
                    500
                ],
                [
                    2908,
                    508
                ]
            ],
            "flags": {},
            "group_id": null
        },
        {
            "label": "xtl",
            "shape_type": "rectangle",
            "points": [
                [
                    2836,
                    550
                ],
                [
                    2893,
                    594
                ]
            ],
            "flags": {},
            "group_id": null
        },
        {
            "label": "xtl",
            "shape_type": "rectangle",
            "points": [
                [
                    2836,
                    618
                ],
                [
                    2904,
                    660
                ]
            ],
            "flags": {},
            "group_id": null
        },
        {
            "label": "xtl",
            "shape_type": "rectangle",
            "points": [
                [
                    2837,
                    687
                ],
                [
                    2904,
                    730
                ]
            ],
            "flags": {},
            "group_id": null
        },
        {
            "label": "xtl",
            "shape_type": "rectangle",
            "points": [
                [
                    2381,
                    884
                ],
                [
                    2411,
                    917
                ]
            ],
            "flags": {},
            "group_id": null
        },
        {
            "label": "xtl",
            "shape_type": "rectangle",
            "points": [
                [
                    2359,
                    827
                ],
                [
                    2434,
                    834
                ]
            ],
            "flags": {},
            "group_id": null
        },
        {
            "label": "xtl",
            "shape_type": "rectangle",
            "points": [
                [
                    2353,
                    752
                ],
                [
                    2432,
                    761
                ]
            ],
            "flags": {},
            "group_id": null
        },
        {
            "label": "xtl",
            "shape_type": "rectangle",
            "points": [
                [
                    2356,
                    625
                ],
                [
                    2425,
                    666
                ]
            ],
            "flags": {},
            "group_id": null
        },
        {
            "label": "xtl",
            "shape_type": "rectangle",
            "points": [
                [
                    2355,
                    557
                ],
                [
                    2424,
                    597
                ]
            ],
            "flags": {},
            "group_id": null
        },
        {
            "label": "xtl",
            "shape_type": "rectangle",
            "points": [
                [
                    2358,
                    489
                ],
                [
                    2425,
                    528
                ]
            ],
            "flags": {},
            "group_id": null
        },
        {
            "label": "xtl",
            "shape_type": "rectangle",
            "points": [
                [
                    2357,
                    420
                ],
                [
                    2424,
                    460
                ]
            ],
            "flags": {},
            "group_id": null
        },
        {
            "label": "xtl",
            "shape_type": "rectangle",
            "points": [
                [
                    2357,
                    353
                ],
                [
                    2425,
                    392
                ]
            ],
            "flags": {},
            "group_id": null
        },
        {
            "label": "wztl",
            "shape_type": "rectangle",
            "points": [
                [
                    2452,
                    342
                ],
                [
                    2732,
                    394
                ]
            ],
            "flags": {},
            "group_id": null
        },
        {
            "label": "wztl",
            "shape_type": "rectangle",
            "points": [
                [
                    2451,
                    403
                ],
                [
                    2747,
                    456
                ]
            ],
            "flags": {},
            "group_id": null
        },
        {
            "label": "wztl",
            "shape_type": "rectangle",
            "points": [
                [
                    2454,
                    472
                ],
                [
                    2706,
                    522
                ]
            ],
            "flags": {},
            "group_id": null
        },
        {
            "label": "wztl",
            "shape_type": "rectangle",
            "points": [
                [
                    2460,
                    538
                ],
                [
                    2629,
                    589
                ]
            ],
            "flags": {},
            "group_id": null
        },
        {
            "label": "wztl",
            "shape_type": "rectangle",
            "points": [
                [
                    2462,
                    607
                ],
                [
                    2683,
                    658
                ]
            ],
            "flags": {},
            "group_id": null
        },
        {
            "label": "wztl",
            "shape_type": "rectangle",
            "points": [
                [
                    2466,
                    727
                ],
                [
                    2577,
                    776
                ]
            ],
            "flags": {},
            "group_id": null
        },
        {
            "label": "wztl",
            "shape_type": "rectangle",
            "points": [
                [
                    2469,
                    798
                ],
                [
                    2581,
                    849
                ]
            ],
            "flags": {},
            "group_id": null
        },
        {
            "label": "wztl",
            "shape_type": "rectangle",
            "points": [
                [
                    2470,
                    876
                ],
                [
                    2546,
                    927
                ]
            ],
            "flags": {},
            "group_id": null
        },
        {
            "label": "wz1",
            "shape_type": "rectangle",
            "points": [
                [
                    960,
                    1416
                ],
                [
                    1172,
                    1464
                ]
            ],
            "flags": {},
            "group_id": null
        },
        {
            "label": "wz1",
            "shape_type": "rectangle",
            "points": [
                [
                    936,
                    1892
                ],
                [
                    1135,
                    1960
                ]
            ],
            "flags": {},
            "group_id": null
        },
        {
            "label": "wz1-l",
            "lineType": "LL",
            "shape_type": "line",
            "points": [
                [
                    905,
                    1865
                ],
                [
                    974,
                    1917
                ]
            ],
            "flags": {},
            "group_id": null
        },
        {
            "label": "wz1-l",
            "lineType": "LL",
            "shape_type": "line",
            "points": [
                [
                    916,
                    1526
                ],
                [
                    1014,
                    1447
                ]
            ],
            "flags": {},
            "group_id": null
        },
        {
            "label": "wz3",
            "shape_type": "rectangle",
            "points": [
                [
                    1865,
                    1608
                ],
                [
                    2112,
                    1705
                ]
            ],
            "flags": {},
            "group_id": null
        },
        {
            "label": "wz3",
            "shape_type": "rectangle",
            "points": [
                [
                    1990,
                    1908
                ],
                [
                    2239,
                    2006
                ]
            ],
            "flags": {},
            "group_id": null
        },
        {
            "label": "wz3",
            "shape_type": "rectangle",
            "points": [
                [
                    1300,
                    1911
                ],
                [
                    1549,
                    2005
                ]
            ],
            "flags": {},
            "group_id": null
        },
        {
            "label": "wz3-l",
            "lineType": "LL",
            "shape_type": "line",
            "points": [
                [
                    1888,
                    1666
                ],
                [
                    1808,
                    1686
                ]
            ],
            "flags": {},
            "group_id": null
        },
        {
            "label": "wz3-l",
            "lineType": "LL",
            "shape_type": "line",
            "points": [
                [
                    1954,
                    1939
                ],
                [
                    2030,
                    1951
                ]
            ],
            "flags": {},
            "group_id": null
        },
        {
            "label": "wz3-l",
            "lineType": "LL",
            "shape_type": "line",
            "points": [
                [
                    1611,
                    1931
                ],
                [
                    1528,
                    1964
                ]
            ],
            "flags": {},
            "group_id": null
        },
        {
            "label": "wz3",
            "shape_type": "rectangle",
            "points": [
                [
                    1561,
                    2241
                ],
                [
                    2147,
                    2287
                ]
            ],
            "flags": {},
            "group_id": null
        },
        {
            "label": "wz1-l",
            "lineType": "LL",
            "shape_type": "line",
            "points": [
                [
                    853,
                    1872
                ],
                [
                    974,
                    1922
                ]
            ],
            "flags": {},
            "group_id": null
        },
        {
            "label": "wz1-l",
            "lineType": "LL",
            "shape_type": "line",
            "points": [
                [
                    804,
                    1871
                ],
                [
                    959,
                    1929
                ]
            ],
            "flags": {},
            "group_id": null
        }
    ],
    "flags": {},
    "imageData": null,
    "version": "4.5.7"
}