{
    "imageHeight": 2978,
    "imageWidth": 4210,
    "imagePath": "ZQ0887-三涧溪公寓楼（铁塔公司）5G无线基站天馈线安装示意图.png",
    "shapes": [
        {
            "label": "v1",
            "shape_type": "rectangle",
            "points": [
                [
                    1508,
                    1442
                ],
                [
                    1924,
                    1512
                ]
            ],
            "flags": {},
            "group_id": null
        },
        {
            "label": "va1",
            "shape_type": "rectangle",
            "points": [
                [
                    1623,
                    1206
                ],
                [
                    1669,
                    1267
                ]
            ],
            "flags": {},
            "group_id": null
        },
        {
            "label": "va1",
            "shape_type": "rectangle",
            "points": [
                [
                    1769,
                    980
                ],
                [
                    1818,
                    1036
                ]
            ],
            "flags": {},
            "group_id": null
        },
        {
            "label": "va1",
            "shape_type": "rectangle",
            "points": [
                [
                    1499,
                    981
                ],
                [
                    1559,
                    1026
                ]
            ],
            "flags": {},
            "group_id": null
        },
        {
            "label": "vp1-1",
            "shape_type": "rectangle",
            "points": [
                [
                    1612,
                    1040
                ],
                [
                    1707,
                    1135
                ]
            ],
            "flags": {},
            "group_id": null
        },
        {
            "label": "c1",
            "shape_type": "rectangle",
            "points": [
                [
                    883,
                    1056
                ],
                [
                    887,
                    1198
                ]
            ],
            "flags": {},
            "group_id": null
        },
        {
            "label": "a1-1",
            "shape_type": "rectangle",
            "points": [
                [
                    789,
                    1213
                ],
                [
                    814,
                    1317
                ]
            ],
            "flags": {},
            "group_id": null
        },
        {
            "label": "g1",
            "shape_type": "rectangle",
            "points": [
                [
                    816,
                    1208
                ],
                [
                    820,
                    1324
                ]
            ],
            "flags": {},
            "group_id": null
        },
        {
            "label": "a1-3",
            "shape_type": "rectangle",
            "points": [
                [
                    874,
                    1211
                ],
                [
                    898,
                    1321
                ]
            ],
            "flags": {},
            "group_id": null
        },
        {
            "label": "g1",
            "shape_type": "rectangle",
            "points": [
                [
                    883,
                    1206
                ],
                [
                    887,
                    1324
                ]
            ],
            "flags": {},
            "group_id": null
        },
        {
            "label": "g1",
            "shape_type": "rectangle",
            "points": [
                [
                    951,
                    1208
                ],
                [
                    955,
                    1325
                ]
            ],
            "flags": {},
            "group_id": null
        },
        {
            "label": "a1-2",
            "shape_type": "rectangle",
            "points": [
                [
                    958,
                    1212
                ],
                [
                    984,
                    1317
                ]
            ],
            "flags": {},
            "group_id": null
        },
        {
            "label": "p1-1",
            "shape_type": "rectangle",
            "points": [
                [
                    790,
                    1206
                ],
                [
                    984,
                    1325
                ]
            ],
            "flags": {},
            "group_id": null
        },
        {
            "label": "a1-1",
            "shape_type": "rectangle",
            "points": [
                [
                    789,
                    1355
                ],
                [
                    814,
                    1459
                ]
            ],
            "flags": {},
            "group_id": null
        },
        {
            "label": "g1",
            "shape_type": "rectangle",
            "points": [
                [
                    816,
                    1351
                ],
                [
                    820,
                    1467
                ]
            ],
            "flags": {},
            "group_id": null
        },
        {
            "label": "g1",
            "shape_type": "rectangle",
            "points": [
                [
                    884,
                    1350
                ],
                [
                    887,
                    1467
                ]
            ],
            "flags": {},
            "group_id": null
        },
        {
            "label": "a1-3",
            "shape_type": "rectangle",
            "points": [
                [
                    874,
                    1353
                ],
                [
                    898,
                    1464
                ]
            ],
            "flags": {},
            "group_id": null
        },
        {
            "label": "g1",
            "shape_type": "rectangle",
            "points": [
                [
                    950,
                    1351
                ],
                [
                    955,
                    1468
                ]
            ],
            "flags": {},
            "group_id": null
        },
        {
            "label": "a1-2",
            "shape_type": "rectangle",
            "points": [
                [
                    959,
                    1355
                ],
                [
                    984,
                    1458
                ]
            ],
            "flags": {},
            "group_id": null
        },
        {
            "label": "p1-1",
            "shape_type": "rectangle",
            "points": [
                [
                    790,
                    1349
                ],
                [
                    984,
                    1468
                ]
            ],
            "flags": {},
            "group_id": null
        },
        {
            "label": "h1",
            "shape_type": "rectangle",
            "points": [
                [
                    408,
                    1062
                ],
                [
                    636,
                    1160
                ]
            ],
            "flags": {},
            "group_id": null
        },
        {
            "label": "h1",
            "shape_type": "rectangle",
            "points": [
                [
                    402,
                    1215
                ],
                [
                    631,
                    1314
                ]
            ],
            "flags": {},
            "group_id": null
        },
        {
            "label": "h1",
            "shape_type": "rectangle",
            "points": [
                [
                    402,
                    1367
                ],
                [
                    632,
                    1465
                ]
            ],
            "flags": {},
            "group_id": null
        },
        {
            "label": "h1",
            "shape_type": "rectangle",
            "points": [
                [
                    402,
                    1560
                ],
                [
                    630,
                    1658
                ]
            ],
            "flags": {},
            "group_id": null
        },
        {
            "label": "x1",
            "shape_type": "rectangle",
            "points": [
                [
                    837,
                    2259
                ],
                [
                    939,
                    2323
                ]
            ],
            "flags": {},
            "group_id": null
        },
        {
            "label": "b1",
            "shape_type": "rectangle",
            "points": [
                [
                    1088,
                    2500
                ],
                [
                    1219,
                    2678
                ]
            ],
            "flags": {},
            "group_id": null
        },
        {
            "label": "v1",
            "shape_type": "rectangle",
            "points": [
                [
                    770,
                    2719
                ],
                [
                    960,
                    2792
                ]
            ],
            "flags": {},
            "group_id": null
        },
        {
            "label": "t1",
            "shape_type": "rectangle",
            "points": [
                [
                    856,
                    1055
                ],
                [
                    913,
                    2679
                ]
            ],
            "flags": {},
            "group_id": null
        },
        {
            "label": "v1",
            "shape_type": "rectangle",
            "points": [
                [
                    842,
                    670
                ],
                [
                    1078,
                    736
                ]
            ],
            "flags": {},
            "group_id": null
        },
        {
            "label": "d1",
            "shape_type": "rectangle",
            "points": [
                [
                    677,
                    486
                ],
                [
                    752,
                    613
                ]
            ],
            "flags": {},
            "group_id": null
        },
        {
            "label": "vb1",
            "shape_type": "rectangle",
            "points": [
                [
                    1032,
                    369
                ],
                [
                    1140,
                    435
                ]
            ],
            "flags": {},
            "group_id": null
        },
        {
            "label": "vt1",
            "shape_type": "rectangle",
            "points": [
                [
                    860,
                    300
                ],
                [
                    954,
                    395
                ]
            ],
            "flags": {},
            "group_id": null
        },
        {
            "label": "d1",
            "shape_type": "rectangle",
            "points": [
                [
                    1174,
                    480
                ],
                [
                    1250,
                    606
                ]
            ],
            "flags": {},
            "group_id": null
        },
        {
            "label": "d1",
            "shape_type": "rectangle",
            "points": [
                [
                    471,
                    172
                ],
                [
                    556,
                    346
                ]
            ],
            "flags": {},
            "group_id": null
        },
        {
            "label": "n1",
            "shape_type": "rectangle",
            "points": [
                [
                    3321,
                    182
                ],
                [
                    3997,
                    578
                ]
            ],
            "flags": {},
            "group_id": null
        },
        {
            "label": "v1",
            "shape_type": "rectangle",
            "points": [
                [
                    3572,
                    651
                ],
                [
                    3826,
                    719
                ]
            ],
            "flags": {},
            "group_id": null
        },
        {
            "label": "seven",
            "shape_type": "point",
            "points": [
                [
                    1088,
                    2500
                ]
            ],
            "flags": {},
            "group_id": null
        },
        {
            "label": "eight",
            "shape_type": "point",
            "points": [
                [
                    1219,
                    2500
                ]
            ],
            "flags": {},
            "group_id": null
        },
        {
            "label": "fourteen",
            "shape_type": "point",
            "points": [
                [
                    1088,
                    2678
                ]
            ],
            "flags": {},
            "group_id": null
        },
        {
            "label": "fourteen",
            "shape_type": "point",
            "points": [
                [
                    1219,
                    2677
                ]
            ],
            "flags": {},
            "group_id": null
        },
        {
            "label": "seven",
            "shape_type": "point",
            "points": [
                [
                    1032,
                    368
                ]
            ],
            "flags": {},
            "group_id": null
        },
        {
            "label": "eight",
            "shape_type": "point",
            "points": [
                [
                    1140,
                    369
                ]
            ],
            "flags": {},
            "group_id": null
        },
        {
            "label": "nine",
            "shape_type": "point",
            "points": [
                [
                    1031,
                    434
                ]
            ],
            "flags": {},
            "group_id": null
        },
        {
            "label": "ten",
            "shape_type": "point",
            "points": [
                [
                    1140,
                    434
                ]
            ],
            "flags": {},
            "group_id": null
        },
        {
            "label": "j1",
            "shape_type": "rectangle",
            "points": [
                [
                    3322,
                    191
                ],
                [
                    3599,
                    250
                ]
            ],
            "flags": {},
            "group_id": null
        },
        {
            "label": "j1",
            "shape_type": "rectangle",
            "points": [
                [
                    3668,
                    184
                ],
                [
                    3703,
                    223
                ]
            ],
            "flags": {},
            "group_id": null
        },
        {
            "label": "j1",
            "shape_type": "rectangle",
            "points": [
                [
                    3762,
                    200
                ],
                [
                    3996,
                    259
                ]
            ],
            "flags": {},
            "group_id": null
        },
        {
            "label": "j1",
            "shape_type": "rectangle",
            "points": [
                [
                    3405,
                    520
                ],
                [
                    3690,
                    577
                ]
            ],
            "flags": {},
            "group_id": null
        },
        {
            "label": "tl",
            "shape_type": "rectangle",
            "points": [
                [
                    2291,
                    165
                ],
                [
                    3193,
                    809
                ]
            ],
            "flags": {},
            "group_id": null
        },
        {
            "label": "sm",
            "shape_type": "rectangle",
            "points": [
                [
                    2349,
                    2030
                ],
                [
                    3962,
                    2380
                ]
            ],
            "flags": {},
            "group_id": null
        },
        {
            "label": "btl",
            "shape_type": "rectangle",
            "points": [
                [
                    2326,
                    2539
                ],
                [
                    4040,
                    2827
                ]
            ],
            "flags": {},
            "group_id": null
        },
        {
            "label": "mask",
            "lineType": [
                "LLLLLLLLLL"
            ],
            "shape_type": "polygon",
            "points": [
                [
                    460,
                    163
                ],
                [
                    447,
                    228
                ],
                [
                    447,
                    309
                ],
                [
                    462,
                    353
                ],
                [
                    476,
                    360
                ],
                [
                    492,
                    348
                ],
                [
                    512,
                    222
                ],
                [
                    561,
                    225
                ],
                [
                    571,
                    157
                ],
                [
                    460,
                    163
                ]
            ],
            "flags": {},
            "group_id": null
        },
        {
            "label": "mask",
            "lineType": [
                "LLLLLLLLLLLLLLLLLLLLLLLLLL"
            ],
            "shape_type": "polygon",
            "points": [
                [
                    767,
                    246
                ],
                [
                    743,
                    285
                ],
                [
                    824,
                    349
                ],
                [
                    862,
                    450
                ],
                [
                    798,
                    565
                ],
                [
                    677,
                    470
                ],
                [
                    660,
                    539
                ],
                [
                    677,
                    640
                ],
                [
                    770,
                    599
                ],
                [
                    844,
                    620
                ],
                [
                    820,
                    755
                ],
                [
                    1095,
                    755
                ],
                [
                    1066,
                    602
                ],
                [
                    1085,
                    564
                ],
                [
                    1235,
                    620
                ],
                [
                    1272,
                    586
                ],
                [
                    1248,
                    437
                ],
                [
                    1150,
                    356
                ],
                [
                    1005,
                    365
                ],
                [
                    977,
                    345
                ],
                [
                    1063,
                    283
                ],
                [
                    1044,
                    243
                ],
                [
                    965,
                    300
                ],
                [
                    889,
                    299
                ],
                [
                    820,
                    272
                ],
                [
                    767,
                    246
                ]
            ],
            "flags": {},
            "group_id": null
        },
        {
            "label": "mask",
            "lineType": [
                "LLLLLLLLLLLLLLLLLLLLLLLLLLLLLL"
            ],
            "shape_type": "polygon",
            "points": [
                [
                    388,
                    1028
                ],
                [
                    373,
                    1702
                ],
                [
                    698,
                    1658
                ],
                [
                    712,
                    1506
                ],
                [
                    832,
                    1522
                ],
                [
                    840,
                    1704
                ],
                [
                    824,
                    2325
                ],
                [
                    847,
                    2441
                ],
                [
                    857,
                    2645
                ],
                [
                    788,
                    2640
                ],
                [
                    437,
                    2659
                ],
                [
                    436,
                    2820
                ],
                [
                    1032,
                    2816
                ],
                [
                    1850,
                    2807
                ],
                [
                    1878,
                    2672
                ],
                [
                    1233,
                    2661
                ],
                [
                    1236,
                    2482
                ],
                [
                    934,
                    2500
                ],
                [
                    953,
                    2435
                ],
                [
                    940,
                    1540
                ],
                [
                    970,
                    1519
                ],
                [
                    1065,
                    1322
                ],
                [
                    1357,
                    1300
                ],
                [
                    1369,
                    1212
                ],
                [
                    1084,
                    1203
                ],
                [
                    912,
                    1015
                ],
                [
                    826,
                    1064
                ],
                [
                    752,
                    1092
                ],
                [
                    624,
                    1032
                ],
                [
                    388,
                    1028
                ]
            ],
            "flags": {},
            "group_id": null
        },
        {
            "label": "mask",
            "lineType": [
                "LLLLLLLLLLLLLLLLLLLLLLLLLLLL"
            ],
            "shape_type": "polygon",
            "points": [
                [
                    1344,
                    864
                ],
                [
                    1291,
                    928
                ],
                [
                    1292,
                    994
                ],
                [
                    1310,
                    995
                ],
                [
                    1423,
                    992
                ],
                [
                    1533,
                    1054
                ],
                [
                    1556,
                    1117
                ],
                [
                    1630,
                    1257
                ],
                [
                    1640,
                    1319
                ],
                [
                    1632,
                    1411
                ],
                [
                    1513,
                    1424
                ],
                [
                    1477,
                    1461
                ],
                [
                    1484,
                    1530
                ],
                [
                    1921,
                    1522
                ],
                [
                    1951,
                    1406
                ],
                [
                    1966,
                    1273
                ],
                [
                    1937,
                    1247
                ],
                [
                    1706,
                    1245
                ],
                [
                    1704,
                    1154
                ],
                [
                    1795,
                    1067
                ],
                [
                    1866,
                    1046
                ],
                [
                    2136,
                    1036
                ],
                [
                    2121,
                    920
                ],
                [
                    1823,
                    929
                ],
                [
                    1727,
                    995
                ],
                [
                    1648,
                    965
                ],
                [
                    1629,
                    873
                ],
                [
                    1344,
                    864
                ]
            ],
            "flags": {},
            "group_id": null
        },
        {
            "label": "mask",
            "lineType": [
                "LLLLLLLLL"
            ],
            "shape_type": "polygon",
            "points": [
                [
                    2258,
                    158
                ],
                [
                    2279,
                    234
                ],
                [
                    2358,
                    255
                ],
                [
                    2406,
                    818
                ],
                [
                    2626,
                    822
                ],
                [
                    2705,
                    560
                ],
                [
                    3210,
                    580
                ],
                [
                    3174,
                    150
                ],
                [
                    2258,
                    158
                ]
            ],
            "flags": {},
            "group_id": null
        },
        {
            "label": "mask",
            "lineType": [
                "LLLLLLLLLLLLLLL"
            ],
            "shape_type": "polygon",
            "points": [
                [
                    3280,
                    166
                ],
                [
                    3306,
                    264
                ],
                [
                    3566,
                    280
                ],
                [
                    3616,
                    387
                ],
                [
                    3360,
                    528
                ],
                [
                    3533,
                    747
                ],
                [
                    3850,
                    741
                ],
                [
                    3878,
                    642
                ],
                [
                    3715,
                    581
                ],
                [
                    3725,
                    420
                ],
                [
                    3828,
                    285
                ],
                [
                    3998,
                    282
                ],
                [
                    4022,
                    220
                ],
                [
                    4006,
                    165
                ],
                [
                    3280,
                    166
                ]
            ],
            "flags": {},
            "group_id": null
        },
        {
            "label": "mask",
            "lineType": [
                "LLLLL"
            ],
            "shape_type": "polygon",
            "points": [
                [
                    2268,
                    882
                ],
                [
                    2266,
                    1714
                ],
                [
                    4040,
                    1730
                ],
                [
                    4038,
                    908
                ],
                [
                    2268,
                    882
                ]
            ],
            "flags": {},
            "group_id": null
        },
        {
            "label": "mask",
            "lineType": [
                "LLLLL"
            ],
            "shape_type": "polygon",
            "points": [
                [
                    2329,
                    2010
                ],
                [
                    2326,
                    2400
                ],
                [
                    3980,
                    2397
                ],
                [
                    3974,
                    2056
                ],
                [
                    2329,
                    2010
                ]
            ],
            "flags": {},
            "group_id": null
        },
        {
            "label": "mask",
            "lineType": [
                "LLLLL"
            ],
            "shape_type": "polygon",
            "points": [
                [
                    2314,
                    2530
                ],
                [
                    2320,
                    2824
                ],
                [
                    4038,
                    2824
                ],
                [
                    4038,
                    2520
                ],
                [
                    2314,
                    2530
                ]
            ],
            "flags": {},
            "group_id": null
        },
        {
            "label": "Ns",
            "shape_type": "point",
            "points": [
                [
                    3688,
                    402
                ]
            ],
            "flags": {},
            "group_id": null
        },
        {
            "label": "Ne",
            "shape_type": "point",
            "points": [
                [
                    3687,
                    271
                ]
            ],
            "flags": {},
            "group_id": null
        },
        {
            "label": "xtl",
            "shape_type": "rectangle",
            "points": [
                [
                    2880,
                    190
                ],
                [
                    2940,
                    216
                ]
            ],
            "flags": {},
            "group_id": null
        },
        {
            "label": "xtl",
            "shape_type": "rectangle",
            "points": [
                [
                    2879,
                    250
                ],
                [
                    2939,
                    275
                ]
            ],
            "flags": {},
            "group_id": null
        },
        {
            "label": "xtl",
            "shape_type": "rectangle",
            "points": [
                [
                    2879,
                    328
                ],
                [
                    2940,
                    333
                ]
            ],
            "flags": {},
            "group_id": null
        },
        {
            "label": "xtl",
            "shape_type": "rectangle",
            "points": [
                [
                    2870,
                    376
                ],
                [
                    2926,
                    416
                ]
            ],
            "flags": {},
            "group_id": null
        },
        {
            "label": "xtl",
            "shape_type": "rectangle",
            "points": [
                [
                    2872,
                    441
                ],
                [
                    2935,
                    481
                ]
            ],
            "flags": {},
            "group_id": null
        },
        {
            "label": "xtl",
            "shape_type": "rectangle",
            "points": [
                [
                    2872,
                    508
                ],
                [
                    2936,
                    549
                ]
            ],
            "flags": {},
            "group_id": null
        },
        {
            "label": "wztl",
            "shape_type": "rectangle",
            "points": [
                [
                    2968,
                    508
                ],
                [
                    3187,
                    555
                ]
            ],
            "flags": {},
            "group_id": null
        },
        {
            "label": "wztl",
            "shape_type": "rectangle",
            "points": [
                [
                    2967,
                    433
                ],
                [
                    3187,
                    481
                ]
            ],
            "flags": {},
            "group_id": null
        },
        {
            "label": "wztl",
            "shape_type": "rectangle",
            "points": [
                [
                    2968,
                    367
                ],
                [
                    3186,
                    414
                ]
            ],
            "flags": {},
            "group_id": null
        },
        {
            "label": "wztl",
            "shape_type": "rectangle",
            "points": [
                [
                    2972,
                    294
                ],
                [
                    3135,
                    344
                ]
            ],
            "flags": {},
            "group_id": null
        },
        {
            "label": "wztl",
            "shape_type": "rectangle",
            "points": [
                [
                    2970,
                    229
                ],
                [
                    3148,
                    277
                ]
            ],
            "flags": {},
            "group_id": null
        },
        {
            "label": "wztl",
            "shape_type": "rectangle",
            "points": [
                [
                    2969,
                    167
                ],
                [
                    3148,
                    214
                ]
            ],
            "flags": {},
            "group_id": null
        },
        {
            "label": "wztl",
            "shape_type": "rectangle",
            "points": [
                [
                    2496,
                    174
                ],
                [
                    2766,
                    223
                ]
            ],
            "flags": {},
            "group_id": null
        },
        {
            "label": "wztl",
            "shape_type": "rectangle",
            "points": [
                [
                    2497,
                    235
                ],
                [
                    2781,
                    282
                ]
            ],
            "flags": {},
            "group_id": null
        },
        {
            "label": "wztl",
            "shape_type": "rectangle",
            "points": [
                [
                    2497,
                    297
                ],
                [
                    2743,
                    347
                ]
            ],
            "flags": {},
            "group_id": null
        },
        {
            "label": "wztl",
            "shape_type": "rectangle",
            "points": [
                [
                    2505,
                    362
                ],
                [
                    2664,
                    411
                ]
            ],
            "flags": {},
            "group_id": null
        },
        {
            "label": "wztl",
            "shape_type": "rectangle",
            "points": [
                [
                    2508,
                    432
                ],
                [
                    2719,
                    480
                ]
            ],
            "flags": {},
            "group_id": null
        },
        {
            "label": "wztl",
            "shape_type": "rectangle",
            "points": [
                [
                    2508,
                    497
                ],
                [
                    2653,
                    546
                ]
            ],
            "flags": {},
            "group_id": null
        },
        {
            "label": "wztl",
            "shape_type": "rectangle",
            "points": [
                [
                    2524,
                    608
                ],
                [
                    2629,
                    656
                ]
            ],
            "flags": {},
            "group_id": null
        },
        {
            "label": "wztl",
            "shape_type": "rectangle",
            "points": [
                [
                    2525,
                    679
                ],
                [
                    2633,
                    727
                ]
            ],
            "flags": {},
            "group_id": null
        },
        {
            "label": "wztl",
            "shape_type": "rectangle",
            "points": [
                [
                    2527,
                    754
                ],
                [
                    2598,
                    803
                ]
            ],
            "flags": {},
            "group_id": null
        },
        {
            "label": "xtl",
            "shape_type": "rectangle",
            "points": [
                [
                    2440,
                    763
                ],
                [
                    2471,
                    793
                ]
            ],
            "flags": {},
            "group_id": null
        },
        {
            "label": "xtl",
            "shape_type": "rectangle",
            "points": [
                [
                    2417,
                    706
                ],
                [
                    2490,
                    714
                ]
            ],
            "flags": {},
            "group_id": null
        },
        {
            "label": "xtl",
            "shape_type": "rectangle",
            "points": [
                [
                    2415,
                    635
                ],
                [
                    2487,
                    642
                ]
            ],
            "flags": {},
            "group_id": null
        },
        {
            "label": "xtl",
            "shape_type": "rectangle",
            "points": [
                [
                    2404,
                    514
                ],
                [
                    2470,
                    553
                ]
            ],
            "flags": {},
            "group_id": null
        },
        {
            "label": "xtl",
            "shape_type": "rectangle",
            "points": [
                [
                    2404,
                    447
                ],
                [
                    2470,
                    487
                ]
            ],
            "flags": {},
            "group_id": null
        },
        {
            "label": "xtl",
            "shape_type": "rectangle",
            "points": [
                [
                    2405,
                    381
                ],
                [
                    2469,
                    419
                ]
            ],
            "flags": {},
            "group_id": null
        },
        {
            "label": "xtl",
            "shape_type": "rectangle",
            "points": [
                [
                    2404,
                    316
                ],
                [
                    2470,
                    355
                ]
            ],
            "flags": {},
            "group_id": null
        },
        {
            "label": "xtl",
            "shape_type": "rectangle",
            "points": [
                [
                    2405,
                    251
                ],
                [
                    2470,
                    288
                ]
            ],
            "flags": {},
            "group_id": null
        },
        {
            "label": "xtl",
            "shape_type": "rectangle",
            "points": [
                [
                    2404,
                    184
                ],
                [
                    2470,
                    221
                ]
            ],
            "flags": {},
            "group_id": null
        },
        {
            "label": "wlb",
            "shape_type": "rectangle",
            "points": [
                [
                    2283,
                    899
                ],
                [
                    4040,
                    1697
                ]
            ],
            "flags": {},
            "group_id": null
        },
        {
            "label": "wz1",
            "shape_type": "rectangle",
            "points": [
                [
                    1112,
                    1223
                ],
                [
                    1356,
                    1270
                ]
            ],
            "flags": {},
            "group_id": null
        },
        {
            "label": "wz1-l",
            "lineType": "LL",
            "shape_type": "line",
            "points": [
                [
                    1134,
                    1246
                ],
                [
                    972,
                    1358
                ]
            ],
            "flags": {},
            "group_id": null
        },
        {
            "label": "wz3",
            "shape_type": "rectangle",
            "points": [
                [
                    1339,
                    892
                ],
                [
                    1626,
                    969
                ]
            ],
            "flags": {},
            "group_id": null
        },
        {
            "label": "wz3",
            "shape_type": "rectangle",
            "points": [
                [
                    1836,
                    940
                ],
                [
                    2120,
                    1018
                ]
            ],
            "flags": {},
            "group_id": null
        },
        {
            "label": "wz3",
            "shape_type": "rectangle",
            "points": [
                [
                    1664,
                    1270
                ],
                [
                    1950,
                    1356
                ]
            ],
            "flags": {},
            "group_id": null
        },
        {
            "label": "wz3-l",
            "lineType": "LL",
            "shape_type": "line",
            "points": [
                [
                    1519,
                    944
                ],
                [
                    1531,
                    1002
                ]
            ],
            "flags": {},
            "group_id": null
        },
        {
            "label": "wz3-l",
            "lineType": "LL",
            "shape_type": "line",
            "points": [
                [
                    1794,
                    1007
                ],
                [
                    1876,
                    998
                ]
            ],
            "flags": {},
            "group_id": null
        },
        {
            "label": "wz3-l",
            "lineType": "LL",
            "shape_type": "line",
            "points": [
                [
                    1653,
                    1249
                ],
                [
                    1696,
                    1305
                ]
            ],
            "flags": {},
            "group_id": null
        },
        {
            "label": "wz1-l",
            "lineType": "LL",
            "shape_type": "line",
            "points": [
                [
                    880,
                    1355
                ],
                [
                    1137,
                    1238
                ]
            ],
            "flags": {},
            "group_id": null
        },
        {
            "label": "wz1-l",
            "lineType": "LL",
            "shape_type": "line",
            "points": [
                [
                    799,
                    1361
                ],
                [
                    1130,
                    1234
                ]
            ],
            "flags": {},
            "group_id": null
        }
    ],
    "flags": {},
    "imageData": null,
    "version": "4.5.7"
}