{
    "imageHeight": 2908,
    "imageWidth": 4205,
    "imagePath": "样本6_127_90.png",
    "shapes": [
        {
            "label": "v1",
            "shape_type": "rectangle",
            "points": [
                [
                    3393,
                    1060
                ],
                [
                    3583,
                    1126
                ]
            ],
            "flags": {},
            "group_id": null
        },
        {
            "label": "d1",
            "shape_type": "rectangle",
            "points": [
                [
                    3794,
                    858
                ],
                [
                    3877,
                    996
                ]
            ],
            "flags": {},
            "group_id": null
        },
        {
            "label": "d1",
            "shape_type": "rectangle",
            "points": [
                [
                    3118,
                    859
                ],
                [
                    3201,
                    998
                ]
            ],
            "flags": {},
            "group_id": null
        },
        {
            "label": "vt1",
            "shape_type": "rectangle",
            "points": [
                [
                    3171,
                    558
                ],
                [
                    3468,
                    853
                ]
            ],
            "flags": {},
            "group_id": null
        },
        {
            "label": "b1",
            "shape_type": "rectangle",
            "points": [
                [
                    3600,
                    658
                ],
                [
                    3761,
                    748
                ]
            ],
            "flags": {},
            "group_id": null
        },
        {
            "label": "nine",
            "shape_type": "point",
            "points": [
                [
                    3600,
                    748
                ]
            ],
            "flags": {},
            "group_id": null
        },
        {
            "label": "ten",
            "shape_type": "point",
            "points": [
                [
                    3761,
                    748
                ]
            ],
            "flags": {},
            "group_id": null
        },
        {
            "label": "eight",
            "shape_type": "point",
            "points": [
                [
                    3762,
                    658
                ]
            ],
            "flags": {},
            "group_id": null
        },
        {
            "label": "seven",
            "shape_type": "point",
            "points": [
                [
                    3600,
                    658
                ]
            ],
            "flags": {},
            "group_id": null
        },
        {
            "label": "three",
            "shape_type": "point",
            "points": [
                [
                    3469,
                    590
                ]
            ],
            "flags": {},
            "group_id": null
        },
        {
            "label": "four",
            "shape_type": "point",
            "points": [
                [
                    3600,
                    590
                ]
            ],
            "flags": {},
            "group_id": null
        },
        {
            "label": "n1",
            "shape_type": "rectangle",
            "points": [
                [
                    2486,
                    185
                ],
                [
                    3048,
                    575
                ]
            ],
            "flags": {},
            "group_id": null
        },
        {
            "label": "v1",
            "shape_type": "rectangle",
            "points": [
                [
                    2008,
                    392
                ],
                [
                    2238,
                    483
                ]
            ],
            "flags": {},
            "group_id": null
        },
        {
            "label": "vp1-1",
            "shape_type": "rectangle",
            "points": [
                [
                    2006,
                    141
                ],
                [
                    2217,
                    353
                ]
            ],
            "flags": {},
            "group_id": null
        },
        {
            "label": "va1",
            "shape_type": "rectangle",
            "points": [
                [
                    2165,
                    264
                ],
                [
                    2200,
                    307
                ]
            ],
            "flags": {},
            "group_id": null
        },
        {
            "label": "va1",
            "shape_type": "rectangle",
            "points": [
                [
                    2021,
                    268
                ],
                [
                    2056,
                    310
                ]
            ],
            "flags": {},
            "group_id": null
        },
        {
            "label": "va1",
            "shape_type": "rectangle",
            "points": [
                [
                    2094,
                    146
                ],
                [
                    2138,
                    183
                ]
            ],
            "flags": {},
            "group_id": null
        },
        {
            "label": "vp1-1",
            "shape_type": "rectangle",
            "points": [
                [
                    2005,
                    618
                ],
                [
                    2217,
                    828
                ]
            ],
            "flags": {},
            "group_id": null
        },
        {
            "label": "va1",
            "shape_type": "rectangle",
            "points": [
                [
                    2164,
                    739
                ],
                [
                    2200,
                    782
                ]
            ],
            "flags": {},
            "group_id": null
        },
        {
            "label": "va1",
            "shape_type": "rectangle",
            "points": [
                [
                    2020,
                    743
                ],
                [
                    2054,
                    786
                ]
            ],
            "flags": {},
            "group_id": null
        },
        {
            "label": "va1",
            "shape_type": "rectangle",
            "points": [
                [
                    2094,
                    621
                ],
                [
                    2137,
                    659
                ]
            ],
            "flags": {},
            "group_id": null
        },
        {
            "label": "v1",
            "shape_type": "rectangle",
            "points": [
                [
                    2007,
                    868
                ],
                [
                    2238,
                    959
                ]
            ],
            "flags": {},
            "group_id": null
        },
        {
            "label": "vp1-1",
            "shape_type": "rectangle",
            "points": [
                [
                    2005,
                    1066
                ],
                [
                    2216,
                    1278
                ]
            ],
            "flags": {},
            "group_id": null
        },
        {
            "label": "va1",
            "shape_type": "rectangle",
            "points": [
                [
                    2165,
                    1189
                ],
                [
                    2199,
                    1231
                ]
            ],
            "flags": {},
            "group_id": null
        },
        {
            "label": "va1",
            "shape_type": "rectangle",
            "points": [
                [
                    2020,
                    1192
                ],
                [
                    2054,
                    1236
                ]
            ],
            "flags": {},
            "group_id": null
        },
        {
            "label": "va1",
            "shape_type": "rectangle",
            "points": [
                [
                    2094,
                    1071
                ],
                [
                    2137,
                    1108
                ]
            ],
            "flags": {},
            "group_id": null
        },
        {
            "label": "v1",
            "shape_type": "rectangle",
            "points": [
                [
                    2008,
                    1317
                ],
                [
                    2238,
                    1408
                ]
            ],
            "flags": {},
            "group_id": null
        },
        {
            "label": "vp1-1",
            "shape_type": "rectangle",
            "points": [
                [
                    2061,
                    1581
                ],
                [
                    2161,
                    1679
                ]
            ],
            "flags": {},
            "group_id": null
        },
        {
            "label": "va1",
            "shape_type": "rectangle",
            "points": [
                [
                    2164,
                    1646
                ],
                [
                    2200,
                    1690
                ]
            ],
            "flags": {},
            "group_id": null
        },
        {
            "label": "va1",
            "shape_type": "rectangle",
            "points": [
                [
                    2021,
                    1651
                ],
                [
                    2054,
                    1693
                ]
            ],
            "flags": {},
            "group_id": null
        },
        {
            "label": "va1",
            "shape_type": "rectangle",
            "points": [
                [
                    2094,
                    1528
                ],
                [
                    2136,
                    1566
                ]
            ],
            "flags": {},
            "group_id": null
        },
        {
            "label": "v1",
            "shape_type": "rectangle",
            "points": [
                [
                    2009,
                    1774
                ],
                [
                    2238,
                    1866
                ]
            ],
            "flags": {},
            "group_id": null
        },
        {
            "label": "vp1-1",
            "shape_type": "rectangle",
            "points": [
                [
                    2070,
                    2067
                ],
                [
                    2169,
                    2165
                ]
            ],
            "flags": {},
            "group_id": null
        },
        {
            "label": "v1",
            "shape_type": "rectangle",
            "points": [
                [
                    2000,
                    2277
                ],
                [
                    2223,
                    2341
                ]
            ],
            "flags": {},
            "group_id": null
        },
        {
            "label": "va1",
            "shape_type": "rectangle",
            "points": [
                [
                    2172,
                    2135
                ],
                [
                    2211,
                    2178
                ]
            ],
            "flags": {},
            "group_id": null
        },
        {
            "label": "va1",
            "shape_type": "rectangle",
            "points": [
                [
                    2023,
                    2142
                ],
                [
                    2062,
                    2183
                ]
            ],
            "flags": {},
            "group_id": null
        },
        {
            "label": "va1",
            "shape_type": "rectangle",
            "points": [
                [
                    2095,
                    2015
                ],
                [
                    2136,
                    2052
                ]
            ],
            "flags": {},
            "group_id": null
        },
        {
            "label": "h1",
            "shape_type": "rectangle",
            "points": [
                [
                    1463,
                    1225
                ],
                [
                    1644,
                    1301
                ]
            ],
            "flags": {},
            "group_id": null
        },
        {
            "label": "h1",
            "shape_type": "rectangle",
            "points": [
                [
                    1463,
                    1041
                ],
                [
                    1644,
                    1117
                ]
            ],
            "flags": {},
            "group_id": null
        },
        {
            "label": "h1",
            "shape_type": "rectangle",
            "points": [
                [
                    1462,
                    834
                ],
                [
                    1642,
                    909
                ]
            ],
            "flags": {},
            "group_id": null
        },
        {
            "label": "h1",
            "shape_type": "rectangle",
            "points": [
                [
                    1457,
                    615
                ],
                [
                    1637,
                    691
                ]
            ],
            "flags": {},
            "group_id": null
        },
        {
            "label": "h1",
            "shape_type": "rectangle",
            "points": [
                [
                    1462,
                    393
                ],
                [
                    1639,
                    469
                ]
            ],
            "flags": {},
            "group_id": null
        },
        {
            "label": "h1",
            "shape_type": "rectangle",
            "points": [
                [
                    1459,
                    207
                ],
                [
                    1637,
                    283
                ]
            ],
            "flags": {},
            "group_id": null
        },
        {
            "label": "d1",
            "shape_type": "rectangle",
            "points": [
                [
                    1231,
                    222
                ],
                [
                    1315,
                    360
                ]
            ],
            "flags": {},
            "group_id": null
        },
        {
            "label": "d1",
            "shape_type": "rectangle",
            "points": [
                [
                    1234,
                    496
                ],
                [
                    1317,
                    635
                ]
            ],
            "flags": {},
            "group_id": null
        },
        {
            "label": "d1",
            "shape_type": "rectangle",
            "points": [
                [
                    1229,
                    717
                ],
                [
                    1313,
                    854
                ]
            ],
            "flags": {},
            "group_id": null
        },
        {
            "label": "d1",
            "shape_type": "rectangle",
            "points": [
                [
                    1230,
                    990
                ],
                [
                    1313,
                    1127
                ]
            ],
            "flags": {},
            "group_id": null
        },
        {
            "label": "d1",
            "shape_type": "rectangle",
            "points": [
                [
                    1230,
                    1174
                ],
                [
                    1312,
                    1312
                ]
            ],
            "flags": {},
            "group_id": null
        },
        {
            "label": "d1",
            "shape_type": "rectangle",
            "points": [
                [
                    892,
                    1174
                ],
                [
                    974,
                    1311
                ]
            ],
            "flags": {},
            "group_id": null
        },
        {
            "label": "d1",
            "shape_type": "rectangle",
            "points": [
                [
                    892,
                    990
                ],
                [
                    974,
                    1127
                ]
            ],
            "flags": {},
            "group_id": null
        },
        {
            "label": "d1",
            "shape_type": "rectangle",
            "points": [
                [
                    891,
                    717
                ],
                [
                    975,
                    854
                ]
            ],
            "flags": {},
            "group_id": null
        },
        {
            "label": "d1",
            "shape_type": "rectangle",
            "points": [
                [
                    896,
                    496
                ],
                [
                    979,
                    635
                ]
            ],
            "flags": {},
            "group_id": null
        },
        {
            "label": "d1",
            "shape_type": "rectangle",
            "points": [
                [
                    894,
                    223
                ],
                [
                    977,
                    360
                ]
            ],
            "flags": {},
            "group_id": null
        },
        {
            "label": "c1",
            "shape_type": "rectangle",
            "points": [
                [
                    1101,
                    96
                ],
                [
                    1108,
                    289
                ]
            ],
            "flags": {},
            "group_id": null
        },
        {
            "label": "a1-2",
            "shape_type": "rectangle",
            "points": [
                [
                    1147,
                    333
                ],
                [
                    1178,
                    469
                ]
            ],
            "flags": {},
            "group_id": null
        },
        {
            "label": "a1-2",
            "shape_type": "rectangle",
            "points": [
                [
                    1147,
                    553
                ],
                [
                    1178,
                    690
                ]
            ],
            "flags": {},
            "group_id": null
        },
        {
            "label": "a1-2",
            "shape_type": "rectangle",
            "points": [
                [
                    1147,
                    773
                ],
                [
                    1178,
                    910
                ]
            ],
            "flags": {},
            "group_id": null
        },
        {
            "label": "a1-2",
            "shape_type": "rectangle",
            "points": [
                [
                    1147,
                    994
                ],
                [
                    1178,
                    1130
                ]
            ],
            "flags": {},
            "group_id": null
        },
        {
            "label": "a1-2",
            "shape_type": "rectangle",
            "points": [
                [
                    1147,
                    1175
                ],
                [
                    1178,
                    1312
                ]
            ],
            "flags": {},
            "group_id": null
        },
        {
            "label": "a1-1",
            "shape_type": "rectangle",
            "points": [
                [
                    1027,
                    1178
                ],
                [
                    1056,
                    1308
                ]
            ],
            "flags": {},
            "group_id": null
        },
        {
            "label": "a1-1",
            "shape_type": "rectangle",
            "points": [
                [
                    1027,
                    997
                ],
                [
                    1056,
                    1126
                ]
            ],
            "flags": {},
            "group_id": null
        },
        {
            "label": "a1-1",
            "shape_type": "rectangle",
            "points": [
                [
                    1027,
                    777
                ],
                [
                    1057,
                    906
                ]
            ],
            "flags": {},
            "group_id": null
        },
        {
            "label": "a1-1",
            "shape_type": "rectangle",
            "points": [
                [
                    1027,
                    557
                ],
                [
                    1056,
                    687
                ]
            ],
            "flags": {},
            "group_id": null
        },
        {
            "label": "a1-1",
            "shape_type": "rectangle",
            "points": [
                [
                    1027,
                    337
                ],
                [
                    1057,
                    466
                ]
            ],
            "flags": {},
            "group_id": null
        },
        {
            "label": "g1",
            "shape_type": "rectangle",
            "points": [
                [
                    1060,
                    296
                ],
                [
                    1065,
                    500
                ]
            ],
            "flags": {},
            "group_id": null
        },
        {
            "label": "g1",
            "shape_type": "rectangle",
            "points": [
                [
                    1140,
                    296
                ],
                [
                    1146,
                    499
                ]
            ],
            "flags": {},
            "group_id": null
        },
        {
            "label": "g1",
            "shape_type": "rectangle",
            "points": [
                [
                    1141,
                    517
                ],
                [
                    1146,
                    719
                ]
            ],
            "flags": {},
            "group_id": null
        },
        {
            "label": "g1",
            "shape_type": "rectangle",
            "points": [
                [
                    1060,
                    518
                ],
                [
                    1065,
                    719
                ]
            ],
            "flags": {},
            "group_id": null
        },
        {
            "label": "g1",
            "shape_type": "rectangle",
            "points": [
                [
                    1141,
                    737
                ],
                [
                    1145,
                    940
                ]
            ],
            "flags": {},
            "group_id": null
        },
        {
            "label": "g1",
            "shape_type": "rectangle",
            "points": [
                [
                    1060,
                    736
                ],
                [
                    1065,
                    939
                ]
            ],
            "flags": {},
            "group_id": null
        },
        {
            "label": "x1",
            "shape_type": "rectangle",
            "points": [
                [
                    1055,
                    1345
                ],
                [
                    1151,
                    1371
                ]
            ],
            "flags": {},
            "group_id": null
        },
        {
            "label": "h1",
            "shape_type": "rectangle",
            "points": [
                [
                    1516,
                    1829
                ],
                [
                    1686,
                    1904
                ]
            ],
            "flags": {},
            "group_id": null
        },
        {
            "label": "v1",
            "shape_type": "rectangle",
            "points": [
                [
                    826,
                    1991
                ],
                [
                    1158,
                    2081
                ]
            ],
            "flags": {},
            "group_id": null
        },
        {
            "label": "b1",
            "shape_type": "rectangle",
            "points": [
                [
                    1217,
                    1756
                ],
                [
                    1434,
                    1904
                ]
            ],
            "flags": {},
            "group_id": null
        },
        {
            "label": "g1",
            "shape_type": "rectangle",
            "points": [
                [
                    1141,
                    957
                ],
                [
                    1145,
                    1161
                ]
            ],
            "flags": {},
            "group_id": null
        },
        {
            "label": "g1",
            "shape_type": "rectangle",
            "points": [
                [
                    1060,
                    957
                ],
                [
                    1065,
                    1161
                ]
            ],
            "flags": {},
            "group_id": null
        },
        {
            "label": "p1-1",
            "shape_type": "rectangle",
            "points": [
                [
                    1026,
                    956
                ],
                [
                    1179,
                    1160
                ]
            ],
            "flags": {},
            "group_id": null
        },
        {
            "label": "p1-1",
            "shape_type": "rectangle",
            "points": [
                [
                    1026,
                    737
                ],
                [
                    1179,
                    940
                ]
            ],
            "flags": {},
            "group_id": null
        },
        {
            "label": "p1-1",
            "shape_type": "rectangle",
            "points": [
                [
                    1027,
                    517
                ],
                [
                    1178,
                    720
                ]
            ],
            "flags": {},
            "group_id": null
        },
        {
            "label": "p1-1",
            "shape_type": "rectangle",
            "points": [
                [
                    1026,
                    294
                ],
                [
                    1179,
                    499
                ]
            ],
            "flags": {},
            "group_id": null
        },
        {
            "label": "t1",
            "shape_type": "rectangle",
            "points": [
                [
                    1077,
                    95
                ],
                [
                    1133,
                    1904
                ]
            ],
            "flags": {},
            "group_id": null
        },
        {
            "label": "fourteen",
            "shape_type": "point",
            "points": [
                [
                    1217,
                    1904
                ]
            ],
            "flags": {},
            "group_id": null
        },
        {
            "label": "fourteen",
            "shape_type": "point",
            "points": [
                [
                    1434,
                    1904
                ]
            ],
            "flags": {},
            "group_id": null
        },
        {
            "label": "seven",
            "shape_type": "point",
            "points": [
                [
                    1217,
                    1874
                ]
            ],
            "flags": {},
            "group_id": null
        },
        {
            "label": "eight",
            "shape_type": "point",
            "points": [
                [
                    1435,
                    1874
                ]
            ],
            "flags": {},
            "group_id": null
        },
        {
            "label": "fourteen",
            "shape_type": "point",
            "points": [
                [
                    1391,
                    1874
                ]
            ],
            "flags": {},
            "group_id": null
        },
        {
            "label": "fourteen",
            "shape_type": "point",
            "points": [
                [
                    1259,
                    1874
                ]
            ],
            "flags": {},
            "group_id": null
        },
        {
            "label": "fourteen",
            "shape_type": "point",
            "points": [
                [
                    1325,
                    1871
                ]
            ],
            "flags": {},
            "group_id": null
        },
        {
            "label": "seven",
            "shape_type": "point",
            "points": [
                [
                    1260,
                    1759
                ]
            ],
            "flags": {},
            "group_id": null
        },
        {
            "label": "thirteen",
            "shape_type": "point",
            "points": [
                [
                    1325,
                    1759
                ]
            ],
            "flags": {},
            "group_id": null
        },
        {
            "label": "eight",
            "shape_type": "point",
            "points": [
                [
                    1391,
                    1759
                ]
            ],
            "flags": {},
            "group_id": null
        },
        {
            "label": "g1",
            "shape_type": "rectangle",
            "points": [
                [
                    1060,
                    1161
                ],
                [
                    1065,
                    1341
                ]
            ],
            "flags": {},
            "group_id": null
        },
        {
            "label": "g1",
            "shape_type": "rectangle",
            "points": [
                [
                    1141,
                    1161
                ],
                [
                    1145,
                    1342
                ]
            ],
            "flags": {},
            "group_id": null
        },
        {
            "label": "p1-1",
            "shape_type": "rectangle",
            "points": [
                [
                    1026,
                    1161
                ],
                [
                    1178,
                    1342
                ]
            ],
            "flags": {},
            "group_id": null
        },
        {
            "label": "sm",
            "shape_type": "rectangle",
            "points": [
                [
                    474,
                    2081
                ],
                [
                    2122,
                    2761
                ]
            ],
            "flags": {},
            "group_id": null
        },
        {
            "label": "btl",
            "shape_type": "rectangle",
            "points": [
                [
                    2348,
                    2567
                ],
                [
                    4152,
                    2870
                ]
            ],
            "flags": {},
            "group_id": null
        },
        {
            "label": "j1",
            "shape_type": "rectangle",
            "points": [
                [
                    2937,
                    471
                ],
                [
                    3047,
                    562
                ]
            ],
            "flags": {},
            "group_id": null
        },
        {
            "label": "j1",
            "shape_type": "rectangle",
            "points": [
                [
                    2485,
                    492
                ],
                [
                    2599,
                    573
                ]
            ],
            "flags": {},
            "group_id": null
        },
        {
            "label": "j1",
            "shape_type": "rectangle",
            "points": [
                [
                    2605,
                    254
                ],
                [
                    2719,
                    343
                ]
            ],
            "flags": {},
            "group_id": null
        },
        {
            "label": "j1",
            "shape_type": "rectangle",
            "points": [
                [
                    2726,
                    190
                ],
                [
                    2760,
                    233
                ]
            ],
            "flags": {},
            "group_id": null
        },
        {
            "label": "wz2",
            "shape_type": "rectangle",
            "points": [
                [
                    3489,
                    553
                ],
                [
                    3578,
                    582
                ]
            ],
            "flags": {},
            "group_id": null
        },
        {
            "label": "x2",
            "shape_type": "rectangle",
            "points": [
                [
                    3459,
                    553
                ],
                [
                    3601,
                    603
                ]
            ],
            "flags": {},
            "group_id": null
        },
        {
            "label": "mask",
            "lineType": [
                "LLLLL"
            ],
            "shape_type": "polygon",
            "points": [
                [
                    2348,
                    2568
                ],
                [
                    2348,
                    2872
                ],
                [
                    4151,
                    2870
                ],
                [
                    4151,
                    2568
                ],
                [
                    2348,
                    2568
                ]
            ],
            "flags": {},
            "group_id": null
        },
        {
            "label": "mask",
            "lineType": [
                "LLLLLLLLLL"
            ],
            "shape_type": "polygon",
            "points": [
                [
                    2645,
                    2561
                ],
                [
                    4064,
                    2554
                ],
                [
                    4070,
                    1271
                ],
                [
                    3524,
                    1273
                ],
                [
                    3524,
                    1273
                ],
                [
                    3517,
                    1224
                ],
                [
                    3204,
                    1223
                ],
                [
                    3203,
                    1281
                ],
                [
                    2648,
                    1272
                ],
                [
                    2645,
                    2561
                ]
            ],
            "flags": {},
            "group_id": null
        },
        {
            "label": "mask",
            "lineType": [
                "LLLLLLLLLLLLLLLLLLLLLL"
            ],
            "shape_type": "polygon",
            "points": [
                [
                    3375,
                    1140
                ],
                [
                    3590,
                    1144
                ],
                [
                    3700,
                    1098
                ],
                [
                    3869,
                    1019
                ],
                [
                    3898,
                    990
                ],
                [
                    3896,
                    934
                ],
                [
                    3877,
                    837
                ],
                [
                    3832,
                    721
                ],
                [
                    3768,
                    650
                ],
                [
                    3704,
                    578
                ],
                [
                    3639,
                    550
                ],
                [
                    3578,
                    532
                ],
                [
                    3463,
                    531
                ],
                [
                    3345,
                    530
                ],
                [
                    3237,
                    542
                ],
                [
                    3174,
                    577
                ],
                [
                    3134,
                    662
                ],
                [
                    3116,
                    749
                ],
                [
                    3080,
                    877
                ],
                [
                    3087,
                    978
                ],
                [
                    3119,
                    1023
                ],
                [
                    3375,
                    1140
                ]
            ],
            "flags": {},
            "group_id": null
        },
        {
            "label": "mask",
            "lineType": [
                "LLLLLLLLLLLLLLLL"
            ],
            "shape_type": "polygon",
            "points": [
                [
                    2532,
                    644
                ],
                [
                    2462,
                    580
                ],
                [
                    2468,
                    472
                ],
                [
                    2561,
                    341
                ],
                [
                    2604,
                    234
                ],
                [
                    2641,
                    169
                ],
                [
                    2845,
                    147
                ],
                [
                    2904,
                    181
                ],
                [
                    2971,
                    274
                ],
                [
                    3043,
                    403
                ],
                [
                    3074,
                    478
                ],
                [
                    3079,
                    542
                ],
                [
                    3071,
                    584
                ],
                [
                    2941,
                    654
                ],
                [
                    2753,
                    686
                ],
                [
                    2532,
                    644
                ]
            ],
            "flags": {},
            "group_id": null
        },
        {
            "label": "mask",
            "lineType": [
                "LLLLLLLLLLLLL"
            ],
            "shape_type": "polygon",
            "points": [
                [
                    1988,
                    489
                ],
                [
                    2251,
                    492
                ],
                [
                    2301,
                    434
                ],
                [
                    2366,
                    338
                ],
                [
                    2372,
                    274
                ],
                [
                    2336,
                    207
                ],
                [
                    2232,
                    65
                ],
                [
                    2118,
                    65
                ],
                [
                    2024,
                    80
                ],
                [
                    1937,
                    210
                ],
                [
                    1848,
                    264
                ],
                [
                    1868,
                    373
                ],
                [
                    1988,
                    489
                ]
            ],
            "flags": {},
            "group_id": null
        },
        {
            "label": "mask",
            "lineType": [
                "LLLLLLLLLLLLL"
            ],
            "shape_type": "polygon",
            "points": [
                [
                    1985,
                    967
                ],
                [
                    2264,
                    965
                ],
                [
                    2365,
                    833
                ],
                [
                    2366,
                    755
                ],
                [
                    2260,
                    579
                ],
                [
                    2200,
                    539
                ],
                [
                    2071,
                    538
                ],
                [
                    2014,
                    554
                ],
                [
                    1951,
                    640
                ],
                [
                    1883,
                    720
                ],
                [
                    1875,
                    802
                ],
                [
                    1885,
                    852
                ],
                [
                    1985,
                    967
                ]
            ],
            "flags": {},
            "group_id": null
        },
        {
            "label": "mask",
            "lineType": [
                "LLLLLLLLLLLL"
            ],
            "shape_type": "polygon",
            "points": [
                [
                    1986,
                    1413
                ],
                [
                    2295,
                    1415
                ],
                [
                    2368,
                    1257
                ],
                [
                    2352,
                    1163
                ],
                [
                    2279,
                    1055
                ],
                [
                    2196,
                    990
                ],
                [
                    2066,
                    991
                ],
                [
                    1997,
                    1035
                ],
                [
                    1934,
                    1143
                ],
                [
                    1872,
                    1199
                ],
                [
                    1882,
                    1281
                ],
                [
                    1986,
                    1413
                ]
            ],
            "flags": {},
            "group_id": null
        },
        {
            "label": "mask",
            "lineType": [
                "LLLLLLLLLLL"
            ],
            "shape_type": "polygon",
            "points": [
                [
                    1984,
                    1871
                ],
                [
                    2282,
                    1871
                ],
                [
                    2432,
                    1738
                ],
                [
                    2432,
                    1628
                ],
                [
                    2276,
                    1454
                ],
                [
                    2049,
                    1453
                ],
                [
                    1950,
                    1523
                ],
                [
                    1845,
                    1609
                ],
                [
                    1798,
                    1658
                ],
                [
                    1830,
                    1754
                ],
                [
                    1984,
                    1871
                ]
            ],
            "flags": {},
            "group_id": null
        },
        {
            "label": "mask",
            "lineType": [
                "LLLLLLLLLLLL"
            ],
            "shape_type": "polygon",
            "points": [
                [
                    1980,
                    2355
                ],
                [
                    2238,
                    2353
                ],
                [
                    2378,
                    2213
                ],
                [
                    2372,
                    2144
                ],
                [
                    2326,
                    2052
                ],
                [
                    2231,
                    1952
                ],
                [
                    2179,
                    1905
                ],
                [
                    2018,
                    1914
                ],
                [
                    1942,
                    2031
                ],
                [
                    1894,
                    2132
                ],
                [
                    1890,
                    2237
                ],
                [
                    1980,
                    2355
                ]
            ],
            "flags": {},
            "group_id": null
        },
        {
            "label": "mask",
            "lineType": [
                "LLLLLLLLLLLLLLLLLLLLLLLLLLLLLLLLLLLLLLLLLLLLL"
            ],
            "shape_type": "polygon",
            "points": [
                [
                    815,
                    2086
                ],
                [
                    1174,
                    2088
                ],
                [
                    1211,
                    1988
                ],
                [
                    1380,
                    1968
                ],
                [
                    1664,
                    1943
                ],
                [
                    1700,
                    1894
                ],
                [
                    1699,
                    1866
                ],
                [
                    1684,
                    1823
                ],
                [
                    1633,
                    1773
                ],
                [
                    1408,
                    1710
                ],
                [
                    1328,
                    1637
                ],
                [
                    1312,
                    1579
                ],
                [
                    1346,
                    1361
                ],
                [
                    1363,
                    1325
                ],
                [
                    1459,
                    1323
                ],
                [
                    1626,
                    1310
                ],
                [
                    1664,
                    1283
                ],
                [
                    1681,
                    968
                ],
                [
                    1676,
                    188
                ],
                [
                    1270,
                    178
                ],
                [
                    1151,
                    164
                ],
                [
                    1123,
                    83
                ],
                [
                    1076,
                    72
                ],
                [
                    976,
                    109
                ],
                [
                    882,
                    190
                ],
                [
                    844,
                    257
                ],
                [
                    768,
                    327
                ],
                [
                    596,
                    349
                ],
                [
                    572,
                    349
                ],
                [
                    561,
                    614
                ],
                [
                    564,
                    829
                ],
                [
                    569,
                    1133
                ],
                [
                    578,
                    1256
                ],
                [
                    585,
                    1283
                ],
                [
                    833,
                    1298
                ],
                [
                    915,
                    1343
                ],
                [
                    979,
                    1446
                ],
                [
                    998,
                    1789
                ],
                [
                    702,
                    1822
                ],
                [
                    504,
                    1844
                ],
                [
                    416,
                    1857
                ],
                [
                    359,
                    1877
                ],
                [
                    399,
                    1966
                ],
                [
                    677,
                    2011
                ],
                [
                    815,
                    2086
                ]
            ],
            "flags": {},
            "group_id": null
        },
        {
            "label": "mask",
            "lineType": [
                "LLLLLLLLLLLLLLLLLLLLLLLLL"
            ],
            "shape_type": "polygon",
            "points": [
                [
                    464,
                    2074
                ],
                [
                    477,
                    2203
                ],
                [
                    525,
                    2241
                ],
                [
                    526,
                    2466
                ],
                [
                    516,
                    2600
                ],
                [
                    531,
                    2773
                ],
                [
                    1036,
                    2774
                ],
                [
                    1199,
                    2717
                ],
                [
                    1513,
                    2713
                ],
                [
                    1808,
                    2704
                ],
                [
                    1860,
                    2638
                ],
                [
                    1908,
                    2553
                ],
                [
                    1961,
                    2442
                ],
                [
                    2108,
                    2432
                ],
                [
                    2121,
                    2402
                ],
                [
                    2123,
                    2371
                ],
                [
                    2038,
                    2371
                ],
                [
                    1953,
                    2370
                ],
                [
                    1475,
                    2323
                ],
                [
                    1460,
                    2195
                ],
                [
                    1452,
                    2154
                ],
                [
                    859,
                    2155
                ],
                [
                    855,
                    2098
                ],
                [
                    805,
                    2089
                ],
                [
                    464,
                    2074
                ]
            ],
            "flags": {},
            "group_id": null
        },
        {
            "label": "wlb",
            "shape_type": "rectangle",
            "points": [
                [
                    2665,
                    1228
                ],
                [
                    4053,
                    2551
                ]
            ],
            "flags": {},
            "group_id": null
        },
        {
            "label": "Ns",
            "shape_type": "point",
            "points": [
                [
                    2772,
                    449
                ]
            ],
            "flags": {},
            "group_id": null
        },
        {
            "label": "Ne",
            "shape_type": "point",
            "points": [
                [
                    2773,
                    270
                ]
            ],
            "flags": {},
            "group_id": null
        },
        {
            "label": "wz3",
            "shape_type": "rectangle",
            "points": [
                [
                    1915,
                    2178
                ],
                [
                    2063,
                    2255
                ]
            ],
            "flags": {},
            "group_id": null
        },
        {
            "label": "wz3",
            "shape_type": "rectangle",
            "points": [
                [
                    2210,
                    2153
                ],
                [
                    2360,
                    2224
                ]
            ],
            "flags": {},
            "group_id": null
        },
        {
            "label": "wz3",
            "shape_type": "rectangle",
            "points": [
                [
                    2046,
                    1932
                ],
                [
                    2191,
                    2007
                ]
            ],
            "flags": {},
            "group_id": null
        },
        {
            "label": "wz3-l",
            "lineType": "LL",
            "shape_type": "line",
            "points": [
                [
                    2240,
                    2187
                ],
                [
                    2199,
                    2159
                ]
            ],
            "flags": {},
            "group_id": null
        },
        {
            "label": "wz3-l",
            "lineType": "LL",
            "shape_type": "line",
            "points": [
                [
                    2015,
                    2202
                ],
                [
                    2028,
                    2163
                ]
            ],
            "flags": {},
            "group_id": null
        },
        {
            "label": "wz3-l",
            "lineType": "LL",
            "shape_type": "line",
            "points": [
                [
                    2098,
                    1980
                ],
                [
                    2111,
                    2027
                ]
            ],
            "flags": {},
            "group_id": null
        },
        {
            "label": "wz3",
            "shape_type": "rectangle",
            "points": [
                [
                    2218,
                    1658
                ],
                [
                    2416,
                    1713
                ]
            ],
            "flags": {},
            "group_id": null
        },
        {
            "label": "wz3",
            "shape_type": "rectangle",
            "points": [
                [
                    2059,
                    1464
                ],
                [
                    2253,
                    1513
                ]
            ],
            "flags": {},
            "group_id": null
        },
        {
            "label": "wz3",
            "shape_type": "rectangle",
            "points": [
                [
                    1817,
                    1665
                ],
                [
                    2010,
                    1715
                ]
            ],
            "flags": {},
            "group_id": null
        },
        {
            "label": "wz3-l",
            "lineType": "LL",
            "shape_type": "line",
            "points": [
                [
                    1963,
                    1692
                ],
                [
                    2031,
                    1676
                ]
            ],
            "flags": {},
            "group_id": null
        },
        {
            "label": "wz3-l",
            "lineType": "LL",
            "shape_type": "line",
            "points": [
                [
                    2230,
                    1689
                ],
                [
                    2193,
                    1668
                ]
            ],
            "flags": {},
            "group_id": null
        },
        {
            "label": "wz3-l",
            "lineType": "LL",
            "shape_type": "line",
            "points": [
                [
                    2128,
                    1501
                ],
                [
                    2118,
                    1540
                ]
            ],
            "flags": {},
            "group_id": null
        },
        {
            "label": "wz3",
            "shape_type": "rectangle",
            "points": [
                [
                    1887,
                    1210
                ],
                [
                    2022,
                    1261
                ]
            ],
            "flags": {},
            "group_id": null
        },
        {
            "label": "wz3",
            "shape_type": "rectangle",
            "points": [
                [
                    2216,
                    1190
                ],
                [
                    2348,
                    1239
                ]
            ],
            "flags": {},
            "group_id": null
        },
        {
            "label": "wz3",
            "shape_type": "rectangle",
            "points": [
                [
                    2062,
                    1011
                ],
                [
                    2191,
                    1059
                ]
            ],
            "flags": {},
            "group_id": null
        },
        {
            "label": "wz3-l",
            "lineType": "LL",
            "shape_type": "line",
            "points": [
                [
                    1984,
                    1238
                ],
                [
                    2030,
                    1218
                ]
            ],
            "flags": {},
            "group_id": null
        },
        {
            "label": "wz3-l",
            "lineType": "LL",
            "shape_type": "line",
            "points": [
                [
                    2238,
                    1213
                ],
                [
                    2190,
                    1209
                ]
            ],
            "flags": {},
            "group_id": null
        },
        {
            "label": "wz3-l",
            "lineType": "LL",
            "shape_type": "line",
            "points": [
                [
                    2115,
                    1039
                ],
                [
                    2115,
                    1081
                ]
            ],
            "flags": {},
            "group_id": null
        },
        {
            "label": "wz3",
            "shape_type": "rectangle",
            "points": [
                [
                    1892,
                    765
                ],
                [
                    2025,
                    819
                ]
            ],
            "flags": {},
            "group_id": null
        },
        {
            "label": "wz3",
            "shape_type": "rectangle",
            "points": [
                [
                    2218,
                    748
                ],
                [
                    2349,
                    799
                ]
            ],
            "flags": {},
            "group_id": null
        },
        {
            "label": "wz3",
            "shape_type": "rectangle",
            "points": [
                [
                    2057,
                    554
                ],
                [
                    2189,
                    601
                ]
            ],
            "flags": {},
            "group_id": null
        },
        {
            "label": "wz3-l",
            "lineType": "LL",
            "shape_type": "line",
            "points": [
                [
                    1988,
                    797
                ],
                [
                    2031,
                    762
                ]
            ],
            "flags": {},
            "group_id": null
        },
        {
            "label": "wz3-l",
            "lineType": "LL",
            "shape_type": "line",
            "points": [
                [
                    2254,
                    780
                ],
                [
                    2192,
                    767
                ]
            ],
            "flags": {},
            "group_id": null
        },
        {
            "label": "wz3-l",
            "lineType": "LL",
            "shape_type": "line",
            "points": [
                [
                    2121,
                    572
                ],
                [
                    2112,
                    633
                ]
            ],
            "flags": {},
            "group_id": null
        },
        {
            "label": "wz3",
            "shape_type": "rectangle",
            "points": [
                [
                    2224,
                    278
                ],
                [
                    2359,
                    324
                ]
            ],
            "flags": {},
            "group_id": null
        },
        {
            "label": "wz3",
            "shape_type": "rectangle",
            "points": [
                [
                    2062,
                    84
                ],
                [
                    2196,
                    132
                ]
            ],
            "flags": {},
            "group_id": null
        },
        {
            "label": "wz3",
            "shape_type": "rectangle",
            "points": [
                [
                    1874,
                    284
                ],
                [
                    2003,
                    334
                ]
            ],
            "flags": {},
            "group_id": null
        },
        {
            "label": "wz3-l",
            "lineType": "LL",
            "shape_type": "line",
            "points": [
                [
                    1973,
                    310
                ],
                [
                    2030,
                    287
                ]
            ],
            "flags": {},
            "group_id": null
        },
        {
            "label": "wz3-l",
            "lineType": "LL",
            "shape_type": "line",
            "points": [
                [
                    2243,
                    291
                ],
                [
                    2190,
                    286
                ]
            ],
            "flags": {},
            "group_id": null
        },
        {
            "label": "wz3-l",
            "lineType": "LL",
            "shape_type": "line",
            "points": [
                [
                    2128,
                    126
                ],
                [
                    2116,
                    158
                ]
            ],
            "flags": {},
            "group_id": null
        },
        {
            "label": "wz3",
            "shape_type": "rectangle",
            "points": [
                [
                    2651,
                    575
                ],
                [
                    2870,
                    622
                ]
            ],
            "flags": {},
            "group_id": null
        },
        {
            "label": "wz3-l",
            "lineType": "LL",
            "shape_type": "line",
            "points": [
                [
                    2755,
                    604
                ],
                [
                    2772,
                    450
                ]
            ],
            "flags": {},
            "group_id": null
        },
        {
            "label": "wz1",
            "shape_type": "rectangle",
            "points": [
                [
                    3469,
                    762
                ],
                [
                    3627,
                    809
                ]
            ],
            "flags": {},
            "group_id": null
        },
        {
            "label": "wz1-l",
            "lineType": "LL",
            "shape_type": "line",
            "points": [
                [
                    3598,
                    789
                ],
                [
                    3697,
                    736
                ]
            ],
            "flags": {},
            "group_id": null
        },
        {
            "label": "wz1",
            "shape_type": "rectangle",
            "points": [
                [
                    1165,
                    1925
                ],
                [
                    1299,
                    1973
                ]
            ],
            "flags": {},
            "group_id": null
        },
        {
            "label": "wz1",
            "shape_type": "rectangle",
            "points": [
                [
                    1153,
                    1621
                ],
                [
                    1314,
                    1672
                ]
            ],
            "flags": {},
            "group_id": null
        },
        {
            "label": "wz1-l",
            "lineType": "LL",
            "shape_type": "line",
            "points": [
                [
                    1272,
                    1958
                ],
                [
                    1303,
                    1915
                ]
            ],
            "flags": {},
            "group_id": null
        },
        {
            "label": "wz1-l",
            "lineType": "LL",
            "shape_type": "line",
            "points": [
                [
                    1299,
                    1639
                ],
                [
                    1355,
                    1759
                ]
            ],
            "flags": {},
            "group_id": null
        },
        {
            "label": "wz3",
            "shape_type": "rectangle",
            "points": [
                [
                    586,
                    1221
                ],
                [
                    778,
                    1273
                ]
            ],
            "flags": {},
            "group_id": null
        },
        {
            "label": "wz3",
            "shape_type": "rectangle",
            "points": [
                [
                    582,
                    1043
                ],
                [
                    779,
                    1099
                ]
            ],
            "flags": {},
            "group_id": null
        },
        {
            "label": "wz3",
            "shape_type": "rectangle",
            "points": [
                [
                    572,
                    759
                ],
                [
                    711,
                    818
                ]
            ],
            "flags": {},
            "group_id": null
        },
        {
            "label": "wz3",
            "shape_type": "rectangle",
            "points": [
                [
                    575,
                    546
                ],
                [
                    708,
                    597
                ]
            ],
            "flags": {},
            "group_id": null
        },
        {
            "label": "wz3",
            "shape_type": "rectangle",
            "points": [
                [
                    573,
                    355
                ],
                [
                    711,
                    410
                ]
            ],
            "flags": {},
            "group_id": null
        },
        {
            "label": "wz3-l",
            "lineType": "LL",
            "shape_type": "line",
            "points": [
                [
                    678,
                    364
                ],
                [
                    1045,
                    405
                ]
            ],
            "flags": {},
            "group_id": null
        },
        {
            "label": "wz3-l",
            "lineType": "LL",
            "shape_type": "line",
            "points": [
                [
                    665,
                    568
                ],
                [
                    1042,
                    601
                ]
            ],
            "flags": {},
            "group_id": null
        },
        {
            "label": "wz3-l",
            "lineType": "LL",
            "shape_type": "line",
            "points": [
                [
                    684,
                    789
                ],
                [
                    1044,
                    830
                ]
            ],
            "flags": {},
            "group_id": null
        },
        {
            "label": "wz3-l",
            "lineType": "LL",
            "shape_type": "line",
            "points": [
                [
                    754,
                    1066
                ],
                [
                    1050,
                    1070
                ]
            ],
            "flags": {},
            "group_id": null
        },
        {
            "label": "wz3-l",
            "lineType": "LL",
            "shape_type": "line",
            "points": [
                [
                    735,
                    1249
                ],
                [
                    1041,
                    1236
                ]
            ],
            "flags": {},
            "group_id": null
        }
    ],
    "flags": {},
    "imageData": null,
    "version": "4.5.7"
}