{
    "imageHeight": 2908,
    "imageWidth": 4205,
    "imagePath": "样本1_67_61.png",
    "shapes": [
        {
            "label": "t3-r",
            "shape_type": "rectangle",
            "points": [
                [
                    2179,
                    143
                ],
                [
                    2999,
                    2312
                ]
            ],
            "flags": {},
            "group_id": null
        },
        {
            "label": "c1",
            "shape_type": "rectangle",
            "points": [
                [
                    2584,
                    143
                ],
                [
                    2590,
                    369
                ]
            ],
            "flags": {},
            "group_id": null
        },
        {
            "label": "v1",
            "shape_type": "rectangle",
            "points": [
                [
                    2805,
                    2376
                ],
                [
                    3102,
                    2458
                ]
            ],
            "flags": {},
            "group_id": null
        },
        {
            "label": "h1",
            "shape_type": "rectangle",
            "points": [
                [
                    3735,
                    2249
                ],
                [
                    3865,
                    2312
                ]
            ],
            "flags": {},
            "group_id": null
        },
        {
            "label": "b1",
            "shape_type": "rectangle",
            "points": [
                [
                    3286,
                    2012
                ],
                [
                    3716,
                    2311
                ]
            ],
            "flags": {},
            "group_id": null
        },
        {
            "label": "seven",
            "shape_type": "point",
            "points": [
                [
                    3285,
                    2013
                ]
            ],
            "flags": {},
            "group_id": null
        },
        {
            "label": "seven",
            "shape_type": "point",
            "points": [
                [
                    3305,
                    2033
                ]
            ],
            "flags": {},
            "group_id": null
        },
        {
            "label": "eight",
            "shape_type": "point",
            "points": [
                [
                    3715,
                    2013
                ]
            ],
            "flags": {},
            "group_id": null
        },
        {
            "label": "eight",
            "shape_type": "point",
            "points": [
                [
                    3696,
                    2033
                ]
            ],
            "flags": {},
            "group_id": null
        },
        {
            "label": "twentytwo",
            "shape_type": "point",
            "points": [
                [
                    3285,
                    2102
                ]
            ],
            "flags": {},
            "group_id": null
        },
        {
            "label": "twelve",
            "shape_type": "point",
            "points": [
                [
                    3305,
                    2102
                ]
            ],
            "flags": {},
            "group_id": null
        },
        {
            "label": "fifteen",
            "shape_type": "point",
            "points": [
                [
                    3285,
                    2133
                ]
            ],
            "flags": {},
            "group_id": null
        },
        {
            "label": "twentythere",
            "shape_type": "point",
            "points": [
                [
                    3305,
                    2132
                ]
            ],
            "flags": {},
            "group_id": null
        },
        {
            "label": "fourteen",
            "shape_type": "point",
            "points": [
                [
                    3285,
                    2311
                ]
            ],
            "flags": {},
            "group_id": null
        },
        {
            "label": "fourteen",
            "shape_type": "point",
            "points": [
                [
                    3305,
                    2311
                ]
            ],
            "flags": {},
            "group_id": null
        },
        {
            "label": "fourteen",
            "shape_type": "point",
            "points": [
                [
                    3696,
                    2311
                ]
            ],
            "flags": {},
            "group_id": null
        },
        {
            "label": "fourteen",
            "shape_type": "point",
            "points": [
                [
                    3716,
                    2311
                ]
            ],
            "flags": {},
            "group_id": null
        },
        {
            "label": "h1",
            "shape_type": "rectangle",
            "points": [
                [
                    2976,
                    719
                ],
                [
                    3125,
                    787
                ]
            ],
            "flags": {},
            "group_id": null
        },
        {
            "label": "h1",
            "shape_type": "rectangle",
            "points": [
                [
                    2980,
                    483
                ],
                [
                    3130,
                    551
                ]
            ],
            "flags": {},
            "group_id": null
        },
        {
            "label": "h1",
            "shape_type": "rectangle",
            "points": [
                [
                    2979,
                    295
                ],
                [
                    3128,
                    362
                ]
            ],
            "flags": {},
            "group_id": null
        },
        {
            "label": "d1",
            "shape_type": "rectangle",
            "points": [
                [
                    2862,
                    299
                ],
                [
                    2930,
                    404
                ]
            ],
            "flags": {},
            "group_id": null
        },
        {
            "label": "d1",
            "shape_type": "rectangle",
            "points": [
                [
                    2854,
                    548
                ],
                [
                    2922,
                    654
                ]
            ],
            "flags": {},
            "group_id": null
        },
        {
            "label": "d1",
            "shape_type": "rectangle",
            "points": [
                [
                    2275,
                    296
                ],
                [
                    2342,
                    407
                ]
            ],
            "flags": {},
            "group_id": null
        },
        {
            "label": "d1",
            "shape_type": "rectangle",
            "points": [
                [
                    2267,
                    545
                ],
                [
                    2335,
                    657
                ]
            ],
            "flags": {},
            "group_id": null
        },
        {
            "label": "p1-1",
            "shape_type": "rectangle",
            "points": [
                [
                    2345,
                    362
                ],
                [
                    2805,
                    550
                ]
            ],
            "flags": {},
            "group_id": null
        },
        {
            "label": "p1-1",
            "shape_type": "rectangle",
            "points": [
                [
                    2349,
                    609
                ],
                [
                    2801,
                    797
                ]
            ],
            "flags": {},
            "group_id": null
        },
        {
            "label": "a1-1",
            "shape_type": "rectangle",
            "points": [
                [
                    2345,
                    387
                ],
                [
                    2356,
                    454
                ]
            ],
            "flags": {},
            "group_id": null
        },
        {
            "label": "a1-2",
            "shape_type": "rectangle",
            "points": [
                [
                    2400,
                    388
                ],
                [
                    2411,
                    453
                ]
            ],
            "flags": {},
            "group_id": null
        },
        {
            "label": "a1-2",
            "shape_type": "rectangle",
            "points": [
                [
                    2794,
                    387
                ],
                [
                    2805,
                    453
                ]
            ],
            "flags": {},
            "group_id": null
        },
        {
            "label": "a1-2",
            "shape_type": "rectangle",
            "points": [
                [
                    2790,
                    634
                ],
                [
                    2800,
                    701
                ]
            ],
            "flags": {},
            "group_id": null
        },
        {
            "label": "a1-2",
            "shape_type": "rectangle",
            "points": [
                [
                    2402,
                    635
                ],
                [
                    2413,
                    701
                ]
            ],
            "flags": {},
            "group_id": null
        },
        {
            "label": "a1-1",
            "shape_type": "rectangle",
            "points": [
                [
                    2350,
                    634
                ],
                [
                    2360,
                    700
                ]
            ],
            "flags": {},
            "group_id": null
        },
        {
            "label": "g1",
            "shape_type": "rectangle",
            "points": [
                [
                    2367,
                    609
                ],
                [
                    2372,
                    798
                ]
            ],
            "flags": {},
            "group_id": null
        },
        {
            "label": "g1",
            "shape_type": "rectangle",
            "points": [
                [
                    2391,
                    609
                ],
                [
                    2397,
                    797
                ]
            ],
            "flags": {},
            "group_id": null
        },
        {
            "label": "g1",
            "shape_type": "rectangle",
            "points": [
                [
                    2778,
                    609
                ],
                [
                    2783,
                    799
                ]
            ],
            "flags": {},
            "group_id": null
        },
        {
            "label": "g1",
            "shape_type": "rectangle",
            "points": [
                [
                    2782,
                    362
                ],
                [
                    2789,
                    550
                ]
            ],
            "flags": {},
            "group_id": null
        },
        {
            "label": "g1",
            "shape_type": "rectangle",
            "points": [
                [
                    2388,
                    363
                ],
                [
                    2394,
                    552
                ]
            ],
            "flags": {},
            "group_id": null
        },
        {
            "label": "g1",
            "shape_type": "rectangle",
            "points": [
                [
                    2363,
                    363
                ],
                [
                    2368,
                    551
                ]
            ],
            "flags": {},
            "group_id": null
        },
        {
            "label": "n1",
            "shape_type": "rectangle",
            "points": [
                [
                    1332,
                    129
                ],
                [
                    1917,
                    471
                ]
            ],
            "flags": {},
            "group_id": null
        },
        {
            "label": "vp1-3",
            "shape_type": "rectangle",
            "points": [
                [
                    1427,
                    746
                ],
                [
                    1830,
                    1146
                ]
            ],
            "flags": {},
            "group_id": null
        },
        {
            "label": "v1",
            "shape_type": "rectangle",
            "points": [
                [
                    1534,
                    1195
                ],
                [
                    1758,
                    1259
                ]
            ],
            "flags": {},
            "group_id": null
        },
        {
            "label": "vp1-3",
            "shape_type": "rectangle",
            "points": [
                [
                    1363,
                    1397
                ],
                [
                    1765,
                    1798
                ]
            ],
            "flags": {},
            "group_id": null
        },
        {
            "label": "v1",
            "shape_type": "rectangle",
            "points": [
                [
                    1580,
                    1907
                ],
                [
                    1805,
                    1969
                ]
            ],
            "flags": {},
            "group_id": null
        },
        {
            "label": "vt4",
            "shape_type": "rectangle",
            "points": [
                [
                    273,
                    1205
                ],
                [
                    955,
                    1886
                ]
            ],
            "flags": {},
            "group_id": null
        },
        {
            "label": "d1",
            "shape_type": "rectangle",
            "points": [
                [
                    565,
                    1858
                ],
                [
                    766,
                    1890
                ]
            ],
            "flags": {},
            "group_id": null
        },
        {
            "label": "v1",
            "shape_type": "rectangle",
            "points": [
                [
                    559,
                    1909
                ],
                [
                    745,
                    1971
                ]
            ],
            "flags": {},
            "group_id": null
        },
        {
            "label": "va1",
            "shape_type": "rectangle",
            "points": [
                [
                    1515,
                    1882
                ],
                [
                    1556,
                    1921
                ]
            ],
            "flags": {},
            "group_id": null
        },
        {
            "label": "va1",
            "shape_type": "rectangle",
            "points": [
                [
                    1561,
                    1887
                ],
                [
                    1601,
                    1926
                ]
            ],
            "flags": {},
            "group_id": null
        },
        {
            "label": "va1",
            "shape_type": "rectangle",
            "points": [
                [
                    1778,
                    1749
                ],
                [
                    1818,
                    1788
                ]
            ],
            "flags": {},
            "group_id": null
        },
        {
            "label": "va1",
            "shape_type": "rectangle",
            "points": [
                [
                    1804,
                    1410
                ],
                [
                    1846,
                    1449
                ]
            ],
            "flags": {},
            "group_id": null
        },
        {
            "label": "va1",
            "shape_type": "rectangle",
            "points": [
                [
                    1826,
                    1458
                ],
                [
                    1869,
                    1497
                ]
            ],
            "flags": {},
            "group_id": null
        },
        {
            "label": "va1",
            "shape_type": "rectangle",
            "points": [
                [
                    1552,
                    1292
                ],
                [
                    1594,
                    1330
                ]
            ],
            "flags": {},
            "group_id": null
        },
        {
            "label": "va1",
            "shape_type": "rectangle",
            "points": [
                [
                    1307,
                    1397
                ],
                [
                    1341,
                    1439
                ]
            ],
            "flags": {},
            "group_id": null
        },
        {
            "label": "va1",
            "shape_type": "rectangle",
            "points": [
                [
                    1279,
                    1439
                ],
                [
                    1314,
                    1482
                ]
            ],
            "flags": {},
            "group_id": null
        },
        {
            "label": "va1",
            "shape_type": "rectangle",
            "points": [
                [
                    1285,
                    1678
                ],
                [
                    1321,
                    1720
                ]
            ],
            "flags": {},
            "group_id": null
        },
        {
            "label": "va1",
            "shape_type": "rectangle",
            "points": [
                [
                    1433,
                    1159
                ],
                [
                    1471,
                    1199
                ]
            ],
            "flags": {},
            "group_id": null
        },
        {
            "label": "va1",
            "shape_type": "rectangle",
            "points": [
                [
                    1378,
                    1120
                ],
                [
                    1413,
                    1162
                ]
            ],
            "flags": {},
            "group_id": null
        },
        {
            "label": "va1",
            "shape_type": "rectangle",
            "points": [
                [
                    1355,
                    760
                ],
                [
                    1390,
                    803
                ]
            ],
            "flags": {},
            "group_id": null
        },
        {
            "label": "va1",
            "shape_type": "rectangle",
            "points": [
                [
                    1388,
                    726
                ],
                [
                    1421,
                    767
                ]
            ],
            "flags": {},
            "group_id": null
        },
        {
            "label": "va1",
            "shape_type": "rectangle",
            "points": [
                [
                    1850,
                    740
                ],
                [
                    1892,
                    778
                ]
            ],
            "flags": {},
            "group_id": null
        },
        {
            "label": "va1",
            "shape_type": "rectangle",
            "points": [
                [
                    1876,
                    782
                ],
                [
                    1917,
                    820
                ]
            ],
            "flags": {},
            "group_id": null
        },
        {
            "label": "va1",
            "shape_type": "rectangle",
            "points": [
                [
                    1916,
                    925
                ],
                [
                    1956,
                    964
                ]
            ],
            "flags": {},
            "group_id": null
        },
        {
            "label": "va1",
            "shape_type": "rectangle",
            "points": [
                [
                    1839,
                    1131
                ],
                [
                    1879,
                    1169
                ]
            ],
            "flags": {},
            "group_id": null
        },
        {
            "label": "va1",
            "shape_type": "rectangle",
            "points": [
                [
                    1802,
                    1164
                ],
                [
                    1841,
                    1204
                ]
            ],
            "flags": {},
            "group_id": null
        },
        {
            "label": "vb1",
            "shape_type": "rectangle",
            "points": [
                [
                    655,
                    123
                ],
                [
                    1016,
                    744
                ]
            ],
            "flags": {},
            "group_id": null
        },
        {
            "label": "one",
            "shape_type": "point",
            "points": [
                [
                    1090,
                    1244
                ]
            ],
            "flags": {},
            "group_id": null
        },
        {
            "label": "two",
            "shape_type": "point",
            "points": [
                [
                    1090,
                    744
                ]
            ],
            "flags": {},
            "group_id": null
        },
        {
            "label": "one",
            "shape_type": "point",
            "points": [
                [
                    1090,
                    724
                ]
            ],
            "flags": {},
            "group_id": null
        },
        {
            "label": "two",
            "shape_type": "point",
            "points": [
                [
                    1090,
                    142
                ]
            ],
            "flags": {},
            "group_id": null
        },
        {
            "label": "three",
            "shape_type": "point",
            "points": [
                [
                    675,
                    92
                ]
            ],
            "flags": {},
            "group_id": null
        },
        {
            "label": "four",
            "shape_type": "point",
            "points": [
                [
                    996,
                    93
                ]
            ],
            "flags": {},
            "group_id": null
        },
        {
            "label": "seven",
            "shape_type": "point",
            "points": [
                [
                    655,
                    122
                ]
            ],
            "flags": {},
            "group_id": null
        },
        {
            "label": "seven",
            "shape_type": "point",
            "points": [
                [
                    675,
                    143
                ]
            ],
            "flags": {},
            "group_id": null
        },
        {
            "label": "eight",
            "shape_type": "point",
            "points": [
                [
                    1016,
                    122
                ]
            ],
            "flags": {},
            "group_id": null
        },
        {
            "label": "eight",
            "shape_type": "point",
            "points": [
                [
                    996,
                    143
                ]
            ],
            "flags": {},
            "group_id": null
        },
        {
            "label": "nine",
            "shape_type": "point",
            "points": [
                [
                    675,
                    724
                ]
            ],
            "flags": {},
            "group_id": null
        },
        {
            "label": "nine",
            "shape_type": "point",
            "points": [
                [
                    655,
                    743
                ]
            ],
            "flags": {},
            "group_id": null
        },
        {
            "label": "eight",
            "shape_type": "point",
            "points": [
                [
                    695,
                    724
                ]
            ],
            "flags": {},
            "group_id": null
        },
        {
            "label": "ten",
            "shape_type": "point",
            "points": [
                [
                    695,
                    743
                ]
            ],
            "flags": {},
            "group_id": null
        },
        {
            "label": "twentyone",
            "shape_type": "point",
            "points": [
                [
                    695,
                    734
                ]
            ],
            "flags": {},
            "group_id": null
        },
        {
            "label": "seven",
            "shape_type": "point",
            "points": [
                [
                    775,
                    724
                ]
            ],
            "flags": {},
            "group_id": null
        },
        {
            "label": "nine",
            "shape_type": "point",
            "points": [
                [
                    775,
                    744
                ]
            ],
            "flags": {},
            "group_id": null
        },
        {
            "label": "twentytwo",
            "shape_type": "point",
            "points": [
                [
                    876,
                    724
                ]
            ],
            "flags": {},
            "group_id": null
        },
        {
            "label": "twentythere",
            "shape_type": "point",
            "points": [
                [
                    915,
                    744
                ]
            ],
            "flags": {},
            "group_id": null
        },
        {
            "label": "fourteen",
            "shape_type": "point",
            "points": [
                [
                    876,
                    744
                ]
            ],
            "flags": {},
            "group_id": null
        },
        {
            "label": "thirteen",
            "shape_type": "point",
            "points": [
                [
                    916,
                    724
                ]
            ],
            "flags": {},
            "group_id": null
        },
        {
            "label": "ten",
            "shape_type": "point",
            "points": [
                [
                    996,
                    724
                ]
            ],
            "flags": {},
            "group_id": null
        },
        {
            "label": "ten",
            "shape_type": "point",
            "points": [
                [
                    1016,
                    744
                ]
            ],
            "flags": {},
            "group_id": null
        },
        {
            "label": "btl",
            "shape_type": "rectangle",
            "points": [
                [
                    2346,
                    2566
                ],
                [
                    4153,
                    2871
                ]
            ],
            "flags": {},
            "group_id": null
        },
        {
            "label": "wz4",
            "shape_type": "rectangle",
            "points": [
                [
                    3432,
                    2142
                ],
                [
                    3557,
                    2184
                ]
            ],
            "flags": {},
            "group_id": null
        },
        {
            "label": "sm",
            "shape_type": "rectangle",
            "points": [
                [
                    2716,
                    997
                ],
                [
                    4143,
                    1735
                ]
            ],
            "flags": {},
            "group_id": null
        },
        {
            "label": "x2",
            "shape_type": "rectangle",
            "points": [
                [
                    1052,
                    733
                ],
                [
                    1102,
                    1254
                ]
            ],
            "flags": {},
            "group_id": null
        },
        {
            "label": "wz2",
            "shape_type": "rectangle",
            "points": [
                [
                    1054,
                    948
                ],
                [
                    1084,
                    1039
                ]
            ],
            "flags": {},
            "group_id": null
        },
        {
            "label": "wz2",
            "shape_type": "rectangle",
            "points": [
                [
                    1055,
                    388
                ],
                [
                    1084,
                    479
                ]
            ],
            "flags": {},
            "group_id": null
        },
        {
            "label": "x2",
            "shape_type": "rectangle",
            "points": [
                [
                    1054,
                    133
                ],
                [
                    1101,
                    729
                ]
            ],
            "flags": {},
            "group_id": null
        },
        {
            "label": "wz2",
            "shape_type": "rectangle",
            "points": [
                [
                    791,
                    58
                ],
                [
                    880,
                    86
                ]
            ],
            "flags": {},
            "group_id": null
        },
        {
            "label": "x2",
            "shape_type": "rectangle",
            "points": [
                [
                    664,
                    56
                ],
                [
                    1003,
                    103
                ]
            ],
            "flags": {},
            "group_id": null
        },
        {
            "label": "wz4",
            "shape_type": "rectangle",
            "points": [
                [
                    759,
                    407
                ],
                [
                    886,
                    451
                ]
            ],
            "flags": {},
            "group_id": null
        },
        {
            "label": "k1",
            "shape_type": "rectangle",
            "points": [
                [
                    875,
                    723
                ],
                [
                    916,
                    745
                ]
            ],
            "flags": {},
            "group_id": null
        },
        {
            "label": "j1",
            "shape_type": "rectangle",
            "points": [
                [
                    1561,
                    318
                ],
                [
                    1595,
                    347
                ]
            ],
            "flags": {},
            "group_id": null
        },
        {
            "label": "mask",
            "lineType": [
                "LLLLLLLLLLLLLLLLLLLLLLLLLLLLLLLLLLL"
            ],
            "shape_type": "polygon",
            "points": [
                [
                    637,
                    51
                ],
                [
                    636,
                    773
                ],
                [
                    841,
                    776
                ],
                [
                    566,
                    1206
                ],
                [
                    264,
                    1196
                ],
                [
                    262,
                    1305
                ],
                [
                    307,
                    1292
                ],
                [
                    304,
                    1793
                ],
                [
                    265,
                    1798
                ],
                [
                    271,
                    1905
                ],
                [
                    374,
                    1896
                ],
                [
                    379,
                    1863
                ],
                [
                    553,
                    1855
                ],
                [
                    550,
                    1979
                ],
                [
                    753,
                    1980
                ],
                [
                    782,
                    1885
                ],
                [
                    966,
                    1893
                ],
                [
                    966,
                    1799
                ],
                [
                    923,
                    1796
                ],
                [
                    933,
                    1296
                ],
                [
                    962,
                    1291
                ],
                [
                    962,
                    1198
                ],
                [
                    1132,
                    1279
                ],
                [
                    1117,
                    1043
                ],
                [
                    1112,
                    946
                ],
                [
                    1112,
                    874
                ],
                [
                    1109,
                    843
                ],
                [
                    1117,
                    815
                ],
                [
                    1116,
                    767
                ],
                [
                    1112,
                    712
                ],
                [
                    1109,
                    393
                ],
                [
                    1113,
                    121
                ],
                [
                    1038,
                    92
                ],
                [
                    1035,
                    54
                ],
                [
                    637,
                    51
                ]
            ],
            "flags": {},
            "group_id": null
        },
        {
            "label": "mask",
            "lineType": [
                "LLLLLLLLLLLLLLLLLL"
            ],
            "shape_type": "polygon",
            "points": [
                [
                    1549,
                    82
                ],
                [
                    1457,
                    205
                ],
                [
                    1503,
                    296
                ],
                [
                    1377,
                    315
                ],
                [
                    1322,
                    345
                ],
                [
                    1300,
                    444
                ],
                [
                    1302,
                    489
                ],
                [
                    1382,
                    498
                ],
                [
                    1564,
                    434
                ],
                [
                    1626,
                    434
                ],
                [
                    1693,
                    492
                ],
                [
                    1789,
                    502
                ],
                [
                    1947,
                    502
                ],
                [
                    1963,
                    459
                ],
                [
                    1946,
                    375
                ],
                [
                    1917,
                    342
                ],
                [
                    1719,
                    72
                ],
                [
                    1549,
                    82
                ]
            ],
            "flags": {},
            "group_id": null
        },
        {
            "label": "mask",
            "lineType": [
                "LLLLLLLLLLLLLLLLLLLLLLLLLLLLLLLLLLLLL"
            ],
            "shape_type": "polygon",
            "points": [
                [
                    1378,
                    697
                ],
                [
                    1377,
                    656
                ],
                [
                    1216,
                    661
                ],
                [
                    1207,
                    732
                ],
                [
                    1203,
                    809
                ],
                [
                    1409,
                    846
                ],
                [
                    1422,
                    929
                ],
                [
                    1402,
                    1021
                ],
                [
                    1286,
                    1065
                ],
                [
                    1212,
                    1105
                ],
                [
                    1179,
                    1249
                ],
                [
                    1293,
                    1278
                ],
                [
                    1446,
                    1265
                ],
                [
                    1767,
                    1267
                ],
                [
                    1812,
                    1262
                ],
                [
                    1913,
                    1248
                ],
                [
                    1952,
                    1238
                ],
                [
                    2014,
                    1221
                ],
                [
                    2039,
                    1168
                ],
                [
                    2039,
                    1134
                ],
                [
                    1914,
                    1091
                ],
                [
                    1873,
                    995
                ],
                [
                    2103,
                    988
                ],
                [
                    2172,
                    952
                ],
                [
                    2143,
                    896
                ],
                [
                    2097,
                    896
                ],
                [
                    1926,
                    894
                ],
                [
                    1960,
                    808
                ],
                [
                    2092,
                    808
                ],
                [
                    2028,
                    743
                ],
                [
                    2000,
                    700
                ],
                [
                    1884,
                    697
                ],
                [
                    1792,
                    772
                ],
                [
                    1736,
                    754
                ],
                [
                    1616,
                    728
                ],
                [
                    1469,
                    767
                ],
                [
                    1378,
                    697
                ]
            ],
            "flags": {},
            "group_id": null
        },
        {
            "label": "mask",
            "lineType": [
                "LLLLLLLLLLLLLLLLLLLLLLLLLLLLLL"
            ],
            "shape_type": "polygon",
            "points": [
                [
                    1550,
                    1271
                ],
                [
                    1450,
                    1333
                ],
                [
                    1370,
                    1321
                ],
                [
                    1300,
                    1307
                ],
                [
                    1230,
                    1327
                ],
                [
                    1204,
                    1485
                ],
                [
                    1310,
                    1515
                ],
                [
                    1320,
                    1593
                ],
                [
                    1242,
                    1655
                ],
                [
                    1188,
                    1767
                ],
                [
                    1404,
                    1825
                ],
                [
                    1404,
                    1855
                ],
                [
                    1408,
                    1919
                ],
                [
                    1432,
                    1929
                ],
                [
                    1564,
                    1970
                ],
                [
                    1586,
                    1975
                ],
                [
                    1825,
                    1981
                ],
                [
                    1830,
                    1947
                ],
                [
                    1774,
                    1847
                ],
                [
                    1972,
                    1837
                ],
                [
                    1986,
                    1782
                ],
                [
                    1835,
                    1764
                ],
                [
                    1773,
                    1687
                ],
                [
                    1795,
                    1539
                ],
                [
                    1877,
                    1505
                ],
                [
                    1895,
                    1472
                ],
                [
                    1911,
                    1364
                ],
                [
                    1835,
                    1363
                ],
                [
                    1794,
                    1278
                ],
                [
                    1550,
                    1271
                ]
            ],
            "flags": {},
            "group_id": null
        },
        {
            "label": "mask",
            "lineType": [
                "LLLLLLLLLL"
            ],
            "shape_type": "polygon",
            "points": [
                [
                    277,
                    1970
                ],
                [
                    280,
                    2853
                ],
                [
                    1778,
                    2853
                ],
                [
                    1773,
                    1988
                ],
                [
                    1158,
                    1983
                ],
                [
                    1150,
                    1945
                ],
                [
                    915,
                    1946
                ],
                [
                    895,
                    1988
                ],
                [
                    545,
                    1988
                ],
                [
                    277,
                    1970
                ]
            ],
            "flags": {},
            "group_id": null
        },
        {
            "label": "mask",
            "lineType": [
                "LLLLL"
            ],
            "shape_type": "polygon",
            "points": [
                [
                    2335,
                    2552
                ],
                [
                    2332,
                    2871
                ],
                [
                    4151,
                    2871
                ],
                [
                    4150,
                    2558
                ],
                [
                    2335,
                    2552
                ]
            ],
            "flags": {},
            "group_id": null
        },
        {
            "label": "mask",
            "lineType": [
                "LLLLLLLLLLLLLLLLLLLLLLLLLLLLLL"
            ],
            "shape_type": "polygon",
            "points": [
                [
                    2712,
                    988
                ],
                [
                    2709,
                    1048
                ],
                [
                    2779,
                    1052
                ],
                [
                    2779,
                    1350
                ],
                [
                    2778,
                    1545
                ],
                [
                    2799,
                    1742
                ],
                [
                    3245,
                    1745
                ],
                [
                    3243,
                    1677
                ],
                [
                    3598,
                    1666
                ],
                [
                    3619,
                    1650
                ],
                [
                    3610,
                    1601
                ],
                [
                    4130,
                    1593
                ],
                [
                    4140,
                    1577
                ],
                [
                    4148,
                    1535
                ],
                [
                    4139,
                    1530
                ],
                [
                    3658,
                    1513
                ],
                [
                    3664,
                    1467
                ],
                [
                    3799,
                    1460
                ],
                [
                    3792,
                    1395
                ],
                [
                    3364,
                    1375
                ],
                [
                    3389,
                    1330
                ],
                [
                    3989,
                    1333
                ],
                [
                    3993,
                    1255
                ],
                [
                    3499,
                    1262
                ],
                [
                    3473,
                    1127
                ],
                [
                    3228,
                    1122
                ],
                [
                    3218,
                    1058
                ],
                [
                    3097,
                    1047
                ],
                [
                    3098,
                    995
                ],
                [
                    2712,
                    988
                ]
            ],
            "flags": {},
            "group_id": null
        },
        {
            "label": "mask",
            "lineType": [
                "LLLLLLLLLLLLLLLLLLLLLLLLLLLLLLLLLLLLL"
            ],
            "shape_type": "polygon",
            "points": [
                [
                    2582,
                    83
                ],
                [
                    2482,
                    300
                ],
                [
                    2258,
                    255
                ],
                [
                    2258,
                    718
                ],
                [
                    2353,
                    837
                ],
                [
                    2492,
                    832
                ],
                [
                    2423,
                    1535
                ],
                [
                    2162,
                    2237
                ],
                [
                    2050,
                    2290
                ],
                [
                    2012,
                    2355
                ],
                [
                    2767,
                    2388
                ],
                [
                    2791,
                    2474
                ],
                [
                    3125,
                    2471
                ],
                [
                    3118,
                    2355
                ],
                [
                    3864,
                    2360
                ],
                [
                    3885,
                    2305
                ],
                [
                    3879,
                    2264
                ],
                [
                    3865,
                    2242
                ],
                [
                    3737,
                    2231
                ],
                [
                    3731,
                    1995
                ],
                [
                    3273,
                    1998
                ],
                [
                    3268,
                    2080
                ],
                [
                    2922,
                    2090
                ],
                [
                    2797,
                    1790
                ],
                [
                    2773,
                    1689
                ],
                [
                    2759,
                    1633
                ],
                [
                    2722,
                    1263
                ],
                [
                    2708,
                    1042
                ],
                [
                    2704,
                    957
                ],
                [
                    2709,
                    817
                ],
                [
                    3089,
                    799
                ],
                [
                    3150,
                    762
                ],
                [
                    3144,
                    500
                ],
                [
                    3150,
                    318
                ],
                [
                    3119,
                    283
                ],
                [
                    2703,
                    250
                ],
                [
                    2582,
                    83
                ]
            ],
            "flags": {},
            "group_id": null
        },
        {
            "label": "Ns",
            "shape_type": "point",
            "points": [
                [
                    1618,
                    384
                ]
            ],
            "flags": {},
            "group_id": null
        },
        {
            "label": "Ne",
            "shape_type": "point",
            "points": [
                [
                    1619,
                    198
                ]
            ],
            "flags": {},
            "group_id": null
        },
        {
            "label": "wlb",
            "shape_type": "rectangle",
            "points": [
                [
                    300,
                    1955
                ],
                [
                    1759,
                    2836
                ]
            ],
            "flags": {},
            "group_id": null
        },
        {
            "label": "wz1",
            "shape_type": "rectangle",
            "points": [
                [
                    3145,
                    2202
                ],
                [
                    3240,
                    2247
                ]
            ],
            "flags": {},
            "group_id": null
        },
        {
            "label": "wz1-l",
            "lineType": "LL",
            "shape_type": "line",
            "points": [
                [
                    3171,
                    2236
                ],
                [
                    3102,
                    2236
                ]
            ],
            "flags": {},
            "group_id": null
        },
        {
            "label": "wz1",
            "shape_type": "rectangle",
            "points": [
                [
                    817,
                    987
                ],
                [
                    915,
                    1034
                ]
            ],
            "flags": {},
            "group_id": null
        },
        {
            "label": "wz1-l",
            "lineType": "LL",
            "shape_type": "line",
            "points": [
                [
                    830,
                    1027
                ],
                [
                    776,
                    990
                ]
            ],
            "flags": {},
            "group_id": null
        },
        {
            "label": "wz3",
            "shape_type": "rectangle",
            "points": [
                [
                    1716,
                    215
                ],
                [
                    1804,
                    293
                ]
            ],
            "flags": {},
            "group_id": null
        },
        {
            "label": "wz3",
            "shape_type": "rectangle",
            "points": [
                [
                    1812,
                    388
                ],
                [
                    1916,
                    470
                ]
            ],
            "flags": {},
            "group_id": null
        },
        {
            "label": "wz3",
            "shape_type": "rectangle",
            "points": [
                [
                    1333,
                    366
                ],
                [
                    1444,
                    449
                ]
            ],
            "flags": {},
            "group_id": null
        },
        {
            "label": "wz1",
            "shape_type": "rectangle",
            "points": [
                [
                    1225,
                    676
                ],
                [
                    1357,
                    735
                ]
            ],
            "flags": {},
            "group_id": null
        },
        {
            "label": "wz3",
            "shape_type": "rectangle",
            "points": [
                [
                    1218,
                    769
                ],
                [
                    1343,
                    803
                ]
            ],
            "flags": {},
            "group_id": null
        },
        {
            "label": "wz3",
            "shape_type": "rectangle",
            "points": [
                [
                    1250,
                    1115
                ],
                [
                    1361,
                    1140
                ]
            ],
            "flags": {},
            "group_id": null
        },
        {
            "label": "wz1",
            "shape_type": "rectangle",
            "points": [
                [
                    1262,
                    1190
                ],
                [
                    1393,
                    1250
                ]
            ],
            "flags": {},
            "group_id": null
        },
        {
            "label": "wz3",
            "shape_type": "rectangle",
            "points": [
                [
                    1830,
                    1195
                ],
                [
                    1944,
                    1223
                ]
            ],
            "flags": {},
            "group_id": null
        },
        {
            "label": "wz3",
            "shape_type": "rectangle",
            "points": [
                [
                    1880,
                    1145
                ],
                [
                    2005,
                    1179
                ]
            ],
            "flags": {},
            "group_id": null
        },
        {
            "label": "wz1",
            "shape_type": "rectangle",
            "points": [
                [
                    1982,
                    915
                ],
                [
                    2115,
                    974
                ]
            ],
            "flags": {},
            "group_id": null
        },
        {
            "label": "wz3",
            "shape_type": "rectangle",
            "points": [
                [
                    1921,
                    757
                ],
                [
                    2045,
                    791
                ]
            ],
            "flags": {},
            "group_id": null
        },
        {
            "label": "wz3",
            "shape_type": "rectangle",
            "points": [
                [
                    1883,
                    710
                ],
                [
                    1997,
                    735
                ]
            ],
            "flags": {},
            "group_id": null
        },
        {
            "label": "wz3-l",
            "lineType": "LL",
            "shape_type": "line",
            "points": [
                [
                    1908,
                    727
                ],
                [
                    1874,
                    755
                ]
            ],
            "flags": {},
            "group_id": null
        },
        {
            "label": "wz3-l",
            "lineType": "LL",
            "shape_type": "line",
            "points": [
                [
                    1969,
                    783
                ],
                [
                    1909,
                    805
                ]
            ],
            "flags": {},
            "group_id": null
        },
        {
            "label": "wz1-l",
            "lineType": "LL",
            "shape_type": "line",
            "points": [
                [
                    1983,
                    918
                ],
                [
                    1943,
                    946
                ]
            ],
            "flags": {},
            "group_id": null
        },
        {
            "label": "wz3-l",
            "lineType": "LL",
            "shape_type": "line",
            "points": [
                [
                    1905,
                    1163
                ],
                [
                    1876,
                    1161
                ]
            ],
            "flags": {},
            "group_id": null
        },
        {
            "label": "wz3-l",
            "lineType": "LL",
            "shape_type": "line",
            "points": [
                [
                    1854,
                    1209
                ],
                [
                    1826,
                    1194
                ]
            ],
            "flags": {},
            "group_id": null
        },
        {
            "label": "wz1-l",
            "lineType": "LL",
            "shape_type": "line",
            "points": [
                [
                    1368,
                    1230
                ],
                [
                    1442,
                    1187
                ]
            ],
            "flags": {},
            "group_id": null
        },
        {
            "label": "wz3-l",
            "lineType": "LL",
            "shape_type": "line",
            "points": [
                [
                    1341,
                    1130
                ],
                [
                    1391,
                    1142
                ]
            ],
            "flags": {},
            "group_id": null
        },
        {
            "label": "wz3-l",
            "lineType": "LL",
            "shape_type": "line",
            "points": [
                [
                    1317,
                    786
                ],
                [
                    1373,
                    779
                ]
            ],
            "flags": {},
            "group_id": null
        },
        {
            "label": "wz1-l",
            "lineType": "LL",
            "shape_type": "line",
            "points": [
                [
                    1319,
                    709
                ],
                [
                    1397,
                    735
                ]
            ],
            "flags": {},
            "group_id": null
        },
        {
            "label": "wz3",
            "shape_type": "rectangle",
            "points": [
                [
                    1598,
                    1296
                ],
                [
                    1776,
                    1327
                ]
            ],
            "flags": {},
            "group_id": null
        },
        {
            "label": "wz3",
            "shape_type": "rectangle",
            "points": [
                [
                    1853,
                    1376
                ],
                [
                    1898,
                    1409
                ]
            ],
            "flags": {},
            "group_id": null
        },
        {
            "label": "wz3",
            "shape_type": "rectangle",
            "points": [
                [
                    1280,
                    1340
                ],
                [
                    1326,
                    1374
                ]
            ],
            "flags": {},
            "group_id": null
        },
        {
            "label": "wz3",
            "shape_type": "rectangle",
            "points": [
                [
                    1219,
                    1724
                ],
                [
                    1397,
                    1756
                ]
            ],
            "flags": {},
            "group_id": null
        },
        {
            "label": "wz3",
            "shape_type": "rectangle",
            "points": [
                [
                    1435,
                    1885
                ],
                [
                    1479,
                    1918
                ]
            ],
            "flags": {},
            "group_id": null
        },
        {
            "label": "wz3",
            "shape_type": "rectangle",
            "points": [
                [
                    1791,
                    1791
                ],
                [
                    1967,
                    1822
                ]
            ],
            "flags": {},
            "group_id": null
        },
        {
            "label": "wz3-l",
            "lineType": "LL",
            "shape_type": "line",
            "points": [
                [
                    1811,
                    1804
                ],
                [
                    1800,
                    1778
                ]
            ],
            "flags": {},
            "group_id": null
        },
        {
            "label": "wz3-l",
            "lineType": "LL",
            "shape_type": "line",
            "points": [
                [
                    1467,
                    1898
                ],
                [
                    1534,
                    1901
                ]
            ],
            "flags": {},
            "group_id": null
        },
        {
            "label": "wz3-l",
            "lineType": "LL",
            "shape_type": "line",
            "points": [
                [
                    1289,
                    1747
                ],
                [
                    1302,
                    1711
                ]
            ],
            "flags": {},
            "group_id": null
        },
        {
            "label": "wz3-l",
            "lineType": "LL",
            "shape_type": "line",
            "points": [
                [
                    1312,
                    1363
                ],
                [
                    1319,
                    1404
                ]
            ],
            "flags": {},
            "group_id": null
        },
        {
            "label": "wz3-l",
            "lineType": "LL",
            "shape_type": "line",
            "points": [
                [
                    1626,
                    1310
                ],
                [
                    1571,
                    1312
                ]
            ],
            "flags": {},
            "group_id": null
        },
        {
            "label": "wz3-l",
            "lineType": "LL",
            "shape_type": "line",
            "points": [
                [
                    1863,
                    1394
                ],
                [
                    1834,
                    1423
                ]
            ],
            "flags": {},
            "group_id": null
        }
    ],
    "flags": {},
    "imageData": null,
    "version": "4.5.7"
}