{
    "imageHeight": 2908,
    "imageWidth": 4205,
    "imagePath": "样本5_61_42.png",
    "shapes": [
        {
            "label": "t1",
            "shape_type": "rectangle",
            "points": [
                [
                    3448,
                    326
                ],
                [
                    3632,
                    2361
                ]
            ],
            "flags": {},
            "group_id": null
        },
        {
            "label": "c1",
            "shape_type": "rectangle",
            "points": [
                [
                    3538,
                    326
                ],
                [
                    3542,
                    486
                ]
            ],
            "flags": {},
            "group_id": null
        },
        {
            "label": "d1",
            "shape_type": "rectangle",
            "points": [
                [
                    3350,
                    443
                ],
                [
                    3433,
                    581
                ]
            ],
            "flags": {},
            "group_id": null
        },
        {
            "label": "d1",
            "shape_type": "rectangle",
            "points": [
                [
                    3663,
                    443
                ],
                [
                    3747,
                    581
                ]
            ],
            "flags": {},
            "group_id": null
        },
        {
            "label": "h1",
            "shape_type": "rectangle",
            "points": [
                [
                    3845,
                    425
                ],
                [
                    3977,
                    487
                ]
            ],
            "flags": {},
            "group_id": null
        },
        {
            "label": "h1",
            "shape_type": "rectangle",
            "points": [
                [
                    3844,
                    570
                ],
                [
                    3976,
                    632
                ]
            ],
            "flags": {},
            "group_id": null
        },
        {
            "label": "d1",
            "shape_type": "rectangle",
            "points": [
                [
                    3664,
                    672
                ],
                [
                    3749,
                    810
                ]
            ],
            "flags": {},
            "group_id": null
        },
        {
            "label": "h1",
            "shape_type": "rectangle",
            "points": [
                [
                    3844,
                    781
                ],
                [
                    3976,
                    843
                ]
            ],
            "flags": {},
            "group_id": null
        },
        {
            "label": "d1",
            "shape_type": "rectangle",
            "points": [
                [
                    3683,
                    906
                ],
                [
                    3768,
                    1043
                ]
            ],
            "flags": {},
            "group_id": null
        },
        {
            "label": "h1",
            "shape_type": "rectangle",
            "points": [
                [
                    3839,
                    1016
                ],
                [
                    3971,
                    1078
                ]
            ],
            "flags": {},
            "group_id": null
        },
        {
            "label": "d1",
            "shape_type": "rectangle",
            "points": [
                [
                    3322,
                    906
                ],
                [
                    3406,
                    1043
                ]
            ],
            "flags": {},
            "group_id": null
        },
        {
            "label": "a1-1",
            "shape_type": "rectangle",
            "points": [
                [
                    3452,
                    969
                ],
                [
                    3480,
                    1073
                ]
            ],
            "flags": {},
            "group_id": null
        },
        {
            "label": "g1",
            "shape_type": "rectangle",
            "points": [
                [
                    3480,
                    950
                ],
                [
                    3483,
                    1098
                ]
            ],
            "flags": {},
            "group_id": null
        },
        {
            "label": "g1",
            "shape_type": "rectangle",
            "points": [
                [
                    3596,
                    950
                ],
                [
                    3600,
                    1098
                ]
            ],
            "flags": {},
            "group_id": null
        },
        {
            "label": "a1-2",
            "shape_type": "rectangle",
            "points": [
                [
                    3600,
                    969
                ],
                [
                    3627,
                    1073
                ]
            ],
            "flags": {},
            "group_id": null
        },
        {
            "label": "p1-1",
            "shape_type": "rectangle",
            "points": [
                [
                    3452,
                    950
                ],
                [
                    3628,
                    1099
                ]
            ],
            "flags": {},
            "group_id": null
        },
        {
            "label": "a1-1",
            "shape_type": "rectangle",
            "points": [
                [
                    3451,
                    736
                ],
                [
                    3480,
                    841
                ]
            ],
            "flags": {},
            "group_id": null
        },
        {
            "label": "g1",
            "shape_type": "rectangle",
            "points": [
                [
                    3480,
                    716
                ],
                [
                    3483,
                    864
                ]
            ],
            "flags": {},
            "group_id": null
        },
        {
            "label": "g1",
            "shape_type": "rectangle",
            "points": [
                [
                    3596,
                    716
                ],
                [
                    3600,
                    865
                ]
            ],
            "flags": {},
            "group_id": null
        },
        {
            "label": "a1-2",
            "shape_type": "rectangle",
            "points": [
                [
                    3600,
                    737
                ],
                [
                    3629,
                    841
                ]
            ],
            "flags": {},
            "group_id": null
        },
        {
            "label": "p1-1",
            "shape_type": "rectangle",
            "points": [
                [
                    3451,
                    716
                ],
                [
                    3629,
                    865
                ]
            ],
            "flags": {},
            "group_id": null
        },
        {
            "label": "d1",
            "shape_type": "rectangle",
            "points": [
                [
                    3337,
                    673
                ],
                [
                    3420,
                    811
                ]
            ],
            "flags": {},
            "group_id": null
        },
        {
            "label": "a1-1",
            "shape_type": "rectangle",
            "points": [
                [
                    3453,
                    534
                ],
                [
                    3480,
                    640
                ]
            ],
            "flags": {},
            "group_id": null
        },
        {
            "label": "g1",
            "shape_type": "rectangle",
            "points": [
                [
                    3480,
                    510
                ],
                [
                    3483,
                    659
                ]
            ],
            "flags": {},
            "group_id": null
        },
        {
            "label": "g1",
            "shape_type": "rectangle",
            "points": [
                [
                    3596,
                    510
                ],
                [
                    3600,
                    659
                ]
            ],
            "flags": {},
            "group_id": null
        },
        {
            "label": "a1-2",
            "shape_type": "rectangle",
            "points": [
                [
                    3600,
                    535
                ],
                [
                    3628,
                    639
                ]
            ],
            "flags": {},
            "group_id": null
        },
        {
            "label": "p1-1",
            "shape_type": "rectangle",
            "points": [
                [
                    3453,
                    509
                ],
                [
                    3628,
                    660
                ]
            ],
            "flags": {},
            "group_id": null
        },
        {
            "label": "x1",
            "shape_type": "rectangle",
            "points": [
                [
                    3383,
                    1607
                ],
                [
                    3669,
                    1656
                ]
            ],
            "flags": {},
            "group_id": null
        },
        {
            "label": "h1",
            "shape_type": "rectangle",
            "points": [
                [
                    3844,
                    2296
                ],
                [
                    3976,
                    2362
                ]
            ],
            "flags": {},
            "group_id": null
        },
        {
            "label": "v1",
            "shape_type": "rectangle",
            "points": [
                [
                    3152,
                    2421
                ],
                [
                    3484,
                    2514
                ]
            ],
            "flags": {},
            "group_id": null
        },
        {
            "label": "b1",
            "shape_type": "rectangle",
            "points": [
                [
                    2868,
                    2076
                ],
                [
                    3190,
                    2361
                ]
            ],
            "flags": {},
            "group_id": null
        },
        {
            "label": "seven",
            "shape_type": "point",
            "points": [
                [
                    2869,
                    2077
                ]
            ],
            "flags": {},
            "group_id": null
        },
        {
            "label": "eleven",
            "shape_type": "point",
            "points": [
                [
                    2869,
                    2087
                ]
            ],
            "flags": {},
            "group_id": null
        },
        {
            "label": "thirteen",
            "shape_type": "point",
            "points": [
                [
                    2976,
                    2076
                ]
            ],
            "flags": {},
            "group_id": null
        },
        {
            "label": "thirteen",
            "shape_type": "point",
            "points": [
                [
                    3083,
                    2076
                ]
            ],
            "flags": {},
            "group_id": null
        },
        {
            "label": "eight",
            "shape_type": "point",
            "points": [
                [
                    3190,
                    2077
                ]
            ],
            "flags": {},
            "group_id": null
        },
        {
            "label": "twelve",
            "shape_type": "point",
            "points": [
                [
                    3190,
                    2087
                ]
            ],
            "flags": {},
            "group_id": null
        },
        {
            "label": "twelve",
            "shape_type": "point",
            "points": [
                [
                    3190,
                    2299
                ]
            ],
            "flags": {},
            "group_id": null
        },
        {
            "label": "twelve",
            "shape_type": "point",
            "points": [
                [
                    3190,
                    2308
                ]
            ],
            "flags": {},
            "group_id": null
        },
        {
            "label": "twelve",
            "shape_type": "point",
            "points": [
                [
                    3190,
                    2324
                ]
            ],
            "flags": {},
            "group_id": null
        },
        {
            "label": "fourteen",
            "shape_type": "point",
            "points": [
                [
                    3190,
                    2361
                ]
            ],
            "flags": {},
            "group_id": null
        },
        {
            "label": "fifteen",
            "shape_type": "point",
            "points": [
                [
                    3083,
                    2307
                ]
            ],
            "flags": {},
            "group_id": null
        },
        {
            "label": "fourteen",
            "shape_type": "point",
            "points": [
                [
                    3083,
                    2324
                ]
            ],
            "flags": {},
            "group_id": null
        },
        {
            "label": "fifteen",
            "shape_type": "point",
            "points": [
                [
                    2976,
                    2307
                ]
            ],
            "flags": {},
            "group_id": null
        },
        {
            "label": "fourteen",
            "shape_type": "point",
            "points": [
                [
                    2976,
                    2324
                ]
            ],
            "flags": {},
            "group_id": null
        },
        {
            "label": "eleven",
            "shape_type": "point",
            "points": [
                [
                    2869,
                    2307
                ]
            ],
            "flags": {},
            "group_id": null
        },
        {
            "label": "eleven",
            "shape_type": "point",
            "points": [
                [
                    2869,
                    2324
                ]
            ],
            "flags": {},
            "group_id": null
        },
        {
            "label": "fourteen",
            "shape_type": "point",
            "points": [
                [
                    2869,
                    2361
                ]
            ],
            "flags": {},
            "group_id": null
        },
        {
            "label": "eleven",
            "shape_type": "point",
            "points": [
                [
                    2869,
                    2299
                ]
            ],
            "flags": {},
            "group_id": null
        },
        {
            "label": "v1",
            "shape_type": "rectangle",
            "points": [
                [
                    2219,
                    2172
                ],
                [
                    2552,
                    2265
                ]
            ],
            "flags": {},
            "group_id": null
        },
        {
            "label": "va1",
            "shape_type": "rectangle",
            "points": [
                [
                    2502,
                    2111
                ],
                [
                    2543,
                    2148
                ]
            ],
            "flags": {},
            "group_id": null
        },
        {
            "label": "va1",
            "shape_type": "rectangle",
            "points": [
                [
                    2371,
                    1864
                ],
                [
                    2410,
                    1907
                ]
            ],
            "flags": {},
            "group_id": null
        },
        {
            "label": "va1",
            "shape_type": "rectangle",
            "points": [
                [
                    2223,
                    2101
                ],
                [
                    2259,
                    2145
                ]
            ],
            "flags": {},
            "group_id": null
        },
        {
            "label": "vp1-1",
            "shape_type": "rectangle",
            "points": [
                [
                    2300,
                    1961
                ],
                [
                    2466,
                    2128
                ]
            ],
            "flags": {},
            "group_id": null
        },
        {
            "label": "v1",
            "shape_type": "rectangle",
            "points": [
                [
                    2221,
                    1401
                ],
                [
                    2551,
                    1493
                ]
            ],
            "flags": {},
            "group_id": null
        },
        {
            "label": "va1",
            "shape_type": "rectangle",
            "points": [
                [
                    2497,
                    1339
                ],
                [
                    2540,
                    1374
                ]
            ],
            "flags": {},
            "group_id": null
        },
        {
            "label": "va1",
            "shape_type": "rectangle",
            "points": [
                [
                    2224,
                    1322
                ],
                [
                    2260,
                    1365
                ]
            ],
            "flags": {},
            "group_id": null
        },
        {
            "label": "va1",
            "shape_type": "rectangle",
            "points": [
                [
                    2371,
                    1091
                ],
                [
                    2413,
                    1134
                ]
            ],
            "flags": {},
            "group_id": null
        },
        {
            "label": "vp1-1",
            "shape_type": "rectangle",
            "points": [
                [
                    2299,
                    1189
                ],
                [
                    2465,
                    1356
                ]
            ],
            "flags": {},
            "group_id": null
        },
        {
            "label": "v1",
            "shape_type": "rectangle",
            "points": [
                [
                    2219,
                    619
                ],
                [
                    2551,
                    712
                ]
            ],
            "flags": {},
            "group_id": null
        },
        {
            "label": "va1",
            "shape_type": "rectangle",
            "points": [
                [
                    2496,
                    558
                ],
                [
                    2540,
                    593
                ]
            ],
            "flags": {},
            "group_id": null
        },
        {
            "label": "va1",
            "shape_type": "rectangle",
            "points": [
                [
                    2224,
                    540
                ],
                [
                    2259,
                    583
                ]
            ],
            "flags": {},
            "group_id": null
        },
        {
            "label": "va1",
            "shape_type": "rectangle",
            "points": [
                [
                    2372,
                    311
                ],
                [
                    2413,
                    353
                ]
            ],
            "flags": {},
            "group_id": null
        },
        {
            "label": "vp1-1",
            "shape_type": "rectangle",
            "points": [
                [
                    2298,
                    408
                ],
                [
                    2465,
                    573
                ]
            ],
            "flags": {},
            "group_id": null
        },
        {
            "label": "v1",
            "shape_type": "rectangle",
            "points": [
                [
                    1513,
                    781
                ],
                [
                    1730,
                    854
                ]
            ],
            "flags": {},
            "group_id": null
        },
        {
            "label": "d1",
            "shape_type": "rectangle",
            "points": [
                [
                    1450,
                    672
                ],
                [
                    1589,
                    757
                ]
            ],
            "flags": {},
            "group_id": null
        },
        {
            "label": "vt1",
            "shape_type": "rectangle",
            "points": [
                [
                    1564,
                    569
                ],
                [
                    1728,
                    733
                ]
            ],
            "flags": {},
            "group_id": null
        },
        {
            "label": "vb1",
            "shape_type": "rectangle",
            "points": [
                [
                    1584,
                    147
                ],
                [
                    1708,
                    459
                ]
            ],
            "flags": {},
            "group_id": null
        },
        {
            "label": "n1",
            "shape_type": "rectangle",
            "points": [
                [
                    563,
                    91
                ],
                [
                    941,
                    518
                ]
            ],
            "flags": {},
            "group_id": null
        },
        {
            "label": "d1",
            "shape_type": "rectangle",
            "points": [
                [
                    1450,
                    98
                ],
                [
                    1589,
                    183
                ]
            ],
            "flags": {},
            "group_id": null
        },
        {
            "label": "seven",
            "shape_type": "point",
            "points": [
                [
                    1584,
                    147
                ]
            ],
            "flags": {},
            "group_id": null
        },
        {
            "label": "eight",
            "shape_type": "point",
            "points": [
                [
                    1707,
                    148
                ]
            ],
            "flags": {},
            "group_id": null
        },
        {
            "label": "seven",
            "shape_type": "point",
            "points": [
                [
                    1601,
                    168
                ]
            ],
            "flags": {},
            "group_id": null
        },
        {
            "label": "eight",
            "shape_type": "point",
            "points": [
                [
                    1691,
                    168
                ]
            ],
            "flags": {},
            "group_id": null
        },
        {
            "label": "thirteen",
            "shape_type": "point",
            "points": [
                [
                    1611,
                    168
                ]
            ],
            "flags": {},
            "group_id": null
        },
        {
            "label": "eleven",
            "shape_type": "point",
            "points": [
                [
                    1600,
                    258
                ]
            ],
            "flags": {},
            "group_id": null
        },
        {
            "label": "fifteen",
            "shape_type": "point",
            "points": [
                [
                    1611,
                    258
                ]
            ],
            "flags": {},
            "group_id": null
        },
        {
            "label": "twelve",
            "shape_type": "point",
            "points": [
                [
                    1691,
                    259
                ]
            ],
            "flags": {},
            "group_id": null
        },
        {
            "label": "eleven",
            "shape_type": "point",
            "points": [
                [
                    1600,
                    348
                ]
            ],
            "flags": {},
            "group_id": null
        },
        {
            "label": "fifteen",
            "shape_type": "point",
            "points": [
                [
                    1611,
                    348
                ]
            ],
            "flags": {},
            "group_id": null
        },
        {
            "label": "twelve",
            "shape_type": "point",
            "points": [
                [
                    1691,
                    348
                ]
            ],
            "flags": {},
            "group_id": null
        },
        {
            "label": "nine",
            "shape_type": "point",
            "points": [
                [
                    1600,
                    438
                ]
            ],
            "flags": {},
            "group_id": null
        },
        {
            "label": "fourteen",
            "shape_type": "point",
            "points": [
                [
                    1611,
                    438
                ]
            ],
            "flags": {},
            "group_id": null
        },
        {
            "label": "ten",
            "shape_type": "point",
            "points": [
                [
                    1691,
                    438
                ]
            ],
            "flags": {},
            "group_id": null
        },
        {
            "label": "nine",
            "shape_type": "point",
            "points": [
                [
                    1583,
                    459
                ]
            ],
            "flags": {},
            "group_id": null
        },
        {
            "label": "ten",
            "shape_type": "point",
            "points": [
                [
                    1708,
                    459
                ]
            ],
            "flags": {},
            "group_id": null
        },
        {
            "label": "btl",
            "shape_type": "rectangle",
            "points": [
                [
                    2345,
                    2566
                ],
                [
                    4154,
                    2873
                ]
            ],
            "flags": {},
            "group_id": null
        },
        {
            "label": "sm",
            "shape_type": "rectangle",
            "points": [
                [
                    392,
                    696
                ],
                [
                    1776,
                    1413
                ]
            ],
            "flags": {},
            "group_id": null
        },
        {
            "label": "j1",
            "shape_type": "rectangle",
            "points": [
                [
                    830,
                    407
                ],
                [
                    940,
                    492
                ]
            ],
            "flags": {},
            "group_id": null
        },
        {
            "label": "j1",
            "shape_type": "rectangle",
            "points": [
                [
                    848,
                    202
                ],
                [
                    940,
                    280
                ]
            ],
            "flags": {},
            "group_id": null
        },
        {
            "label": "j1",
            "shape_type": "rectangle",
            "points": [
                [
                    565,
                    285
                ],
                [
                    675,
                    372
                ]
            ],
            "flags": {},
            "group_id": null
        },
        {
            "label": "j1",
            "shape_type": "rectangle",
            "points": [
                [
                    714,
                    92
                ],
                [
                    746,
                    135
                ]
            ],
            "flags": {},
            "group_id": null
        },
        {
            "label": "mask",
            "lineType": [
                "LLLLLLLLLLLLLLLLLLLL"
            ],
            "shape_type": "polygon",
            "points": [
                [
                    879,
                    606
                ],
                [
                    933,
                    566
                ],
                [
                    972,
                    491
                ],
                [
                    977,
                    335
                ],
                [
                    977,
                    209
                ],
                [
                    954,
                    189
                ],
                [
                    907,
                    118
                ],
                [
                    850,
                    86
                ],
                [
                    759,
                    72
                ],
                [
                    712,
                    74
                ],
                [
                    687,
                    112
                ],
                [
                    673,
                    185
                ],
                [
                    655,
                    229
                ],
                [
                    630,
                    252
                ],
                [
                    583,
                    265
                ],
                [
                    545,
                    345
                ],
                [
                    549,
                    398
                ],
                [
                    574,
                    528
                ],
                [
                    594,
                    596
                ],
                [
                    879,
                    606
                ]
            ],
            "flags": {},
            "group_id": null
        },
        {
            "label": "mask",
            "lineType": [
                "LLLLLLLLLLLLLLLLLLLLLLLLLLL"
            ],
            "shape_type": "polygon",
            "points": [
                [
                    382,
                    685
                ],
                [
                    680,
                    682
                ],
                [
                    764,
                    696
                ],
                [
                    778,
                    755
                ],
                [
                    1306,
                    750
                ],
                [
                    1361,
                    760
                ],
                [
                    1365,
                    836
                ],
                [
                    1255,
                    865
                ],
                [
                    1158,
                    845
                ],
                [
                    1169,
                    985
                ],
                [
                    1593,
                    971
                ],
                [
                    1621,
                    995
                ],
                [
                    1621,
                    1045
                ],
                [
                    1615,
                    1061
                ],
                [
                    1359,
                    1068
                ],
                [
                    1466,
                    1188
                ],
                [
                    1662,
                    1232
                ],
                [
                    1766,
                    1288
                ],
                [
                    1788,
                    1358
                ],
                [
                    1788,
                    1406
                ],
                [
                    1735,
                    1415
                ],
                [
                    854,
                    1417
                ],
                [
                    439,
                    1413
                ],
                [
                    432,
                    1375
                ],
                [
                    425,
                    1065
                ],
                [
                    395,
                    789
                ],
                [
                    382,
                    685
                ]
            ],
            "flags": {},
            "group_id": null
        },
        {
            "label": "mask",
            "lineType": [
                "LLLLLLLLLL"
            ],
            "shape_type": "polygon",
            "points": [
                [
                    462,
                    1518
                ],
                [
                    1007,
                    1525
                ],
                [
                    1012,
                    1471
                ],
                [
                    1328,
                    1470
                ],
                [
                    1332,
                    1525
                ],
                [
                    1872,
                    1532
                ],
                [
                    1870,
                    2812
                ],
                [
                    469,
                    2811
                ],
                [
                    462,
                    1607
                ],
                [
                    462,
                    1518
                ]
            ],
            "flags": {},
            "group_id": null
        },
        {
            "label": "mask",
            "lineType": [
                "LLLLLLLLLLLLLLLLLLLLLLLLLL"
            ],
            "shape_type": "polygon",
            "points": [
                [
                    2307,
                    2304
                ],
                [
                    2425,
                    2304
                ],
                [
                    2557,
                    2295
                ],
                [
                    2595,
                    2261
                ],
                [
                    2609,
                    2181
                ],
                [
                    2659,
                    2142
                ],
                [
                    2691,
                    2120
                ],
                [
                    2701,
                    2088
                ],
                [
                    2704,
                    2053
                ],
                [
                    2699,
                    2022
                ],
                [
                    2671,
                    2000
                ],
                [
                    2519,
                    1986
                ],
                [
                    2472,
                    1945
                ],
                [
                    2455,
                    1867
                ],
                [
                    2472,
                    1777
                ],
                [
                    2460,
                    1758
                ],
                [
                    2385,
                    1747
                ],
                [
                    2292,
                    1761
                ],
                [
                    2279,
                    1812
                ],
                [
                    2282,
                    1927
                ],
                [
                    2047,
                    2020
                ],
                [
                    2041,
                    2069
                ],
                [
                    2048,
                    2120
                ],
                [
                    2091,
                    2168
                ],
                [
                    2170,
                    2302
                ],
                [
                    2307,
                    2304
                ]
            ],
            "flags": {},
            "group_id": null
        },
        {
            "label": "mask",
            "lineType": [
                "LLLLLLLLLLLLLLLLLL"
            ],
            "shape_type": "polygon",
            "points": [
                [
                    2466,
                    1528
                ],
                [
                    2609,
                    1494
                ],
                [
                    2679,
                    1406
                ],
                [
                    2714,
                    1329
                ],
                [
                    2685,
                    1224
                ],
                [
                    2469,
                    1164
                ],
                [
                    2473,
                    1074
                ],
                [
                    2472,
                    1021
                ],
                [
                    2460,
                    992
                ],
                [
                    2411,
                    972
                ],
                [
                    2299,
                    999
                ],
                [
                    2291,
                    1090
                ],
                [
                    2132,
                    1214
                ],
                [
                    2081,
                    1225
                ],
                [
                    2048,
                    1329
                ],
                [
                    2064,
                    1378
                ],
                [
                    2185,
                    1506
                ],
                [
                    2466,
                    1528
                ]
            ],
            "flags": {},
            "group_id": null
        },
        {
            "label": "mask",
            "lineType": [
                "LLLLLLLLLLLLLLLLLLLLLLLLL"
            ],
            "shape_type": "polygon",
            "points": [
                [
                    2529,
                    742
                ],
                [
                    2574,
                    726
                ],
                [
                    2609,
                    620
                ],
                [
                    2659,
                    595
                ],
                [
                    2689,
                    566
                ],
                [
                    2692,
                    538
                ],
                [
                    2695,
                    498
                ],
                [
                    2694,
                    458
                ],
                [
                    2637,
                    405
                ],
                [
                    2495,
                    376
                ],
                [
                    2449,
                    342
                ],
                [
                    2478,
                    272
                ],
                [
                    2469,
                    222
                ],
                [
                    2449,
                    195
                ],
                [
                    2366,
                    192
                ],
                [
                    2325,
                    198
                ],
                [
                    2293,
                    245
                ],
                [
                    2282,
                    333
                ],
                [
                    2238,
                    412
                ],
                [
                    2152,
                    424
                ],
                [
                    2057,
                    430
                ],
                [
                    2060,
                    599
                ],
                [
                    2095,
                    673
                ],
                [
                    2150,
                    725
                ],
                [
                    2529,
                    742
                ]
            ],
            "flags": {},
            "group_id": null
        },
        {
            "label": "mask",
            "lineType": [
                "LLLLLLLLLLLLLL"
            ],
            "shape_type": "polygon",
            "points": [
                [
                    1711,
                    887
                ],
                [
                    1749,
                    883
                ],
                [
                    1753,
                    819
                ],
                [
                    1746,
                    140
                ],
                [
                    1726,
                    105
                ],
                [
                    1657,
                    73
                ],
                [
                    1470,
                    73
                ],
                [
                    1435,
                    145
                ],
                [
                    1491,
                    405
                ],
                [
                    1512,
                    534
                ],
                [
                    1441,
                    674
                ],
                [
                    1429,
                    787
                ],
                [
                    1445,
                    870
                ],
                [
                    1711,
                    887
                ]
            ],
            "flags": {},
            "group_id": null
        },
        {
            "label": "mask",
            "lineType": [
                "LLLLLLLLLLLLLLLLLLLLLLLLLLLLLLLLLLLLLLLLLLLLLL"
            ],
            "shape_type": "polygon",
            "points": [
                [
                    3518,
                    225
                ],
                [
                    3667,
                    220
                ],
                [
                    3711,
                    227
                ],
                [
                    3748,
                    295
                ],
                [
                    3771,
                    393
                ],
                [
                    3947,
                    403
                ],
                [
                    3993,
                    423
                ],
                [
                    4004,
                    715
                ],
                [
                    4003,
                    1098
                ],
                [
                    3665,
                    1205
                ],
                [
                    3706,
                    1432
                ],
                [
                    3738,
                    1760
                ],
                [
                    3854,
                    1790
                ],
                [
                    3871,
                    1821
                ],
                [
                    3877,
                    1891
                ],
                [
                    3687,
                    1896
                ],
                [
                    3641,
                    1914
                ],
                [
                    3639,
                    2115
                ],
                [
                    3654,
                    2290
                ],
                [
                    3980,
                    2278
                ],
                [
                    4034,
                    2319
                ],
                [
                    4036,
                    2406
                ],
                [
                    3964,
                    2422
                ],
                [
                    3517,
                    2424
                ],
                [
                    3510,
                    2501
                ],
                [
                    3503,
                    2531
                ],
                [
                    3175,
                    2532
                ],
                [
                    3044,
                    2523
                ],
                [
                    2989,
                    2433
                ],
                [
                    2816,
                    2432
                ],
                [
                    2675,
                    2417
                ],
                [
                    2669,
                    2315
                ],
                [
                    2836,
                    2143
                ],
                [
                    2859,
                    2063
                ],
                [
                    3298,
                    2054
                ],
                [
                    3436,
                    2053
                ],
                [
                    3456,
                    1699
                ],
                [
                    3381,
                    1685
                ],
                [
                    3360,
                    1653
                ],
                [
                    3363,
                    1595
                ],
                [
                    3458,
                    1243
                ],
                [
                    3426,
                    1142
                ],
                [
                    3086,
                    1094
                ],
                [
                    3110,
                    521
                ],
                [
                    3294,
                    347
                ],
                [
                    3518,
                    225
                ]
            ],
            "flags": {},
            "group_id": null
        },
        {
            "label": "mask",
            "lineType": [
                "LLLLL"
            ],
            "shape_type": "polygon",
            "points": [
                [
                    2344,
                    2565
                ],
                [
                    2347,
                    2875
                ],
                [
                    4151,
                    2878
                ],
                [
                    4151,
                    2565
                ],
                [
                    2344,
                    2565
                ]
            ],
            "flags": {},
            "group_id": null
        },
        {
            "label": "wlb",
            "shape_type": "rectangle",
            "points": [
                [
                    477,
                    1480
                ],
                [
                    1868,
                    2804
                ]
            ],
            "flags": {},
            "group_id": null
        },
        {
            "label": "Ns",
            "shape_type": "point",
            "points": [
                [
                    758,
                    354
                ]
            ],
            "flags": {},
            "group_id": null
        },
        {
            "label": "Ne",
            "shape_type": "point",
            "points": [
                [
                    759,
                    175
                ]
            ],
            "flags": {},
            "group_id": null
        },
        {
            "label": "wz1",
            "shape_type": "rectangle",
            "points": [
                [
                    3663,
                    1810
                ],
                [
                    3857,
                    1863
                ]
            ],
            "flags": {},
            "group_id": null
        },
        {
            "label": "wz1",
            "shape_type": "rectangle",
            "points": [
                [
                    3608,
                    1465
                ],
                [
                    3658,
                    1497
                ]
            ],
            "flags": {},
            "group_id": null
        },
        {
            "label": "wz1-l",
            "lineType": "LL",
            "shape_type": "line",
            "points": [
                [
                    3625,
                    1487
                ],
                [
                    3539,
                    1539
                ]
            ],
            "flags": {},
            "group_id": null
        },
        {
            "label": "wz1-l",
            "lineType": "LL",
            "shape_type": "line",
            "points": [
                [
                    3683,
                    1838
                ],
                [
                    3572,
                    1953
                ]
            ],
            "flags": {},
            "group_id": null
        },
        {
            "label": "wz1",
            "shape_type": "rectangle",
            "points": [
                [
                    3657,
                    992
                ],
                [
                    3689,
                    1019
                ]
            ],
            "flags": {},
            "group_id": null
        },
        {
            "label": "wz3",
            "shape_type": "rectangle",
            "points": [
                [
                    3582,
                    884
                ],
                [
                    3616,
                    910
                ]
            ],
            "flags": {},
            "group_id": null
        },
        {
            "label": "wz3",
            "shape_type": "rectangle",
            "points": [
                [
                    3585,
                    917
                ],
                [
                    3619,
                    946
                ]
            ],
            "flags": {},
            "group_id": null
        },
        {
            "label": "wz3",
            "shape_type": "rectangle",
            "points": [
                [
                    3458,
                    918
                ],
                [
                    3488,
                    944
                ]
            ],
            "flags": {},
            "group_id": null
        },
        {
            "label": "wz3",
            "shape_type": "rectangle",
            "points": [
                [
                    3129,
                    1006
                ],
                [
                    3253,
                    1055
                ]
            ],
            "flags": {},
            "group_id": null
        },
        {
            "label": "wz3",
            "shape_type": "rectangle",
            "points": [
                [
                    3125,
                    778
                ],
                [
                    3186,
                    823
                ]
            ],
            "flags": {},
            "group_id": null
        },
        {
            "label": "wz3",
            "shape_type": "rectangle",
            "points": [
                [
                    3130,
                    536
                ],
                [
                    3190,
                    584
                ]
            ],
            "flags": {},
            "group_id": null
        },
        {
            "label": "wz1",
            "shape_type": "rectangle",
            "points": [
                [
                    3592,
                    243
                ],
                [
                    3691,
                    290
                ]
            ],
            "flags": {},
            "group_id": null
        },
        {
            "label": "wz1-l",
            "lineType": "LL",
            "shape_type": "line",
            "points": [
                [
                    3620,
                    270
                ],
                [
                    3539,
                    343
                ]
            ],
            "flags": {},
            "group_id": null
        },
        {
            "label": "wz3-l",
            "lineType": "LL",
            "shape_type": "line",
            "points": [
                [
                    3172,
                    554
                ],
                [
                    3462,
                    560
                ]
            ],
            "flags": {},
            "group_id": null
        },
        {
            "label": "wz3-l",
            "lineType": "LL",
            "shape_type": "line",
            "points": [
                [
                    3166,
                    796
                ],
                [
                    3466,
                    781
                ]
            ],
            "flags": {},
            "group_id": null
        },
        {
            "label": "wz3-l",
            "lineType": "LL",
            "shape_type": "line",
            "points": [
                [
                    3240,
                    1022
                ],
                [
                    3467,
                    1001
                ]
            ],
            "flags": {},
            "group_id": null
        },
        {
            "label": "wz3-l",
            "lineType": "LL",
            "shape_type": "line",
            "points": [
                [
                    3472,
                    940
                ],
                [
                    3461,
                    979
                ]
            ],
            "flags": {},
            "group_id": null
        },
        {
            "label": "wz3-l",
            "lineType": "LL",
            "shape_type": "line",
            "points": [
                [
                    3603,
                    936
                ],
                [
                    3615,
                    985
                ]
            ],
            "flags": {},
            "group_id": null
        },
        {
            "label": "wz3-l",
            "lineType": "LL",
            "shape_type": "line",
            "points": [
                [
                    3597,
                    902
                ],
                [
                    3599,
                    978
                ]
            ],
            "flags": {},
            "group_id": null
        },
        {
            "label": "wz1-l",
            "lineType": "LL",
            "shape_type": "line",
            "points": [
                [
                    3674,
                    1012
                ],
                [
                    3615,
                    1050
                ]
            ],
            "flags": {},
            "group_id": null
        },
        {
            "label": "wz3",
            "shape_type": "rectangle",
            "points": [
                [
                    2533,
                    2018
                ],
                [
                    2691,
                    2118
                ]
            ],
            "flags": {},
            "group_id": null
        },
        {
            "label": "wz3",
            "shape_type": "rectangle",
            "points": [
                [
                    2309,
                    1775
                ],
                [
                    2458,
                    1859
                ]
            ],
            "flags": {},
            "group_id": null
        },
        {
            "label": "wz3",
            "shape_type": "rectangle",
            "points": [
                [
                    2066,
                    2020
                ],
                [
                    2223,
                    2116
                ]
            ],
            "flags": {},
            "group_id": null
        },
        {
            "label": "wz3-l",
            "lineType": "LL",
            "shape_type": "line",
            "points": [
                [
                    2163,
                    2057
                ],
                [
                    2232,
                    2115
                ]
            ],
            "flags": {},
            "group_id": null
        },
        {
            "label": "wz3-l",
            "lineType": "LL",
            "shape_type": "line",
            "points": [
                [
                    2546,
                    2082
                ],
                [
                    2526,
                    2134
                ]
            ],
            "flags": {},
            "group_id": null
        },
        {
            "label": "wz3-l",
            "lineType": "LL",
            "shape_type": "line",
            "points": [
                [
                    2376,
                    1829
                ],
                [
                    2401,
                    1891
                ]
            ],
            "flags": {},
            "group_id": null
        },
        {
            "label": "wz3",
            "shape_type": "rectangle",
            "points": [
                [
                    2540,
                    1241
                ],
                [
                    2689,
                    1345
                ]
            ],
            "flags": {},
            "group_id": null
        },
        {
            "label": "wz3",
            "shape_type": "rectangle",
            "points": [
                [
                    2319,
                    991
                ],
                [
                    2449,
                    1088
                ]
            ],
            "flags": {},
            "group_id": null
        },
        {
            "label": "wz3",
            "shape_type": "rectangle",
            "points": [
                [
                    2070,
                    1240
                ],
                [
                    2223,
                    1341
                ]
            ],
            "flags": {},
            "group_id": null
        },
        {
            "label": "wz3-l",
            "lineType": "LL",
            "shape_type": "line",
            "points": [
                [
                    2190,
                    1288
                ],
                [
                    2239,
                    1338
                ]
            ],
            "flags": {},
            "group_id": null
        },
        {
            "label": "wz3-l",
            "lineType": "LL",
            "shape_type": "line",
            "points": [
                [
                    2524,
                    1361
                ],
                [
                    2560,
                    1311
                ]
            ],
            "flags": {},
            "group_id": null
        },
        {
            "label": "wz3-l",
            "lineType": "LL",
            "shape_type": "line",
            "points": [
                [
                    2380,
                    1065
                ],
                [
                    2395,
                    1107
                ]
            ],
            "flags": {},
            "group_id": null
        },
        {
            "label": "wz3",
            "shape_type": "rectangle",
            "points": [
                [
                    656,
                    536
                ],
                [
                    874,
                    592
                ]
            ],
            "flags": {},
            "group_id": null
        },
        {
            "label": "wz3-l",
            "lineType": "LL",
            "shape_type": "line",
            "points": [
                [
                    746,
                    551
                ],
                [
                    758,
                    355
                ]
            ],
            "flags": {},
            "group_id": null
        },
        {
            "label": "wz3",
            "shape_type": "rectangle",
            "points": [
                [
                    2070,
                    455
                ],
                [
                    2223,
                    561
                ]
            ],
            "flags": {},
            "group_id": null
        },
        {
            "label": "wz3",
            "shape_type": "rectangle",
            "points": [
                [
                    2540,
                    456
                ],
                [
                    2689,
                    564
                ]
            ],
            "flags": {},
            "group_id": null
        },
        {
            "label": "wz3",
            "shape_type": "rectangle",
            "points": [
                [
                    2316,
                    211
                ],
                [
                    2446,
                    311
                ]
            ],
            "flags": {},
            "group_id": null
        },
        {
            "label": "wz3-l",
            "lineType": "LL",
            "shape_type": "line",
            "points": [
                [
                    2399,
                    259
                ],
                [
                    2398,
                    326
                ]
            ],
            "flags": {},
            "group_id": null
        },
        {
            "label": "wz3-l",
            "lineType": "LL",
            "shape_type": "line",
            "points": [
                [
                    2194,
                    513
                ],
                [
                    2242,
                    556
                ]
            ],
            "flags": {},
            "group_id": null
        },
        {
            "label": "wz3-l",
            "lineType": "LL",
            "shape_type": "line",
            "points": [
                [
                    2559,
                    526
                ],
                [
                    2525,
                    579
                ]
            ],
            "flags": {},
            "group_id": null
        }
    ],
    "flags": {},
    "imageData": null,
    "version": "4.5.7"
}