{
    "imageHeight": 2908,
    "imageWidth": 4205,
    "imagePath": "样本3_134_57.png",
    "shapes": [
        {
            "label": "h1",
            "shape_type": "rectangle",
            "points": [
                [
                    2507,
                    148
                ],
                [
                    2685,
                    224
                ]
            ],
            "flags": {},
            "group_id": null
        },
        {
            "label": "h1",
            "shape_type": "rectangle",
            "points": [
                [
                    2508,
                    395
                ],
                [
                    2688,
                    471
                ]
            ],
            "flags": {},
            "group_id": null
        },
        {
            "label": "h1",
            "shape_type": "rectangle",
            "points": [
                [
                    2460,
                    2016
                ],
                [
                    2591,
                    2081
                ]
            ],
            "flags": {},
            "group_id": null
        },
        {
            "label": "d1",
            "shape_type": "rectangle",
            "points": [
                [
                    2729,
                    209
                ],
                [
                    2812,
                    347
                ]
            ],
            "flags": {},
            "group_id": null
        },
        {
            "label": "d1",
            "shape_type": "rectangle",
            "points": [
                [
                    3002,
                    209
                ],
                [
                    3086,
                    347
                ]
            ],
            "flags": {},
            "group_id": null
        },
        {
            "label": "c1",
            "shape_type": "rectangle",
            "points": [
                [
                    2910,
                    67
                ],
                [
                    2913,
                    248
                ]
            ],
            "flags": {},
            "group_id": null
        },
        {
            "label": "a1-1",
            "shape_type": "rectangle",
            "points": [
                [
                    2803,
                    300
                ],
                [
                    2833,
                    430
                ]
            ],
            "flags": {},
            "group_id": null
        },
        {
            "label": "a1-2",
            "shape_type": "rectangle",
            "points": [
                [
                    2985,
                    295
                ],
                [
                    3016,
                    432
                ]
            ],
            "flags": {},
            "group_id": null
        },
        {
            "label": "g1",
            "shape_type": "rectangle",
            "points": [
                [
                    2838,
                    289
                ],
                [
                    2843,
                    442
                ]
            ],
            "flags": {},
            "group_id": null
        },
        {
            "label": "g1",
            "shape_type": "rectangle",
            "points": [
                [
                    2978,
                    289
                ],
                [
                    2983,
                    442
                ]
            ],
            "flags": {},
            "group_id": null
        },
        {
            "label": "p1-1",
            "shape_type": "rectangle",
            "points": [
                [
                    2802,
                    288
                ],
                [
                    3016,
                    442
                ]
            ],
            "flags": {},
            "group_id": null
        },
        {
            "label": "g1",
            "shape_type": "rectangle",
            "points": [
                [
                    2838,
                    490
                ],
                [
                    2843,
                    649
                ]
            ],
            "flags": {},
            "group_id": null
        },
        {
            "label": "g1",
            "shape_type": "rectangle",
            "points": [
                [
                    2978,
                    491
                ],
                [
                    2982,
                    649
                ]
            ],
            "flags": {},
            "group_id": null
        },
        {
            "label": "g1",
            "shape_type": "rectangle",
            "points": [
                [
                    2839,
                    717
                ],
                [
                    2843,
                    887
                ]
            ],
            "flags": {},
            "group_id": null
        },
        {
            "label": "g1",
            "shape_type": "rectangle",
            "points": [
                [
                    2978,
                    715
                ],
                [
                    2982,
                    888
                ]
            ],
            "flags": {},
            "group_id": null
        },
        {
            "label": "x1",
            "shape_type": "rectangle",
            "points": [
                [
                    2829,
                    1192
                ],
                [
                    2995,
                    1245
                ]
            ],
            "flags": {},
            "group_id": null
        },
        {
            "label": "seven",
            "shape_type": "point",
            "points": [
                [
                    3035,
                    1726
                ]
            ],
            "flags": {},
            "group_id": null
        },
        {
            "label": "eight",
            "shape_type": "point",
            "points": [
                [
                    3053,
                    1726
                ]
            ],
            "flags": {},
            "group_id": null
        },
        {
            "label": "eleven",
            "shape_type": "point",
            "points": [
                [
                    3053,
                    1731
                ]
            ],
            "flags": {},
            "group_id": null
        },
        {
            "label": "fifteen",
            "shape_type": "point",
            "points": [
                [
                    3053,
                    1737
                ]
            ],
            "flags": {},
            "group_id": null
        },
        {
            "label": "eleven",
            "shape_type": "point",
            "points": [
                [
                    3035,
                    1737
                ]
            ],
            "flags": {},
            "group_id": null
        },
        {
            "label": "twentytwo",
            "shape_type": "point",
            "points": [
                [
                    3036,
                    1776
                ]
            ],
            "flags": {},
            "group_id": null
        },
        {
            "label": "twentythere",
            "shape_type": "point",
            "points": [
                [
                    3053,
                    1817
                ]
            ],
            "flags": {},
            "group_id": null
        },
        {
            "label": "twelve",
            "shape_type": "point",
            "points": [
                [
                    3053,
                    1776
                ]
            ],
            "flags": {},
            "group_id": null
        },
        {
            "label": "eleven",
            "shape_type": "point",
            "points": [
                [
                    3036,
                    1817
                ]
            ],
            "flags": {},
            "group_id": null
        },
        {
            "label": "seven",
            "shape_type": "point",
            "points": [
                [
                    3574,
                    1726
                ]
            ],
            "flags": {},
            "group_id": null
        },
        {
            "label": "eight",
            "shape_type": "point",
            "points": [
                [
                    3591,
                    1726
                ]
            ],
            "flags": {},
            "group_id": null
        },
        {
            "label": "twelve",
            "shape_type": "point",
            "points": [
                [
                    3574,
                    1731
                ]
            ],
            "flags": {},
            "group_id": null
        },
        {
            "label": "fifteen",
            "shape_type": "point",
            "points": [
                [
                    3574,
                    1737
                ]
            ],
            "flags": {},
            "group_id": null
        },
        {
            "label": "twelve",
            "shape_type": "point",
            "points": [
                [
                    3591,
                    1737
                ]
            ],
            "flags": {},
            "group_id": null
        },
        {
            "label": "fourteen",
            "shape_type": "point",
            "points": [
                [
                    3591,
                    2023
                ]
            ],
            "flags": {},
            "group_id": null
        },
        {
            "label": "fourteen",
            "shape_type": "point",
            "points": [
                [
                    3574,
                    2024
                ]
            ],
            "flags": {},
            "group_id": null
        },
        {
            "label": "fourteen",
            "shape_type": "point",
            "points": [
                [
                    3053,
                    2023
                ]
            ],
            "flags": {},
            "group_id": null
        },
        {
            "label": "fourteen",
            "shape_type": "point",
            "points": [
                [
                    3036,
                    2023
                ]
            ],
            "flags": {},
            "group_id": null
        },
        {
            "label": "b1",
            "shape_type": "rectangle",
            "points": [
                [
                    3035,
                    1726
                ],
                [
                    3591,
                    2024
                ]
            ],
            "flags": {},
            "group_id": null
        },
        {
            "label": "t1",
            "shape_type": "rectangle",
            "points": [
                [
                    2868,
                    67
                ],
                [
                    2955,
                    2024
                ]
            ],
            "flags": {},
            "group_id": null
        },
        {
            "label": "v1",
            "shape_type": "rectangle",
            "points": [
                [
                    2152,
                    1092
                ],
                [
                    2382,
                    1186
                ]
            ],
            "flags": {},
            "group_id": null
        },
        {
            "label": "va1",
            "shape_type": "rectangle",
            "points": [
                [
                    2382,
                    1007
                ],
                [
                    2417,
                    1051
                ]
            ],
            "flags": {},
            "group_id": null
        },
        {
            "label": "va1",
            "shape_type": "rectangle",
            "points": [
                [
                    2102,
                    1019
                ],
                [
                    2146,
                    1059
                ]
            ],
            "flags": {},
            "group_id": null
        },
        {
            "label": "va1",
            "shape_type": "rectangle",
            "points": [
                [
                    2230,
                    772
                ],
                [
                    2270,
                    813
                ]
            ],
            "flags": {},
            "group_id": null
        },
        {
            "label": "vp1-1",
            "shape_type": "rectangle",
            "points": [
                [
                    2178,
                    871
                ],
                [
                    2343,
                    1036
                ]
            ],
            "flags": {},
            "group_id": null
        },
        {
            "label": "n1",
            "shape_type": "rectangle",
            "points": [
                [
                    1834,
                    78
                ],
                [
                    2313,
                    574
                ]
            ],
            "flags": {},
            "group_id": null
        },
        {
            "label": "d1",
            "shape_type": "rectangle",
            "points": [
                [
                    1415,
                    558
                ],
                [
                    1497,
                    695
                ]
            ],
            "flags": {},
            "group_id": null
        },
        {
            "label": "d1",
            "shape_type": "rectangle",
            "points": [
                [
                    582,
                    568
                ],
                [
                    665,
                    706
                ]
            ],
            "flags": {},
            "group_id": null
        },
        {
            "label": "v1",
            "shape_type": "rectangle",
            "points": [
                [
                    816,
                    721
                ],
                [
                    1146,
                    825
                ]
            ],
            "flags": {},
            "group_id": null
        },
        {
            "label": "van",
            "shape_type": "rectangle",
            "points": [
                [
                    617,
                    268
                ],
                [
                    672,
                    312
                ]
            ],
            "flags": {},
            "group_id": null
        },
        {
            "label": "van",
            "shape_type": "rectangle",
            "points": [
                [
                    680,
                    394
                ],
                [
                    738,
                    437
                ]
            ],
            "flags": {},
            "group_id": null
        },
        {
            "label": "van",
            "shape_type": "rectangle",
            "points": [
                [
                    770,
                    260
                ],
                [
                    812,
                    316
                ]
            ],
            "flags": {},
            "group_id": null
        },
        {
            "label": "seven",
            "shape_type": "point",
            "points": [
                [
                    835,
                    199
                ]
            ],
            "flags": {},
            "group_id": null
        },
        {
            "label": "seven",
            "shape_type": "point",
            "points": [
                [
                    860,
                    222
                ]
            ],
            "flags": {},
            "group_id": null
        },
        {
            "label": "twelve",
            "shape_type": "point",
            "points": [
                [
                    1404,
                    198
                ]
            ],
            "flags": {},
            "group_id": null
        },
        {
            "label": "eight",
            "shape_type": "point",
            "points": [
                [
                    1380,
                    222
                ]
            ],
            "flags": {},
            "group_id": null
        },
        {
            "label": "ten",
            "shape_type": "point",
            "points": [
                [
                    1380,
                    462
                ]
            ],
            "flags": {},
            "group_id": null
        },
        {
            "label": "twelve",
            "shape_type": "point",
            "points": [
                [
                    1404,
                    485
                ]
            ],
            "flags": {},
            "group_id": null
        },
        {
            "label": "nine",
            "shape_type": "point",
            "points": [
                [
                    836,
                    486
                ]
            ],
            "flags": {},
            "group_id": null
        },
        {
            "label": "nine",
            "shape_type": "point",
            "points": [
                [
                    860,
                    462
                ]
            ],
            "flags": {},
            "group_id": null
        },
        {
            "label": "eight",
            "shape_type": "point",
            "points": [
                [
                    918,
                    462
                ]
            ],
            "flags": {},
            "group_id": null
        },
        {
            "label": "ten",
            "shape_type": "point",
            "points": [
                [
                    918,
                    486
                ]
            ],
            "flags": {},
            "group_id": null
        },
        {
            "label": "seven",
            "shape_type": "point",
            "points": [
                [
                    1013,
                    462
                ]
            ],
            "flags": {},
            "group_id": null
        },
        {
            "label": "eleven",
            "shape_type": "point",
            "points": [
                [
                    1013,
                    486
                ]
            ],
            "flags": {},
            "group_id": null
        },
        {
            "label": "eleven",
            "shape_type": "point",
            "points": [
                [
                    918,
                    474
                ]
            ],
            "flags": {},
            "group_id": null
        },
        {
            "label": "twelve",
            "shape_type": "point",
            "points": [
                [
                    1013,
                    474
                ]
            ],
            "flags": {},
            "group_id": null
        },
        {
            "label": "vb1",
            "shape_type": "rectangle",
            "points": [
                [
                    835,
                    198
                ],
                [
                    1404,
                    486
                ]
            ],
            "flags": {},
            "group_id": null
        },
        {
            "label": "vt1",
            "shape_type": "rectangle",
            "points": [
                [
                    669,
                    284
                ],
                [
                    755,
                    371
                ]
            ],
            "flags": {},
            "group_id": null
        },
        {
            "label": "v1",
            "shape_type": "rectangle",
            "points": [
                [
                    2717,
                    2161
                ],
                [
                    3048,
                    2253
                ]
            ],
            "flags": {},
            "group_id": null
        },
        {
            "label": "twentytwo",
            "shape_type": "point",
            "points": [
                [
                    859,
                    394
                ]
            ],
            "flags": {},
            "group_id": null
        },
        {
            "label": "twentythere",
            "shape_type": "point",
            "points": [
                [
                    835,
                    434
                ]
            ],
            "flags": {},
            "group_id": null
        },
        {
            "label": "p1-1",
            "shape_type": "rectangle",
            "points": [
                [
                    2838,
                    491
                ],
                [
                    2982,
                    649
                ]
            ],
            "flags": {},
            "group_id": null
        },
        {
            "label": "p1-1",
            "shape_type": "rectangle",
            "points": [
                [
                    2838,
                    715
                ],
                [
                    2982,
                    888
                ]
            ],
            "flags": {},
            "group_id": null
        },
        {
            "label": "eleven",
            "shape_type": "point",
            "points": [
                [
                    834,
                    394
                ]
            ],
            "flags": {},
            "group_id": null
        },
        {
            "label": "twelve",
            "shape_type": "point",
            "points": [
                [
                    860,
                    434
                ]
            ],
            "flags": {},
            "group_id": null
        },
        {
            "label": "wz4",
            "shape_type": "rectangle",
            "points": [
                [
                    1040,
                    314
                ],
                [
                    1202,
                    372
                ]
            ],
            "flags": {},
            "group_id": null
        },
        {
            "label": "k1",
            "shape_type": "rectangle",
            "points": [
                [
                    835,
                    392
                ],
                [
                    861,
                    435
                ]
            ],
            "flags": {},
            "group_id": null
        },
        {
            "label": "sm",
            "shape_type": "rectangle",
            "points": [
                [
                    492,
                    1024
                ],
                [
                    2115,
                    1630
                ]
            ],
            "flags": {},
            "group_id": null
        },
        {
            "label": "j1",
            "shape_type": "rectangle",
            "points": [
                [
                    1882,
                    494
                ],
                [
                    1995,
                    574
                ]
            ],
            "flags": {},
            "group_id": null
        },
        {
            "label": "j1",
            "shape_type": "rectangle",
            "points": [
                [
                    1834,
                    226
                ],
                [
                    1942,
                    310
                ]
            ],
            "flags": {},
            "group_id": null
        },
        {
            "label": "j1",
            "shape_type": "rectangle",
            "points": [
                [
                    2228,
                    398
                ],
                [
                    2313,
                    477
                ]
            ],
            "flags": {},
            "group_id": null
        },
        {
            "label": "btl",
            "shape_type": "rectangle",
            "points": [
                [
                    2346,
                    2566
                ],
                [
                    4154,
                    2872
                ]
            ],
            "flags": {},
            "group_id": null
        },
        {
            "label": "wz4",
            "shape_type": "rectangle",
            "points": [
                [
                    3270,
                    1883
                ],
                [
                    3397,
                    1929
                ]
            ],
            "flags": {},
            "group_id": null
        },
        {
            "label": "mask",
            "lineType": [
                "LLLLLLLLLLLLLLLLLLLLLLL"
            ],
            "shape_type": "polygon",
            "points": [
                [
                    1098,
                    856
                ],
                [
                    1149,
                    855
                ],
                [
                    1166,
                    846
                ],
                [
                    1196,
                    771
                ],
                [
                    1228,
                    705
                ],
                [
                    1511,
                    716
                ],
                [
                    1516,
                    691
                ],
                [
                    1524,
                    647
                ],
                [
                    1514,
                    493
                ],
                [
                    1481,
                    374
                ],
                [
                    1448,
                    162
                ],
                [
                    1423,
                    115
                ],
                [
                    1328,
                    113
                ],
                [
                    1113,
                    110
                ],
                [
                    686,
                    117
                ],
                [
                    641,
                    125
                ],
                [
                    605,
                    145
                ],
                [
                    569,
                    251
                ],
                [
                    569,
                    359
                ],
                [
                    557,
                    576
                ],
                [
                    574,
                    711
                ],
                [
                    613,
                    832
                ],
                [
                    1098,
                    856
                ]
            ],
            "flags": {},
            "group_id": null
        },
        {
            "label": "mask",
            "lineType": [
                "LLLLLLLLLLLLLLLLLLLLLLLLLLLLLLLLLLLLLL"
            ],
            "shape_type": "polygon",
            "points": [
                [
                    816,
                    1003
                ],
                [
                    860,
                    1014
                ],
                [
                    879,
                    1066
                ],
                [
                    1372,
                    1078
                ],
                [
                    1423,
                    1088
                ],
                [
                    1439,
                    1103
                ],
                [
                    1444,
                    1138
                ],
                [
                    1444,
                    1168
                ],
                [
                    1278,
                    1179
                ],
                [
                    1250,
                    1198
                ],
                [
                    1270,
                    1290
                ],
                [
                    1351,
                    1293
                ],
                [
                    1397,
                    1296
                ],
                [
                    1417,
                    1314
                ],
                [
                    1421,
                    1341
                ],
                [
                    1413,
                    1396
                ],
                [
                    1450,
                    1420
                ],
                [
                    1561,
                    1424
                ],
                [
                    1581,
                    1467
                ],
                [
                    1800,
                    1487
                ],
                [
                    2108,
                    1497
                ],
                [
                    2132,
                    1508
                ],
                [
                    2146,
                    1531
                ],
                [
                    2146,
                    1572
                ],
                [
                    2143,
                    1586
                ],
                [
                    1736,
                    1595
                ],
                [
                    980,
                    1595
                ],
                [
                    971,
                    1627
                ],
                [
                    954,
                    1646
                ],
                [
                    646,
                    1661
                ],
                [
                    551,
                    1648
                ],
                [
                    539,
                    1627
                ],
                [
                    530,
                    1602
                ],
                [
                    502,
                    1117
                ],
                [
                    478,
                    1082
                ],
                [
                    473,
                    1024
                ],
                [
                    480,
                    1019
                ],
                [
                    816,
                    1003
                ]
            ],
            "flags": {},
            "group_id": null
        },
        {
            "label": "mask",
            "lineType": [
                "LLLLLLLLLLLLLLL"
            ],
            "shape_type": "polygon",
            "points": [
                [
                    1395,
                    1844
                ],
                [
                    1411,
                    1851
                ],
                [
                    1447,
                    1885
                ],
                [
                    1787,
                    1886
                ],
                [
                    1918,
                    1882
                ],
                [
                    1929,
                    1896
                ],
                [
                    1942,
                    1964
                ],
                [
                    1932,
                    2489
                ],
                [
                    1932,
                    2762
                ],
                [
                    518,
                    2761
                ],
                [
                    519,
                    2189
                ],
                [
                    520,
                    1900
                ],
                [
                    872,
                    1880
                ],
                [
                    1086,
                    1837
                ],
                [
                    1395,
                    1844
                ]
            ],
            "flags": {},
            "group_id": null
        },
        {
            "label": "mask",
            "lineType": [
                "LLLLLLLLLLLLLLLLLLLLL"
            ],
            "shape_type": "polygon",
            "points": [
                [
                    2355,
                    1226
                ],
                [
                    2386,
                    1214
                ],
                [
                    2396,
                    1202
                ],
                [
                    2430,
                    1088
                ],
                [
                    2595,
                    1056
                ],
                [
                    2591,
                    1009
                ],
                [
                    2579,
                    994
                ],
                [
                    2526,
                    977
                ],
                [
                    2430,
                    958
                ],
                [
                    2354,
                    755
                ],
                [
                    2340,
                    715
                ],
                [
                    2328,
                    700
                ],
                [
                    2185,
                    702
                ],
                [
                    2172,
                    763
                ],
                [
                    2152,
                    902
                ],
                [
                    1994,
                    956
                ],
                [
                    1980,
                    977
                ],
                [
                    1988,
                    1010
                ],
                [
                    2018,
                    1067
                ],
                [
                    2096,
                    1198
                ],
                [
                    2355,
                    1226
                ]
            ],
            "flags": {},
            "group_id": null
        },
        {
            "label": "mask",
            "lineType": [
                "LLLLLLLLLLLLLLLLLLLLLLLL"
            ],
            "shape_type": "polygon",
            "points": [
                [
                    2011,
                    618
                ],
                [
                    2061,
                    595
                ],
                [
                    2307,
                    515
                ],
                [
                    2319,
                    494
                ],
                [
                    2326,
                    474
                ],
                [
                    2326,
                    442
                ],
                [
                    2288,
                    378
                ],
                [
                    2170,
                    308
                ],
                [
                    2168,
                    238
                ],
                [
                    2143,
                    102
                ],
                [
                    2093,
                    69
                ],
                [
                    2064,
                    64
                ],
                [
                    2033,
                    64
                ],
                [
                    2014,
                    94
                ],
                [
                    1996,
                    170
                ],
                [
                    1867,
                    219
                ],
                [
                    1844,
                    234
                ],
                [
                    1823,
                    265
                ],
                [
                    1823,
                    303
                ],
                [
                    1829,
                    354
                ],
                [
                    1851,
                    480
                ],
                [
                    1853,
                    541
                ],
                [
                    1866,
                    588
                ],
                [
                    2011,
                    618
                ]
            ],
            "flags": {},
            "group_id": null
        },
        {
            "label": "mask",
            "lineType": [
                "LLLLLLLLLLLLLLLLLLLLLLLLLLLLLLLLLLLLLLLLLLLLLLLLLLLLLLLLLLLL"
            ],
            "shape_type": "polygon",
            "points": [
                [
                    2496,
                    204
                ],
                [
                    2493,
                    145
                ],
                [
                    2501,
                    130
                ],
                [
                    2572,
                    112
                ],
                [
                    2829,
                    79
                ],
                [
                    2912,
                    57
                ],
                [
                    2948,
                    61
                ],
                [
                    3081,
                    143
                ],
                [
                    3111,
                    173
                ],
                [
                    3124,
                    371
                ],
                [
                    3055,
                    380
                ],
                [
                    3029,
                    396
                ],
                [
                    3009,
                    1117
                ],
                [
                    3002,
                    1394
                ],
                [
                    3074,
                    1597
                ],
                [
                    3156,
                    1654
                ],
                [
                    3489,
                    1701
                ],
                [
                    3612,
                    1707
                ],
                [
                    3631,
                    1838
                ],
                [
                    3656,
                    2006
                ],
                [
                    3667,
                    2056
                ],
                [
                    3928,
                    2062
                ],
                [
                    4134,
                    2067
                ],
                [
                    4137,
                    2084
                ],
                [
                    4135,
                    2116
                ],
                [
                    4128,
                    2131
                ],
                [
                    3768,
                    2135
                ],
                [
                    3224,
                    2128
                ],
                [
                    3035,
                    2146
                ],
                [
                    3066,
                    2196
                ],
                [
                    3069,
                    2256
                ],
                [
                    3048,
                    2267
                ],
                [
                    2716,
                    2268
                ],
                [
                    2711,
                    2260
                ],
                [
                    2686,
                    2168
                ],
                [
                    2670,
                    2139
                ],
                [
                    2420,
                    2117
                ],
                [
                    2399,
                    2053
                ],
                [
                    2414,
                    2009
                ],
                [
                    2448,
                    2001
                ],
                [
                    2503,
                    1995
                ],
                [
                    2583,
                    1998
                ],
                [
                    2656,
                    2031
                ],
                [
                    2718,
                    2055
                ],
                [
                    2827,
                    2041
                ],
                [
                    2839,
                    1956
                ],
                [
                    2848,
                    1826
                ],
                [
                    2845,
                    1646
                ],
                [
                    2837,
                    1396
                ],
                [
                    2818,
                    1271
                ],
                [
                    2813,
                    1092
                ],
                [
                    2814,
                    901
                ],
                [
                    2791,
                    822
                ],
                [
                    2737,
                    597
                ],
                [
                    2703,
                    536
                ],
                [
                    2638,
                    516
                ],
                [
                    2509,
                    464
                ],
                [
                    2504,
                    441
                ],
                [
                    2497,
                    420
                ],
                [
                    2496,
                    204
                ]
            ],
            "flags": {},
            "group_id": null
        },
        {
            "label": "mask",
            "lineType": [
                "LLLLL"
            ],
            "shape_type": "polygon",
            "points": [
                [
                    2346,
                    2567
                ],
                [
                    2346,
                    2872
                ],
                [
                    4154,
                    2875
                ],
                [
                    4152,
                    2567
                ],
                [
                    2346,
                    2567
                ]
            ],
            "flags": {},
            "group_id": null
        },
        {
            "label": "wlb",
            "shape_type": "rectangle",
            "points": [
                [
                    531,
                    1849
                ],
                [
                    1921,
                    2750
                ]
            ],
            "flags": {},
            "group_id": null
        },
        {
            "label": "wz3",
            "shape_type": "rectangle",
            "points": [
                [
                    2446,
                    1016
                ],
                [
                    2580,
                    1043
                ]
            ],
            "flags": {},
            "group_id": null
        },
        {
            "label": "wz3",
            "shape_type": "rectangle",
            "points": [
                [
                    1997,
                    973
                ],
                [
                    2132,
                    998
                ]
            ],
            "flags": {},
            "group_id": null
        },
        {
            "label": "wz3",
            "shape_type": "rectangle",
            "points": [
                [
                    2196,
                    720
                ],
                [
                    2332,
                    746
                ]
            ],
            "flags": {},
            "group_id": null
        },
        {
            "label": "wz3-l",
            "lineType": "LL",
            "shape_type": "line",
            "points": [
                [
                    2252,
                    782
                ],
                [
                    2279,
                    728
                ]
            ],
            "flags": {},
            "group_id": null
        },
        {
            "label": "wz3-l",
            "lineType": "LL",
            "shape_type": "line",
            "points": [
                [
                    2110,
                    986
                ],
                [
                    2118,
                    1038
                ]
            ],
            "flags": {},
            "group_id": null
        },
        {
            "label": "wz3-l",
            "lineType": "LL",
            "shape_type": "line",
            "points": [
                [
                    2470,
                    1029
                ],
                [
                    2397,
                    1034
                ]
            ],
            "flags": {},
            "group_id": null
        }
    ],
    "flags": {},
    "imageData": null,
    "version": "4.5.7"
}