{
    "imageHeight": 2908,
    "imageWidth": 4205,
    "imagePath": "样本3_134_52.png",
    "shapes": [
        {
            "label": "vt4",
            "shape_type": "rectangle",
            "points": [
                [
                    871,
                    355
                ],
                [
                    1282,
                    766
                ]
            ],
            "flags": {},
            "group_id": null
        },
        {
            "label": "vb1",
            "shape_type": "rectangle",
            "points": [
                [
                    565,
                    250
                ],
                [
                    776,
                    681
                ]
            ],
            "flags": {},
            "group_id": null
        },
        {
            "label": "d1",
            "shape_type": "rectangle",
            "points": [
                [
                    498,
                    738
                ],
                [
                    549,
                    820
                ]
            ],
            "flags": {},
            "group_id": null
        },
        {
            "label": "v1",
            "shape_type": "rectangle",
            "points": [
                [
                    833,
                    829
                ],
                [
                    1164,
                    922
                ]
            ],
            "flags": {},
            "group_id": null
        },
        {
            "label": "vp2-3",
            "shape_type": "rectangle",
            "points": [
                [
                    1198,
                    935
                ],
                [
                    1426,
                    1165
                ]
            ],
            "flags": {},
            "group_id": null
        },
        {
            "label": "va1",
            "shape_type": "rectangle",
            "points": [
                [
                    1429,
                    877
                ],
                [
                    1469,
                    916
                ]
            ],
            "flags": {},
            "group_id": null
        },
        {
            "label": "va1",
            "shape_type": "rectangle",
            "points": [
                [
                    1447,
                    1178
                ],
                [
                    1485,
                    1220
                ]
            ],
            "flags": {},
            "group_id": null
        },
        {
            "label": "va1",
            "shape_type": "rectangle",
            "points": [
                [
                    1140,
                    1184
                ],
                [
                    1180,
                    1224
                ]
            ],
            "flags": {},
            "group_id": null
        },
        {
            "label": "v1",
            "shape_type": "rectangle",
            "points": [
                [
                    1218,
                    1264
                ],
                [
                    1443,
                    1330
                ]
            ],
            "flags": {},
            "group_id": null
        },
        {
            "label": "vp2-3",
            "shape_type": "rectangle",
            "points": [
                [
                    1926,
                    1249
                ],
                [
                    2155,
                    1479
                ]
            ],
            "flags": {},
            "group_id": null
        },
        {
            "label": "va1",
            "shape_type": "rectangle",
            "points": [
                [
                    2172,
                    1191
                ],
                [
                    2213,
                    1230
                ]
            ],
            "flags": {},
            "group_id": null
        },
        {
            "label": "va1",
            "shape_type": "rectangle",
            "points": [
                [
                    2172,
                    1498
                ],
                [
                    2212,
                    1537
                ]
            ],
            "flags": {},
            "group_id": null
        },
        {
            "label": "va1",
            "shape_type": "rectangle",
            "points": [
                [
                    1873,
                    1487
                ],
                [
                    1906,
                    1529
                ]
            ],
            "flags": {},
            "group_id": null
        },
        {
            "label": "v1",
            "shape_type": "rectangle",
            "points": [
                [
                    1945,
                    1579
                ],
                [
                    2170,
                    1644
                ]
            ],
            "flags": {},
            "group_id": null
        },
        {
            "label": "vp2-3",
            "shape_type": "rectangle",
            "points": [
                [
                    2280,
                    690
                ],
                [
                    2510,
                    921
                ]
            ],
            "flags": {},
            "group_id": null
        },
        {
            "label": "va1",
            "shape_type": "rectangle",
            "points": [
                [
                    2523,
                    634
                ],
                [
                    2564,
                    667
                ]
            ],
            "flags": {},
            "group_id": null
        },
        {
            "label": "va1",
            "shape_type": "rectangle",
            "points": [
                [
                    2221,
                    934
                ],
                [
                    2259,
                    975
                ]
            ],
            "flags": {},
            "group_id": null
        },
        {
            "label": "va1",
            "shape_type": "rectangle",
            "points": [
                [
                    2526,
                    944
                ],
                [
                    2566,
                    982
                ]
            ],
            "flags": {},
            "group_id": null
        },
        {
            "label": "v1",
            "shape_type": "rectangle",
            "points": [
                [
                    2300,
                    1020
                ],
                [
                    2525,
                    1084
                ]
            ],
            "flags": {},
            "group_id": null
        },
        {
            "label": "vp2-3",
            "shape_type": "rectangle",
            "points": [
                [
                    2600,
                    1248
                ],
                [
                    2830,
                    1478
                ]
            ],
            "flags": {},
            "group_id": null
        },
        {
            "label": "va1",
            "shape_type": "rectangle",
            "points": [
                [
                    2831,
                    1191
                ],
                [
                    2869,
                    1230
                ]
            ],
            "flags": {},
            "group_id": null
        },
        {
            "label": "va1",
            "shape_type": "rectangle",
            "points": [
                [
                    2849,
                    1491
                ],
                [
                    2886,
                    1535
                ]
            ],
            "flags": {},
            "group_id": null
        },
        {
            "label": "va1",
            "shape_type": "rectangle",
            "points": [
                [
                    2541,
                    1498
                ],
                [
                    2581,
                    1537
                ]
            ],
            "flags": {},
            "group_id": null
        },
        {
            "label": "v1",
            "shape_type": "rectangle",
            "points": [
                [
                    2620,
                    1579
                ],
                [
                    2844,
                    1644
                ]
            ],
            "flags": {},
            "group_id": null
        },
        {
            "label": "b1",
            "shape_type": "rectangle",
            "points": [
                [
                    2554,
                    1683
                ],
                [
                    3076,
                    1955
                ]
            ],
            "flags": {},
            "group_id": null
        },
        {
            "label": "v1",
            "shape_type": "rectangle",
            "points": [
                [
                    3274,
                    1999
                ],
                [
                    3607,
                    2091
                ]
            ],
            "flags": {},
            "group_id": null
        },
        {
            "label": "h1",
            "shape_type": "rectangle",
            "points": [
                [
                    3928,
                    1892
                ],
                [
                    4079,
                    1955
                ]
            ],
            "flags": {},
            "group_id": null
        },
        {
            "label": "t3-l",
            "shape_type": "rectangle",
            "points": [
                [
                    3265,
                    94
                ],
                [
                    3913,
                    1955
                ]
            ],
            "flags": {},
            "group_id": null
        },
        {
            "label": "c1",
            "shape_type": "rectangle",
            "points": [
                [
                    3629,
                    94
                ],
                [
                    3634,
                    289
                ]
            ],
            "flags": {},
            "group_id": null
        },
        {
            "label": "d1",
            "shape_type": "rectangle",
            "points": [
                [
                    3301,
                    261
                ],
                [
                    3385,
                    399
                ]
            ],
            "flags": {},
            "group_id": null
        },
        {
            "label": "d1",
            "shape_type": "rectangle",
            "points": [
                [
                    3301,
                    524
                ],
                [
                    3384,
                    662
                ]
            ],
            "flags": {},
            "group_id": null
        },
        {
            "label": "d1",
            "shape_type": "rectangle",
            "points": [
                [
                    3301,
                    733
                ],
                [
                    3385,
                    870
                ]
            ],
            "flags": {},
            "group_id": null
        },
        {
            "label": "d1",
            "shape_type": "rectangle",
            "points": [
                [
                    3301,
                    921
                ],
                [
                    3385,
                    1057
                ]
            ],
            "flags": {},
            "group_id": null
        },
        {
            "label": "d1",
            "shape_type": "rectangle",
            "points": [
                [
                    3769,
                    920
                ],
                [
                    3853,
                    1058
                ]
            ],
            "flags": {},
            "group_id": null
        },
        {
            "label": "d1",
            "shape_type": "rectangle",
            "points": [
                [
                    3770,
                    732
                ],
                [
                    3852,
                    870
                ]
            ],
            "flags": {},
            "group_id": null
        },
        {
            "label": "d1",
            "shape_type": "rectangle",
            "points": [
                [
                    3770,
                    524
                ],
                [
                    3853,
                    662
                ]
            ],
            "flags": {},
            "group_id": null
        },
        {
            "label": "d1",
            "shape_type": "rectangle",
            "points": [
                [
                    3769,
                    262
                ],
                [
                    3853,
                    399
                ]
            ],
            "flags": {},
            "group_id": null
        },
        {
            "label": "h1",
            "shape_type": "rectangle",
            "points": [
                [
                    3918,
                    379
                ],
                [
                    4049,
                    441
                ]
            ],
            "flags": {},
            "group_id": null
        },
        {
            "label": "h1",
            "shape_type": "rectangle",
            "points": [
                [
                    3918,
                    586
                ],
                [
                    4049,
                    648
                ]
            ],
            "flags": {},
            "group_id": null
        },
        {
            "label": "h1",
            "shape_type": "rectangle",
            "points": [
                [
                    3918,
                    786
                ],
                [
                    4049,
                    847
                ]
            ],
            "flags": {},
            "group_id": null
        },
        {
            "label": "h1",
            "shape_type": "rectangle",
            "points": [
                [
                    3918,
                    988
                ],
                [
                    4049,
                    1051
                ]
            ],
            "flags": {},
            "group_id": null
        },
        {
            "label": "g1",
            "shape_type": "rectangle",
            "points": [
                [
                    3475,
                    310
                ],
                [
                    3478,
                    479
                ]
            ],
            "flags": {},
            "group_id": null
        },
        {
            "label": "g1",
            "shape_type": "rectangle",
            "points": [
                [
                    3684,
                    311
                ],
                [
                    3688,
                    479
                ]
            ],
            "flags": {},
            "group_id": null
        },
        {
            "label": "a1-3",
            "shape_type": "rectangle",
            "points": [
                [
                    3675,
                    342
                ],
                [
                    3696,
                    436
                ]
            ],
            "flags": {},
            "group_id": null
        },
        {
            "label": "a1-1",
            "shape_type": "rectangle",
            "points": [
                [
                    3446,
                    343
                ],
                [
                    3473,
                    443
                ]
            ],
            "flags": {},
            "group_id": null
        },
        {
            "label": "p1-1",
            "shape_type": "rectangle",
            "points": [
                [
                    3445,
                    309
                ],
                [
                    3697,
                    480
                ]
            ],
            "flags": {},
            "group_id": null
        },
        {
            "label": "g1",
            "shape_type": "rectangle",
            "points": [
                [
                    3461,
                    509
                ],
                [
                    3465,
                    677
                ]
            ],
            "flags": {},
            "group_id": null
        },
        {
            "label": "g1",
            "shape_type": "rectangle",
            "points": [
                [
                    3692,
                    509
                ],
                [
                    3695,
                    677
                ]
            ],
            "flags": {},
            "group_id": null
        },
        {
            "label": "a1-3",
            "shape_type": "rectangle",
            "points": [
                [
                    3683,
                    541
                ],
                [
                    3705,
                    634
                ]
            ],
            "flags": {},
            "group_id": null
        },
        {
            "label": "a1-1",
            "shape_type": "rectangle",
            "points": [
                [
                    3433,
                    541
                ],
                [
                    3460,
                    641
                ]
            ],
            "flags": {},
            "group_id": null
        },
        {
            "label": "p1-1",
            "shape_type": "rectangle",
            "points": [
                [
                    3432,
                    508
                ],
                [
                    3705,
                    678
                ]
            ],
            "flags": {},
            "group_id": null
        },
        {
            "label": "g1",
            "shape_type": "rectangle",
            "points": [
                [
                    3449,
                    709
                ],
                [
                    3451,
                    879
                ]
            ],
            "flags": {},
            "group_id": null
        },
        {
            "label": "g1",
            "shape_type": "rectangle",
            "points": [
                [
                    3704,
                    709
                ],
                [
                    3707,
                    878
                ]
            ],
            "flags": {},
            "group_id": null
        },
        {
            "label": "a1-3",
            "shape_type": "rectangle",
            "points": [
                [
                    3696,
                    742
                ],
                [
                    3718,
                    835
                ]
            ],
            "flags": {},
            "group_id": null
        },
        {
            "label": "a1-1",
            "shape_type": "rectangle",
            "points": [
                [
                    3420,
                    741
                ],
                [
                    3447,
                    842
                ]
            ],
            "flags": {},
            "group_id": null
        },
        {
            "label": "p1-1",
            "shape_type": "rectangle",
            "points": [
                [
                    3420,
                    708
                ],
                [
                    3718,
                    879
                ]
            ],
            "flags": {},
            "group_id": null
        },
        {
            "label": "g1",
            "shape_type": "rectangle",
            "points": [
                [
                    3435,
                    911
                ],
                [
                    3438,
                    1080
                ]
            ],
            "flags": {},
            "group_id": null
        },
        {
            "label": "g1",
            "shape_type": "rectangle",
            "points": [
                [
                    3720,
                    911
                ],
                [
                    3722,
                    1080
                ]
            ],
            "flags": {},
            "group_id": null
        },
        {
            "label": "a1-3",
            "shape_type": "rectangle",
            "points": [
                [
                    3710,
                    943
                ],
                [
                    3732,
                    1037
                ]
            ],
            "flags": {},
            "group_id": null
        },
        {
            "label": "a1-1",
            "shape_type": "rectangle",
            "points": [
                [
                    3406,
                    943
                ],
                [
                    3433,
                    1043
                ]
            ],
            "flags": {},
            "group_id": null
        },
        {
            "label": "p1-1",
            "shape_type": "rectangle",
            "points": [
                [
                    3406,
                    910
                ],
                [
                    3732,
                    1081
                ]
            ],
            "flags": {},
            "group_id": null
        },
        {
            "label": "n1",
            "shape_type": "rectangle",
            "points": [
                [
                    2125,
                    121
                ],
                [
                    2759,
                    497
                ]
            ],
            "flags": {},
            "group_id": null
        },
        {
            "label": "seven",
            "shape_type": "point",
            "points": [
                [
                    2555,
                    1684
                ]
            ],
            "flags": {},
            "group_id": null
        },
        {
            "label": "seven",
            "shape_type": "point",
            "points": [
                [
                    2576,
                    1705
                ]
            ],
            "flags": {},
            "group_id": null
        },
        {
            "label": "eight",
            "shape_type": "point",
            "points": [
                [
                    3056,
                    1704
                ]
            ],
            "flags": {},
            "group_id": null
        },
        {
            "label": "eight",
            "shape_type": "point",
            "points": [
                [
                    3075,
                    1684
                ]
            ],
            "flags": {},
            "group_id": null
        },
        {
            "label": "fourteen",
            "shape_type": "point",
            "points": [
                [
                    2555,
                    1954
                ]
            ],
            "flags": {},
            "group_id": null
        },
        {
            "label": "fourteen",
            "shape_type": "point",
            "points": [
                [
                    2576,
                    1953
                ]
            ],
            "flags": {},
            "group_id": null
        },
        {
            "label": "fourteen",
            "shape_type": "point",
            "points": [
                [
                    3056,
                    1954
                ]
            ],
            "flags": {},
            "group_id": null
        },
        {
            "label": "fourteen",
            "shape_type": "point",
            "points": [
                [
                    3077,
                    1954
                ]
            ],
            "flags": {},
            "group_id": null
        },
        {
            "label": "a3",
            "shape_type": "rectangle",
            "points": [
                [
                    3379,
                    1378
                ],
                [
                    3404,
                    1438
                ]
            ],
            "flags": {},
            "group_id": null
        },
        {
            "label": "twentytwo",
            "shape_type": "point",
            "points": [
                [
                    3076,
                    1755
                ]
            ],
            "flags": {},
            "group_id": null
        },
        {
            "label": "twentythere",
            "shape_type": "point",
            "points": [
                [
                    3056,
                    1784
                ]
            ],
            "flags": {},
            "group_id": null
        },
        {
            "label": "eleven",
            "shape_type": "point",
            "points": [
                [
                    3056,
                    1754
                ]
            ],
            "flags": {},
            "group_id": null
        },
        {
            "label": "fifteen",
            "shape_type": "point",
            "points": [
                [
                    3076,
                    1784
                ]
            ],
            "flags": {},
            "group_id": null
        },
        {
            "label": "d1",
            "shape_type": "rectangle",
            "points": [
                [
                    1257,
                    739
                ],
                [
                    1307,
                    822
                ]
            ],
            "flags": {},
            "group_id": null
        },
        {
            "label": "four",
            "shape_type": "point",
            "points": [
                [
                    1257,
                    789
                ]
            ],
            "flags": {},
            "group_id": null
        },
        {
            "label": "three",
            "shape_type": "point",
            "points": [
                [
                    896,
                    790
                ]
            ],
            "flags": {},
            "group_id": null
        },
        {
            "label": "va4",
            "shape_type": "rectangle",
            "points": [
                [
                    949,
                    538
                ],
                [
                    965,
                    554
                ]
            ],
            "flags": {},
            "group_id": null
        },
        {
            "label": "two",
            "shape_type": "point",
            "points": [
                [
                    1305,
                    380
                ]
            ],
            "flags": {},
            "group_id": null
        },
        {
            "label": "one",
            "shape_type": "point",
            "points": [
                [
                    1305,
                    740
                ]
            ],
            "flags": {},
            "group_id": null
        },
        {
            "label": "three",
            "shape_type": "point",
            "points": [
                [
                    581,
                    238
                ]
            ],
            "flags": {},
            "group_id": null
        },
        {
            "label": "four",
            "shape_type": "point",
            "points": [
                [
                    761,
                    238
                ]
            ],
            "flags": {},
            "group_id": null
        },
        {
            "label": "three",
            "shape_type": "point",
            "points": [
                [
                    776,
                    680
                ]
            ],
            "flags": {},
            "group_id": null
        },
        {
            "label": "four",
            "shape_type": "point",
            "points": [
                [
                    897,
                    680
                ]
            ],
            "flags": {},
            "group_id": null
        },
        {
            "label": "ten",
            "shape_type": "point",
            "points": [
                [
                    776,
                    681
                ]
            ],
            "flags": {},
            "group_id": null
        },
        {
            "label": "two",
            "shape_type": "point",
            "points": [
                [
                    546,
                    266
                ]
            ],
            "flags": {},
            "group_id": null
        },
        {
            "label": "one",
            "shape_type": "point",
            "points": [
                [
                    546,
                    337
                ]
            ],
            "flags": {},
            "group_id": null
        },
        {
            "label": "two",
            "shape_type": "point",
            "points": [
                [
                    546,
                    353
                ]
            ],
            "flags": {},
            "group_id": null
        },
        {
            "label": "one",
            "shape_type": "point",
            "points": [
                [
                    546,
                    665
                ]
            ],
            "flags": {},
            "group_id": null
        },
        {
            "label": "seven",
            "shape_type": "point",
            "points": [
                [
                    566,
                    250
                ]
            ],
            "flags": {},
            "group_id": null
        },
        {
            "label": "seven",
            "shape_type": "point",
            "points": [
                [
                    581,
                    265
                ]
            ],
            "flags": {},
            "group_id": null
        },
        {
            "label": "thirteen",
            "shape_type": "point",
            "points": [
                [
                    689,
                    250
                ]
            ],
            "flags": {},
            "group_id": null
        },
        {
            "label": "fourteen",
            "shape_type": "point",
            "points": [
                [
                    689,
                    265
                ]
            ],
            "flags": {},
            "group_id": null
        },
        {
            "label": "thirteen",
            "shape_type": "point",
            "points": [
                [
                    746,
                    250
                ]
            ],
            "flags": {},
            "group_id": null
        },
        {
            "label": "fourteen",
            "shape_type": "point",
            "points": [
                [
                    746,
                    265
                ]
            ],
            "flags": {},
            "group_id": null
        },
        {
            "label": "eight",
            "shape_type": "point",
            "points": [
                [
                    776,
                    250
                ]
            ],
            "flags": {},
            "group_id": null
        },
        {
            "label": "eight",
            "shape_type": "point",
            "points": [
                [
                    761,
                    265
                ]
            ],
            "flags": {},
            "group_id": null
        },
        {
            "label": "nine",
            "shape_type": "point",
            "points": [
                [
                    581,
                    337
                ]
            ],
            "flags": {},
            "group_id": null
        },
        {
            "label": "ten",
            "shape_type": "point",
            "points": [
                [
                    761,
                    337
                ]
            ],
            "flags": {},
            "group_id": null
        },
        {
            "label": "thirteen",
            "shape_type": "point",
            "points": [
                [
                    746,
                    337
                ]
            ],
            "flags": {},
            "group_id": null
        },
        {
            "label": "thirteen",
            "shape_type": "point",
            "points": [
                [
                    689,
                    337
                ]
            ],
            "flags": {},
            "group_id": null
        },
        {
            "label": "fourteen",
            "shape_type": "point",
            "points": [
                [
                    689,
                    352
                ]
            ],
            "flags": {},
            "group_id": null
        },
        {
            "label": "fourteen",
            "shape_type": "point",
            "points": [
                [
                    746,
                    352
                ]
            ],
            "flags": {},
            "group_id": null
        },
        {
            "label": "seven",
            "shape_type": "point",
            "points": [
                [
                    581,
                    352
                ]
            ],
            "flags": {},
            "group_id": null
        },
        {
            "label": "eight",
            "shape_type": "point",
            "points": [
                [
                    761,
                    352
                ]
            ],
            "flags": {},
            "group_id": null
        },
        {
            "label": "nine",
            "shape_type": "point",
            "points": [
                [
                    581,
                    665
                ]
            ],
            "flags": {},
            "group_id": null
        },
        {
            "label": "nine",
            "shape_type": "point",
            "points": [
                [
                    566,
                    680
                ]
            ],
            "flags": {},
            "group_id": null
        },
        {
            "label": "ten",
            "shape_type": "point",
            "points": [
                [
                    761,
                    665
                ]
            ],
            "flags": {},
            "group_id": null
        },
        {
            "label": "twentytwo",
            "shape_type": "point",
            "points": [
                [
                    776,
                    530
                ]
            ],
            "flags": {},
            "group_id": null
        },
        {
            "label": "twentythere",
            "shape_type": "point",
            "points": [
                [
                    761,
                    560
                ]
            ],
            "flags": {},
            "group_id": null
        },
        {
            "label": "eleven",
            "shape_type": "point",
            "points": [
                [
                    761,
                    530
                ]
            ],
            "flags": {},
            "group_id": null
        },
        {
            "label": "twelve",
            "shape_type": "point",
            "points": [
                [
                    776,
                    559
                ]
            ],
            "flags": {},
            "group_id": null
        },
        {
            "label": "btl",
            "shape_type": "rectangle",
            "points": [
                [
                    2347,
                    2569
                ],
                [
                    4152,
                    2870
                ]
            ],
            "flags": {},
            "group_id": null
        },
        {
            "label": "sm",
            "shape_type": "rectangle",
            "points": [
                [
                    2085,
                    2105
                ],
                [
                    3736,
                    2462
                ]
            ],
            "flags": {},
            "group_id": null
        },
        {
            "label": "sm",
            "shape_type": "rectangle",
            "points": [
                [
                    330,
                    1371
                ],
                [
                    1915,
                    1764
                ]
            ],
            "flags": {},
            "group_id": null
        },
        {
            "label": "wz4",
            "shape_type": "rectangle",
            "points": [
                [
                    2740,
                    1812
                ],
                [
                    2870,
                    1855
                ]
            ],
            "flags": {},
            "group_id": null
        },
        {
            "label": "k1",
            "shape_type": "rectangle",
            "points": [
                [
                    3055,
                    1753
                ],
                [
                    3076,
                    1784
                ]
            ],
            "flags": {},
            "group_id": null
        },
        {
            "label": "j1",
            "shape_type": "rectangle",
            "points": [
                [
                    2126,
                    362
                ],
                [
                    2312,
                    396
                ]
            ],
            "flags": {},
            "group_id": null
        },
        {
            "label": "j1",
            "shape_type": "rectangle",
            "points": [
                [
                    2580,
                    442
                ],
                [
                    2758,
                    476
                ]
            ],
            "flags": {},
            "group_id": null
        },
        {
            "label": "j1",
            "shape_type": "rectangle",
            "points": [
                [
                    2473,
                    213
                ],
                [
                    2598,
                    248
                ]
            ],
            "flags": {},
            "group_id": null
        },
        {
            "label": "j1",
            "shape_type": "rectangle",
            "points": [
                [
                    2456,
                    123
                ],
                [
                    2493,
                    167
                ]
            ],
            "flags": {},
            "group_id": null
        },
        {
            "label": "x2",
            "shape_type": "rectangle",
            "points": [
                [
                    891,
                    739
                ],
                [
                    1261,
                    805
                ]
            ],
            "flags": {},
            "group_id": null
        },
        {
            "label": "wz2",
            "shape_type": "rectangle",
            "points": [
                [
                    1005,
                    740
                ],
                [
                    1148,
                    781
                ]
            ],
            "flags": {},
            "group_id": null
        },
        {
            "label": "x2",
            "shape_type": "rectangle",
            "points": [
                [
                    1254,
                    373
                ],
                [
                    1326,
                    746
                ]
            ],
            "flags": {},
            "group_id": null
        },
        {
            "label": "wz2",
            "shape_type": "rectangle",
            "points": [
                [
                    1256,
                    488
                ],
                [
                    1297,
                    631
                ]
            ],
            "flags": {},
            "group_id": null
        },
        {
            "label": "wz4",
            "shape_type": "rectangle",
            "points": [
                [
                    619,
                    500
                ],
                [
                    695,
                    526
                ]
            ],
            "flags": {},
            "group_id": null
        },
        {
            "label": "k1",
            "shape_type": "rectangle",
            "points": [
                [
                    760,
                    529
                ],
                [
                    776,
                    560
                ]
            ],
            "flags": {},
            "group_id": null
        },
        {
            "label": "x2",
            "shape_type": "rectangle",
            "points": [
                [
                    576,
                    190
                ],
                [
                    774,
                    244
                ]
            ],
            "flags": {},
            "group_id": null
        },
        {
            "label": "wz2",
            "shape_type": "rectangle",
            "points": [
                [
                    604,
                    191
                ],
                [
                    739,
                    232
                ]
            ],
            "flags": {},
            "group_id": null
        },
        {
            "label": "x2",
            "shape_type": "rectangle",
            "points": [
                [
                    496,
                    248
                ],
                [
                    559,
                    679
                ]
            ],
            "flags": {},
            "group_id": null
        },
        {
            "label": "wz2",
            "shape_type": "rectangle",
            "points": [
                [
                    498,
                    250
                ],
                [
                    541,
                    354
                ]
            ],
            "flags": {},
            "group_id": null
        },
        {
            "label": "wz2",
            "shape_type": "rectangle",
            "points": [
                [
                    498,
                    442
                ],
                [
                    541,
                    575
                ]
            ],
            "flags": {},
            "group_id": null
        },
        {
            "label": "x2",
            "shape_type": "rectangle",
            "points": [
                [
                    763,
                    632
                ],
                [
                    1062,
                    692
                ]
            ],
            "flags": {},
            "group_id": null
        },
        {
            "label": "wz2",
            "shape_type": "rectangle",
            "points": [
                [
                    928,
                    633
                ],
                [
                    1059,
                    676
                ]
            ],
            "flags": {},
            "group_id": null
        },
        {
            "label": "mask",
            "lineType": [
                "LLLLLLLLLLLLLLLLLLLL"
            ],
            "shape_type": "polygon",
            "points": [
                [
                    502,
                    158
                ],
                [
                    460,
                    230
                ],
                [
                    462,
                    338
                ],
                [
                    456,
                    403
                ],
                [
                    443,
                    614
                ],
                [
                    456,
                    670
                ],
                [
                    470,
                    863
                ],
                [
                    575,
                    835
                ],
                [
                    743,
                    805
                ],
                [
                    758,
                    929
                ],
                [
                    823,
                    931
                ],
                [
                    1181,
                    935
                ],
                [
                    1215,
                    865
                ],
                [
                    1325,
                    835
                ],
                [
                    1382,
                    368
                ],
                [
                    1338,
                    325
                ],
                [
                    1108,
                    299
                ],
                [
                    823,
                    301
                ],
                [
                    763,
                    155
                ],
                [
                    502,
                    158
                ]
            ],
            "flags": {},
            "group_id": null
        },
        {
            "label": "mask",
            "lineType": [
                "LLLLLLLLLLLLLLLLLLLLLLL"
            ],
            "shape_type": "polygon",
            "points": [
                [
                    1342,
                    882
                ],
                [
                    1221,
                    904
                ],
                [
                    1197,
                    928
                ],
                [
                    1180,
                    968
                ],
                [
                    1155,
                    1081
                ],
                [
                    941,
                    1122
                ],
                [
                    920,
                    1226
                ],
                [
                    928,
                    1256
                ],
                [
                    1105,
                    1257
                ],
                [
                    1195,
                    1268
                ],
                [
                    1201,
                    1342
                ],
                [
                    1457,
                    1338
                ],
                [
                    1487,
                    1259
                ],
                [
                    1707,
                    1250
                ],
                [
                    1711,
                    1155
                ],
                [
                    1579,
                    1110
                ],
                [
                    1476,
                    1110
                ],
                [
                    1449,
                    990
                ],
                [
                    1497,
                    970
                ],
                [
                    1686,
                    931
                ],
                [
                    1700,
                    905
                ],
                [
                    1652,
                    822
                ],
                [
                    1342,
                    882
                ]
            ],
            "flags": {},
            "group_id": null
        },
        {
            "label": "mask",
            "lineType": [
                "LLLLLLLLLLLLLLL"
            ],
            "shape_type": "polygon",
            "points": [
                [
                    287,
                    1343
                ],
                [
                    362,
                    1730
                ],
                [
                    390,
                    1779
                ],
                [
                    1236,
                    1773
                ],
                [
                    1290,
                    1703
                ],
                [
                    1923,
                    1705
                ],
                [
                    1914,
                    1637
                ],
                [
                    1084,
                    1625
                ],
                [
                    1077,
                    1510
                ],
                [
                    1286,
                    1507
                ],
                [
                    1287,
                    1439
                ],
                [
                    1266,
                    1425
                ],
                [
                    716,
                    1420
                ],
                [
                    677,
                    1353
                ],
                [
                    287,
                    1343
                ]
            ],
            "flags": {},
            "group_id": null
        },
        {
            "label": "mask",
            "lineType": [
                "LLLLLL"
            ],
            "shape_type": "polygon",
            "points": [
                [
                    373,
                    1831
                ],
                [
                    381,
                    2727
                ],
                [
                    1815,
                    2708
                ],
                [
                    1808,
                    1886
                ],
                [
                    1259,
                    1847
                ],
                [
                    373,
                    1831
                ]
            ],
            "flags": {},
            "group_id": null
        },
        {
            "label": "mask",
            "lineType": [
                "LLLLL"
            ],
            "shape_type": "polygon",
            "points": [
                [
                    2339,
                    2554
                ],
                [
                    2337,
                    2871
                ],
                [
                    4151,
                    2871
                ],
                [
                    4149,
                    2556
                ],
                [
                    2339,
                    2554
                ]
            ],
            "flags": {},
            "group_id": null
        },
        {
            "label": "mask",
            "lineType": [
                "LLLLLLLLLLL"
            ],
            "shape_type": "polygon",
            "points": [
                [
                    2059,
                    2085
                ],
                [
                    2064,
                    2465
                ],
                [
                    2741,
                    2473
                ],
                [
                    2715,
                    2406
                ],
                [
                    3765,
                    2415
                ],
                [
                    3764,
                    2333
                ],
                [
                    3088,
                    2309
                ],
                [
                    3061,
                    2249
                ],
                [
                    2958,
                    2246
                ],
                [
                    2942,
                    2099
                ],
                [
                    2059,
                    2085
                ]
            ],
            "flags": {},
            "group_id": null
        },
        {
            "label": "mask",
            "lineType": [
                "LLLLLLLLLLLLLLLLLLLLL"
            ],
            "shape_type": "polygon",
            "points": [
                [
                    1974,
                    1216
                ],
                [
                    1912,
                    1231
                ],
                [
                    1816,
                    1451
                ],
                [
                    1768,
                    1488
                ],
                [
                    1778,
                    1548
                ],
                [
                    1854,
                    1544
                ],
                [
                    1908,
                    1548
                ],
                [
                    1915,
                    1554
                ],
                [
                    1936,
                    1538
                ],
                [
                    1939,
                    1652
                ],
                [
                    2180,
                    1653
                ],
                [
                    2190,
                    1581
                ],
                [
                    2320,
                    1543
                ],
                [
                    2321,
                    1465
                ],
                [
                    2172,
                    1421
                ],
                [
                    2170,
                    1307
                ],
                [
                    2327,
                    1224
                ],
                [
                    2309,
                    1140
                ],
                [
                    2147,
                    1168
                ],
                [
                    2125,
                    1231
                ],
                [
                    1974,
                    1216
                ]
            ],
            "flags": {},
            "group_id": null
        },
        {
            "label": "mask",
            "lineType": [
                "LLLLLLLLLLLLLLLLLLLLLLLLLLLLLL"
            ],
            "shape_type": "polygon",
            "points": [
                [
                    2576,
                    1425
                ],
                [
                    2451,
                    1438
                ],
                [
                    2375,
                    1451
                ],
                [
                    2343,
                    1492
                ],
                [
                    2341,
                    1541
                ],
                [
                    2343,
                    1563
                ],
                [
                    2557,
                    1560
                ],
                [
                    2571,
                    1587
                ],
                [
                    2587,
                    1621
                ],
                [
                    2613,
                    1660
                ],
                [
                    2845,
                    1656
                ],
                [
                    2855,
                    1646
                ],
                [
                    2859,
                    1612
                ],
                [
                    2875,
                    1553
                ],
                [
                    2999,
                    1564
                ],
                [
                    3084,
                    1562
                ],
                [
                    3103,
                    1517
                ],
                [
                    3101,
                    1460
                ],
                [
                    3021,
                    1440
                ],
                [
                    2841,
                    1358
                ],
                [
                    3067,
                    1278
                ],
                [
                    3097,
                    1251
                ],
                [
                    3112,
                    1213
                ],
                [
                    3073,
                    1133
                ],
                [
                    3037,
                    1126
                ],
                [
                    2947,
                    1126
                ],
                [
                    2860,
                    1150
                ],
                [
                    2774,
                    1237
                ],
                [
                    2573,
                    1221
                ],
                [
                    2576,
                    1425
                ]
            ],
            "flags": {},
            "group_id": null
        },
        {
            "label": "mask",
            "lineType": [
                "LLLLLLLLLLLLLLLLLLLLLLLLL"
            ],
            "shape_type": "polygon",
            "points": [
                [
                    2439,
                    609
                ],
                [
                    2359,
                    636
                ],
                [
                    2284,
                    632
                ],
                [
                    2214,
                    672
                ],
                [
                    2213,
                    856
                ],
                [
                    2111,
                    846
                ],
                [
                    1991,
                    930
                ],
                [
                    2003,
                    1009
                ],
                [
                    2256,
                    1023
                ],
                [
                    2270,
                    1024
                ],
                [
                    2269,
                    1104
                ],
                [
                    2556,
                    1096
                ],
                [
                    2556,
                    1016
                ],
                [
                    2767,
                    1004
                ],
                [
                    2839,
                    967
                ],
                [
                    2849,
                    957
                ],
                [
                    2857,
                    902
                ],
                [
                    2819,
                    874
                ],
                [
                    2549,
                    777
                ],
                [
                    2716,
                    694
                ],
                [
                    2853,
                    642
                ],
                [
                    2871,
                    593
                ],
                [
                    2864,
                    583
                ],
                [
                    2489,
                    567
                ],
                [
                    2439,
                    609
                ]
            ],
            "flags": {},
            "group_id": null
        },
        {
            "label": "mask",
            "lineType": [
                "LLLLLLLLLLLLLLLLLLL"
            ],
            "shape_type": "polygon",
            "points": [
                [
                    2406,
                    92
                ],
                [
                    2284,
                    126
                ],
                [
                    2367,
                    319
                ],
                [
                    2127,
                    339
                ],
                [
                    2100,
                    402
                ],
                [
                    2144,
                    434
                ],
                [
                    2237,
                    452
                ],
                [
                    2309,
                    483
                ],
                [
                    2341,
                    553
                ],
                [
                    2500,
                    509
                ],
                [
                    2577,
                    509
                ],
                [
                    2681,
                    517
                ],
                [
                    2779,
                    513
                ],
                [
                    2791,
                    429
                ],
                [
                    2546,
                    404
                ],
                [
                    2496,
                    309
                ],
                [
                    2669,
                    227
                ],
                [
                    2571,
                    86
                ],
                [
                    2406,
                    92
                ]
            ],
            "flags": {},
            "group_id": null
        },
        {
            "label": "mask",
            "lineType": [
                "LLLLLLLLLLLLLLLLLLLLLLLLLLLLLLLLLLLLLLLL"
            ],
            "shape_type": "polygon",
            "points": [
                [
                    3635,
                    53
                ],
                [
                    3585,
                    98
                ],
                [
                    3593,
                    220
                ],
                [
                    3493,
                    214
                ],
                [
                    3421,
                    266
                ],
                [
                    3329,
                    223
                ],
                [
                    3298,
                    230
                ],
                [
                    3246,
                    335
                ],
                [
                    3144,
                    363
                ],
                [
                    3139,
                    438
                ],
                [
                    3275,
                    454
                ],
                [
                    3064,
                    554
                ],
                [
                    3103,
                    660
                ],
                [
                    3121,
                    824
                ],
                [
                    3105,
                    1040
                ],
                [
                    3333,
                    1230
                ],
                [
                    3306,
                    1384
                ],
                [
                    3251,
                    1636
                ],
                [
                    3155,
                    1660
                ],
                [
                    3083,
                    1668
                ],
                [
                    2535,
                    1675
                ],
                [
                    2453,
                    1686
                ],
                [
                    2469,
                    2009
                ],
                [
                    3253,
                    2001
                ],
                [
                    3264,
                    2103
                ],
                [
                    3613,
                    2101
                ],
                [
                    3628,
                    2005
                ],
                [
                    4083,
                    1998
                ],
                [
                    4098,
                    1886
                ],
                [
                    3899,
                    1864
                ],
                [
                    3724,
                    1315
                ],
                [
                    3829,
                    1121
                ],
                [
                    4074,
                    1028
                ],
                [
                    4060,
                    971
                ],
                [
                    4064,
                    804
                ],
                [
                    4070,
                    359
                ],
                [
                    3856,
                    295
                ],
                [
                    3846,
                    241
                ],
                [
                    3730,
                    158
                ],
                [
                    3635,
                    53
                ]
            ],
            "flags": {},
            "group_id": null
        },
        {
            "label": "Ns",
            "shape_type": "point",
            "points": [
                [
                    2420,
                    380
                ]
            ],
            "flags": {},
            "group_id": null
        },
        {
            "label": "Ne",
            "shape_type": "point",
            "points": [
                [
                    2419,
                    200
                ]
            ],
            "flags": {},
            "group_id": null
        },
        {
            "label": "wlb",
            "shape_type": "rectangle",
            "points": [
                [
                    409,
                    1855
                ],
                [
                    1800,
                    2696
                ]
            ],
            "flags": {},
            "group_id": null
        },
        {
            "label": "wz1",
            "shape_type": "rectangle",
            "points": [
                [
                    3178,
                    1694
                ],
                [
                    3201,
                    1725
                ]
            ],
            "flags": {},
            "group_id": null
        },
        {
            "label": "wz1",
            "shape_type": "rectangle",
            "points": [
                [
                    3323,
                    1352
                ],
                [
                    3368,
                    1369
                ]
            ],
            "flags": {},
            "group_id": null
        },
        {
            "label": "wz1",
            "shape_type": "rectangle",
            "points": [
                [
                    3369,
                    1199
                ],
                [
                    3390,
                    1230
                ]
            ],
            "flags": {},
            "group_id": null
        },
        {
            "label": "wz1",
            "shape_type": "rectangle",
            "points": [
                [
                    3374,
                    1079
                ],
                [
                    3395,
                    1111
                ]
            ],
            "flags": {},
            "group_id": null
        },
        {
            "label": "wz1",
            "shape_type": "rectangle",
            "points": [
                [
                    3770,
                    990
                ],
                [
                    3784,
                    1022
                ]
            ],
            "flags": {},
            "group_id": null
        },
        {
            "label": "wz1",
            "shape_type": "rectangle",
            "points": [
                [
                    3757,
                    1067
                ],
                [
                    3779,
                    1099
                ]
            ],
            "flags": {},
            "group_id": null
        },
        {
            "label": "wz3",
            "shape_type": "rectangle",
            "points": [
                [
                    3715,
                    875
                ],
                [
                    3758,
                    908
                ]
            ],
            "flags": {},
            "group_id": null
        },
        {
            "label": "wz3",
            "shape_type": "rectangle",
            "points": [
                [
                    3387,
                    879
                ],
                [
                    3440,
                    909
                ]
            ],
            "flags": {},
            "group_id": null
        },
        {
            "label": "wz3",
            "shape_type": "rectangle",
            "points": [
                [
                    3668,
                    216
                ],
                [
                    3717,
                    246
                ]
            ],
            "flags": {},
            "group_id": null
        },
        {
            "label": "wz3",
            "shape_type": "rectangle",
            "points": [
                [
                    3668,
                    259
                ],
                [
                    3709,
                    291
                ]
            ],
            "flags": {},
            "group_id": null
        },
        {
            "label": "wz3",
            "shape_type": "rectangle",
            "points": [
                [
                    3448,
                    258
                ],
                [
                    3497,
                    291
                ]
            ],
            "flags": {},
            "group_id": null
        },
        {
            "label": "wz3",
            "shape_type": "rectangle",
            "points": [
                [
                    3156,
                    392
                ],
                [
                    3337,
                    425
                ]
            ],
            "flags": {},
            "group_id": null
        },
        {
            "label": "wz3",
            "shape_type": "rectangle",
            "points": [
                [
                    3105,
                    595
                ],
                [
                    3238,
                    628
                ]
            ],
            "flags": {},
            "group_id": null
        },
        {
            "label": "wz3",
            "shape_type": "rectangle",
            "points": [
                [
                    3140,
                    776
                ],
                [
                    3197,
                    820
                ]
            ],
            "flags": {},
            "group_id": null
        },
        {
            "label": "wz3",
            "shape_type": "rectangle",
            "points": [
                [
                    3121,
                    993
                ],
                [
                    3197,
                    1025
                ]
            ],
            "flags": {},
            "group_id": null
        },
        {
            "label": "wz1-l",
            "lineType": "LL",
            "shape_type": "line",
            "points": [
                [
                    3187,
                    1711
                ],
                [
                    3237,
                    1771
                ]
            ],
            "flags": {},
            "group_id": null
        },
        {
            "label": "wz1-l",
            "lineType": "LL",
            "shape_type": "line",
            "points": [
                [
                    3349,
                    1357
                ],
                [
                    3393,
                    1390
                ]
            ],
            "flags": {},
            "group_id": null
        },
        {
            "label": "wz1-l",
            "lineType": "LL",
            "shape_type": "line",
            "points": [
                [
                    3378,
                    1216
                ],
                [
                    3448,
                    1268
                ]
            ],
            "flags": {},
            "group_id": null
        },
        {
            "label": "wz1-l",
            "lineType": "LL",
            "shape_type": "line",
            "points": [
                [
                    3381,
                    1092
                ],
                [
                    3459,
                    1053
                ]
            ],
            "flags": {},
            "group_id": null
        },
        {
            "label": "wz1-l",
            "lineType": "LL",
            "shape_type": "line",
            "points": [
                [
                    3722,
                    1068
                ],
                [
                    3764,
                    1083
                ]
            ],
            "flags": {},
            "group_id": null
        },
        {
            "label": "wz1-l",
            "lineType": "LL",
            "shape_type": "line",
            "points": [
                [
                    3732,
                    994
                ],
                [
                    3778,
                    1014
                ]
            ],
            "flags": {},
            "group_id": null
        },
        {
            "label": "wz3-l",
            "lineType": "LL",
            "shape_type": "line",
            "points": [
                [
                    3427,
                    890
                ],
                [
                    3437,
                    933
                ]
            ],
            "flags": {},
            "group_id": null
        },
        {
            "label": "wz3-l",
            "lineType": "LL",
            "shape_type": "line",
            "points": [
                [
                    3737,
                    892
                ],
                [
                    3722,
                    926
                ]
            ],
            "flags": {},
            "group_id": null
        },
        {
            "label": "wz3-l",
            "lineType": "LL",
            "shape_type": "line",
            "points": [
                [
                    3476,
                    281
                ],
                [
                    3476,
                    324
                ]
            ],
            "flags": {},
            "group_id": null
        },
        {
            "label": "wz3-l",
            "lineType": "LL",
            "shape_type": "line",
            "points": [
                [
                    3690,
                    274
                ],
                [
                    3685,
                    324
                ]
            ],
            "flags": {},
            "group_id": null
        },
        {
            "label": "wz3-l",
            "lineType": "LL",
            "shape_type": "line",
            "points": [
                [
                    3684,
                    232
                ],
                [
                    3685,
                    307
                ]
            ],
            "flags": {},
            "group_id": null
        },
        {
            "label": "wz3-l",
            "lineType": "LL",
            "shape_type": "line",
            "points": [
                [
                    3302,
                    409
                ],
                [
                    3470,
                    396
                ]
            ],
            "flags": {},
            "group_id": null
        },
        {
            "label": "wz3-l",
            "lineType": "LL",
            "shape_type": "line",
            "points": [
                [
                    3214,
                    611
                ],
                [
                    3451,
                    598
                ]
            ],
            "flags": {},
            "group_id": null
        },
        {
            "label": "wz3-l",
            "lineType": "LL",
            "shape_type": "line",
            "points": [
                [
                    3178,
                    796
                ],
                [
                    3437,
                    785
                ]
            ],
            "flags": {},
            "group_id": null
        },
        {
            "label": "wz3-l",
            "lineType": "LL",
            "shape_type": "line",
            "points": [
                [
                    3182,
                    1010
                ],
                [
                    3421,
                    998
                ]
            ],
            "flags": {},
            "group_id": null
        },
        {
            "label": "wz3-l",
            "lineType": "LL",
            "shape_type": "line",
            "points": [
                [
                    2548,
                    641
                ],
                [
                    2678,
                    634
                ]
            ],
            "flags": {},
            "group_id": null
        },
        {
            "label": "wz3-l",
            "lineType": "LL",
            "shape_type": "line",
            "points": [
                [
                    2546,
                    969
                ],
                [
                    2661,
                    960
                ]
            ],
            "flags": {},
            "group_id": null
        },
        {
            "label": "wz3-l",
            "lineType": "LL",
            "shape_type": "line",
            "points": [
                [
                    2240,
                    964
                ],
                [
                    2146,
                    959
                ]
            ],
            "flags": {},
            "group_id": null
        },
        {
            "label": "wz3-l",
            "lineType": "LL",
            "shape_type": "line",
            "points": [
                [
                    2186,
                    1202
                ],
                [
                    2269,
                    1194
                ]
            ],
            "flags": {},
            "group_id": null
        },
        {
            "label": "wz3-l",
            "lineType": "LL",
            "shape_type": "line",
            "points": [
                [
                    2192,
                    1516
                ],
                [
                    2263,
                    1516
                ]
            ],
            "flags": {},
            "group_id": null
        },
        {
            "label": "wz3-l",
            "lineType": "LL",
            "shape_type": "line",
            "points": [
                [
                    1882,
                    1511
                ],
                [
                    1820,
                    1519
                ]
            ],
            "flags": {},
            "group_id": null
        },
        {
            "label": "wz3-l",
            "lineType": "LL",
            "shape_type": "line",
            "points": [
                [
                    2563,
                    1523
                ],
                [
                    2486,
                    1526
                ]
            ],
            "flags": {},
            "group_id": null
        },
        {
            "label": "wz3-l",
            "lineType": "LL",
            "shape_type": "line",
            "points": [
                [
                    2873,
                    1515
                ],
                [
                    2972,
                    1515
                ]
            ],
            "flags": {},
            "group_id": null
        },
        {
            "label": "wz3-l",
            "lineType": "LL",
            "shape_type": "line",
            "points": [
                [
                    2851,
                    1204
                ],
                [
                    2963,
                    1208
                ]
            ],
            "flags": {},
            "group_id": null
        },
        {
            "label": "wz3-l",
            "lineType": "LL",
            "shape_type": "line",
            "points": [
                [
                    2393,
                    510
                ],
                [
                    2393,
                    475
                ]
            ],
            "flags": {},
            "group_id": null
        },
        {
            "label": "wz3",
            "shape_type": "rectangle",
            "points": [
                [
                    2366,
                    494
                ],
                [
                    2420,
                    526
                ]
            ],
            "flags": {},
            "group_id": null
        },
        {
            "label": "wz3",
            "shape_type": "rectangle",
            "points": [
                [
                    2622,
                    597
                ],
                [
                    2838,
                    675
                ]
            ],
            "flags": {},
            "group_id": null
        },
        {
            "label": "wz3",
            "shape_type": "rectangle",
            "points": [
                [
                    2585,
                    906
                ],
                [
                    2831,
                    984
                ]
            ],
            "flags": {},
            "group_id": null
        },
        {
            "label": "wz3",
            "shape_type": "rectangle",
            "points": [
                [
                    2018,
                    901
                ],
                [
                    2265,
                    990
                ]
            ],
            "flags": {},
            "group_id": null
        },
        {
            "label": "wz3",
            "shape_type": "rectangle",
            "points": [
                [
                    2903,
                    1163
                ],
                [
                    3088,
                    1243
                ]
            ],
            "flags": {},
            "group_id": null
        },
        {
            "label": "wz3",
            "shape_type": "rectangle",
            "points": [
                [
                    2922,
                    1469
                ],
                [
                    3087,
                    1546
                ]
            ],
            "flags": {},
            "group_id": null
        },
        {
            "label": "wz3",
            "shape_type": "rectangle",
            "points": [
                [
                    2347,
                    1465
                ],
                [
                    2534,
                    1543
                ]
            ],
            "flags": {},
            "group_id": null
        },
        {
            "label": "wz3",
            "shape_type": "rectangle",
            "points": [
                [
                    2241,
                    1490
                ],
                [
                    2299,
                    1535
                ]
            ],
            "flags": {},
            "group_id": null
        },
        {
            "label": "wz3",
            "shape_type": "rectangle",
            "points": [
                [
                    2248,
                    1168
                ],
                [
                    2305,
                    1211
                ]
            ],
            "flags": {},
            "group_id": null
        },
        {
            "label": "wz3",
            "shape_type": "rectangle",
            "points": [
                [
                    1784,
                    1492
                ],
                [
                    1843,
                    1536
                ]
            ],
            "flags": {},
            "group_id": null
        },
        {
            "label": "wz3",
            "shape_type": "rectangle",
            "points": [
                [
                    1517,
                    1151
                ],
                [
                    1682,
                    1228
                ]
            ],
            "flags": {},
            "group_id": null
        },
        {
            "label": "wz3",
            "shape_type": "rectangle",
            "points": [
                [
                    932,
                    1151
                ],
                [
                    1118,
                    1235
                ]
            ],
            "flags": {},
            "group_id": null
        },
        {
            "label": "wz3",
            "shape_type": "rectangle",
            "points": [
                [
                    1493,
                    850
                ],
                [
                    1676,
                    932
                ]
            ],
            "flags": {},
            "group_id": null
        },
        {
            "label": "wz3-l",
            "lineType": "LL",
            "shape_type": "line",
            "points": [
                [
                    1452,
                    889
                ],
                [
                    1539,
                    889
                ]
            ],
            "flags": {},
            "group_id": null
        },
        {
            "label": "wz3-l",
            "lineType": "LL",
            "shape_type": "line",
            "points": [
                [
                    1467,
                    1203
                ],
                [
                    1543,
                    1193
                ]
            ],
            "flags": {},
            "group_id": null
        },
        {
            "label": "wz3-l",
            "lineType": "LL",
            "shape_type": "line",
            "points": [
                [
                    1160,
                    1212
                ],
                [
                    1086,
                    1198
                ]
            ],
            "flags": {},
            "group_id": null
        },
        {
            "label": "wz1",
            "shape_type": "rectangle",
            "points": [
                [
                    984,
                    560
                ],
                [
                    1012,
                    571
                ]
            ],
            "flags": {},
            "group_id": null
        },
        {
            "label": "wz1-l",
            "lineType": "LL",
            "shape_type": "line",
            "points": [
                [
                    959,
                    544
                ],
                [
                    994,
                    567
                ]
            ],
            "flags": {},
            "group_id": null
        }
    ],
    "flags": {},
    "imageData": null,
    "version": "4.5.7"
}