{
    "imageHeight": 2908,
    "imageWidth": 4205,
    "imagePath": "样本2_93_54.png",
    "shapes": [
        {
            "label": "s1",
            "shape_type": "rectangle",
            "points": [
                [
                    3402,
                    261
                ],
                [
                    3879,
                    2042
                ]
            ],
            "flags": {},
            "group_id": null
        },
        {
            "label": "a1-3",
            "shape_type": "rectangle",
            "points": [
                [
                    3641,
                    312
                ],
                [
                    3651,
                    378
                ]
            ],
            "flags": {},
            "group_id": null
        },
        {
            "label": "g1",
            "shape_type": "rectangle",
            "points": [
                [
                    3660,
                    280
                ],
                [
                    3666,
                    417
                ]
            ],
            "flags": {},
            "group_id": null
        },
        {
            "label": "d1",
            "shape_type": "rectangle",
            "points": [
                [
                    3530,
                    104
                ],
                [
                    3614,
                    241
                ]
            ],
            "flags": {},
            "group_id": null
        },
        {
            "label": "d1",
            "shape_type": "rectangle",
            "points": [
                [
                    3716,
                    105
                ],
                [
                    3800,
                    241
                ]
            ],
            "flags": {},
            "group_id": null
        },
        {
            "label": "g1",
            "shape_type": "rectangle",
            "points": [
                [
                    3614,
                    473
                ],
                [
                    3617,
                    620
                ]
            ],
            "flags": {},
            "group_id": null
        },
        {
            "label": "g1",
            "shape_type": "rectangle",
            "points": [
                [
                    3707,
                    473
                ],
                [
                    3709,
                    620
                ]
            ],
            "flags": {},
            "group_id": null
        },
        {
            "label": "a1-2",
            "shape_type": "rectangle",
            "points": [
                [
                    3721,
                    618
                ],
                [
                    3753,
                    727
                ]
            ],
            "flags": {},
            "group_id": null
        },
        {
            "label": "g1",
            "shape_type": "rectangle",
            "points": [
                [
                    3603,
                    606
                ],
                [
                    3607,
                    784
                ]
            ],
            "flags": {},
            "group_id": null
        },
        {
            "label": "g1",
            "shape_type": "rectangle",
            "points": [
                [
                    3718,
                    606
                ],
                [
                    3721,
                    783
                ]
            ],
            "flags": {},
            "group_id": null
        },
        {
            "label": "p1-1",
            "shape_type": "rectangle",
            "points": [
                [
                    3603,
                    606
                ],
                [
                    3753,
                    784
                ]
            ],
            "flags": {},
            "group_id": null
        },
        {
            "label": "d1",
            "shape_type": "rectangle",
            "points": [
                [
                    3856,
                    608
                ],
                [
                    3940,
                    745
                ]
            ],
            "flags": {},
            "group_id": null
        },
        {
            "label": "h1",
            "shape_type": "rectangle",
            "points": [
                [
                    3948,
                    668
                ],
                [
                    4091,
                    738
                ]
            ],
            "flags": {},
            "group_id": null
        },
        {
            "label": "d1",
            "shape_type": "rectangle",
            "points": [
                [
                    3856,
                    772
                ],
                [
                    3940,
                    910
                ]
            ],
            "flags": {},
            "group_id": null
        },
        {
            "label": "h1",
            "shape_type": "rectangle",
            "points": [
                [
                    3947,
                    833
                ],
                [
                    4093,
                    904
                ]
            ],
            "flags": {},
            "group_id": null
        },
        {
            "label": "d1",
            "shape_type": "rectangle",
            "points": [
                [
                    3335,
                    608
                ],
                [
                    3418,
                    745
                ]
            ],
            "flags": {},
            "group_id": null
        },
        {
            "label": "d1",
            "shape_type": "rectangle",
            "points": [
                [
                    3334,
                    773
                ],
                [
                    3419,
                    910
                ]
            ],
            "flags": {},
            "group_id": null
        },
        {
            "label": "a1-1",
            "shape_type": "rectangle",
            "points": [
                [
                    3572,
                    817
                ],
                [
                    3602,
                    929
                ]
            ],
            "flags": {},
            "group_id": null
        },
        {
            "label": "a1-2",
            "shape_type": "rectangle",
            "points": [
                [
                    3722,
                    817
                ],
                [
                    3752,
                    929
                ]
            ],
            "flags": {},
            "group_id": null
        },
        {
            "label": "g1",
            "shape_type": "rectangle",
            "points": [
                [
                    3602,
                    799
                ],
                [
                    3606,
                    985
                ]
            ],
            "flags": {},
            "group_id": null
        },
        {
            "label": "g1",
            "shape_type": "rectangle",
            "points": [
                [
                    3717,
                    799
                ],
                [
                    3721,
                    984
                ]
            ],
            "flags": {},
            "group_id": null
        },
        {
            "label": "p1-1",
            "shape_type": "rectangle",
            "points": [
                [
                    3571,
                    799
                ],
                [
                    3753,
                    985
                ]
            ],
            "flags": {},
            "group_id": null
        },
        {
            "label": "h1",
            "shape_type": "rectangle",
            "points": [
                [
                    3923,
                    348
                ],
                [
                    4066,
                    419
                ]
            ],
            "flags": {},
            "group_id": null
        },
        {
            "label": "h1",
            "shape_type": "rectangle",
            "points": [
                [
                    3867,
                    1972
                ],
                [
                    4018,
                    2042
                ]
            ],
            "flags": {},
            "group_id": null
        },
        {
            "label": "v1",
            "shape_type": "rectangle",
            "points": [
                [
                    3488,
                    2101
                ],
                [
                    3819,
                    2190
                ]
            ],
            "flags": {},
            "group_id": null
        },
        {
            "label": "b1",
            "shape_type": "rectangle",
            "points": [
                [
                    3406,
                    1782
                ],
                [
                    3567,
                    2042
                ]
            ],
            "flags": {},
            "group_id": null
        },
        {
            "label": "vp1-1",
            "shape_type": "rectangle",
            "points": [
                [
                    2750,
                    1321
                ],
                [
                    2917,
                    1489
                ]
            ],
            "flags": {},
            "group_id": null
        },
        {
            "label": "va1",
            "shape_type": "rectangle",
            "points": [
                [
                    2821,
                    1218
                ],
                [
                    2871,
                    1269
                ]
            ],
            "flags": {},
            "group_id": null
        },
        {
            "label": "va1",
            "shape_type": "rectangle",
            "points": [
                [
                    2666,
                    1462
                ],
                [
                    2714,
                    1515
                ]
            ],
            "flags": {},
            "group_id": null
        },
        {
            "label": "va1",
            "shape_type": "rectangle",
            "points": [
                [
                    2949,
                    1469
                ],
                [
                    3001,
                    1519
                ]
            ],
            "flags": {},
            "group_id": null
        },
        {
            "label": "v1",
            "shape_type": "rectangle",
            "points": [
                [
                    2744,
                    1557
                ],
                [
                    2974,
                    1639
                ]
            ],
            "flags": {},
            "group_id": null
        },
        {
            "label": "v1",
            "shape_type": "rectangle",
            "points": [
                [
                    2743,
                    971
                ],
                [
                    2974,
                    1056
                ]
            ],
            "flags": {},
            "group_id": null
        },
        {
            "label": "vp1-1",
            "shape_type": "rectangle",
            "points": [
                [
                    2750,
                    739
                ],
                [
                    2917,
                    905
                ]
            ],
            "flags": {},
            "group_id": null
        },
        {
            "label": "va1",
            "shape_type": "rectangle",
            "points": [
                [
                    2821,
                    634
                ],
                [
                    2870,
                    686
                ]
            ],
            "flags": {},
            "group_id": null
        },
        {
            "label": "vp2-1",
            "shape_type": "rectangle",
            "points": [
                [
                    1876,
                    989
                ],
                [
                    2007,
                    1122
                ]
            ],
            "flags": {},
            "group_id": null
        },
        {
            "label": "va1",
            "shape_type": "rectangle",
            "points": [
                [
                    1900,
                    1040
                ],
                [
                    1946,
                    1093
                ]
            ],
            "flags": {},
            "group_id": null
        },
        {
            "label": "va1",
            "shape_type": "rectangle",
            "points": [
                [
                    1936,
                    1006
                ],
                [
                    1985,
                    1057
                ]
            ],
            "flags": {},
            "group_id": null
        },
        {
            "label": "va1",
            "shape_type": "rectangle",
            "points": [
                [
                    1943,
                    1053
                ],
                [
                    1995,
                    1102
                ]
            ],
            "flags": {},
            "group_id": null
        },
        {
            "label": "v1",
            "shape_type": "rectangle",
            "points": [
                [
                    1795,
                    1298
                ],
                [
                    2128,
                    1391
                ]
            ],
            "flags": {},
            "group_id": null
        },
        {
            "label": "n1",
            "shape_type": "rectangle",
            "points": [
                [
                    1636,
                    147
                ],
                [
                    2186,
                    635
                ]
            ],
            "flags": {},
            "group_id": null
        },
        {
            "label": "d1",
            "shape_type": "rectangle",
            "points": [
                [
                    1080,
                    449
                ],
                [
                    1218,
                    533
                ]
            ],
            "flags": {},
            "group_id": null
        },
        {
            "label": "v1",
            "shape_type": "rectangle",
            "points": [
                [
                    781,
                    1248
                ],
                [
                    972,
                    1320
                ]
            ],
            "flags": {},
            "group_id": null
        },
        {
            "label": "d1",
            "shape_type": "rectangle",
            "points": [
                [
                    1081,
                    1119
                ],
                [
                    1219,
                    1203
                ]
            ],
            "flags": {},
            "group_id": null
        },
        {
            "label": "vs1",
            "shape_type": "rectangle",
            "points": [
                [
                    646,
                    501
                ],
                [
                    1084,
                    870
                ]
            ],
            "flags": {},
            "group_id": null
        },
        {
            "label": "va1",
            "shape_type": "rectangle",
            "points": [
                [
                    840,
                    643
                ],
                [
                    894,
                    684
                ]
            ],
            "flags": {},
            "group_id": null
        },
        {
            "label": "va1",
            "shape_type": "rectangle",
            "points": [
                [
                    867,
                    673
                ],
                [
                    913,
                    725
                ]
            ],
            "flags": {},
            "group_id": null
        },
        {
            "label": "va1",
            "shape_type": "rectangle",
            "points": [
                [
                    823,
                    676
                ],
                [
                    870,
                    727
                ]
            ],
            "flags": {},
            "group_id": null
        },
        {
            "label": "vb1",
            "shape_type": "rectangle",
            "points": [
                [
                    821,
                    941
                ],
                [
                    912,
                    1073
                ]
            ],
            "flags": {},
            "group_id": null
        },
        {
            "label": "seven",
            "shape_type": "point",
            "points": [
                [
                    3487,
                    1785
                ]
            ],
            "flags": {},
            "group_id": null
        },
        {
            "label": "eight",
            "shape_type": "point",
            "points": [
                [
                    3554,
                    1786
                ]
            ],
            "flags": {},
            "group_id": null
        },
        {
            "label": "eleven",
            "shape_type": "point",
            "points": [
                [
                    3487,
                    1897
                ]
            ],
            "flags": {},
            "group_id": null
        },
        {
            "label": "twelve",
            "shape_type": "point",
            "points": [
                [
                    3554,
                    1897
                ]
            ],
            "flags": {},
            "group_id": null
        },
        {
            "label": "fourteen",
            "shape_type": "point",
            "points": [
                [
                    3487,
                    2010
                ]
            ],
            "flags": {},
            "group_id": null
        },
        {
            "label": "fourteen",
            "shape_type": "point",
            "points": [
                [
                    3554,
                    2010
                ]
            ],
            "flags": {},
            "group_id": null
        },
        {
            "label": "seven",
            "shape_type": "point",
            "points": [
                [
                    3407,
                    2012
                ]
            ],
            "flags": {},
            "group_id": null
        },
        {
            "label": "eight",
            "shape_type": "point",
            "points": [
                [
                    3567,
                    2013
                ]
            ],
            "flags": {},
            "group_id": null
        },
        {
            "label": "fourteen",
            "shape_type": "point",
            "points": [
                [
                    3406,
                    2042
                ]
            ],
            "flags": {},
            "group_id": null
        },
        {
            "label": "fourteen",
            "shape_type": "point",
            "points": [
                [
                    3567,
                    2042
                ]
            ],
            "flags": {},
            "group_id": null
        },
        {
            "label": "seven",
            "shape_type": "point",
            "points": [
                [
                    821,
                    941
                ]
            ],
            "flags": {},
            "group_id": null
        },
        {
            "label": "eight",
            "shape_type": "point",
            "points": [
                [
                    912,
                    941
                ]
            ],
            "flags": {},
            "group_id": null
        },
        {
            "label": "seven",
            "shape_type": "point",
            "points": [
                [
                    830,
                    951
                ]
            ],
            "flags": {},
            "group_id": null
        },
        {
            "label": "eight",
            "shape_type": "point",
            "points": [
                [
                    900,
                    951
                ]
            ],
            "flags": {},
            "group_id": null
        },
        {
            "label": "thirteen",
            "shape_type": "point",
            "points": [
                [
                    840,
                    951
                ]
            ],
            "flags": {},
            "group_id": null
        },
        {
            "label": "nine",
            "shape_type": "point",
            "points": [
                [
                    830,
                    1021
                ]
            ],
            "flags": {},
            "group_id": null
        },
        {
            "label": "ten",
            "shape_type": "point",
            "points": [
                [
                    900,
                    1021
                ]
            ],
            "flags": {},
            "group_id": null
        },
        {
            "label": "fourteen",
            "shape_type": "point",
            "points": [
                [
                    840,
                    1021
                ]
            ],
            "flags": {},
            "group_id": null
        },
        {
            "label": "fourteen",
            "shape_type": "point",
            "points": [
                [
                    821,
                    1073
                ]
            ],
            "flags": {},
            "group_id": null
        },
        {
            "label": "ten",
            "shape_type": "point",
            "points": [
                [
                    912,
                    1073
                ]
            ],
            "flags": {},
            "group_id": null
        },
        {
            "label": "p1-1",
            "shape_type": "rectangle",
            "points": [
                [
                    3614,
                    472
                ],
                [
                    3710,
                    620
                ]
            ],
            "flags": {},
            "group_id": null
        },
        {
            "label": "x1",
            "shape_type": "rectangle",
            "points": [
                [
                    3586,
                    1398
                ],
                [
                    3738,
                    1425
                ]
            ],
            "flags": {},
            "group_id": null
        },
        {
            "label": "a1-4",
            "shape_type": "rectangle",
            "points": [
                [
                    3654,
                    311
                ],
                [
                    3671,
                    378
                ]
            ],
            "flags": {},
            "group_id": null
        },
        {
            "label": "a1-3",
            "shape_type": "rectangle",
            "points": [
                [
                    3674,
                    311
                ],
                [
                    3685,
                    377
                ]
            ],
            "flags": {},
            "group_id": null
        },
        {
            "label": "sm",
            "shape_type": "rectangle",
            "points": [
                [
                    2036,
                    1702
                ],
                [
                    3474,
                    2502
                ]
            ],
            "flags": {},
            "group_id": null
        },
        {
            "label": "btl",
            "shape_type": "rectangle",
            "points": [
                [
                    2346,
                    2567
                ],
                [
                    4154,
                    2873
                ]
            ],
            "flags": {},
            "group_id": null
        },
        {
            "label": "j1",
            "shape_type": "rectangle",
            "points": [
                [
                    1959,
                    151
                ],
                [
                    1991,
                    194
                ]
            ],
            "flags": {},
            "group_id": null
        },
        {
            "label": "j1",
            "shape_type": "rectangle",
            "points": [
                [
                    2101,
                    303
                ],
                [
                    2186,
                    379
                ]
            ],
            "flags": {},
            "group_id": null
        },
        {
            "label": "j1",
            "shape_type": "rectangle",
            "points": [
                [
                    2041,
                    554
                ],
                [
                    2148,
                    634
                ]
            ],
            "flags": {},
            "group_id": null
        },
        {
            "label": "j1",
            "shape_type": "rectangle",
            "points": [
                [
                    1637,
                    466
                ],
                [
                    1746,
                    543
                ]
            ],
            "flags": {},
            "group_id": null
        },
        {
            "label": "mask",
            "lineType": [
                "LLLLLLLLLLLLLLLLLLLLLLLLLLLLLLLLLLLLLLLLLLLLLLLLLLLLL"
            ],
            "shape_type": "polygon",
            "points": [
                [
                    3165,
                    933
                ],
                [
                    3127,
                    859
                ],
                [
                    3125,
                    799
                ],
                [
                    3248,
                    775
                ],
                [
                    3303,
                    657
                ],
                [
                    3337,
                    531
                ],
                [
                    3364,
                    432
                ],
                [
                    3164,
                    309
                ],
                [
                    3164,
                    219
                ],
                [
                    3210,
                    132
                ],
                [
                    3383,
                    100
                ],
                [
                    3613,
                    96
                ],
                [
                    3857,
                    96
                ],
                [
                    3916,
                    227
                ],
                [
                    4000,
                    278
                ],
                [
                    4101,
                    319
                ],
                [
                    4106,
                    399
                ],
                [
                    4086,
                    459
                ],
                [
                    4112,
                    693
                ],
                [
                    4112,
                    769
                ],
                [
                    4124,
                    856
                ],
                [
                    4121,
                    898
                ],
                [
                    4006,
                    931
                ],
                [
                    3871,
                    924
                ],
                [
                    3795,
                    1060
                ],
                [
                    3786,
                    1200
                ],
                [
                    3807,
                    1378
                ],
                [
                    3778,
                    1482
                ],
                [
                    3746,
                    1604
                ],
                [
                    3776,
                    1840
                ],
                [
                    3753,
                    1929
                ],
                [
                    3937,
                    1955
                ],
                [
                    4056,
                    1958
                ],
                [
                    4150,
                    2021
                ],
                [
                    4132,
                    2071
                ],
                [
                    4090,
                    2124
                ],
                [
                    4004,
                    2130
                ],
                [
                    3954,
                    2172
                ],
                [
                    3886,
                    2209
                ],
                [
                    3812,
                    2216
                ],
                [
                    3715,
                    2229
                ],
                [
                    3314,
                    2169
                ],
                [
                    3198,
                    2093
                ],
                [
                    3148,
                    2050
                ],
                [
                    3129,
                    2028
                ],
                [
                    3405,
                    1984
                ],
                [
                    3413,
                    1805
                ],
                [
                    3550,
                    1740
                ],
                [
                    3520,
                    1383
                ],
                [
                    3478,
                    1277
                ],
                [
                    3348,
                    1055
                ],
                [
                    3267,
                    971
                ],
                [
                    3165,
                    933
                ]
            ],
            "flags": {},
            "group_id": null
        },
        {
            "label": "mask",
            "lineType": [
                "LLLLLLLLLLLLLLLLLLLLLLLLLLLL"
            ],
            "shape_type": "polygon",
            "points": [
                [
                    2023,
                    1701
                ],
                [
                    2399,
                    1692
                ],
                [
                    2406,
                    1760
                ],
                [
                    2551,
                    1750
                ],
                [
                    2724,
                    1796
                ],
                [
                    2775,
                    1849
                ],
                [
                    2803,
                    1934
                ],
                [
                    2885,
                    2028
                ],
                [
                    3100,
                    2041
                ],
                [
                    3132,
                    2051
                ],
                [
                    3140,
                    2092
                ],
                [
                    3144,
                    2117
                ],
                [
                    3068,
                    2124
                ],
                [
                    2964,
                    2133
                ],
                [
                    2955,
                    2171
                ],
                [
                    2947,
                    2221
                ],
                [
                    3351,
                    2238
                ],
                [
                    3353,
                    2324
                ],
                [
                    3431,
                    2413
                ],
                [
                    3489,
                    2459
                ],
                [
                    3502,
                    2505
                ],
                [
                    3454,
                    2529
                ],
                [
                    2890,
                    2523
                ],
                [
                    2723,
                    2536
                ],
                [
                    2252,
                    2529
                ],
                [
                    2096,
                    2533
                ],
                [
                    2033,
                    2517
                ],
                [
                    2023,
                    1701
                ]
            ],
            "flags": {},
            "group_id": null
        },
        {
            "label": "mask",
            "lineType": [
                "LLLLL"
            ],
            "shape_type": "polygon",
            "points": [
                [
                    2339,
                    2554
                ],
                [
                    2330,
                    2874
                ],
                [
                    4152,
                    2870
                ],
                [
                    4155,
                    2563
                ],
                [
                    2339,
                    2554
                ]
            ],
            "flags": {},
            "group_id": null
        },
        {
            "label": "mask",
            "lineType": [
                "LLLLLLLLLLLLLLLLLLLLLLL"
            ],
            "shape_type": "polygon",
            "points": [
                [
                    2644,
                    1639
                ],
                [
                    2793,
                    1672
                ],
                [
                    2976,
                    1669
                ],
                [
                    3003,
                    1635
                ],
                [
                    3042,
                    1585
                ],
                [
                    3181,
                    1551
                ],
                [
                    3192,
                    1500
                ],
                [
                    3172,
                    1438
                ],
                [
                    3109,
                    1354
                ],
                [
                    3058,
                    1223
                ],
                [
                    3001,
                    1179
                ],
                [
                    2888,
                    1171
                ],
                [
                    2789,
                    1195
                ],
                [
                    2763,
                    1277
                ],
                [
                    2721,
                    1363
                ],
                [
                    2683,
                    1405
                ],
                [
                    2587,
                    1420
                ],
                [
                    2489,
                    1435
                ],
                [
                    2469,
                    1457
                ],
                [
                    2469,
                    1508
                ],
                [
                    2467,
                    1550
                ],
                [
                    2531,
                    1572
                ],
                [
                    2644,
                    1639
                ]
            ],
            "flags": {},
            "group_id": null
        },
        {
            "label": "mask",
            "lineType": [
                "LLLLLLLLLLLLLLL"
            ],
            "shape_type": "polygon",
            "points": [
                [
                    2672,
                    1070
                ],
                [
                    2997,
                    1067
                ],
                [
                    2996,
                    1015
                ],
                [
                    2993,
                    928
                ],
                [
                    2977,
                    802
                ],
                [
                    2968,
                    735
                ],
                [
                    3089,
                    725
                ],
                [
                    3199,
                    686
                ],
                [
                    3226,
                    629
                ],
                [
                    3215,
                    588
                ],
                [
                    3069,
                    565
                ],
                [
                    2871,
                    562
                ],
                [
                    2781,
                    607
                ],
                [
                    2642,
                    865
                ],
                [
                    2672,
                    1070
                ]
            ],
            "flags": {},
            "group_id": null
        },
        {
            "label": "mask",
            "lineType": [
                "LLLLLLLLLLLLLL"
            ],
            "shape_type": "polygon",
            "points": [
                [
                    1698,
                    691
                ],
                [
                    2043,
                    692
                ],
                [
                    2172,
                    659
                ],
                [
                    2173,
                    534
                ],
                [
                    2213,
                    394
                ],
                [
                    2222,
                    316
                ],
                [
                    2167,
                    247
                ],
                [
                    2115,
                    178
                ],
                [
                    1934,
                    120
                ],
                [
                    1863,
                    126
                ],
                [
                    1822,
                    355
                ],
                [
                    1592,
                    480
                ],
                [
                    1575,
                    562
                ],
                [
                    1698,
                    691
                ]
            ],
            "flags": {},
            "group_id": null
        },
        {
            "label": "mask",
            "lineType": [
                "LLLLLLLLLLLLLLLLL"
            ],
            "shape_type": "polygon",
            "points": [
                [
                    1600,
                    1207
                ],
                [
                    1513,
                    1101
                ],
                [
                    1502,
                    1012
                ],
                [
                    1624,
                    967
                ],
                [
                    1986,
                    887
                ],
                [
                    2023,
                    862
                ],
                [
                    2214,
                    860
                ],
                [
                    2337,
                    860
                ],
                [
                    2331,
                    944
                ],
                [
                    2432,
                    1113
                ],
                [
                    2310,
                    1217
                ],
                [
                    2209,
                    1252
                ],
                [
                    2181,
                    1324
                ],
                [
                    2173,
                    1427
                ],
                [
                    2091,
                    1425
                ],
                [
                    1747,
                    1426
                ],
                [
                    1600,
                    1207
                ]
            ],
            "flags": {},
            "group_id": null
        },
        {
            "label": "mask",
            "lineType": [
                "LLLLLLLLLLLL"
            ],
            "shape_type": "polygon",
            "points": [
                [
                    326,
                    1755
                ],
                [
                    915,
                    1748
                ],
                [
                    1005,
                    1708
                ],
                [
                    1151,
                    1694
                ],
                [
                    1330,
                    1694
                ],
                [
                    1308,
                    1761
                ],
                [
                    1941,
                    1747
                ],
                [
                    1968,
                    1785
                ],
                [
                    1969,
                    1882
                ],
                [
                    1968,
                    2745
                ],
                [
                    330,
                    2737
                ],
                [
                    326,
                    1755
                ]
            ],
            "flags": {},
            "group_id": null
        },
        {
            "label": "mask",
            "lineType": [
                "LLLLLLLLLLLLLLLLLLLLLLLL"
            ],
            "shape_type": "polygon",
            "points": [
                [
                    723,
                    1327
                ],
                [
                    874,
                    1348
                ],
                [
                    1003,
                    1353
                ],
                [
                    1031,
                    1325
                ],
                [
                    1017,
                    1243
                ],
                [
                    1226,
                    1239
                ],
                [
                    1254,
                    1211
                ],
                [
                    1220,
                    1119
                ],
                [
                    1119,
                    1008
                ],
                [
                    1088,
                    792
                ],
                [
                    1138,
                    666
                ],
                [
                    1232,
                    606
                ],
                [
                    1268,
                    535
                ],
                [
                    1259,
                    454
                ],
                [
                    1227,
                    415
                ],
                [
                    981,
                    414
                ],
                [
                    726,
                    464
                ],
                [
                    639,
                    522
                ],
                [
                    602,
                    663
                ],
                [
                    644,
                    832
                ],
                [
                    595,
                    1027
                ],
                [
                    618,
                    1138
                ],
                [
                    623,
                    1290
                ],
                [
                    723,
                    1327
                ]
            ],
            "flags": {},
            "group_id": null
        },
        {
            "label": "Ns",
            "shape_type": "point",
            "points": [
                [
                    1937,
                    452
                ]
            ],
            "flags": {},
            "group_id": null
        },
        {
            "label": "Ne",
            "shape_type": "point",
            "points": [
                [
                    1936,
                    272
                ]
            ],
            "flags": {},
            "group_id": null
        },
        {
            "label": "wlb",
            "shape_type": "rectangle",
            "points": [
                [
                    363,
                    1707
                ],
                [
                    1944,
                    2709
                ]
            ],
            "flags": {},
            "group_id": null
        },
        {
            "label": "wz1",
            "shape_type": "rectangle",
            "points": [
                [
                    677,
                    995
                ],
                [
                    739,
                    1039
                ]
            ],
            "flags": {},
            "group_id": null
        },
        {
            "label": "wz1",
            "shape_type": "rectangle",
            "points": [
                [
                    710,
                    1127
                ],
                [
                    804,
                    1170
                ]
            ],
            "flags": {},
            "group_id": null
        },
        {
            "label": "wz1",
            "shape_type": "rectangle",
            "points": [
                [
                    938,
                    1126
                ],
                [
                    1031,
                    1171
                ]
            ],
            "flags": {},
            "group_id": null
        },
        {
            "label": "wz1-l",
            "lineType": "LL",
            "shape_type": "line",
            "points": [
                [
                    954,
                    1155
                ],
                [
                    901,
                    1084
                ]
            ],
            "flags": {},
            "group_id": null
        },
        {
            "label": "wz1-l",
            "lineType": "LL",
            "shape_type": "line",
            "points": [
                [
                    798,
                    1135
                ],
                [
                    846,
                    1084
                ]
            ],
            "flags": {},
            "group_id": null
        },
        {
            "label": "wz1-l",
            "lineType": "LL",
            "shape_type": "line",
            "points": [
                [
                    727,
                    1036
                ],
                [
                    818,
                    1057
                ]
            ],
            "flags": {},
            "group_id": null
        },
        {
            "label": "wz1",
            "shape_type": "rectangle",
            "points": [
                [
                    2037,
                    866
                ],
                [
                    2307,
                    966
                ]
            ],
            "flags": {},
            "group_id": null
        },
        {
            "label": "wz1",
            "shape_type": "rectangle",
            "points": [
                [
                    2137,
                    1072
                ],
                [
                    2406,
                    1176
                ]
            ],
            "flags": {},
            "group_id": null
        },
        {
            "label": "wz1",
            "shape_type": "rectangle",
            "points": [
                [
                    1540,
                    1029
                ],
                [
                    1807,
                    1140
                ]
            ],
            "flags": {},
            "group_id": null
        },
        {
            "label": "wz1-l",
            "lineType": "LL",
            "shape_type": "line",
            "points": [
                [
                    1766,
                    1103
                ],
                [
                    1903,
                    1068
                ]
            ],
            "flags": {},
            "group_id": null
        },
        {
            "label": "wz1-l",
            "lineType": "LL",
            "shape_type": "line",
            "points": [
                [
                    2163,
                    1129
                ],
                [
                    1979,
                    1080
                ]
            ],
            "flags": {},
            "group_id": null
        },
        {
            "label": "wz1-l",
            "lineType": "LL",
            "shape_type": "line",
            "points": [
                [
                    2047,
                    910
                ],
                [
                    1975,
                    1013
                ]
            ],
            "flags": {},
            "group_id": null
        },
        {
            "label": "wz1",
            "shape_type": "rectangle",
            "points": [
                [
                    3418,
                    2086
                ],
                [
                    3547,
                    2129
                ]
            ],
            "flags": {},
            "group_id": null
        },
        {
            "label": "wz1-l",
            "lineType": "LL",
            "shape_type": "line",
            "points": [
                [
                    3515,
                    2116
                ],
                [
                    3568,
                    2057
                ]
            ],
            "flags": {},
            "group_id": null
        },
        {
            "label": "wz3",
            "shape_type": "rectangle",
            "points": [
                [
                    3004,
                    1449
                ],
                [
                    3160,
                    1513
                ]
            ],
            "flags": {},
            "group_id": null
        },
        {
            "label": "wz3",
            "shape_type": "rectangle",
            "points": [
                [
                    2497,
                    1465
                ],
                [
                    2656,
                    1528
                ]
            ],
            "flags": {},
            "group_id": null
        },
        {
            "label": "wz3",
            "shape_type": "rectangle",
            "points": [
                [
                    2880,
                    1201
                ],
                [
                    3015,
                    1263
                ]
            ],
            "flags": {},
            "group_id": null
        },
        {
            "label": "wz3-l",
            "lineType": "LL",
            "shape_type": "line",
            "points": [
                [
                    2901,
                    1239
                ],
                [
                    2849,
                    1248
                ]
            ],
            "flags": {},
            "group_id": null
        },
        {
            "label": "wz3-l",
            "lineType": "LL",
            "shape_type": "line",
            "points": [
                [
                    2641,
                    1497
                ],
                [
                    2686,
                    1484
                ]
            ],
            "flags": {},
            "group_id": null
        },
        {
            "label": "wz3-l",
            "lineType": "LL",
            "shape_type": "line",
            "points": [
                [
                    3029,
                    1483
                ],
                [
                    2974,
                    1499
                ]
            ],
            "flags": {},
            "group_id": null
        },
        {
            "label": "wz3",
            "shape_type": "rectangle",
            "points": [
                [
                    2877,
                    583
                ],
                [
                    3200,
                    680
                ]
            ],
            "flags": {},
            "group_id": null
        },
        {
            "label": "wz3-l",
            "lineType": "LL",
            "shape_type": "line",
            "points": [
                [
                    2925,
                    643
                ],
                [
                    2855,
                    656
                ]
            ],
            "flags": {},
            "group_id": null
        },
        {
            "label": "wz3",
            "shape_type": "rectangle",
            "points": [
                [
                    3146,
                    827
                ],
                [
                    3323,
                    860
                ]
            ],
            "flags": {},
            "group_id": null
        },
        {
            "label": "wz3-l",
            "lineType": "LL",
            "shape_type": "line",
            "points": [
                [
                    3296,
                    844
                ],
                [
                    3580,
                    883
                ]
            ],
            "flags": {},
            "group_id": null
        },
        {
            "label": "wz1",
            "shape_type": "rectangle",
            "points": [
                [
                    3226,
                    154
                ],
                [
                    3511,
                    264
                ]
            ],
            "flags": {},
            "group_id": null
        },
        {
            "label": "wz1-l",
            "lineType": "LL",
            "shape_type": "line",
            "points": [
                [
                    3453,
                    214
                ],
                [
                    3648,
                    343
                ]
            ],
            "flags": {},
            "group_id": null
        },
        {
            "label": "wz3",
            "shape_type": "rectangle",
            "points": [
                [
                    1757,
                    575
                ],
                [
                    1972,
                    621
                ]
            ],
            "flags": {},
            "group_id": null
        },
        {
            "label": "wz3-l",
            "lineType": "LL",
            "shape_type": "line",
            "points": [
                [
                    1849,
                    611
                ],
                [
                    1930,
                    456
                ]
            ],
            "flags": {},
            "group_id": null
        }
    ],
    "flags": {},
    "imageData": null,
    "version": "4.5.7"
}