{
    "imageHeight": 2904,
    "imageWidth": 4205,
    "imagePath": "样本3_134_117.png",
    "shapes": [
        {
            "label": "v1",
            "shape_type": "rectangle",
            "points": [
                [
                    2262,
                    2004
                ],
                [
                    2492,
                    2097
                ]
            ],
            "flags": {},
            "group_id": null
        },
        {
            "label": "vp2-1",
            "shape_type": "rectangle",
            "points": [
                [
                    2327,
                    1679
                ],
                [
                    2461,
                    1811
                ]
            ],
            "flags": {},
            "group_id": null
        },
        {
            "label": "va1",
            "shape_type": "rectangle",
            "points": [
                [
                    2519,
                    1645
                ],
                [
                    2553,
                    1689
                ]
            ],
            "flags": {},
            "group_id": null
        },
        {
            "label": "va1",
            "shape_type": "rectangle",
            "points": [
                [
                    2373,
                    1891
                ],
                [
                    2415,
                    1923
                ]
            ],
            "flags": {},
            "group_id": null
        },
        {
            "label": "va1",
            "shape_type": "rectangle",
            "points": [
                [
                    2238,
                    1644
                ],
                [
                    2281,
                    1677
                ]
            ],
            "flags": {},
            "group_id": null
        },
        {
            "label": "v1",
            "shape_type": "rectangle",
            "points": [
                [
                    2263,
                    1304
                ],
                [
                    2494,
                    1396
                ]
            ],
            "flags": {},
            "group_id": null
        },
        {
            "label": "vp1-1",
            "shape_type": "rectangle",
            "points": [
                [
                    2237,
                    888
                ],
                [
                    2549,
                    1200
                ]
            ],
            "flags": {},
            "group_id": null
        },
        {
            "label": "va1",
            "shape_type": "rectangle",
            "points": [
                [
                    2381,
                    900
                ],
                [
                    2421,
                    937
                ]
            ],
            "flags": {},
            "group_id": null
        },
        {
            "label": "va1",
            "shape_type": "rectangle",
            "points": [
                [
                    2470,
                    1090
                ],
                [
                    2515,
                    1126
                ]
            ],
            "flags": {},
            "group_id": null
        },
        {
            "label": "v1",
            "shape_type": "rectangle",
            "points": [
                [
                    2233,
                    607
                ],
                [
                    2463,
                    703
                ]
            ],
            "flags": {},
            "group_id": null
        },
        {
            "label": "vp2-1",
            "shape_type": "rectangle",
            "points": [
                [
                    2309,
                    318
                ],
                [
                    2442,
                    450
                ]
            ],
            "flags": {},
            "group_id": null
        },
        {
            "label": "va1",
            "shape_type": "rectangle",
            "points": [
                [
                    2350,
                    339
                ],
                [
                    2404,
                    380
                ]
            ],
            "flags": {},
            "group_id": null
        },
        {
            "label": "va1",
            "shape_type": "rectangle",
            "points": [
                [
                    2372,
                    378
                ],
                [
                    2421,
                    426
                ]
            ],
            "flags": {},
            "group_id": null
        },
        {
            "label": "va1",
            "shape_type": "rectangle",
            "points": [
                [
                    2327,
                    367
                ],
                [
                    2374,
                    420
                ]
            ],
            "flags": {},
            "group_id": null
        },
        {
            "label": "n1",
            "shape_type": "rectangle",
            "points": [
                [
                    1526,
                    107
                ],
                [
                    1859,
                    626
                ]
            ],
            "flags": {},
            "group_id": null
        },
        {
            "label": "d1",
            "shape_type": "rectangle",
            "points": [
                [
                    943,
                    57
                ],
                [
                    1082,
                    144
                ]
            ],
            "flags": {},
            "group_id": null
        },
        {
            "label": "",
            "shape_type": "",
            "points": [],
            "flags": {},
            "group_id": null
        },
        {
            "label": "b1",
            "shape_type": "rectangle",
            "points": [
                [
                    748,
                    580
                ],
                [
                    849,
                    761
                ]
            ],
            "flags": {},
            "group_id": null
        },
        {
            "label": "d1",
            "shape_type": "rectangle",
            "points": [
                [
                    945,
                    785
                ],
                [
                    1083,
                    872
                ]
            ],
            "flags": {},
            "group_id": null
        },
        {
            "label": "v1",
            "shape_type": "rectangle",
            "points": [
                [
                    723,
                    876
                ],
                [
                    914,
                    951
                ]
            ],
            "flags": {},
            "group_id": null
        },
        {
            "label": "v1",
            "shape_type": "rectangle",
            "points": [
                [
                    1737,
                    1241
                ],
                [
                    1968,
                    1335
                ]
            ],
            "flags": {},
            "group_id": null
        },
        {
            "label": "vp1-1",
            "shape_type": "rectangle",
            "points": [
                [
                    1713,
                    789
                ],
                [
                    2025,
                    1103
                ]
            ],
            "flags": {},
            "group_id": null
        },
        {
            "label": "x1",
            "shape_type": "rectangle",
            "points": [
                [
                    3396,
                    1578
                ],
                [
                    3551,
                    1601
                ]
            ],
            "flags": {},
            "group_id": null
        },
        {
            "label": "h1",
            "shape_type": "rectangle",
            "points": [
                [
                    2926,
                    2148
                ],
                [
                    3079,
                    2220
                ]
            ],
            "flags": {},
            "group_id": null
        },
        {
            "label": "v1",
            "shape_type": "rectangle",
            "points": [
                [
                    3300,
                    2376
                ],
                [
                    3632,
                    2466
                ]
            ],
            "flags": {},
            "group_id": null
        },
        {
            "label": "b1",
            "shape_type": "rectangle",
            "points": [
                [
                    3190,
                    2071
                ],
                [
                    3375,
                    2218
                ]
            ],
            "flags": {},
            "group_id": null
        },
        {
            "label": "fourteen",
            "shape_type": "point",
            "points": [
                [
                    3190,
                    2217
                ]
            ],
            "flags": {},
            "group_id": null
        },
        {
            "label": "fourteen",
            "shape_type": "point",
            "points": [
                [
                    3375,
                    2218
                ]
            ],
            "flags": {},
            "group_id": null
        },
        {
            "label": "eight",
            "shape_type": "point",
            "points": [
                [
                    3374,
                    2189
                ]
            ],
            "flags": {},
            "group_id": null
        },
        {
            "label": "seven",
            "shape_type": "point",
            "points": [
                [
                    3190,
                    2188
                ]
            ],
            "flags": {},
            "group_id": null
        },
        {
            "label": "fourteen",
            "shape_type": "point",
            "points": [
                [
                    3282,
                    2187
                ]
            ],
            "flags": {},
            "group_id": null
        },
        {
            "label": "fourteen",
            "shape_type": "point",
            "points": [
                [
                    3349,
                    2187
                ]
            ],
            "flags": {},
            "group_id": null
        },
        {
            "label": "fourteen",
            "shape_type": "point",
            "points": [
                [
                    3216,
                    2188
                ]
            ],
            "flags": {},
            "group_id": null
        },
        {
            "label": "thirteen",
            "shape_type": "point",
            "points": [
                [
                    3282,
                    2074
                ]
            ],
            "flags": {},
            "group_id": null
        },
        {
            "label": "seven",
            "shape_type": "point",
            "points": [
                [
                    3216,
                    2073
                ]
            ],
            "flags": {},
            "group_id": null
        },
        {
            "label": "eight",
            "shape_type": "point",
            "points": [
                [
                    3348,
                    2075
                ]
            ],
            "flags": {},
            "group_id": null
        },
        {
            "label": "d1",
            "shape_type": "rectangle",
            "points": [
                [
                    3234,
                    829
                ],
                [
                    3319,
                    973
                ]
            ],
            "flags": {},
            "group_id": null
        },
        {
            "label": "d1",
            "shape_type": "rectangle",
            "points": [
                [
                    3618,
                    831
                ],
                [
                    3704,
                    972
                ]
            ],
            "flags": {},
            "group_id": null
        },
        {
            "label": "d1",
            "shape_type": "rectangle",
            "points": [
                [
                    3619,
                    603
                ],
                [
                    3704,
                    745
                ]
            ],
            "flags": {},
            "group_id": null
        },
        {
            "label": "d1",
            "shape_type": "rectangle",
            "points": [
                [
                    3235,
                    603
                ],
                [
                    3318,
                    742
                ]
            ],
            "flags": {},
            "group_id": null
        },
        {
            "label": "h1",
            "shape_type": "rectangle",
            "points": [
                [
                    3900,
                    729
                ],
                [
                    4037,
                    801
                ]
            ],
            "flags": {},
            "group_id": null
        },
        {
            "label": "h1",
            "shape_type": "rectangle",
            "points": [
                [
                    3897,
                    933
                ],
                [
                    4039,
                    1003
                ]
            ],
            "flags": {},
            "group_id": null
        },
        {
            "label": "h1",
            "shape_type": "rectangle",
            "points": [
                [
                    3890,
                    319
                ],
                [
                    4034,
                    390
                ]
            ],
            "flags": {},
            "group_id": null
        },
        {
            "label": "h1",
            "shape_type": "rectangle",
            "points": [
                [
                    3888,
                    524
                ],
                [
                    4030,
                    597
                ]
            ],
            "flags": {},
            "group_id": null
        },
        {
            "label": "d1",
            "shape_type": "rectangle",
            "points": [
                [
                    3619,
                    378
                ],
                [
                    3704,
                    516
                ]
            ],
            "flags": {},
            "group_id": null
        },
        {
            "label": "d1",
            "shape_type": "rectangle",
            "points": [
                [
                    3239,
                    374
                ],
                [
                    3324,
                    514
                ]
            ],
            "flags": {},
            "group_id": null
        },
        {
            "label": "d1",
            "shape_type": "rectangle",
            "points": [
                [
                    3517,
                    122
                ],
                [
                    3602,
                    257
                ]
            ],
            "flags": {},
            "group_id": null
        },
        {
            "label": "d1",
            "shape_type": "rectangle",
            "points": [
                [
                    3332,
                    118
                ],
                [
                    3418,
                    258
                ]
            ],
            "flags": {},
            "group_id": null
        },
        {
            "label": "c1",
            "shape_type": "rectangle",
            "points": [
                [
                    3455,
                    195
                ],
                [
                    3485,
                    266
                ]
            ],
            "flags": {},
            "group_id": null
        },
        {
            "label": "a1-3",
            "shape_type": "rectangle",
            "points": [
                [
                    3449,
                    311
                ],
                [
                    3458,
                    376
                ]
            ],
            "flags": {},
            "group_id": null
        },
        {
            "label": "a1-3",
            "shape_type": "rectangle",
            "points": [
                [
                    3482,
                    311
                ],
                [
                    3492,
                    376
                ]
            ],
            "flags": {},
            "group_id": null
        },
        {
            "label": "a1-4",
            "shape_type": "rectangle",
            "points": [
                [
                    3463,
                    311
                ],
                [
                    3476,
                    377
                ]
            ],
            "flags": {},
            "group_id": null
        },
        {
            "label": "g1",
            "shape_type": "rectangle",
            "points": [
                [
                    3467,
                    278
                ],
                [
                    3474,
                    416
                ]
            ],
            "flags": {},
            "group_id": null
        },
        {
            "label": "z1",
            "shape_type": "rectangle",
            "points": [
                [
                    3439,
                    266
                ],
                [
                    3502,
                    415
                ]
            ],
            "flags": {},
            "group_id": null
        },
        {
            "label": "g1",
            "shape_type": "rectangle",
            "points": [
                [
                    3422,
                    435
                ],
                [
                    3428,
                    595
                ]
            ],
            "flags": {},
            "group_id": null
        },
        {
            "label": "g1",
            "shape_type": "rectangle",
            "points": [
                [
                    3513,
                    435
                ],
                [
                    3518,
                    596
                ]
            ],
            "flags": {},
            "group_id": null
        },
        {
            "label": "p1-1",
            "shape_type": "rectangle",
            "points": [
                [
                    3420,
                    434
                ],
                [
                    3518,
                    596
                ]
            ],
            "flags": {},
            "group_id": null
        },
        {
            "label": "z1",
            "shape_type": "rectangle",
            "points": [
                [
                    3346,
                    431
                ],
                [
                    3590,
                    623
                ]
            ],
            "flags": {},
            "group_id": null
        },
        {
            "label": "a1-1",
            "shape_type": "rectangle",
            "points": [
                [
                    3393,
                    677
                ],
                [
                    3419,
                    788
                ]
            ],
            "flags": {},
            "group_id": null
        },
        {
            "label": "a1-2",
            "shape_type": "rectangle",
            "points": [
                [
                    3522,
                    678
                ],
                [
                    3546,
                    788
                ]
            ],
            "flags": {},
            "group_id": null
        },
        {
            "label": "g1",
            "shape_type": "rectangle",
            "points": [
                [
                    3422,
                    660
                ],
                [
                    3427,
                    809
                ]
            ],
            "flags": {},
            "group_id": null
        },
        {
            "label": "g1",
            "shape_type": "rectangle",
            "points": [
                [
                    3514,
                    661
                ],
                [
                    3517,
                    809
                ]
            ],
            "flags": {},
            "group_id": null
        },
        {
            "label": "p1-1",
            "shape_type": "rectangle",
            "points": [
                [
                    3393,
                    661
                ],
                [
                    3546,
                    810
                ]
            ],
            "flags": {},
            "group_id": null
        },
        {
            "label": "a1-1",
            "shape_type": "rectangle",
            "points": [
                [
                    3392,
                    890
                ],
                [
                    3419,
                    1001
                ]
            ],
            "flags": {},
            "group_id": null
        },
        {
            "label": "a1-2",
            "shape_type": "rectangle",
            "points": [
                [
                    3521,
                    889
                ],
                [
                    3547,
                    1000
                ]
            ],
            "flags": {},
            "group_id": null
        },
        {
            "label": "g1",
            "shape_type": "rectangle",
            "points": [
                [
                    3514,
                    872
                ],
                [
                    3518,
                    1022
                ]
            ],
            "flags": {},
            "group_id": null
        },
        {
            "label": "g1",
            "shape_type": "rectangle",
            "points": [
                [
                    3422,
                    871
                ],
                [
                    3426,
                    1022
                ]
            ],
            "flags": {},
            "group_id": null
        },
        {
            "label": "p1-1",
            "shape_type": "rectangle",
            "points": [
                [
                    3392,
                    871
                ],
                [
                    3548,
                    1022
                ]
            ],
            "flags": {},
            "group_id": null
        },
        {
            "label": "",
            "shape_type": "",
            "points": [],
            "flags": {},
            "group_id": null
        },
        {
            "label": "t9",
            "shape_type": "rectangle",
            "points": [
                [
                    3345,
                    195
                ],
                [
                    3589,
                    2219
                ]
            ],
            "flags": {},
            "group_id": null
        },
        {
            "label": "nine",
            "shape_type": "point",
            "points": [
                [
                    749,
                    761
                ]
            ],
            "flags": {},
            "group_id": null
        },
        {
            "label": "ten",
            "shape_type": "point",
            "points": [
                [
                    849,
                    761
                ]
            ],
            "flags": {},
            "group_id": null
        },
        {
            "label": "nine",
            "shape_type": "point",
            "points": [
                [
                    759,
                    750
                ]
            ],
            "flags": {},
            "group_id": null
        },
        {
            "label": "ten",
            "shape_type": "point",
            "points": [
                [
                    838,
                    750
                ]
            ],
            "flags": {},
            "group_id": null
        },
        {
            "label": "fourteen",
            "shape_type": "point",
            "points": [
                [
                    828,
                    751
                ]
            ],
            "flags": {},
            "group_id": null
        },
        {
            "label": "twelve",
            "shape_type": "point",
            "points": [
                [
                    839,
                    671
                ]
            ],
            "flags": {},
            "group_id": null
        },
        {
            "label": "fifteen",
            "shape_type": "point",
            "points": [
                [
                    829,
                    671
                ]
            ],
            "flags": {},
            "group_id": null
        },
        {
            "label": "eleven",
            "shape_type": "point",
            "points": [
                [
                    759,
                    671
                ]
            ],
            "flags": {},
            "group_id": null
        },
        {
            "label": "seven",
            "shape_type": "point",
            "points": [
                [
                    759,
                    592
                ]
            ],
            "flags": {},
            "group_id": null
        },
        {
            "label": "seven",
            "shape_type": "point",
            "points": [
                [
                    749,
                    581
                ]
            ],
            "flags": {},
            "group_id": null
        },
        {
            "label": "thirteen",
            "shape_type": "point",
            "points": [
                [
                    829,
                    591
                ]
            ],
            "flags": {},
            "group_id": null
        },
        {
            "label": "eight",
            "shape_type": "point",
            "points": [
                [
                    838,
                    591
                ]
            ],
            "flags": {},
            "group_id": null
        },
        {
            "label": "eight",
            "shape_type": "point",
            "points": [
                [
                    848,
                    580
                ]
            ],
            "flags": {},
            "group_id": null
        },
        {
            "label": "vt9",
            "shape_type": "rectangle",
            "points": [
                [
                    642,
                    118
                ],
                [
                    955,
                    429
                ]
            ],
            "flags": {},
            "group_id": null
        },
        {
            "label": "va1",
            "shape_type": "rectangle",
            "points": [
                [
                    771,
                    128
                ],
                [
                    824,
                    169
                ]
            ],
            "flags": {},
            "group_id": null
        },
        {
            "label": "va1",
            "shape_type": "rectangle",
            "points": [
                [
                    883,
                    313
                ],
                [
                    933,
                    366
                ]
            ],
            "flags": {},
            "group_id": null
        },
        {
            "label": "va1",
            "shape_type": "rectangle",
            "points": [
                [
                    664,
                    314
                ],
                [
                    712,
                    364
                ]
            ],
            "flags": {},
            "group_id": null
        },
        {
            "label": "btl",
            "shape_type": "rectangle",
            "points": [
                [
                    2342,
                    2565
                ],
                [
                    4145,
                    2869
                ]
            ],
            "flags": {},
            "group_id": null
        },
        {
            "label": "sm",
            "shape_type": "rectangle",
            "points": [
                [
                    356,
                    1268
                ],
                [
                    1930,
                    2014
                ]
            ],
            "flags": {},
            "group_id": null
        },
        {
            "label": "j1",
            "shape_type": "rectangle",
            "points": [
                [
                    1587,
                    545
                ],
                [
                    1698,
                    626
                ]
            ],
            "flags": {},
            "group_id": null
        },
        {
            "label": "j1",
            "shape_type": "rectangle",
            "points": [
                [
                    1773,
                    353
                ],
                [
                    1857,
                    428
                ]
            ],
            "flags": {},
            "group_id": null
        },
        {
            "label": "j1",
            "shape_type": "rectangle",
            "points": [
                [
                    1601,
                    211
                ],
                [
                    1665,
                    287
                ]
            ],
            "flags": {},
            "group_id": null
        },
        {
            "label": "j1",
            "shape_type": "rectangle",
            "points": [
                [
                    1596,
                    109
                ],
                [
                    1626,
                    153
                ]
            ],
            "flags": {},
            "group_id": null
        },
        {
            "label": "mask",
            "lineType": [
                "LLLLLLLLLLLLLLLLLLLLLL"
            ],
            "shape_type": "polygon",
            "points": [
                [
                    925,
                    981
                ],
                [
                    960,
                    898
                ],
                [
                    1100,
                    879
                ],
                [
                    1105,
                    827
                ],
                [
                    1098,
                    768
                ],
                [
                    1053,
                    738
                ],
                [
                    959,
                    696
                ],
                [
                    937,
                    499
                ],
                [
                    996,
                    258
                ],
                [
                    1077,
                    188
                ],
                [
                    1092,
                    151
                ],
                [
                    1107,
                    96
                ],
                [
                    1106,
                    63
                ],
                [
                    1091,
                    51
                ],
                [
                    972,
                    49
                ],
                [
                    831,
                    53
                ],
                [
                    707,
                    79
                ],
                [
                    654,
                    105
                ],
                [
                    600,
                    295
                ],
                [
                    695,
                    815
                ],
                [
                    705,
                    965
                ],
                [
                    925,
                    981
                ]
            ],
            "flags": {},
            "group_id": null
        },
        {
            "label": "mask",
            "lineType": [
                "LLLLLLLLLLLLLL"
            ],
            "shape_type": "polygon",
            "points": [
                [
                    1656,
                    650
                ],
                [
                    1695,
                    647
                ],
                [
                    1732,
                    581
                ],
                [
                    1845,
                    460
                ],
                [
                    1865,
                    446
                ],
                [
                    1873,
                    416
                ],
                [
                    1884,
                    359
                ],
                [
                    1765,
                    171
                ],
                [
                    1698,
                    88
                ],
                [
                    1505,
                    100
                ],
                [
                    1499,
                    135
                ],
                [
                    1538,
                    509
                ],
                [
                    1562,
                    638
                ],
                [
                    1656,
                    650
                ]
            ],
            "flags": {},
            "group_id": null
        },
        {
            "label": "mask",
            "lineType": [
                "LLLLLLLLLLLLLLLLL"
            ],
            "shape_type": "polygon",
            "points": [
                [
                    2113,
                    470
                ],
                [
                    2220,
                    719
                ],
                [
                    2261,
                    729
                ],
                [
                    2465,
                    729
                ],
                [
                    2480,
                    717
                ],
                [
                    2491,
                    586
                ],
                [
                    2542,
                    534
                ],
                [
                    2604,
                    514
                ],
                [
                    2612,
                    486
                ],
                [
                    2635,
                    313
                ],
                [
                    2635,
                    256
                ],
                [
                    2601,
                    237
                ],
                [
                    2496,
                    231
                ],
                [
                    2414,
                    231
                ],
                [
                    2255,
                    265
                ],
                [
                    2104,
                    319
                ],
                [
                    2113,
                    470
                ]
            ],
            "flags": {},
            "group_id": null
        },
        {
            "label": "mask",
            "lineType": [
                "LLLLLLLLLLLLLLLLLLLLLLLLLLLL"
            ],
            "shape_type": "polygon",
            "points": [
                [
                    2566,
                    706
                ],
                [
                    2644,
                    717
                ],
                [
                    2695,
                    736
                ],
                [
                    2706,
                    743
                ],
                [
                    2709,
                    802
                ],
                [
                    2709,
                    835
                ],
                [
                    2706,
                    847
                ],
                [
                    2676,
                    863
                ],
                [
                    2633,
                    883
                ],
                [
                    2560,
                    958
                ],
                [
                    2567,
                    1019
                ],
                [
                    2584,
                    1093
                ],
                [
                    2599,
                    1124
                ],
                [
                    2717,
                    1126
                ],
                [
                    2854,
                    1148
                ],
                [
                    2863,
                    1162
                ],
                [
                    2867,
                    1216
                ],
                [
                    2861,
                    1269
                ],
                [
                    2779,
                    1283
                ],
                [
                    2597,
                    1283
                ],
                [
                    2544,
                    1392
                ],
                [
                    2514,
                    1410
                ],
                [
                    2257,
                    1416
                ],
                [
                    2244,
                    1386
                ],
                [
                    2204,
                    1011
                ],
                [
                    2303,
                    881
                ],
                [
                    2432,
                    826
                ],
                [
                    2566,
                    706
                ]
            ],
            "flags": {},
            "group_id": null
        },
        {
            "label": "mask",
            "lineType": [
                "LLLLLLLLLLLLLLLLLLLLL"
            ],
            "shape_type": "polygon",
            "points": [
                [
                    1935,
                    766
                ],
                [
                    2030,
                    766
                ],
                [
                    2094,
                    779
                ],
                [
                    2132,
                    793
                ],
                [
                    2138,
                    799
                ],
                [
                    2142,
                    820
                ],
                [
                    2142,
                    851
                ],
                [
                    2086,
                    1036
                ],
                [
                    2052,
                    1120
                ],
                [
                    2026,
                    1187
                ],
                [
                    2000,
                    1318
                ],
                [
                    1991,
                    1350
                ],
                [
                    1726,
                    1354
                ],
                [
                    1714,
                    1315
                ],
                [
                    1663,
                    931
                ],
                [
                    1576,
                    867
                ],
                [
                    1571,
                    843
                ],
                [
                    1571,
                    818
                ],
                [
                    1581,
                    805
                ],
                [
                    1627,
                    785
                ],
                [
                    1935,
                    766
                ]
            ],
            "flags": {},
            "group_id": null
        },
        {
            "label": "mask",
            "lineType": [
                "LLLLLLLLLLLLLLLLLLLLL"
            ],
            "shape_type": "polygon",
            "points": [
                [
                    345,
                    1250
                ],
                [
                    702,
                    1258
                ],
                [
                    754,
                    1280
                ],
                [
                    787,
                    1330
                ],
                [
                    1293,
                    1320
                ],
                [
                    1327,
                    1386
                ],
                [
                    1435,
                    1547
                ],
                [
                    1445,
                    1607
                ],
                [
                    1511,
                    1853
                ],
                [
                    1647,
                    1871
                ],
                [
                    1926,
                    1891
                ],
                [
                    1933,
                    1911
                ],
                [
                    1935,
                    1957
                ],
                [
                    1880,
                    1966
                ],
                [
                    883,
                    1971
                ],
                [
                    876,
                    2014
                ],
                [
                    863,
                    2024
                ],
                [
                    397,
                    2024
                ],
                [
                    375,
                    1843
                ],
                [
                    358,
                    1399
                ],
                [
                    345,
                    1250
                ]
            ],
            "flags": {},
            "group_id": null
        },
        {
            "label": "mask",
            "lineType": [
                "LLLLLLLLLL"
            ],
            "shape_type": "polygon",
            "points": [
                [
                    476,
                    2133
                ],
                [
                    912,
                    2107
                ],
                [
                    1264,
                    2073
                ],
                [
                    1288,
                    2100
                ],
                [
                    1304,
                    2125
                ],
                [
                    1678,
                    2130
                ],
                [
                    1865,
                    2145
                ],
                [
                    1870,
                    2641
                ],
                [
                    488,
                    2638
                ],
                [
                    476,
                    2133
                ]
            ],
            "flags": {},
            "group_id": null
        },
        {
            "label": "mask",
            "lineType": [
                "LLLLL"
            ],
            "shape_type": "polygon",
            "points": [
                [
                    2342,
                    2563
                ],
                [
                    2344,
                    2868
                ],
                [
                    4148,
                    2870
                ],
                [
                    4146,
                    2563
                ],
                [
                    2342,
                    2563
                ]
            ],
            "flags": {},
            "group_id": null
        },
        {
            "label": "mask",
            "lineType": [
                "LLLLLLLLLLLLLLLLLLLLLLLLLLLLLLLLLLLLLLLLLLLLLLLLL"
            ],
            "shape_type": "polygon",
            "points": [
                [
                    3660,
                    2491
                ],
                [
                    3668,
                    2418
                ],
                [
                    3677,
                    2289
                ],
                [
                    3925,
                    2268
                ],
                [
                    3940,
                    2246
                ],
                [
                    3940,
                    2220
                ],
                [
                    3935,
                    2207
                ],
                [
                    3827,
                    2182
                ],
                [
                    3553,
                    2169
                ],
                [
                    3541,
                    2122
                ],
                [
                    3615,
                    1398
                ],
                [
                    3854,
                    1406
                ],
                [
                    3866,
                    1385
                ],
                [
                    3814,
                    1303
                ],
                [
                    3573,
                    1265
                ],
                [
                    3552,
                    1217
                ],
                [
                    3586,
                    1060
                ],
                [
                    4046,
                    1032
                ],
                [
                    4065,
                    1011
                ],
                [
                    4066,
                    959
                ],
                [
                    4093,
                    640
                ],
                [
                    4077,
                    308
                ],
                [
                    4010,
                    183
                ],
                [
                    3825,
                    116
                ],
                [
                    3511,
                    93
                ],
                [
                    3338,
                    88
                ],
                [
                    3199,
                    114
                ],
                [
                    3088,
                    162
                ],
                [
                    3014,
                    235
                ],
                [
                    2998,
                    304
                ],
                [
                    2988,
                    568
                ],
                [
                    3003,
                    838
                ],
                [
                    2970,
                    894
                ],
                [
                    2978,
                    957
                ],
                [
                    3003,
                    998
                ],
                [
                    3319,
                    1058
                ],
                [
                    3382,
                    1110
                ],
                [
                    3370,
                    1532
                ],
                [
                    3388,
                    1755
                ],
                [
                    3331,
                    2018
                ],
                [
                    3233,
                    2034
                ],
                [
                    3042,
                    2058
                ],
                [
                    2932,
                    2105
                ],
                [
                    2914,
                    2118
                ],
                [
                    2929,
                    2218
                ],
                [
                    2933,
                    2269
                ],
                [
                    3030,
                    2451
                ],
                [
                    3088,
                    2483
                ],
                [
                    3660,
                    2491
                ]
            ],
            "flags": {},
            "group_id": null
        },
        {
            "label": "mask",
            "lineType": [
                "LLLLLLLLLLLLLLLLLLLLLLLLLL"
            ],
            "shape_type": "polygon",
            "points": [
                [
                    2528,
                    2126
                ],
                [
                    2562,
                    2000
                ],
                [
                    2618,
                    1975
                ],
                [
                    2678,
                    1946
                ],
                [
                    2690,
                    1881
                ],
                [
                    2684,
                    1753
                ],
                [
                    2774,
                    1709
                ],
                [
                    2804,
                    1658
                ],
                [
                    2815,
                    1586
                ],
                [
                    2785,
                    1536
                ],
                [
                    2733,
                    1505
                ],
                [
                    2609,
                    1466
                ],
                [
                    2486,
                    1466
                ],
                [
                    2406,
                    1470
                ],
                [
                    2377,
                    1478
                ],
                [
                    2348,
                    1507
                ],
                [
                    2230,
                    1611
                ],
                [
                    2217,
                    1638
                ],
                [
                    2224,
                    1686
                ],
                [
                    2261,
                    1755
                ],
                [
                    2295,
                    1907
                ],
                [
                    2270,
                    1971
                ],
                [
                    2255,
                    2006
                ],
                [
                    2243,
                    2112
                ],
                [
                    2277,
                    2113
                ],
                [
                    2528,
                    2126
                ]
            ],
            "flags": {},
            "group_id": null
        },
        {
            "label": "Ns",
            "shape_type": "point",
            "points": [
                [
                    1573,
                    411
                ]
            ],
            "flags": {},
            "group_id": null
        },
        {
            "label": "Ne",
            "shape_type": "point",
            "points": [
                [
                    1572,
                    231
                ]
            ],
            "flags": {},
            "group_id": null
        },
        {
            "label": "wlb",
            "shape_type": "rectangle",
            "points": [
                [
                    497,
                    2091
                ],
                [
                    1867,
                    2634
                ]
            ],
            "flags": {},
            "group_id": null
        },
        {
            "label": "wz3",
            "shape_type": "rectangle",
            "points": [
                [
                    3024,
                    283
                ],
                [
                    3164,
                    324
                ]
            ],
            "flags": {},
            "group_id": null
        },
        {
            "label": "wz3",
            "shape_type": "rectangle",
            "points": [
                [
                    3049,
                    481
                ],
                [
                    3138,
                    515
                ]
            ],
            "flags": {},
            "group_id": null
        },
        {
            "label": "wz3",
            "shape_type": "rectangle",
            "points": [
                [
                    3040,
                    669
                ],
                [
                    3231,
                    718
                ]
            ],
            "flags": {},
            "group_id": null
        },
        {
            "label": "wz3",
            "shape_type": "rectangle",
            "points": [
                [
                    2995,
                    900
                ],
                [
                    3238,
                    946
                ]
            ],
            "flags": {},
            "group_id": null
        },
        {
            "label": "wz1",
            "shape_type": "rectangle",
            "points": [
                [
                    3556,
                    1314
                ],
                [
                    3807,
                    1361
                ]
            ],
            "flags": {},
            "group_id": null
        },
        {
            "label": "wz1",
            "shape_type": "rectangle",
            "points": [
                [
                    3225,
                    2262
                ],
                [
                    3354,
                    2307
                ]
            ],
            "flags": {},
            "group_id": null
        },
        {
            "label": "wz1-l",
            "lineType": "LL",
            "shape_type": "line",
            "points": [
                [
                    3291,
                    2281
                ],
                [
                    3375,
                    2248
                ]
            ],
            "flags": {},
            "group_id": null
        },
        {
            "label": "wz1-l",
            "lineType": "LL",
            "shape_type": "line",
            "points": [
                [
                    3491,
                    1309
                ],
                [
                    3617,
                    1342
                ]
            ],
            "flags": {},
            "group_id": null
        },
        {
            "label": "wz3-l",
            "lineType": "LL",
            "shape_type": "line",
            "points": [
                [
                    3198,
                    926
                ],
                [
                    3407,
                    923
                ]
            ],
            "flags": {},
            "group_id": null
        },
        {
            "label": "wz3-l",
            "lineType": "LL",
            "shape_type": "line",
            "points": [
                [
                    3187,
                    692
                ],
                [
                    3404,
                    709
                ]
            ],
            "flags": {},
            "group_id": null
        },
        {
            "label": "wz3-l",
            "lineType": "LL",
            "shape_type": "line",
            "points": [
                [
                    3114,
                    493
                ],
                [
                    3407,
                    517
                ]
            ],
            "flags": {},
            "group_id": null
        },
        {
            "label": "wz3-l",
            "lineType": "LL",
            "shape_type": "line",
            "points": [
                [
                    3138,
                    307
                ],
                [
                    3459,
                    327
                ]
            ],
            "flags": {},
            "group_id": null
        },
        {
            "label": "wz3-l",
            "lineType": "LL",
            "shape_type": "line",
            "points": [
                [
                    2389,
                    350
                ],
                [
                    2494,
                    285
                ]
            ],
            "flags": {},
            "group_id": null
        },
        {
            "label": "wz3-l",
            "lineType": "LL",
            "shape_type": "line",
            "points": [
                [
                    2397,
                    401
                ],
                [
                    2487,
                    469
                ]
            ],
            "flags": {},
            "group_id": null
        },
        {
            "label": "wz3-l",
            "lineType": "LL",
            "shape_type": "line",
            "points": [
                [
                    2336,
                    383
                ],
                [
                    2223,
                    354
                ]
            ],
            "flags": {},
            "group_id": null
        },
        {
            "label": "wz1-l",
            "lineType": "LL",
            "shape_type": "line",
            "points": [
                [
                    2403,
                    920
                ],
                [
                    2610,
                    780
                ]
            ],
            "flags": {},
            "group_id": null
        },
        {
            "label": "wz1-l",
            "lineType": "LL",
            "shape_type": "line",
            "points": [
                [
                    2488,
                    1115
                ],
                [
                    2745,
                    1237
                ]
            ],
            "flags": {},
            "group_id": null
        },
        {
            "label": "wz3-l",
            "lineType": "LL",
            "shape_type": "line",
            "points": [
                [
                    1877,
                    817
                ],
                [
                    2053,
                    815
                ]
            ],
            "flags": {},
            "group_id": null
        },
        {
            "label": "wz3-l",
            "lineType": "LL",
            "shape_type": "line",
            "points": [
                [
                    1980,
                    1011
                ],
                [
                    1951,
                    1151
                ]
            ],
            "flags": {},
            "group_id": null
        },
        {
            "label": "wz3-l",
            "lineType": "LL",
            "shape_type": "line",
            "points": [
                [
                    1760,
                    1004
                ],
                [
                    1634,
                    825
                ]
            ],
            "flags": {},
            "group_id": null
        },
        {
            "label": "wz1-l",
            "lineType": "LL",
            "shape_type": "line",
            "points": [
                [
                    2268,
                    1649
                ],
                [
                    2425,
                    1527
                ]
            ],
            "flags": {},
            "group_id": null
        },
        {
            "label": "wz1-l",
            "lineType": "LL",
            "shape_type": "line",
            "points": [
                [
                    2544,
                    1665
                ],
                [
                    2662,
                    1610
                ]
            ],
            "flags": {},
            "group_id": null
        },
        {
            "label": "wz1-l",
            "lineType": "LL",
            "shape_type": "line",
            "points": [
                [
                    2392,
                    1916
                ],
                [
                    2500,
                    1906
                ]
            ],
            "flags": {},
            "group_id": null
        },
        {
            "label": "wz1",
            "shape_type": "rectangle",
            "points": [
                [
                    2392,
                    1486
                ],
                [
                    2577,
                    1556
                ]
            ],
            "flags": {},
            "group_id": null
        },
        {
            "label": "wz1",
            "shape_type": "rectangle",
            "points": [
                [
                    2607,
                    1571
                ],
                [
                    2791,
                    1651
                ]
            ],
            "flags": {},
            "group_id": null
        },
        {
            "label": "wz1",
            "shape_type": "rectangle",
            "points": [
                [
                    2461,
                    1840
                ],
                [
                    2646,
                    1923
                ]
            ],
            "flags": {},
            "group_id": null
        },
        {
            "label": "wz1",
            "shape_type": "rectangle",
            "points": [
                [
                    2706,
                    1155
                ],
                [
                    2852,
                    1238
                ]
            ],
            "flags": {},
            "group_id": null
        },
        {
            "label": "wz1",
            "shape_type": "rectangle",
            "points": [
                [
                    2546,
                    732
                ],
                [
                    2695,
                    817
                ]
            ],
            "flags": {},
            "group_id": null
        },
        {
            "label": "wz3",
            "shape_type": "rectangle",
            "points": [
                [
                    2453,
                    442
                ],
                [
                    2597,
                    489
                ]
            ],
            "flags": {},
            "group_id": null
        },
        {
            "label": "wz3",
            "shape_type": "rectangle",
            "points": [
                [
                    2461,
                    260
                ],
                [
                    2605,
                    308
                ]
            ],
            "flags": {},
            "group_id": null
        },
        {
            "label": "wz3",
            "shape_type": "rectangle",
            "points": [
                [
                    2115,
                    327
                ],
                [
                    2256,
                    372
                ]
            ],
            "flags": {},
            "group_id": null
        },
        {
            "label": "wz3",
            "shape_type": "rectangle",
            "points": [
                [
                    2042,
                    802
                ],
                [
                    2130,
                    834
                ]
            ],
            "flags": {},
            "group_id": null
        },
        {
            "label": "wz3",
            "shape_type": "rectangle",
            "points": [
                [
                    1587,
                    819
                ],
                [
                    1675,
                    851
                ]
            ],
            "flags": {},
            "group_id": null
        },
        {
            "label": "wz3",
            "shape_type": "rectangle",
            "points": [
                [
                    1905,
                    1137
                ],
                [
                    1993,
                    1167
                ]
            ],
            "flags": {},
            "group_id": null
        }
    ],
    "flags": {},
    "imageData": null,
    "version": "4.5.7"
}