{
    "imageHeight": 2908,
    "imageWidth": 4205,
    "imagePath": "样本5_61_23.png",
    "shapes": [
        {
            "label": "h1",
            "shape_type": "rectangle",
            "points": [
                [
                    3690,
                    334
                ],
                [
                    3870,
                    411
                ]
            ],
            "flags": {},
            "group_id": null
        },
        {
            "label": "h1",
            "shape_type": "rectangle",
            "points": [
                [
                    3690,
                    512
                ],
                [
                    3867,
                    587
                ]
            ],
            "flags": {},
            "group_id": null
        },
        {
            "label": "h1",
            "shape_type": "rectangle",
            "points": [
                [
                    3690,
                    736
                ],
                [
                    3869,
                    813
                ]
            ],
            "flags": {},
            "group_id": null
        },
        {
            "label": "h1",
            "shape_type": "rectangle",
            "points": [
                [
                    3690,
                    977
                ],
                [
                    3871,
                    1053
                ]
            ],
            "flags": {},
            "group_id": null
        },
        {
            "label": "h1",
            "shape_type": "rectangle",
            "points": [
                [
                    3690,
                    2164
                ],
                [
                    3861,
                    2239
                ]
            ],
            "flags": {},
            "group_id": null
        },
        {
            "label": "v1",
            "shape_type": "rectangle",
            "points": [
                [
                    3155,
                    2285
                ],
                [
                    3486,
                    2379
                ]
            ],
            "flags": {},
            "group_id": null
        },
        {
            "label": "d1",
            "shape_type": "rectangle",
            "points": [
                [
                    3285,
                    368
                ],
                [
                    3369,
                    506
                ]
            ],
            "flags": {},
            "group_id": null
        },
        {
            "label": "d1",
            "shape_type": "rectangle",
            "points": [
                [
                    3558,
                    367
                ],
                [
                    3642,
                    505
                ]
            ],
            "flags": {},
            "group_id": null
        },
        {
            "label": "d1",
            "shape_type": "rectangle",
            "points": [
                [
                    3285,
                    616
                ],
                [
                    3368,
                    754
                ]
            ],
            "flags": {},
            "group_id": null
        },
        {
            "label": "d1",
            "shape_type": "rectangle",
            "points": [
                [
                    3558,
                    616
                ],
                [
                    3641,
                    754
                ]
            ],
            "flags": {},
            "group_id": null
        },
        {
            "label": "d1",
            "shape_type": "rectangle",
            "points": [
                [
                    3285,
                    865
                ],
                [
                    3369,
                    1003
                ]
            ],
            "flags": {},
            "group_id": null
        },
        {
            "label": "d1",
            "shape_type": "rectangle",
            "points": [
                [
                    3558,
                    866
                ],
                [
                    3642,
                    1003
                ]
            ],
            "flags": {},
            "group_id": null
        },
        {
            "label": "c1",
            "shape_type": "rectangle",
            "points": [
                [
                    3458,
                    207
                ],
                [
                    3461,
                    408
                ]
            ],
            "flags": {},
            "group_id": null
        },
        {
            "label": "a1-1",
            "shape_type": "rectangle",
            "points": [
                [
                    3355,
                    454
                ],
                [
                    3386,
                    591
                ]
            ],
            "flags": {},
            "group_id": null
        },
        {
            "label": "a1-2",
            "shape_type": "rectangle",
            "points": [
                [
                    3539,
                    458
                ],
                [
                    3568,
                    589
                ]
            ],
            "flags": {},
            "group_id": null
        },
        {
            "label": "g1",
            "shape_type": "rectangle",
            "points": [
                [
                    3388,
                    448
                ],
                [
                    3393,
                    601
                ]
            ],
            "flags": {},
            "group_id": null
        },
        {
            "label": "g1",
            "shape_type": "rectangle",
            "points": [
                [
                    3528,
                    448
                ],
                [
                    3532,
                    600
                ]
            ],
            "flags": {},
            "group_id": null
        },
        {
            "label": "p1-1",
            "shape_type": "rectangle",
            "points": [
                [
                    3355,
                    447
                ],
                [
                    3569,
                    601
                ]
            ],
            "flags": {},
            "group_id": null
        },
        {
            "label": "a1-1",
            "shape_type": "rectangle",
            "points": [
                [
                    3354,
                    678
                ],
                [
                    3388,
                    815
                ]
            ],
            "flags": {},
            "group_id": null
        },
        {
            "label": "a1-2",
            "shape_type": "rectangle",
            "points": [
                [
                    3536,
                    683
                ],
                [
                    3565,
                    811
                ]
            ],
            "flags": {},
            "group_id": null
        },
        {
            "label": "g1",
            "shape_type": "rectangle",
            "points": [
                [
                    3388,
                    666
                ],
                [
                    3392,
                    824
                ]
            ],
            "flags": {},
            "group_id": null
        },
        {
            "label": "g1",
            "shape_type": "rectangle",
            "points": [
                [
                    3528,
                    666
                ],
                [
                    3531,
                    825
                ]
            ],
            "flags": {},
            "group_id": null
        },
        {
            "label": "p1-1",
            "shape_type": "rectangle",
            "points": [
                [
                    3354,
                    665
                ],
                [
                    3565,
                    824
                ]
            ],
            "flags": {},
            "group_id": null
        },
        {
            "label": "a1-1",
            "shape_type": "rectangle",
            "points": [
                [
                    3355,
                    919
                ],
                [
                    3388,
                    1055
                ]
            ],
            "flags": {},
            "group_id": null
        },
        {
            "label": "a1-2",
            "shape_type": "rectangle",
            "points": [
                [
                    3536,
                    924
                ],
                [
                    3566,
                    1054
                ]
            ],
            "flags": {},
            "group_id": null
        },
        {
            "label": "g1",
            "shape_type": "rectangle",
            "points": [
                [
                    3389,
                    907
                ],
                [
                    3393,
                    1066
                ]
            ],
            "flags": {},
            "group_id": null
        },
        {
            "label": "g1",
            "shape_type": "rectangle",
            "points": [
                [
                    3527,
                    907
                ],
                [
                    3532,
                    1066
                ]
            ],
            "flags": {},
            "group_id": null
        },
        {
            "label": "p1-1",
            "shape_type": "rectangle",
            "points": [
                [
                    3354,
                    907
                ],
                [
                    3566,
                    1066
                ]
            ],
            "flags": {},
            "group_id": null
        },
        {
            "label": "x1",
            "shape_type": "rectangle",
            "points": [
                [
                    3375,
                    1351
                ],
                [
                    3543,
                    1404
                ]
            ],
            "flags": {},
            "group_id": null
        },
        {
            "label": "t1",
            "shape_type": "rectangle",
            "points": [
                [
                    3415,
                    207
                ],
                [
                    3502,
                    2183
                ]
            ],
            "flags": {},
            "group_id": null
        },
        {
            "label": "seven",
            "shape_type": "point",
            "points": [
                [
                    2779,
                    1885
                ]
            ],
            "flags": {},
            "group_id": null
        },
        {
            "label": "eight",
            "shape_type": "point",
            "points": [
                [
                    2797,
                    1885
                ]
            ],
            "flags": {},
            "group_id": null
        },
        {
            "label": "eleven",
            "shape_type": "point",
            "points": [
                [
                    2797,
                    1890
                ]
            ],
            "flags": {},
            "group_id": null
        },
        {
            "label": "fifteen",
            "shape_type": "point",
            "points": [
                [
                    2797,
                    1896
                ]
            ],
            "flags": {},
            "group_id": null
        },
        {
            "label": "eleven",
            "shape_type": "point",
            "points": [
                [
                    2780,
                    1897
                ]
            ],
            "flags": {},
            "group_id": null
        },
        {
            "label": "seven",
            "shape_type": "point",
            "points": [
                [
                    3318,
                    1885
                ]
            ],
            "flags": {},
            "group_id": null
        },
        {
            "label": "eight",
            "shape_type": "point",
            "points": [
                [
                    3336,
                    1885
                ]
            ],
            "flags": {},
            "group_id": null
        },
        {
            "label": "twelve",
            "shape_type": "point",
            "points": [
                [
                    3335,
                    1896
                ]
            ],
            "flags": {},
            "group_id": null
        },
        {
            "label": "twelve",
            "shape_type": "point",
            "points": [
                [
                    3318,
                    1890
                ]
            ],
            "flags": {},
            "group_id": null
        },
        {
            "label": "fifteen",
            "shape_type": "point",
            "points": [
                [
                    3318,
                    1896
                ]
            ],
            "flags": {},
            "group_id": null
        },
        {
            "label": "eleven",
            "shape_type": "point",
            "points": [
                [
                    3318,
                    1935
                ]
            ],
            "flags": {},
            "group_id": null
        },
        {
            "label": "twentytwo",
            "shape_type": "point",
            "points": [
                [
                    3335,
                    1935
                ]
            ],
            "flags": {},
            "group_id": null
        },
        {
            "label": "twentythere",
            "shape_type": "point",
            "points": [
                [
                    3318,
                    1976
                ]
            ],
            "flags": {},
            "group_id": null
        },
        {
            "label": "twelve",
            "shape_type": "point",
            "points": [
                [
                    3335,
                    1976
                ]
            ],
            "flags": {},
            "group_id": null
        },
        {
            "label": "fourteen",
            "shape_type": "point",
            "points": [
                [
                    3335,
                    2183
                ]
            ],
            "flags": {},
            "group_id": null
        },
        {
            "label": "fourteen",
            "shape_type": "point",
            "points": [
                [
                    3318,
                    2182
                ]
            ],
            "flags": {},
            "group_id": null
        },
        {
            "label": "fourteen",
            "shape_type": "point",
            "points": [
                [
                    2797,
                    2182
                ]
            ],
            "flags": {},
            "group_id": null
        },
        {
            "label": "fourteen",
            "shape_type": "point",
            "points": [
                [
                    2780,
                    2183
                ]
            ],
            "flags": {},
            "group_id": null
        },
        {
            "label": "b1",
            "shape_type": "rectangle",
            "points": [
                [
                    2779,
                    1885
                ],
                [
                    3336,
                    2183
                ]
            ],
            "flags": {},
            "group_id": null
        },
        {
            "label": "v1",
            "shape_type": "rectangle",
            "points": [
                [
                    2123,
                    2125
                ],
                [
                    2455,
                    2217
                ]
            ],
            "flags": {},
            "group_id": null
        },
        {
            "label": "va1",
            "shape_type": "rectangle",
            "points": [
                [
                    2103,
                    2052
                ],
                [
                    2142,
                    2092
                ]
            ],
            "flags": {},
            "group_id": null
        },
        {
            "label": "va1",
            "shape_type": "rectangle",
            "points": [
                [
                    2401,
                    2051
                ],
                [
                    2441,
                    2092
                ]
            ],
            "flags": {},
            "group_id": null
        },
        {
            "label": "va1",
            "shape_type": "rectangle",
            "points": [
                [
                    2250,
                    1798
                ],
                [
                    2293,
                    1832
                ]
            ],
            "flags": {},
            "group_id": null
        },
        {
            "label": "vp1-1",
            "shape_type": "rectangle",
            "points": [
                [
                    2189,
                    1902
                ],
                [
                    2354,
                    2066
                ]
            ],
            "flags": {},
            "group_id": null
        },
        {
            "label": "va1",
            "shape_type": "rectangle",
            "points": [
                [
                    2107,
                    1214
                ],
                [
                    2146,
                    1256
                ]
            ],
            "flags": {},
            "group_id": null
        },
        {
            "label": "va1",
            "shape_type": "rectangle",
            "points": [
                [
                    2407,
                    1215
                ],
                [
                    2445,
                    1256
                ]
            ],
            "flags": {},
            "group_id": null
        },
        {
            "label": "va1",
            "shape_type": "rectangle",
            "points": [
                [
                    2256,
                    961
                ],
                [
                    2298,
                    994
                ]
            ],
            "flags": {},
            "group_id": null
        },
        {
            "label": "vp1-1",
            "shape_type": "rectangle",
            "points": [
                [
                    2194,
                    1065
                ],
                [
                    2359,
                    1230
                ]
            ],
            "flags": {},
            "group_id": null
        },
        {
            "label": "va1",
            "shape_type": "rectangle",
            "points": [
                [
                    2256,
                    218
                ],
                [
                    2297,
                    252
                ]
            ],
            "flags": {},
            "group_id": null
        },
        {
            "label": "va1",
            "shape_type": "rectangle",
            "points": [
                [
                    2107,
                    471
                ],
                [
                    2145,
                    513
                ]
            ],
            "flags": {},
            "group_id": null
        },
        {
            "label": "va1",
            "shape_type": "rectangle",
            "points": [
                [
                    2407,
                    471
                ],
                [
                    2444,
                    513
                ]
            ],
            "flags": {},
            "group_id": null
        },
        {
            "label": "vp1-1",
            "shape_type": "rectangle",
            "points": [
                [
                    2193,
                    321
                ],
                [
                    2359,
                    486
                ]
            ],
            "flags": {},
            "group_id": null
        },
        {
            "label": "n1",
            "shape_type": "rectangle",
            "points": [
                [
                    1314,
                    179
                ],
                [
                    1779,
                    544
                ]
            ],
            "flags": {},
            "group_id": null
        },
        {
            "label": "van",
            "shape_type": "rectangle",
            "points": [
                [
                    788,
                    829
                ],
                [
                    845,
                    873
                ]
            ],
            "flags": {},
            "group_id": null
        },
        {
            "label": "van",
            "shape_type": "rectangle",
            "points": [
                [
                    922,
                    903
                ],
                [
                    964,
                    961
                ]
            ],
            "flags": {},
            "group_id": null
        },
        {
            "label": "van",
            "shape_type": "rectangle",
            "points": [
                [
                    786,
                    989
                ],
                [
                    838,
                    1034
                ]
            ],
            "flags": {},
            "group_id": null
        },
        {
            "label": "v1",
            "shape_type": "rectangle",
            "points": [
                [
                    2130,
                    1288
                ],
                [
                    2459,
                    1381
                ]
            ],
            "flags": {},
            "group_id": null
        },
        {
            "label": "v1",
            "shape_type": "rectangle",
            "points": [
                [
                    2127,
                    545
                ],
                [
                    2459,
                    637
                ]
            ],
            "flags": {},
            "group_id": null
        },
        {
            "label": "v1",
            "shape_type": "rectangle",
            "points": [
                [
                    680,
                    1086
                ],
                [
                    1033,
                    1178
                ]
            ],
            "flags": {},
            "group_id": null
        },
        {
            "label": "d1",
            "shape_type": "rectangle",
            "points": [
                [
                    450,
                    965
                ],
                [
                    588,
                    1048
                ]
            ],
            "flags": {},
            "group_id": null
        },
        {
            "label": "d1",
            "shape_type": "rectangle",
            "points": [
                [
                    447,
                    180
                ],
                [
                    583,
                    264
                ]
            ],
            "flags": {},
            "group_id": null
        },
        {
            "label": "thirteen",
            "shape_type": "point",
            "points": [
                [
                    725,
                    238
                ]
            ],
            "flags": {},
            "group_id": null
        },
        {
            "label": "thirteen",
            "shape_type": "point",
            "points": [
                [
                    1014,
                    238
                ]
            ],
            "flags": {},
            "group_id": null
        },
        {
            "label": "seven",
            "shape_type": "point",
            "points": [
                [
                    749,
                    262
                ]
            ],
            "flags": {},
            "group_id": null
        },
        {
            "label": "eight",
            "shape_type": "point",
            "points": [
                [
                    990,
                    262
                ]
            ],
            "flags": {},
            "group_id": null
        },
        {
            "label": "nine",
            "shape_type": "point",
            "points": [
                [
                    749,
                    783
                ]
            ],
            "flags": {},
            "group_id": null
        },
        {
            "label": "ten",
            "shape_type": "point",
            "points": [
                [
                    990,
                    783
                ]
            ],
            "flags": {},
            "group_id": null
        },
        {
            "label": "seven",
            "shape_type": "point",
            "points": [
                [
                    990,
                    724
                ]
            ],
            "flags": {},
            "group_id": null
        },
        {
            "label": "eight",
            "shape_type": "point",
            "points": [
                [
                    1014,
                    724
                ]
            ],
            "flags": {},
            "group_id": null
        },
        {
            "label": "ten",
            "shape_type": "point",
            "points": [
                [
                    1014,
                    807
                ]
            ],
            "flags": {},
            "group_id": null
        },
        {
            "label": "nine",
            "shape_type": "point",
            "points": [
                [
                    725,
                    807
                ]
            ],
            "flags": {},
            "group_id": null
        },
        {
            "label": "twentytwo",
            "shape_type": "point",
            "points": [
                [
                    922,
                    783
                ]
            ],
            "flags": {},
            "group_id": null
        },
        {
            "label": "twentythere",
            "shape_type": "point",
            "points": [
                [
                    962,
                    806
                ]
            ],
            "flags": {},
            "group_id": null
        },
        {
            "label": "nine",
            "shape_type": "point",
            "points": [
                [
                    990,
                    629
                ]
            ],
            "flags": {},
            "group_id": null
        },
        {
            "label": "thirteen",
            "shape_type": "point",
            "points": [
                [
                    1002,
                    629
                ]
            ],
            "flags": {},
            "group_id": null
        },
        {
            "label": "fourteen",
            "shape_type": "point",
            "points": [
                [
                    1002,
                    724
                ]
            ],
            "flags": {},
            "group_id": null
        },
        {
            "label": "fourteen",
            "shape_type": "point",
            "points": [
                [
                    1014,
                    629
                ]
            ],
            "flags": {},
            "group_id": null
        },
        {
            "label": "vb1",
            "shape_type": "rectangle",
            "points": [
                [
                    725,
                    238
                ],
                [
                    1014,
                    808
                ]
            ],
            "flags": {},
            "group_id": null
        },
        {
            "label": "vt1",
            "shape_type": "rectangle",
            "points": [
                [
                    812,
                    886
                ],
                [
                    899,
                    972
                ]
            ],
            "flags": {},
            "group_id": null
        },
        {
            "label": "thirteen",
            "shape_type": "point",
            "points": [
                [
                    961,
                    783
                ]
            ],
            "flags": {},
            "group_id": null
        },
        {
            "label": "fourteen",
            "shape_type": "point",
            "points": [
                [
                    922,
                    807
                ]
            ],
            "flags": {},
            "group_id": null
        },
        {
            "label": "wz4",
            "shape_type": "rectangle",
            "points": [
                [
                    804,
                    492
                ],
                [
                    935,
                    551
                ]
            ],
            "flags": {},
            "group_id": null
        },
        {
            "label": "sm",
            "shape_type": "rectangle",
            "points": [
                [
                    375,
                    2019
                ],
                [
                    1870,
                    2708
                ]
            ],
            "flags": {},
            "group_id": null
        },
        {
            "label": "btl",
            "shape_type": "rectangle",
            "points": [
                [
                    2344,
                    2565
                ],
                [
                    4153,
                    2872
                ]
            ],
            "flags": {},
            "group_id": null
        },
        {
            "label": "j1",
            "shape_type": "rectangle",
            "points": [
                [
                    1671,
                    434
                ],
                [
                    1777,
                    516
                ]
            ],
            "flags": {},
            "group_id": null
        },
        {
            "label": "j1",
            "shape_type": "rectangle",
            "points": [
                [
                    1554,
                    238
                ],
                [
                    1618,
                    322
                ]
            ],
            "flags": {},
            "group_id": null
        },
        {
            "label": "j1",
            "shape_type": "rectangle",
            "points": [
                [
                    1486,
                    181
                ],
                [
                    1518,
                    225
                ]
            ],
            "flags": {},
            "group_id": null
        },
        {
            "label": "j1",
            "shape_type": "rectangle",
            "points": [
                [
                    1315,
                    421
                ],
                [
                    1423,
                    501
                ]
            ],
            "flags": {},
            "group_id": null
        },
        {
            "label": "wz4",
            "shape_type": "rectangle",
            "points": [
                [
                    2976,
                    2010
                ],
                [
                    3101,
                    2054
                ]
            ],
            "flags": {},
            "group_id": null
        },
        {
            "label": "k1",
            "shape_type": "rectangle",
            "points": [
                [
                    3318,
                    1935
                ],
                [
                    3336,
                    1977
                ]
            ],
            "flags": {},
            "group_id": null
        },
        {
            "label": "mask",
            "lineType": [
                "LLLLLLLLLLLLLLLLLLLLLL"
            ],
            "shape_type": "polygon",
            "points": [
                [
                    953,
                    1204
                ],
                [
                    1045,
                    1202
                ],
                [
                    1076,
                    1158
                ],
                [
                    1139,
                    875
                ],
                [
                    1140,
                    552
                ],
                [
                    1107,
                    256
                ],
                [
                    1085,
                    205
                ],
                [
                    958,
                    195
                ],
                [
                    654,
                    184
                ],
                [
                    562,
                    164
                ],
                [
                    478,
                    164
                ],
                [
                    432,
                    176
                ],
                [
                    423,
                    271
                ],
                [
                    452,
                    305
                ],
                [
                    575,
                    667
                ],
                [
                    561,
                    950
                ],
                [
                    452,
                    945
                ],
                [
                    450,
                    995
                ],
                [
                    443,
                    1043
                ],
                [
                    446,
                    1089
                ],
                [
                    579,
                    1185
                ],
                [
                    953,
                    1204
                ]
            ],
            "flags": {},
            "group_id": null
        },
        {
            "label": "mask",
            "lineType": [
                "LLLLLLLLLLLLLLLLLLLL"
            ],
            "shape_type": "polygon",
            "points": [
                [
                    1576,
                    656
                ],
                [
                    1644,
                    644
                ],
                [
                    1705,
                    594
                ],
                [
                    1786,
                    554
                ],
                [
                    1793,
                    519
                ],
                [
                    1778,
                    437
                ],
                [
                    1660,
                    386
                ],
                [
                    1641,
                    271
                ],
                [
                    1637,
                    199
                ],
                [
                    1617,
                    168
                ],
                [
                    1475,
                    155
                ],
                [
                    1458,
                    208
                ],
                [
                    1457,
                    342
                ],
                [
                    1347,
                    406
                ],
                [
                    1323,
                    422
                ],
                [
                    1303,
                    505
                ],
                [
                    1320,
                    556
                ],
                [
                    1358,
                    633
                ],
                [
                    1400,
                    643
                ],
                [
                    1576,
                    656
                ]
            ],
            "flags": {},
            "group_id": null
        },
        {
            "label": "mask",
            "lineType": [
                "LLLLLLLLLLLLLLLLLLLLL"
            ],
            "shape_type": "polygon",
            "points": [
                [
                    2264,
                    665
                ],
                [
                    2482,
                    669
                ],
                [
                    2604,
                    498
                ],
                [
                    2611,
                    456
                ],
                [
                    2589,
                    413
                ],
                [
                    2498,
                    390
                ],
                [
                    2416,
                    339
                ],
                [
                    2373,
                    237
                ],
                [
                    2342,
                    153
                ],
                [
                    2330,
                    129
                ],
                [
                    2199,
                    129
                ],
                [
                    2183,
                    280
                ],
                [
                    2157,
                    362
                ],
                [
                    1999,
                    425
                ],
                [
                    1970,
                    432
                ],
                [
                    1953,
                    450
                ],
                [
                    1948,
                    486
                ],
                [
                    1953,
                    537
                ],
                [
                    1989,
                    609
                ],
                [
                    2032,
                    636
                ],
                [
                    2264,
                    665
                ]
            ],
            "flags": {},
            "group_id": null
        },
        {
            "label": "mask",
            "lineType": [
                "LLLLLLLLLLLLLLLLLLLLLLLLLLLLLLLLLLLLLLL"
            ],
            "shape_type": "polygon",
            "points": [
                [
                    3360,
                    210
                ],
                [
                    3445,
                    180
                ],
                [
                    3488,
                    181
                ],
                [
                    3573,
                    236
                ],
                [
                    3880,
                    330
                ],
                [
                    3886,
                    385
                ],
                [
                    3893,
                    604
                ],
                [
                    3890,
                    941
                ],
                [
                    3905,
                    1099
                ],
                [
                    3594,
                    1099
                ],
                [
                    3549,
                    1339
                ],
                [
                    3591,
                    1967
                ],
                [
                    3624,
                    2144
                ],
                [
                    3857,
                    2157
                ],
                [
                    3872,
                    2182
                ],
                [
                    3873,
                    2229
                ],
                [
                    3863,
                    2258
                ],
                [
                    3508,
                    2285
                ],
                [
                    3505,
                    2400
                ],
                [
                    3138,
                    2392
                ],
                [
                    3123,
                    2345
                ],
                [
                    3122,
                    2278
                ],
                [
                    2758,
                    2274
                ],
                [
                    2717,
                    2266
                ],
                [
                    2715,
                    2250
                ],
                [
                    2717,
                    2194
                ],
                [
                    2759,
                    1884
                ],
                [
                    3113,
                    1849
                ],
                [
                    3355,
                    1701
                ],
                [
                    3391,
                    1559
                ],
                [
                    3364,
                    1398
                ],
                [
                    3358,
                    1262
                ],
                [
                    3315,
                    1051
                ],
                [
                    3132,
                    1043
                ],
                [
                    3064,
                    995
                ],
                [
                    3058,
                    803
                ],
                [
                    3063,
                    514
                ],
                [
                    3132,
                    455
                ],
                [
                    3360,
                    210
                ]
            ],
            "flags": {},
            "group_id": null
        },
        {
            "label": "mask",
            "lineType": [
                "LLLLL"
            ],
            "shape_type": "polygon",
            "points": [
                [
                    2346,
                    2566
                ],
                [
                    2346,
                    2873
                ],
                [
                    4154,
                    2870
                ],
                [
                    4154,
                    2568
                ],
                [
                    2346,
                    2566
                ]
            ],
            "flags": {},
            "group_id": null
        },
        {
            "label": "mask",
            "lineType": [
                "LLLLLLLLLLLLLLLLL"
            ],
            "shape_type": "polygon",
            "points": [
                [
                    2197,
                    2246
                ],
                [
                    2302,
                    2258
                ],
                [
                    2457,
                    2244
                ],
                [
                    2582,
                    2152
                ],
                [
                    2606,
                    2086
                ],
                [
                    2611,
                    2031
                ],
                [
                    2447,
                    1773
                ],
                [
                    2397,
                    1727
                ],
                [
                    2358,
                    1707
                ],
                [
                    2198,
                    1698
                ],
                [
                    2077,
                    1996
                ],
                [
                    1980,
                    1999
                ],
                [
                    1941,
                    2009
                ],
                [
                    1938,
                    2074
                ],
                [
                    2001,
                    2198
                ],
                [
                    2094,
                    2227
                ],
                [
                    2197,
                    2246
                ]
            ],
            "flags": {},
            "group_id": null
        },
        {
            "label": "mask",
            "lineType": [
                "LLLLLLLLLLLLLLLLLLLLLLLLLLL"
            ],
            "shape_type": "polygon",
            "points": [
                [
                    2464,
                    1411
                ],
                [
                    2501,
                    1343
                ],
                [
                    2556,
                    1301
                ],
                [
                    2592,
                    1256
                ],
                [
                    2602,
                    1241
                ],
                [
                    2603,
                    1231
                ],
                [
                    2599,
                    1207
                ],
                [
                    2591,
                    1174
                ],
                [
                    2564,
                    1159
                ],
                [
                    2424,
                    1135
                ],
                [
                    2401,
                    1099
                ],
                [
                    2347,
                    990
                ],
                [
                    2343,
                    894
                ],
                [
                    2332,
                    877
                ],
                [
                    2280,
                    869
                ],
                [
                    2219,
                    869
                ],
                [
                    2200,
                    921
                ],
                [
                    2199,
                    1017
                ],
                [
                    2169,
                    1081
                ],
                [
                    2080,
                    1107
                ],
                [
                    1968,
                    1171
                ],
                [
                    1950,
                    1221
                ],
                [
                    1950,
                    1270
                ],
                [
                    1969,
                    1328
                ],
                [
                    2012,
                    1375
                ],
                [
                    2064,
                    1407
                ],
                [
                    2464,
                    1411
                ]
            ],
            "flags": {},
            "group_id": null
        },
        {
            "label": "mask",
            "lineType": [
                "LLLLLLLLLLL"
            ],
            "shape_type": "polygon",
            "points": [
                [
                    1650,
                    1354
                ],
                [
                    1824,
                    1363
                ],
                [
                    1833,
                    1431
                ],
                [
                    1832,
                    1927
                ],
                [
                    428,
                    1925
                ],
                [
                    429,
                    1366
                ],
                [
                    945,
                    1362
                ],
                [
                    943,
                    1306
                ],
                [
                    1253,
                    1301
                ],
                [
                    1254,
                    1367
                ],
                [
                    1650,
                    1354
                ]
            ],
            "flags": {},
            "group_id": null
        },
        {
            "label": "mask",
            "lineType": [
                "LLLLLLLLLLLLLLLLLLLLLLLLLLLL"
            ],
            "shape_type": "polygon",
            "points": [
                [
                    1351,
                    2073
                ],
                [
                    1360,
                    2172
                ],
                [
                    1353,
                    2292
                ],
                [
                    1865,
                    2292
                ],
                [
                    1888,
                    2313
                ],
                [
                    1883,
                    2381
                ],
                [
                    1874,
                    2418
                ],
                [
                    1859,
                    2431
                ],
                [
                    1763,
                    2438
                ],
                [
                    1515,
                    2451
                ],
                [
                    1552,
                    2559
                ],
                [
                    1659,
                    2566
                ],
                [
                    1683,
                    2597
                ],
                [
                    1678,
                    2647
                ],
                [
                    1677,
                    2681
                ],
                [
                    1528,
                    2722
                ],
                [
                    769,
                    2736
                ],
                [
                    450,
                    2718
                ],
                [
                    432,
                    2690
                ],
                [
                    437,
                    2594
                ],
                [
                    439,
                    2233
                ],
                [
                    431,
                    2103
                ],
                [
                    375,
                    2081
                ],
                [
                    363,
                    2017
                ],
                [
                    375,
                    2009
                ],
                [
                    762,
                    2019
                ],
                [
                    767,
                    2076
                ],
                [
                    1351,
                    2073
                ]
            ],
            "flags": {},
            "group_id": null
        },
        {
            "label": "wlb",
            "shape_type": "rectangle",
            "points": [
                [
                    432,
                    1314
                ],
                [
                    1825,
                    1920
                ]
            ],
            "flags": {},
            "group_id": null
        },
        {
            "label": "Ns",
            "shape_type": "point",
            "points": [
                [
                    1533,
                    455
                ]
            ],
            "flags": {},
            "group_id": null
        },
        {
            "label": "Ne",
            "shape_type": "point",
            "points": [
                [
                    1533,
                    274
                ]
            ],
            "flags": {},
            "group_id": null
        },
        {
            "label": "wz3",
            "shape_type": "rectangle",
            "points": [
                [
                    1427,
                    574
                ],
                [
                    1641,
                    618
                ]
            ],
            "flags": {},
            "group_id": null
        },
        {
            "label": "wz3-l",
            "lineType": "LL",
            "shape_type": "line",
            "points": [
                [
                    1503,
                    585
                ],
                [
                    1530,
                    455
                ]
            ],
            "flags": {},
            "group_id": null
        },
        {
            "label": "wz3",
            "shape_type": "rectangle",
            "points": [
                [
                    1963,
                    438
                ],
                [
                    2100,
                    507
                ]
            ],
            "flags": {},
            "group_id": null
        },
        {
            "label": "wz3",
            "shape_type": "rectangle",
            "points": [
                [
                    2457,
                    434
                ],
                [
                    2588,
                    504
                ]
            ],
            "flags": {},
            "group_id": null
        },
        {
            "label": "wz3",
            "shape_type": "rectangle",
            "points": [
                [
                    2224,
                    138
                ],
                [
                    2320,
                    204
                ]
            ],
            "flags": {},
            "group_id": null
        },
        {
            "label": "wz3-l",
            "lineType": "LL",
            "shape_type": "line",
            "points": [
                [
                    2437,
                    489
                ],
                [
                    2480,
                    469
                ]
            ],
            "flags": {},
            "group_id": null
        },
        {
            "label": "wz3-l",
            "lineType": "LL",
            "shape_type": "line",
            "points": [
                [
                    2126,
                    497
                ],
                [
                    2074,
                    484
                ]
            ],
            "flags": {},
            "group_id": null
        },
        {
            "label": "wz3-l",
            "lineType": "LL",
            "shape_type": "line",
            "points": [
                [
                    2266,
                    184
                ],
                [
                    2266,
                    229
                ]
            ],
            "flags": {},
            "group_id": null
        },
        {
            "label": "wz3",
            "shape_type": "rectangle",
            "points": [
                [
                    2226,
                    881
                ],
                [
                    2320,
                    946
                ]
            ],
            "flags": {},
            "group_id": null
        },
        {
            "label": "wz3",
            "shape_type": "rectangle",
            "points": [
                [
                    1964,
                    1182
                ],
                [
                    2099,
                    1251
                ]
            ],
            "flags": {},
            "group_id": null
        },
        {
            "label": "wz3",
            "shape_type": "rectangle",
            "points": [
                [
                    2458,
                    1179
                ],
                [
                    2589,
                    1247
                ]
            ],
            "flags": {},
            "group_id": null
        },
        {
            "label": "wz3-l",
            "lineType": "LL",
            "shape_type": "line",
            "points": [
                [
                    2504,
                    1224
                ],
                [
                    2437,
                    1233
                ]
            ],
            "flags": {},
            "group_id": null
        },
        {
            "label": "wz3-l",
            "lineType": "LL",
            "shape_type": "line",
            "points": [
                [
                    2133,
                    1241
                ],
                [
                    2069,
                    1232
                ]
            ],
            "flags": {},
            "group_id": null
        },
        {
            "label": "wz3-l",
            "lineType": "LL",
            "shape_type": "line",
            "points": [
                [
                    2276,
                    931
                ],
                [
                    2270,
                    978
                ]
            ],
            "flags": {},
            "group_id": null
        },
        {
            "label": "wz3",
            "shape_type": "rectangle",
            "points": [
                [
                    2447,
                    2019
                ],
                [
                    2585,
                    2085
                ]
            ],
            "flags": {},
            "group_id": null
        },
        {
            "label": "wz3",
            "shape_type": "rectangle",
            "points": [
                [
                    2209,
                    1718
                ],
                [
                    2348,
                    1785
                ]
            ],
            "flags": {},
            "group_id": null
        },
        {
            "label": "wz3",
            "shape_type": "rectangle",
            "points": [
                [
                    1955,
                    2022
                ],
                [
                    2094,
                    2089
                ]
            ],
            "flags": {},
            "group_id": null
        },
        {
            "label": "wz3-l",
            "lineType": "LL",
            "shape_type": "line",
            "points": [
                [
                    2125,
                    2066
                ],
                [
                    2074,
                    2069
                ]
            ],
            "flags": {},
            "group_id": null
        },
        {
            "label": "wz3-l",
            "lineType": "LL",
            "shape_type": "line",
            "points": [
                [
                    2473,
                    2066
                ],
                [
                    2414,
                    2071
                ]
            ],
            "flags": {},
            "group_id": null
        },
        {
            "label": "wz3-l",
            "lineType": "LL",
            "shape_type": "line",
            "points": [
                [
                    2287,
                    1769
                ],
                [
                    2273,
                    1807
                ]
            ],
            "flags": {},
            "group_id": null
        },
        {
            "label": "wz3",
            "shape_type": "rectangle",
            "points": [
                [
                    3082,
                    959
                ],
                [
                    3123,
                    984
                ]
            ],
            "flags": {},
            "group_id": null
        },
        {
            "label": "wz3",
            "shape_type": "rectangle",
            "points": [
                [
                    3081,
                    726
                ],
                [
                    3178,
                    761
                ]
            ],
            "flags": {},
            "group_id": null
        },
        {
            "label": "wz3",
            "shape_type": "rectangle",
            "points": [
                [
                    3078,
                    514
                ],
                [
                    3178,
                    548
                ]
            ],
            "flags": {},
            "group_id": null
        },
        {
            "label": "wz3-l",
            "lineType": "LL",
            "shape_type": "line",
            "points": [
                [
                    3154,
                    533
                ],
                [
                    3378,
                    576
                ]
            ],
            "flags": {},
            "group_id": null
        },
        {
            "label": "wz3-l",
            "lineType": "LL",
            "shape_type": "line",
            "points": [
                [
                    3161,
                    749
                ],
                [
                    3358,
                    790
                ]
            ],
            "flags": {},
            "group_id": null
        },
        {
            "label": "wz3-l",
            "lineType": "LL",
            "shape_type": "line",
            "points": [
                [
                    3114,
                    973
                ],
                [
                    3383,
                    1030
                ]
            ],
            "flags": {},
            "group_id": null
        },
        {
            "label": "wz3",
            "shape_type": "rectangle",
            "points": [
                [
                    3516,
                    840
                ],
                [
                    3554,
                    865
                ]
            ],
            "flags": {},
            "group_id": null
        },
        {
            "label": "wz3",
            "shape_type": "rectangle",
            "points": [
                [
                    3514,
                    875
                ],
                [
                    3551,
                    900
                ]
            ],
            "flags": {},
            "group_id": null
        },
        {
            "label": "wz3",
            "shape_type": "rectangle",
            "points": [
                [
                    3370,
                    869
                ],
                [
                    3404,
                    892
                ]
            ],
            "flags": {},
            "group_id": null
        },
        {
            "label": "wz3-l",
            "lineType": "LL",
            "shape_type": "line",
            "points": [
                [
                    3390,
                    886
                ],
                [
                    3382,
                    918
                ]
            ],
            "flags": {},
            "group_id": null
        },
        {
            "label": "wz3-l",
            "lineType": "LL",
            "shape_type": "line",
            "points": [
                [
                    3526,
                    886
                ],
                [
                    3519,
                    915
                ]
            ],
            "flags": {},
            "group_id": null
        },
        {
            "label": "wz3-l",
            "lineType": "LL",
            "shape_type": "line",
            "points": [
                [
                    3547,
                    852
                ],
                [
                    3546,
                    934
                ]
            ],
            "flags": {},
            "group_id": null
        }
    ],
    "flags": {},
    "imageData": null,
    "version": "4.5.7"
}