{
    "imageHeight": 2908,
    "imageWidth": 4205,
    "imagePath": "样本2_93_37.png",
    "shapes": [
        {
            "label": "t9",
            "shape_type": "rectangle",
            "points": [
                [
                    3480,
                    220
                ],
                [
                    3651,
                    2028
                ]
            ],
            "flags": {},
            "group_id": null
        },
        {
            "label": "d1",
            "shape_type": "rectangle",
            "points": [
                [
                    3356,
                    347
                ],
                [
                    3440,
                    484
                ]
            ],
            "flags": {},
            "group_id": null
        },
        {
            "label": "d1",
            "shape_type": "rectangle",
            "points": [
                [
                    3358,
                    622
                ],
                [
                    3442,
                    759
                ]
            ],
            "flags": {},
            "group_id": null
        },
        {
            "label": "d1",
            "shape_type": "rectangle",
            "points": [
                [
                    3354,
                    841
                ],
                [
                    3437,
                    980
                ]
            ],
            "flags": {},
            "group_id": null
        },
        {
            "label": "d1",
            "shape_type": "rectangle",
            "points": [
                [
                    3691,
                    841
                ],
                [
                    3775,
                    980
                ]
            ],
            "flags": {},
            "group_id": null
        },
        {
            "label": "d1",
            "shape_type": "rectangle",
            "points": [
                [
                    3696,
                    621
                ],
                [
                    3780,
                    760
                ]
            ],
            "flags": {},
            "group_id": null
        },
        {
            "label": "d1",
            "shape_type": "rectangle",
            "points": [
                [
                    3694,
                    347
                ],
                [
                    3777,
                    485
                ]
            ],
            "flags": {},
            "group_id": null
        },
        {
            "label": "c1",
            "shape_type": "rectangle",
            "points": [
                [
                    3564,
                    221
                ],
                [
                    3570,
                    414
                ]
            ],
            "flags": {},
            "group_id": null
        },
        {
            "label": "z1",
            "shape_type": "rectangle",
            "points": [
                [
                    3481,
                    422
                ],
                [
                    3651,
                    643
                ]
            ],
            "flags": {},
            "group_id": null
        },
        {
            "label": "z1",
            "shape_type": "rectangle",
            "points": [
                [
                    3480,
                    643
                ],
                [
                    3651,
                    863
                ]
            ],
            "flags": {},
            "group_id": null
        },
        {
            "label": "p1-1",
            "shape_type": "rectangle",
            "points": [
                [
                    3489,
                    860
                ],
                [
                    3643,
                    1063
                ]
            ],
            "flags": {},
            "group_id": null
        },
        {
            "label": "p1-1",
            "shape_type": "rectangle",
            "points": [
                [
                    3489,
                    641
                ],
                [
                    3642,
                    843
                ]
            ],
            "flags": {},
            "group_id": null
        },
        {
            "label": "p1-1",
            "shape_type": "rectangle",
            "points": [
                [
                    3489,
                    421
                ],
                [
                    3643,
                    623
                ]
            ],
            "flags": {},
            "group_id": null
        },
        {
            "label": "x1",
            "shape_type": "rectangle",
            "points": [
                [
                    3517,
                    1469
                ],
                [
                    3613,
                    1495
                ]
            ],
            "flags": {},
            "group_id": null
        },
        {
            "label": "b1",
            "shape_type": "rectangle",
            "points": [
                [
                    3711,
                    1846
                ],
                [
                    3892,
                    2026
                ]
            ],
            "flags": {},
            "group_id": null
        },
        {
            "label": "seven",
            "shape_type": "point",
            "points": [
                [
                    3711,
                    1846
                ]
            ],
            "flags": {},
            "group_id": null
        },
        {
            "label": "thirteen",
            "shape_type": "point",
            "points": [
                [
                    3801,
                    1846
                ]
            ],
            "flags": {},
            "group_id": null
        },
        {
            "label": "eight",
            "shape_type": "point",
            "points": [
                [
                    3892,
                    1846
                ]
            ],
            "flags": {},
            "group_id": null
        },
        {
            "label": "nine",
            "shape_type": "point",
            "points": [
                [
                    3711,
                    2026
                ]
            ],
            "flags": {},
            "group_id": null
        },
        {
            "label": "fourteen",
            "shape_type": "point",
            "points": [
                [
                    3801,
                    2026
                ]
            ],
            "flags": {},
            "group_id": null
        },
        {
            "label": "ten",
            "shape_type": "point",
            "points": [
                [
                    3892,
                    2026
                ]
            ],
            "flags": {},
            "group_id": null
        },
        {
            "label": "h1",
            "shape_type": "rectangle",
            "points": [
                [
                    3978,
                    1953
                ],
                [
                    4151,
                    2028
                ]
            ],
            "flags": {},
            "group_id": null
        },
        {
            "label": "v1",
            "shape_type": "rectangle",
            "points": [
                [
                    3288,
                    2212
                ],
                [
                    3619,
                    2302
                ]
            ],
            "flags": {},
            "group_id": null
        },
        {
            "label": "v1",
            "shape_type": "rectangle",
            "points": [
                [
                    3929,
                    957
                ],
                [
                    4100,
                    1034
                ]
            ],
            "flags": {},
            "group_id": null
        },
        {
            "label": "v1",
            "shape_type": "rectangle",
            "points": [
                [
                    3929,
                    756
                ],
                [
                    4101,
                    832
                ]
            ],
            "flags": {},
            "group_id": null
        },
        {
            "label": "h1",
            "shape_type": "rectangle",
            "points": [
                [
                    3935,
                    507
                ],
                [
                    4107,
                    583
                ]
            ],
            "flags": {},
            "group_id": null
        },
        {
            "label": "h1",
            "shape_type": "rectangle",
            "points": [
                [
                    3949,
                    236
                ],
                [
                    4120,
                    311
                ]
            ],
            "flags": {},
            "group_id": null
        },
        {
            "label": "g1",
            "shape_type": "rectangle",
            "points": [
                [
                    3523,
                    421
                ],
                [
                    3528,
                    624
                ]
            ],
            "flags": {},
            "group_id": null
        },
        {
            "label": "g1",
            "shape_type": "rectangle",
            "points": [
                [
                    3605,
                    422
                ],
                [
                    3609,
                    622
                ]
            ],
            "flags": {},
            "group_id": null
        },
        {
            "label": "g1",
            "shape_type": "rectangle",
            "points": [
                [
                    3523,
                    642
                ],
                [
                    3529,
                    843
                ]
            ],
            "flags": {},
            "group_id": null
        },
        {
            "label": "g1",
            "shape_type": "rectangle",
            "points": [
                [
                    3605,
                    643
                ],
                [
                    3609,
                    843
                ]
            ],
            "flags": {},
            "group_id": null
        },
        {
            "label": "g1",
            "shape_type": "rectangle",
            "points": [
                [
                    3524,
                    861
                ],
                [
                    3528,
                    1063
                ]
            ],
            "flags": {},
            "group_id": null
        },
        {
            "label": "g1",
            "shape_type": "rectangle",
            "points": [
                [
                    3604,
                    861
                ],
                [
                    3610,
                    1063
                ]
            ],
            "flags": {},
            "group_id": null
        },
        {
            "label": "a1-1",
            "shape_type": "rectangle",
            "points": [
                [
                    3489,
                    900
                ],
                [
                    3521,
                    1031
                ]
            ],
            "flags": {},
            "group_id": null
        },
        {
            "label": "a1-2",
            "shape_type": "rectangle",
            "points": [
                [
                    3611,
                    896
                ],
                [
                    3643,
                    1034
                ]
            ],
            "flags": {},
            "group_id": null
        },
        {
            "label": "a1-1",
            "shape_type": "rectangle",
            "points": [
                [
                    3490,
                    681
                ],
                [
                    3521,
                    811
                ]
            ],
            "flags": {},
            "group_id": null
        },
        {
            "label": "a1-2",
            "shape_type": "rectangle",
            "points": [
                [
                    3611,
                    676
                ],
                [
                    3643,
                    813
                ]
            ],
            "flags": {},
            "group_id": null
        },
        {
            "label": "a1-1",
            "shape_type": "rectangle",
            "points": [
                [
                    3490,
                    461
                ],
                [
                    3520,
                    590
                ]
            ],
            "flags": {},
            "group_id": null
        },
        {
            "label": "a1-2",
            "shape_type": "rectangle",
            "points": [
                [
                    3610,
                    457
                ],
                [
                    3643,
                    594
                ]
            ],
            "flags": {},
            "group_id": null
        },
        {
            "label": "vp1-1",
            "shape_type": "rectangle",
            "points": [
                [
                    2767,
                    1276
                ],
                [
                    2868,
                    1375
                ]
            ],
            "flags": {},
            "group_id": null
        },
        {
            "label": "v1",
            "shape_type": "rectangle",
            "points": [
                [
                    2702,
                    1474
                ],
                [
                    2926,
                    1537
                ]
            ],
            "flags": {},
            "group_id": null
        },
        {
            "label": "va1",
            "shape_type": "rectangle",
            "points": [
                [
                    2808,
                    1223
                ],
                [
                    2847,
                    1262
                ]
            ],
            "flags": {},
            "group_id": null
        },
        {
            "label": "va1",
            "shape_type": "rectangle",
            "points": [
                [
                    2723,
                    1335
                ],
                [
                    2761,
                    1376
                ]
            ],
            "flags": {},
            "group_id": null
        },
        {
            "label": "va1",
            "shape_type": "rectangle",
            "points": [
                [
                    2863,
                    1353
                ],
                [
                    2906,
                    1388
                ]
            ],
            "flags": {},
            "group_id": null
        },
        {
            "label": "va1",
            "shape_type": "rectangle",
            "points": [
                [
                    2103,
                    1252
                ],
                [
                    2146,
                    1290
                ]
            ],
            "flags": {},
            "group_id": null
        },
        {
            "label": "va1",
            "shape_type": "rectangle",
            "points": [
                [
                    2029,
                    1374
                ],
                [
                    2063,
                    1417
                ]
            ],
            "flags": {},
            "group_id": null
        },
        {
            "label": "va1",
            "shape_type": "rectangle",
            "points": [
                [
                    2173,
                    1370
                ],
                [
                    2209,
                    1413
                ]
            ],
            "flags": {},
            "group_id": null
        },
        {
            "label": "vp1-1",
            "shape_type": "rectangle",
            "points": [
                [
                    2014,
                    1247
                ],
                [
                    2226,
                    1459
                ]
            ],
            "flags": {},
            "group_id": null
        },
        {
            "label": "v1",
            "shape_type": "rectangle",
            "points": [
                [
                    2020,
                    1476
                ],
                [
                    2243,
                    1539
                ]
            ],
            "flags": {},
            "group_id": null
        },
        {
            "label": "v1",
            "shape_type": "rectangle",
            "points": [
                [
                    1394,
                    1469
                ],
                [
                    1619,
                    1539
                ]
            ],
            "flags": {},
            "group_id": null
        },
        {
            "label": "vp1-1",
            "shape_type": "rectangle",
            "points": [
                [
                    1401,
                    1236
                ],
                [
                    1614,
                    1449
                ]
            ],
            "flags": {},
            "group_id": null
        },
        {
            "label": "va1",
            "shape_type": "rectangle",
            "points": [
                [
                    1493,
                    1239
                ],
                [
                    1537,
                    1279
                ]
            ],
            "flags": {},
            "group_id": null
        },
        {
            "label": "va1",
            "shape_type": "rectangle",
            "points": [
                [
                    1418,
                    1359
                ],
                [
                    1452,
                    1403
                ]
            ],
            "flags": {},
            "group_id": null
        },
        {
            "label": "va1",
            "shape_type": "rectangle",
            "points": [
                [
                    1559,
                    1368
                ],
                [
                    1601,
                    1409
                ]
            ],
            "flags": {},
            "group_id": null
        },
        {
            "label": "v1",
            "shape_type": "rectangle",
            "points": [
                [
                    740,
                    1241
                ],
                [
                    930,
                    1314
                ]
            ],
            "flags": {},
            "group_id": null
        },
        {
            "label": "d1",
            "shape_type": "rectangle",
            "points": [
                [
                    573,
                    1079
                ],
                [
                    709,
                    1162
                ]
            ],
            "flags": {},
            "group_id": null
        },
        {
            "label": "d1",
            "shape_type": "rectangle",
            "points": [
                [
                    563,
                    300
                ],
                [
                    700,
                    383
                ]
            ],
            "flags": {},
            "group_id": null
        },
        {
            "label": "vt9",
            "shape_type": "rectangle",
            "points": [
                [
                    760,
                    519
                ],
                [
                    1057,
                    816
                ]
            ],
            "flags": {},
            "group_id": null
        },
        {
            "label": "vb1",
            "shape_type": "rectangle",
            "points": [
                [
                    866,
                    914
                ],
                [
                    956,
                    1075
                ]
            ],
            "flags": {},
            "group_id": null
        },
        {
            "label": "seven",
            "shape_type": "point",
            "points": [
                [
                    865,
                    914
                ]
            ],
            "flags": {},
            "group_id": null
        },
        {
            "label": "eight",
            "shape_type": "point",
            "points": [
                [
                    956,
                    913
                ]
            ],
            "flags": {},
            "group_id": null
        },
        {
            "label": "nine",
            "shape_type": "point",
            "points": [
                [
                    866,
                    1076
                ]
            ],
            "flags": {},
            "group_id": null
        },
        {
            "label": "ten",
            "shape_type": "point",
            "points": [
                [
                    956,
                    1074
                ]
            ],
            "flags": {},
            "group_id": null
        },
        {
            "label": "n1",
            "shape_type": "rectangle",
            "points": [
                [
                    1902,
                    221
                ],
                [
                    2391,
                    645
                ]
            ],
            "flags": {},
            "group_id": null
        },
        {
            "label": "",
            "shape_type": "",
            "points": [],
            "flags": {},
            "group_id": null
        },
        {
            "label": "",
            "shape_type": "",
            "points": [],
            "flags": {},
            "group_id": null
        },
        {
            "label": "btl",
            "shape_type": "rectangle",
            "points": [
                [
                    2346,
                    2568
                ],
                [
                    4152,
                    2868
                ]
            ],
            "flags": {},
            "group_id": null
        },
        {
            "label": "sm",
            "shape_type": "rectangle",
            "points": [
                [
                    1793,
                    1822
                ],
                [
                    3413,
                    2564
                ]
            ],
            "flags": {},
            "group_id": null
        },
        {
            "label": "j1",
            "shape_type": "rectangle",
            "points": [
                [
                    2185,
                    243
                ],
                [
                    2213,
                    288
                ]
            ],
            "flags": {},
            "group_id": null
        },
        {
            "label": "j1",
            "shape_type": "rectangle",
            "points": [
                [
                    2277,
                    245
                ],
                [
                    2363,
                    327
                ]
            ],
            "flags": {},
            "group_id": null
        },
        {
            "label": "j1",
            "shape_type": "rectangle",
            "points": [
                [
                    2283,
                    563
                ],
                [
                    2389,
                    644
                ]
            ],
            "flags": {},
            "group_id": null
        },
        {
            "label": "j1",
            "shape_type": "rectangle",
            "points": [
                [
                    1904,
                    350
                ],
                [
                    2014,
                    431
                ]
            ],
            "flags": {},
            "group_id": null
        },
        {
            "label": "mask",
            "lineType": [
                "LLLLLLLLLLLLLLLL"
            ],
            "shape_type": "polygon",
            "points": [
                [
                    2263,
                    1552
                ],
                [
                    2276,
                    1532
                ],
                [
                    2374,
                    1426
                ],
                [
                    2372,
                    1398
                ],
                [
                    2363,
                    1380
                ],
                [
                    2351,
                    1373
                ],
                [
                    2211,
                    1180
                ],
                [
                    2188,
                    1175
                ],
                [
                    2163,
                    1172
                ],
                [
                    2076,
                    1172
                ],
                [
                    2007,
                    1240
                ],
                [
                    1992,
                    1293
                ],
                [
                    1990,
                    1378
                ],
                [
                    1870,
                    1415
                ],
                [
                    1919,
                    1568
                ],
                [
                    2263,
                    1552
                ]
            ],
            "flags": {},
            "group_id": null
        },
        {
            "label": "mask",
            "lineType": [
                "LLLLLLLLLLL"
            ],
            "shape_type": "polygon",
            "points": [
                [
                    1592,
                    1577
                ],
                [
                    1639,
                    1577
                ],
                [
                    1690,
                    1566
                ],
                [
                    1790,
                    1389
                ],
                [
                    1635,
                    1121
                ],
                [
                    1478,
                    1133
                ],
                [
                    1251,
                    1328
                ],
                [
                    1240,
                    1335
                ],
                [
                    1234,
                    1341
                ],
                [
                    1256,
                    1532
                ],
                [
                    1592,
                    1577
                ]
            ],
            "flags": {},
            "group_id": null
        },
        {
            "label": "mask",
            "lineType": [
                "LLLLLLLLLLLLLLLLLL"
            ],
            "shape_type": "polygon",
            "points": [
                [
                    784,
                    1344
                ],
                [
                    948,
                    1345
                ],
                [
                    965,
                    1319
                ],
                [
                    1024,
                    815
                ],
                [
                    1076,
                    683
                ],
                [
                    1076,
                    616
                ],
                [
                    1022,
                    539
                ],
                [
                    945,
                    498
                ],
                [
                    699,
                    288
                ],
                [
                    573,
                    283
                ],
                [
                    542,
                    299
                ],
                [
                    542,
                    299
                ],
                [
                    638,
                    883
                ],
                [
                    570,
                    1007
                ],
                [
                    559,
                    1023
                ],
                [
                    555,
                    1210
                ],
                [
                    588,
                    1304
                ],
                [
                    784,
                    1344
                ]
            ],
            "flags": {},
            "group_id": null
        },
        {
            "label": "mask",
            "lineType": [
                "LLLLLLLLLLL"
            ],
            "shape_type": "polygon",
            "points": [
                [
                    2404,
                    694
                ],
                [
                    2424,
                    614
                ],
                [
                    2438,
                    449
                ],
                [
                    2423,
                    294
                ],
                [
                    2384,
                    259
                ],
                [
                    2338,
                    223
                ],
                [
                    2291,
                    214
                ],
                [
                    2049,
                    194
                ],
                [
                    1871,
                    271
                ],
                [
                    1946,
                    739
                ],
                [
                    2404,
                    694
                ]
            ],
            "flags": {},
            "group_id": null
        },
        {
            "label": "mask",
            "lineType": [
                "LLLLLLLLLLLLLLLLLLL"
            ],
            "shape_type": "polygon",
            "points": [
                [
                    2753,
                    1571
                ],
                [
                    2943,
                    1569
                ],
                [
                    3019,
                    1534
                ],
                [
                    3066,
                    1476
                ],
                [
                    3089,
                    1404
                ],
                [
                    3093,
                    1361
                ],
                [
                    3084,
                    1336
                ],
                [
                    3026,
                    1244
                ],
                [
                    2979,
                    1174
                ],
                [
                    2943,
                    1153
                ],
                [
                    2918,
                    1131
                ],
                [
                    2896,
                    1121
                ],
                [
                    2684,
                    1133
                ],
                [
                    2661,
                    1143
                ],
                [
                    2526,
                    1308
                ],
                [
                    2513,
                    1414
                ],
                [
                    2531,
                    1484
                ],
                [
                    2556,
                    1551
                ],
                [
                    2753,
                    1571
                ]
            ],
            "flags": {},
            "group_id": null
        },
        {
            "label": "mask",
            "lineType": [
                "LLLLLLLLLLLLLLLLLLLLLLLLLLLLLLL"
            ],
            "shape_type": "polygon",
            "points": [
                [
                    2798,
                    2029
                ],
                [
                    2759,
                    1914
                ],
                [
                    2741,
                    1886
                ],
                [
                    2686,
                    1876
                ],
                [
                    2186,
                    1866
                ],
                [
                    2168,
                    1833
                ],
                [
                    2133,
                    1816
                ],
                [
                    2109,
                    1806
                ],
                [
                    1776,
                    1813
                ],
                [
                    1798,
                    1929
                ],
                [
                    1839,
                    2171
                ],
                [
                    1831,
                    2573
                ],
                [
                    1858,
                    2576
                ],
                [
                    2426,
                    2559
                ],
                [
                    2469,
                    2561
                ],
                [
                    2478,
                    2546
                ],
                [
                    3076,
                    2494
                ],
                [
                    3076,
                    2448
                ],
                [
                    2829,
                    2358
                ],
                [
                    2809,
                    2353
                ],
                [
                    2404,
                    2338
                ],
                [
                    2388,
                    2269
                ],
                [
                    2739,
                    2238
                ],
                [
                    2809,
                    2198
                ],
                [
                    2819,
                    2178
                ],
                [
                    3163,
                    2168
                ],
                [
                    3396,
                    2168
                ],
                [
                    3418,
                    2164
                ],
                [
                    3419,
                    2108
                ],
                [
                    2809,
                    2083
                ],
                [
                    2798,
                    2029
                ]
            ],
            "flags": {},
            "group_id": null
        },
        {
            "label": "mask",
            "lineType": [
                "LLLLL"
            ],
            "shape_type": "polygon",
            "points": [
                [
                    2348,
                    2868
                ],
                [
                    4151,
                    2868
                ],
                [
                    4149,
                    2566
                ],
                [
                    2346,
                    2569
                ],
                [
                    2348,
                    2868
                ]
            ],
            "flags": {},
            "group_id": null
        },
        {
            "label": "mask",
            "lineType": [
                "LLLLLLLLLLLLLLLLLLLLLLLLLLLLLLLLLLLLLLLL"
            ],
            "shape_type": "polygon",
            "points": [
                [
                    3443,
                    2313
                ],
                [
                    3649,
                    2314
                ],
                [
                    4138,
                    2011
                ],
                [
                    4151,
                    1993
                ],
                [
                    4146,
                    1956
                ],
                [
                    4136,
                    1944
                ],
                [
                    4109,
                    1938
                ],
                [
                    4061,
                    1938
                ],
                [
                    4004,
                    1928
                ],
                [
                    4038,
                    1783
                ],
                [
                    4038,
                    1749
                ],
                [
                    4031,
                    1724
                ],
                [
                    3956,
                    1669
                ],
                [
                    3794,
                    1598
                ],
                [
                    3954,
                    1276
                ],
                [
                    4066,
                    1111
                ],
                [
                    4119,
                    1018
                ],
                [
                    4118,
                    476
                ],
                [
                    4119,
                    238
                ],
                [
                    4098,
                    196
                ],
                [
                    3851,
                    189
                ],
                [
                    3724,
                    188
                ],
                [
                    3284,
                    213
                ],
                [
                    3086,
                    308
                ],
                [
                    3056,
                    954
                ],
                [
                    3081,
                    1023
                ],
                [
                    3403,
                    1023
                ],
                [
                    3494,
                    1218
                ],
                [
                    3473,
                    1978
                ],
                [
                    2838,
                    1999
                ],
                [
                    2833,
                    2031
                ],
                [
                    2844,
                    2051
                ],
                [
                    2859,
                    2068
                ],
                [
                    3429,
                    2088
                ],
                [
                    3443,
                    2121
                ],
                [
                    3434,
                    2174
                ],
                [
                    3258,
                    2261
                ],
                [
                    3256,
                    2286
                ],
                [
                    3256,
                    2304
                ],
                [
                    3443,
                    2313
                ]
            ],
            "flags": {},
            "group_id": null
        },
        {
            "label": "mask",
            "lineType": [
                "LLLLLLLLLLLLLL"
            ],
            "shape_type": "polygon",
            "points": [
                [
                    1723,
                    2308
                ],
                [
                    1739,
                    1896
                ],
                [
                    1731,
                    1851
                ],
                [
                    1726,
                    1826
                ],
                [
                    1624,
                    1794
                ],
                [
                    1171,
                    1793
                ],
                [
                    1144,
                    1778
                ],
                [
                    799,
                    1766
                ],
                [
                    338,
                    1816
                ],
                [
                    301,
                    1824
                ],
                [
                    294,
                    1979
                ],
                [
                    303,
                    2509
                ],
                [
                    1717,
                    2517
                ],
                [
                    1723,
                    2308
                ]
            ],
            "flags": {},
            "group_id": null
        },
        {
            "label": "Ns",
            "shape_type": "point",
            "points": [
                [
                    2159,
                    461
                ]
            ],
            "flags": {},
            "group_id": null
        },
        {
            "label": "Ne",
            "shape_type": "point",
            "points": [
                [
                    2160,
                    282
                ]
            ],
            "flags": {},
            "group_id": null
        },
        {
            "label": "wlb",
            "shape_type": "rectangle",
            "points": [
                [
                    315,
                    1777
                ],
                [
                    1702,
                    2500
                ]
            ],
            "flags": {},
            "group_id": null
        },
        {
            "label": "wz3",
            "shape_type": "rectangle",
            "points": [
                [
                    3101,
                    484
                ],
                [
                    3236,
                    510
                ]
            ],
            "flags": {},
            "group_id": null
        },
        {
            "label": "wz3",
            "shape_type": "rectangle",
            "points": [
                [
                    3113,
                    733
                ],
                [
                    3228,
                    774
                ]
            ],
            "flags": {},
            "group_id": null
        },
        {
            "label": "wz3",
            "shape_type": "rectangle",
            "points": [
                [
                    3111,
                    934
                ],
                [
                    3243,
                    969
                ]
            ],
            "flags": {},
            "group_id": null
        },
        {
            "label": "wz1",
            "shape_type": "rectangle",
            "points": [
                [
                    3732,
                    1220
                ],
                [
                    3915,
                    1266
                ]
            ],
            "flags": {},
            "group_id": null
        },
        {
            "label": "wz1",
            "shape_type": "rectangle",
            "points": [
                [
                    3854,
                    1725
                ],
                [
                    4013,
                    1767
                ]
            ],
            "flags": {},
            "group_id": null
        },
        {
            "label": "wz1",
            "shape_type": "rectangle",
            "points": [
                [
                    3548,
                    2071
                ],
                [
                    3677,
                    2117
                ]
            ],
            "flags": {},
            "group_id": null
        },
        {
            "label": "wz3-l",
            "lineType": "LL",
            "shape_type": "line",
            "points": [
                [
                    3211,
                    497
                ],
                [
                    3512,
                    529
                ]
            ],
            "flags": {},
            "group_id": null
        },
        {
            "label": "wz3-l",
            "lineType": "LL",
            "shape_type": "line",
            "points": [
                [
                    3199,
                    759
                ],
                [
                    3496,
                    772
                ]
            ],
            "flags": {},
            "group_id": null
        },
        {
            "label": "wz3-l",
            "lineType": "LL",
            "shape_type": "line",
            "points": [
                [
                    3215,
                    962
                ],
                [
                    3501,
                    969
                ]
            ],
            "flags": {},
            "group_id": null
        },
        {
            "label": "wz1-l",
            "lineType": "LL",
            "shape_type": "line",
            "points": [
                [
                    3772,
                    1244
                ],
                [
                    3592,
                    1397
                ]
            ],
            "flags": {},
            "group_id": null
        },
        {
            "label": "wz1-l",
            "lineType": "LL",
            "shape_type": "line",
            "points": [
                [
                    3899,
                    1748
                ],
                [
                    3804,
                    1849
                ]
            ],
            "flags": {},
            "group_id": null
        },
        {
            "label": "wz1-l",
            "lineType": "LL",
            "shape_type": "line",
            "points": [
                [
                    3638,
                    2099
                ],
                [
                    3706,
                    2042
                ]
            ],
            "flags": {},
            "group_id": null
        },
        {
            "label": "wz3",
            "shape_type": "rectangle",
            "points": [
                [
                    2767,
                    1136
                ],
                [
                    2898,
                    1170
                ]
            ],
            "flags": {},
            "group_id": null
        },
        {
            "label": "wz3",
            "shape_type": "rectangle",
            "points": [
                [
                    2944,
                    1339
                ],
                [
                    3075,
                    1373
                ]
            ],
            "flags": {},
            "group_id": null
        },
        {
            "label": "wz3",
            "shape_type": "rectangle",
            "points": [
                [
                    2572,
                    1343
                ],
                [
                    2705,
                    1380
                ]
            ],
            "flags": {},
            "group_id": null
        },
        {
            "label": "wz3",
            "shape_type": "rectangle",
            "points": [
                [
                    2248,
                    1390
                ],
                [
                    2361,
                    1428
                ]
            ],
            "flags": {},
            "group_id": null
        },
        {
            "label": "wz3",
            "shape_type": "rectangle",
            "points": [
                [
                    2082,
                    1183
                ],
                [
                    2195,
                    1222
                ]
            ],
            "flags": {},
            "group_id": null
        },
        {
            "label": "wz3",
            "shape_type": "rectangle",
            "points": [
                [
                    1882,
                    1416
                ],
                [
                    1995,
                    1453
                ]
            ],
            "flags": {},
            "group_id": null
        },
        {
            "label": "wz3",
            "shape_type": "rectangle",
            "points": [
                [
                    1626,
                    1372
                ],
                [
                    1775,
                    1434
                ]
            ],
            "flags": {},
            "group_id": null
        },
        {
            "label": "wz3",
            "shape_type": "rectangle",
            "points": [
                [
                    1505,
                    1145
                ],
                [
                    1637,
                    1208
                ]
            ],
            "flags": {},
            "group_id": null
        },
        {
            "label": "wz3",
            "shape_type": "rectangle",
            "points": [
                [
                    1243,
                    1367
                ],
                [
                    1398,
                    1431
                ]
            ],
            "flags": {},
            "group_id": null
        },
        {
            "label": "wz3",
            "shape_type": "rectangle",
            "points": [
                [
                    2059,
                    665
                ],
                [
                    2218,
                    697
                ]
            ],
            "flags": {},
            "group_id": null
        },
        {
            "label": "wz1",
            "shape_type": "rectangle",
            "points": [
                [
                    650,
                    880
                ],
                [
                    808,
                    924
                ]
            ],
            "flags": {},
            "group_id": null
        },
        {
            "label": "wz1-l",
            "lineType": "LL",
            "shape_type": "line",
            "points": [
                [
                    787,
                    911
                ],
                [
                    872,
                    1018
                ]
            ],
            "flags": {},
            "group_id": null
        },
        {
            "label": "wz3-l",
            "lineType": "LL",
            "shape_type": "line",
            "points": [
                [
                    2128,
                    676
                ],
                [
                    2129,
                    593
                ]
            ],
            "flags": {},
            "group_id": null
        },
        {
            "label": "wz3-l",
            "lineType": "LL",
            "shape_type": "line",
            "points": [
                [
                    1513,
                    1254
                ],
                [
                    1545,
                    1181
                ]
            ],
            "flags": {},
            "group_id": null
        },
        {
            "label": "wz3-l",
            "lineType": "LL",
            "shape_type": "line",
            "points": [
                [
                    1579,
                    1393
                ],
                [
                    1655,
                    1407
                ]
            ],
            "flags": {},
            "group_id": null
        },
        {
            "label": "wz3-l",
            "lineType": "LL",
            "shape_type": "line",
            "points": [
                [
                    1426,
                    1378
                ],
                [
                    1351,
                    1399
                ]
            ],
            "flags": {},
            "group_id": null
        },
        {
            "label": "wz3-l",
            "lineType": "LL",
            "shape_type": "line",
            "points": [
                [
                    2126,
                    1265
                ],
                [
                    2146,
                    1204
                ]
            ],
            "flags": {},
            "group_id": null
        },
        {
            "label": "wz3-l",
            "lineType": "LL",
            "shape_type": "line",
            "points": [
                [
                    2193,
                    1391
                ],
                [
                    2283,
                    1402
                ]
            ],
            "flags": {},
            "group_id": null
        },
        {
            "label": "wz3-l",
            "lineType": "LL",
            "shape_type": "line",
            "points": [
                [
                    2040,
                    1403
                ],
                [
                    1968,
                    1437
                ]
            ],
            "flags": {},
            "group_id": null
        },
        {
            "label": "wz3-l",
            "lineType": "LL",
            "shape_type": "line",
            "points": [
                [
                    2837,
                    1244
                ],
                [
                    2822,
                    1150
                ]
            ],
            "flags": {},
            "group_id": null
        },
        {
            "label": "wz3-l",
            "lineType": "LL",
            "shape_type": "line",
            "points": [
                [
                    2890,
                    1373
                ],
                [
                    2973,
                    1360
                ]
            ],
            "flags": {},
            "group_id": null
        },
        {
            "label": "wz3-l",
            "lineType": "LL",
            "shape_type": "line",
            "points": [
                [
                    2737,
                    1360
                ],
                [
                    2655,
                    1367
                ]
            ],
            "flags": {},
            "group_id": null
        },
        {
            "label": "wz1-l",
            "lineType": "LL",
            "shape_type": "line",
            "points": [
                [
                    778,
                    898
                ],
                [
                    872,
                    968
                ]
            ],
            "flags": {},
            "group_id": null
        },
        {
            "label": "wz1-l",
            "lineType": "LL",
            "shape_type": "line",
            "points": [
                [
                    3894,
                    1745
                ],
                [
                    3748,
                    1847
                ]
            ],
            "flags": {},
            "group_id": null
        }
    ],
    "flags": {},
    "imageData": null,
    "version": "4.5.7"
}