{
    "imageHeight": 2908,
    "imageWidth": 4205,
    "imagePath": "样本2_93_50.png",
    "shapes": [
        {
            "label": "b1",
            "shape_type": "rectangle",
            "points": [
                [
                    2925,
                    2207
                ],
                [
                    3306,
                    2387
                ]
            ],
            "flags": {},
            "group_id": null
        },
        {
            "label": "t1",
            "shape_type": "rectangle",
            "points": [
                [
                    3467,
                    701
                ],
                [
                    3652,
                    2386
                ]
            ],
            "flags": {},
            "group_id": null
        },
        {
            "label": "c1",
            "shape_type": "rectangle",
            "points": [
                [
                    3557,
                    702
                ],
                [
                    3562,
                    862
                ]
            ],
            "flags": {},
            "group_id": null
        },
        {
            "label": "a1-1",
            "shape_type": "rectangle",
            "points": [
                [
                    3580,
                    882
                ],
                [
                    3604,
                    970
                ]
            ],
            "flags": {},
            "group_id": null
        },
        {
            "label": "g1",
            "shape_type": "rectangle",
            "points": [
                [
                    3606,
                    856
                ],
                [
                    3609,
                    1002
                ]
            ],
            "flags": {},
            "group_id": null
        },
        {
            "label": "g1",
            "shape_type": "rectangle",
            "points": [
                [
                    3623,
                    855
                ],
                [
                    3626,
                    1002
                ]
            ],
            "flags": {},
            "group_id": null
        },
        {
            "label": "a1-2",
            "shape_type": "rectangle",
            "points": [
                [
                    3626,
                    882
                ],
                [
                    3651,
                    970
                ]
            ],
            "flags": {},
            "group_id": null
        },
        {
            "label": "a1-3",
            "shape_type": "rectangle",
            "points": [
                [
                    3749,
                    852
                ],
                [
                    3769,
                    939
                ]
            ],
            "flags": {},
            "group_id": null
        },
        {
            "label": "a1-4",
            "shape_type": "rectangle",
            "points": [
                [
                    3793,
                    852
                ],
                [
                    3813,
                    939
                ]
            ],
            "flags": {},
            "group_id": null
        },
        {
            "label": "g1",
            "shape_type": "rectangle",
            "points": [
                [
                    3757,
                    821
                ],
                [
                    3761,
                    968
                ]
            ],
            "flags": {},
            "group_id": null
        },
        {
            "label": "g1",
            "shape_type": "rectangle",
            "points": [
                [
                    3802,
                    820
                ],
                [
                    3805,
                    969
                ]
            ],
            "flags": {},
            "group_id": null
        },
        {
            "label": "d1",
            "shape_type": "rectangle",
            "points": [
                [
                    3795,
                    723
                ],
                [
                    3880,
                    859
                ]
            ],
            "flags": {},
            "group_id": null
        },
        {
            "label": "h1",
            "shape_type": "rectangle",
            "points": [
                [
                    3924,
                    735
                ],
                [
                    4098,
                    804
                ]
            ],
            "flags": {},
            "group_id": null
        },
        {
            "label": "d1",
            "shape_type": "rectangle",
            "points": [
                [
                    3239,
                    722
                ],
                [
                    3323,
                    860
                ]
            ],
            "flags": {},
            "group_id": null
        },
        {
            "label": "a1-1",
            "shape_type": "rectangle",
            "points": [
                [
                    3286,
                    859
                ],
                [
                    3310,
                    947
                ]
            ],
            "flags": {},
            "group_id": null
        },
        {
            "label": "g1",
            "shape_type": "rectangle",
            "points": [
                [
                    3312,
                    831
                ],
                [
                    3316,
                    978
                ]
            ],
            "flags": {},
            "group_id": null
        },
        {
            "label": "g1",
            "shape_type": "rectangle",
            "points": [
                [
                    3342,
                    832
                ],
                [
                    3345,
                    978
                ]
            ],
            "flags": {},
            "group_id": null
        },
        {
            "label": "a1-2",
            "shape_type": "rectangle",
            "points": [
                [
                    3347,
                    860
                ],
                [
                    3370,
                    947
                ]
            ],
            "flags": {},
            "group_id": null
        },
        {
            "label": "d1",
            "shape_type": "rectangle",
            "points": [
                [
                    3221,
                    1025
                ],
                [
                    3303,
                    1162
                ]
            ],
            "flags": {},
            "group_id": null
        },
        {
            "label": "g1",
            "shape_type": "rectangle",
            "points": [
                [
                    3308,
                    1090
                ],
                [
                    3312,
                    1236
                ]
            ],
            "flags": {},
            "group_id": null
        },
        {
            "label": "a1-1",
            "shape_type": "rectangle",
            "points": [
                [
                    3282,
                    1118
                ],
                [
                    3307,
                    1205
                ]
            ],
            "flags": {},
            "group_id": null
        },
        {
            "label": "a1-1",
            "shape_type": "rectangle",
            "points": [
                [
                    3330,
                    1122
                ],
                [
                    3355,
                    1208
                ]
            ],
            "flags": {},
            "group_id": null
        },
        {
            "label": "g1",
            "shape_type": "rectangle",
            "points": [
                [
                    3356,
                    1094
                ],
                [
                    3360,
                    1240
                ]
            ],
            "flags": {},
            "group_id": null
        },
        {
            "label": "g1",
            "shape_type": "rectangle",
            "points": [
                [
                    3506,
                    1077
                ],
                [
                    3510,
                    1223
                ]
            ],
            "flags": {},
            "group_id": null
        },
        {
            "label": "a1-2",
            "shape_type": "rectangle",
            "points": [
                [
                    3510,
                    1104
                ],
                [
                    3535,
                    1191
                ]
            ],
            "flags": {},
            "group_id": null
        },
        {
            "label": "g1",
            "shape_type": "rectangle",
            "points": [
                [
                    3600,
                    1077
                ],
                [
                    3603,
                    1223
                ]
            ],
            "flags": {},
            "group_id": null
        },
        {
            "label": "a1-2",
            "shape_type": "rectangle",
            "points": [
                [
                    3604,
                    1105
                ],
                [
                    3628,
                    1191
                ]
            ],
            "flags": {},
            "group_id": null
        },
        {
            "label": "g1",
            "shape_type": "rectangle",
            "points": [
                [
                    3734,
                    1093
                ],
                [
                    3740,
                    1252
                ]
            ],
            "flags": {},
            "group_id": null
        },
        {
            "label": "g1",
            "shape_type": "rectangle",
            "points": [
                [
                    3768,
                    1077
                ],
                [
                    3771,
                    1224
                ]
            ],
            "flags": {},
            "group_id": null
        },
        {
            "label": "a1-2",
            "shape_type": "rectangle",
            "points": [
                [
                    3740,
                    1105
                ],
                [
                    3762,
                    1191
                ]
            ],
            "flags": {},
            "group_id": null
        },
        {
            "label": "a1-2",
            "shape_type": "rectangle",
            "points": [
                [
                    3773,
                    1105
                ],
                [
                    3796,
                    1192
                ]
            ],
            "flags": {},
            "group_id": null
        },
        {
            "label": "d1",
            "shape_type": "rectangle",
            "points": [
                [
                    3795,
                    1024
                ],
                [
                    3880,
                    1162
                ]
            ],
            "flags": {},
            "group_id": null
        },
        {
            "label": "p1-1",
            "shape_type": "rectangle",
            "points": [
                [
                    3282,
                    1090
                ],
                [
                    3796,
                    1252
                ]
            ],
            "flags": {},
            "group_id": null
        },
        {
            "label": "p1-1",
            "shape_type": "rectangle",
            "points": [
                [
                    3286,
                    831
                ],
                [
                    3814,
                    1003
                ]
            ],
            "flags": {},
            "group_id": null
        },
        {
            "label": "h1",
            "shape_type": "rectangle",
            "points": [
                [
                    3927,
                    896
                ],
                [
                    4099,
                    965
                ]
            ],
            "flags": {},
            "group_id": null
        },
        {
            "label": "h1",
            "shape_type": "rectangle",
            "points": [
                [
                    3926,
                    1149
                ],
                [
                    4099,
                    1220
                ]
            ],
            "flags": {},
            "group_id": null
        },
        {
            "label": "h1",
            "shape_type": "rectangle",
            "points": [
                [
                    3754,
                    2316
                ],
                [
                    3886,
                    2386
                ]
            ],
            "flags": {},
            "group_id": null
        },
        {
            "label": "v1",
            "shape_type": "rectangle",
            "points": [
                [
                    3152,
                    2461
                ],
                [
                    3370,
                    2522
                ]
            ],
            "flags": {},
            "group_id": null
        },
        {
            "label": "v1",
            "shape_type": "rectangle",
            "points": [
                [
                    2451,
                    2069
                ],
                [
                    2783,
                    2162
                ]
            ],
            "flags": {},
            "group_id": null
        },
        {
            "label": "va1",
            "shape_type": "rectangle",
            "points": [
                [
                    2785,
                    1919
                ],
                [
                    2825,
                    1962
                ]
            ],
            "flags": {},
            "group_id": null
        },
        {
            "label": "va1",
            "shape_type": "rectangle",
            "points": [
                [
                    2814,
                    1877
                ],
                [
                    2857,
                    1919
                ]
            ],
            "flags": {},
            "group_id": null
        },
        {
            "label": "",
            "shape_type": "",
            "points": [],
            "flags": {},
            "group_id": null
        },
        {
            "label": "va1",
            "shape_type": "rectangle",
            "points": [
                [
                    2712,
                    1527
                ],
                [
                    2756,
                    1564
                ]
            ],
            "flags": {},
            "group_id": null
        },
        {
            "label": "va1",
            "shape_type": "rectangle",
            "points": [
                [
                    2627,
                    1491
                ],
                [
                    2667,
                    1533
                ]
            ],
            "flags": {},
            "group_id": null
        },
        {
            "label": "va1",
            "shape_type": "rectangle",
            "points": [
                [
                    2330,
                    1750
                ],
                [
                    2367,
                    1793
                ]
            ],
            "flags": {},
            "group_id": null
        },
        {
            "label": "va1",
            "shape_type": "rectangle",
            "points": [
                [
                    2353,
                    1813
                ],
                [
                    2386,
                    1856
                ]
            ],
            "flags": {},
            "group_id": null
        },
        {
            "label": "vpn",
            "shape_type": "rectangle",
            "points": [
                [
                    2388,
                    1554
                ],
                [
                    2795,
                    1961
                ]
            ],
            "flags": {},
            "group_id": null
        },
        {
            "label": "v1",
            "shape_type": "rectangle",
            "points": [
                [
                    2052,
                    1131
                ],
                [
                    2382,
                    1223
                ]
            ],
            "flags": {},
            "group_id": null
        },
        {
            "label": "va1",
            "shape_type": "rectangle",
            "points": [
                [
                    2390,
                    1008
                ],
                [
                    2432,
                    1047
                ]
            ],
            "flags": {},
            "group_id": null
        },
        {
            "label": "va1",
            "shape_type": "rectangle",
            "points": [
                [
                    2417,
                    960
                ],
                [
                    2459,
                    998
                ]
            ],
            "flags": {},
            "group_id": null
        },
        {
            "label": "va1",
            "shape_type": "rectangle",
            "points": [
                [
                    2319,
                    615
                ],
                [
                    2361,
                    648
                ]
            ],
            "flags": {},
            "group_id": null
        },
        {
            "label": "va1",
            "shape_type": "rectangle",
            "points": [
                [
                    2230,
                    572
                ],
                [
                    2272,
                    613
                ]
            ],
            "flags": {},
            "group_id": null
        },
        {
            "label": "va1",
            "shape_type": "rectangle",
            "points": [
                [
                    1935,
                    845
                ],
                [
                    1975,
                    885
                ]
            ],
            "flags": {},
            "group_id": null
        },
        {
            "label": "va1",
            "shape_type": "rectangle",
            "points": [
                [
                    1956,
                    902
                ],
                [
                    1994,
                    944
                ]
            ],
            "flags": {},
            "group_id": null
        },
        {
            "label": "vpn",
            "shape_type": "rectangle",
            "points": [
                [
                    1996,
                    638
                ],
                [
                    2402,
                    1045
                ]
            ],
            "flags": {},
            "group_id": null
        },
        {
            "label": "n1",
            "shape_type": "rectangle",
            "points": [
                [
                    2776,
                    121
                ],
                [
                    3233,
                    571
                ]
            ],
            "flags": {},
            "group_id": null
        },
        {
            "label": "d1",
            "shape_type": "rectangle",
            "points": [
                [
                    1486,
                    541
                ],
                [
                    1616,
                    748
                ]
            ],
            "flags": {},
            "group_id": null
        },
        {
            "label": "vt1",
            "shape_type": "rectangle",
            "points": [
                [
                    1270,
                    187
                ],
                [
                    1567,
                    484
                ]
            ],
            "flags": {},
            "group_id": null
        },
        {
            "label": "vb1",
            "shape_type": "rectangle",
            "points": [
                [
                    429,
                    128
                ],
                [
                    970,
                    468
                ]
            ],
            "flags": {},
            "group_id": null
        },
        {
            "label": "d1",
            "shape_type": "rectangle",
            "points": [
                [
                    317,
                    549
                ],
                [
                    449,
                    756
                ]
            ],
            "flags": {},
            "group_id": null
        },
        {
            "label": "v1",
            "shape_type": "rectangle",
            "points": [
                [
                    909,
                    675
                ],
                [
                    1098,
                    748
                ]
            ],
            "flags": {},
            "group_id": null
        },
        {
            "label": "three",
            "shape_type": "point",
            "points": [
                [
                    970,
                    501
                ]
            ],
            "flags": {},
            "group_id": null
        },
        {
            "label": "four",
            "shape_type": "point",
            "points": [
                [
                    1270,
                    501
                ]
            ],
            "flags": {},
            "group_id": null
        },
        {
            "label": "seven",
            "shape_type": "point",
            "points": [
                [
                    429,
                    128
                ]
            ],
            "flags": {},
            "group_id": null
        },
        {
            "label": "eight",
            "shape_type": "point",
            "points": [
                [
                    519,
                    127
                ]
            ],
            "flags": {},
            "group_id": null
        },
        {
            "label": "twentyone",
            "shape_type": "point",
            "points": [
                [
                    518,
                    139
                ]
            ],
            "flags": {},
            "group_id": null
        },
        {
            "label": "ten",
            "shape_type": "point",
            "points": [
                [
                    519,
                    148
                ]
            ],
            "flags": {},
            "group_id": null
        },
        {
            "label": "seven",
            "shape_type": "point",
            "points": [
                [
                    449,
                    147
                ]
            ],
            "flags": {},
            "group_id": null
        },
        {
            "label": "seven",
            "shape_type": "point",
            "points": [
                [
                    620,
                    128
                ]
            ],
            "flags": {},
            "group_id": null
        },
        {
            "label": "nine",
            "shape_type": "point",
            "points": [
                [
                    618,
                    148
                ]
            ],
            "flags": {},
            "group_id": null
        },
        {
            "label": "eight",
            "shape_type": "point",
            "points": [
                [
                    969,
                    128
                ]
            ],
            "flags": {},
            "group_id": null
        },
        {
            "label": "eight",
            "shape_type": "point",
            "points": [
                [
                    949,
                    147
                ]
            ],
            "flags": {},
            "group_id": null
        },
        {
            "label": "twentytwo",
            "shape_type": "point",
            "points": [
                [
                    950,
                    308
                ]
            ],
            "flags": {},
            "group_id": null
        },
        {
            "label": "twentythere",
            "shape_type": "point",
            "points": [
                [
                    970,
                    347
                ]
            ],
            "flags": {},
            "group_id": null
        },
        {
            "label": "eleven",
            "shape_type": "point",
            "points": [
                [
                    950,
                    348
                ]
            ],
            "flags": {},
            "group_id": null
        },
        {
            "label": "fifteen",
            "shape_type": "point",
            "points": [
                [
                    970,
                    307
                ]
            ],
            "flags": {},
            "group_id": null
        },
        {
            "label": "ten",
            "shape_type": "point",
            "points": [
                [
                    951,
                    447
                ]
            ],
            "flags": {},
            "group_id": null
        },
        {
            "label": "ten",
            "shape_type": "point",
            "points": [
                [
                    971,
                    468
                ]
            ],
            "flags": {},
            "group_id": null
        },
        {
            "label": "nine",
            "shape_type": "point",
            "points": [
                [
                    449,
                    446
                ]
            ],
            "flags": {},
            "group_id": null
        },
        {
            "label": "nine",
            "shape_type": "point",
            "points": [
                [
                    430,
                    468
                ]
            ],
            "flags": {},
            "group_id": null
        },
        {
            "label": "seven",
            "shape_type": "point",
            "points": [
                [
                    2925,
                    2207
                ]
            ],
            "flags": {},
            "group_id": null
        },
        {
            "label": "seven",
            "shape_type": "point",
            "points": [
                [
                    2944,
                    2227
                ]
            ],
            "flags": {},
            "group_id": null
        },
        {
            "label": "eight",
            "shape_type": "point",
            "points": [
                [
                    3306,
                    2207
                ]
            ],
            "flags": {},
            "group_id": null
        },
        {
            "label": "eight",
            "shape_type": "point",
            "points": [
                [
                    3285,
                    2227
                ]
            ],
            "flags": {},
            "group_id": null
        },
        {
            "label": "eleven",
            "shape_type": "point",
            "points": [
                [
                    3285,
                    2252
                ]
            ],
            "flags": {},
            "group_id": null
        },
        {
            "label": "twentytwo",
            "shape_type": "point",
            "points": [
                [
                    3304,
                    2252
                ]
            ],
            "flags": {},
            "group_id": null
        },
        {
            "label": "twentythere",
            "shape_type": "point",
            "points": [
                [
                    3285,
                    2277
                ]
            ],
            "flags": {},
            "group_id": null
        },
        {
            "label": "twelve",
            "shape_type": "point",
            "points": [
                [
                    3304,
                    2278
                ]
            ],
            "flags": {},
            "group_id": null
        },
        {
            "label": "fourteen",
            "shape_type": "point",
            "points": [
                [
                    3285,
                    2387
                ]
            ],
            "flags": {},
            "group_id": null
        },
        {
            "label": "fourteen",
            "shape_type": "point",
            "points": [
                [
                    3306,
                    2387
                ]
            ],
            "flags": {},
            "group_id": null
        },
        {
            "label": "fourteen",
            "shape_type": "point",
            "points": [
                [
                    2924,
                    2387
                ]
            ],
            "flags": {},
            "group_id": null
        },
        {
            "label": "fourteen",
            "shape_type": "point",
            "points": [
                [
                    2945,
                    2387
                ]
            ],
            "flags": {},
            "group_id": null
        },
        {
            "label": "wz4",
            "shape_type": "rectangle",
            "points": [
                [
                    587,
                    265
                ],
                [
                    714,
                    310
                ]
            ],
            "flags": {},
            "group_id": null
        },
        {
            "label": "k1",
            "shape_type": "rectangle",
            "points": [
                [
                    949,
                    307
                ],
                [
                    970,
                    348
                ]
            ],
            "flags": {},
            "group_id": null
        },
        {
            "label": "x2",
            "shape_type": "rectangle",
            "points": [
                [
                    959,
                    465
                ],
                [
                    1281,
                    510
                ]
            ],
            "flags": {},
            "group_id": null
        },
        {
            "label": "wz2",
            "shape_type": "rectangle",
            "points": [
                [
                    1074,
                    465
                ],
                [
                    1165,
                    493
                ]
            ],
            "flags": {},
            "group_id": null
        },
        {
            "label": "sm",
            "shape_type": "rectangle",
            "points": [
                [
                    320,
                    972
                ],
                [
                    2517,
                    1655
                ]
            ],
            "flags": {},
            "group_id": null
        },
        {
            "label": "btl",
            "shape_type": "rectangle",
            "points": [
                [
                    2348,
                    2565
                ],
                [
                    4152,
                    2875
                ]
            ],
            "flags": {},
            "group_id": null
        },
        {
            "label": "wz4",
            "shape_type": "rectangle",
            "points": [
                [
                    3033,
                    2285
                ],
                [
                    3159,
                    2328
                ]
            ],
            "flags": {},
            "group_id": null
        },
        {
            "label": "k1",
            "shape_type": "rectangle",
            "points": [
                [
                    3284,
                    2251
                ],
                [
                    3305,
                    2278
                ]
            ],
            "flags": {},
            "group_id": null
        },
        {
            "label": "j1",
            "shape_type": "rectangle",
            "points": [
                [
                    3064,
                    180
                ],
                [
                    3117,
                    236
                ]
            ],
            "flags": {},
            "group_id": null
        },
        {
            "label": "j1",
            "shape_type": "rectangle",
            "points": [
                [
                    2934,
                    151
                ],
                [
                    2960,
                    182
                ]
            ],
            "flags": {},
            "group_id": null
        },
        {
            "label": "j1",
            "shape_type": "rectangle",
            "points": [
                [
                    2777,
                    472
                ],
                [
                    2844,
                    522
                ]
            ],
            "flags": {},
            "group_id": null
        },
        {
            "label": "j1",
            "shape_type": "rectangle",
            "points": [
                [
                    3169,
                    514
                ],
                [
                    3232,
                    571
                ]
            ],
            "flags": {},
            "group_id": null
        },
        {
            "label": "mask",
            "lineType": [
                "LLLLLLLLLLLLLLLLLLLLLLLLLLLLLLLLLLLLLLLLLLLLLLLLLLLLL"
            ],
            "shape_type": "polygon",
            "points": [
                [
                    3170,
                    797
                ],
                [
                    3236,
                    701
                ],
                [
                    3380,
                    606
                ],
                [
                    3450,
                    579
                ],
                [
                    3549,
                    575
                ],
                [
                    3561,
                    627
                ],
                [
                    3619,
                    721
                ],
                [
                    3793,
                    698
                ],
                [
                    4113,
                    726
                ],
                [
                    4125,
                    812
                ],
                [
                    4126,
                    903
                ],
                [
                    4121,
                    977
                ],
                [
                    4029,
                    988
                ],
                [
                    3925,
                    992
                ],
                [
                    3927,
                    1076
                ],
                [
                    4086,
                    1111
                ],
                [
                    4122,
                    1185
                ],
                [
                    4111,
                    1225
                ],
                [
                    4018,
                    1251
                ],
                [
                    3877,
                    1230
                ],
                [
                    3885,
                    1310
                ],
                [
                    3643,
                    1359
                ],
                [
                    3653,
                    1520
                ],
                [
                    3680,
                    1800
                ],
                [
                    3705,
                    2271
                ],
                [
                    3897,
                    2283
                ],
                [
                    3958,
                    2350
                ],
                [
                    3927,
                    2456
                ],
                [
                    3647,
                    2504
                ],
                [
                    3373,
                    2540
                ],
                [
                    3197,
                    2549
                ],
                [
                    3094,
                    2544
                ],
                [
                    2984,
                    2474
                ],
                [
                    2867,
                    2454
                ],
                [
                    2703,
                    2444
                ],
                [
                    2608,
                    2416
                ],
                [
                    2594,
                    2336
                ],
                [
                    2742,
                    2263
                ],
                [
                    2870,
                    2231
                ],
                [
                    2893,
                    2189
                ],
                [
                    3365,
                    2165
                ],
                [
                    3448,
                    2093
                ],
                [
                    3414,
                    1929
                ],
                [
                    3307,
                    1845
                ],
                [
                    3150,
                    1733
                ],
                [
                    3133,
                    1619
                ],
                [
                    3307,
                    1568
                ],
                [
                    3452,
                    1599
                ],
                [
                    3427,
                    1408
                ],
                [
                    3215,
                    1316
                ],
                [
                    3069,
                    1291
                ],
                [
                    3033,
                    803
                ],
                [
                    3170,
                    797
                ]
            ],
            "flags": {},
            "group_id": null
        },
        {
            "label": "mask",
            "lineType": [
                "LLLLL"
            ],
            "shape_type": "polygon",
            "points": [
                [
                    2342,
                    2561
                ],
                [
                    2339,
                    2873
                ],
                [
                    4156,
                    2873
                ],
                [
                    4149,
                    2563
                ],
                [
                    2342,
                    2561
                ]
            ],
            "flags": {},
            "group_id": null
        },
        {
            "label": "mask",
            "lineType": [
                "LLLLLLLLLLLLLLLLLLL"
            ],
            "shape_type": "polygon",
            "points": [
                [
                    2468,
                    2158
                ],
                [
                    2654,
                    2156
                ],
                [
                    2789,
                    2125
                ],
                [
                    2868,
                    2065
                ],
                [
                    2961,
                    2005
                ],
                [
                    3008,
                    1940
                ],
                [
                    2988,
                    1690
                ],
                [
                    2954,
                    1578
                ],
                [
                    2941,
                    1528
                ],
                [
                    2752,
                    1436
                ],
                [
                    2636,
                    1415
                ],
                [
                    2542,
                    1445
                ],
                [
                    2439,
                    1535
                ],
                [
                    2363,
                    1613
                ],
                [
                    2274,
                    1643
                ],
                [
                    2193,
                    1684
                ],
                [
                    2191,
                    1911
                ],
                [
                    2253,
                    1960
                ],
                [
                    2468,
                    2158
                ]
            ],
            "flags": {},
            "group_id": null
        },
        {
            "label": "mask",
            "lineType": [
                "LLLLLLLLLLLLLLLLLLLLLLLLLLLLLLLLL"
            ],
            "shape_type": "polygon",
            "points": [
                [
                    2012,
                    1233
                ],
                [
                    2242,
                    1239
                ],
                [
                    2417,
                    1238
                ],
                [
                    2429,
                    1207
                ],
                [
                    2450,
                    1175
                ],
                [
                    2555,
                    1121
                ],
                [
                    2593,
                    1043
                ],
                [
                    2632,
                    987
                ],
                [
                    2639,
                    951
                ],
                [
                    2573,
                    890
                ],
                [
                    2481,
                    816
                ],
                [
                    2436,
                    702
                ],
                [
                    2545,
                    690
                ],
                [
                    2528,
                    602
                ],
                [
                    2506,
                    573
                ],
                [
                    2415,
                    498
                ],
                [
                    2276,
                    490
                ],
                [
                    2145,
                    529
                ],
                [
                    2062,
                    625
                ],
                [
                    2007,
                    681
                ],
                [
                    1975,
                    759
                ],
                [
                    1897,
                    766
                ],
                [
                    1830,
                    774
                ],
                [
                    1772,
                    786
                ],
                [
                    1745,
                    801
                ],
                [
                    1732,
                    843
                ],
                [
                    1732,
                    883
                ],
                [
                    1738,
                    947
                ],
                [
                    1783,
                    1067
                ],
                [
                    1791,
                    1047
                ],
                [
                    1897,
                    1046
                ],
                [
                    1948,
                    1067
                ],
                [
                    2012,
                    1233
                ]
            ],
            "flags": {},
            "group_id": null
        },
        {
            "label": "mask",
            "lineType": [
                "LLLLLLLLLLLLLLL"
            ],
            "shape_type": "polygon",
            "points": [
                [
                    2737,
                    521
                ],
                [
                    2822,
                    567
                ],
                [
                    2935,
                    557
                ],
                [
                    3065,
                    553
                ],
                [
                    3178,
                    593
                ],
                [
                    3242,
                    580
                ],
                [
                    3264,
                    545
                ],
                [
                    3170,
                    137
                ],
                [
                    3057,
                    95
                ],
                [
                    2962,
                    97
                ],
                [
                    2904,
                    169
                ],
                [
                    2904,
                    330
                ],
                [
                    2894,
                    403
                ],
                [
                    2789,
                    429
                ],
                [
                    2737,
                    521
                ]
            ],
            "flags": {},
            "group_id": null
        },
        {
            "label": "mask",
            "lineType": [
                "LLLLLLLLLLLLLLLLLL"
            ],
            "shape_type": "polygon",
            "points": [
                [
                    310,
                    785
                ],
                [
                    543,
                    771
                ],
                [
                    1104,
                    777
                ],
                [
                    1282,
                    764
                ],
                [
                    1623,
                    776
                ],
                [
                    1658,
                    729
                ],
                [
                    1612,
                    243
                ],
                [
                    1531,
                    160
                ],
                [
                    1316,
                    150
                ],
                [
                    1161,
                    141
                ],
                [
                    926,
                    103
                ],
                [
                    714,
                    92
                ],
                [
                    532,
                    90
                ],
                [
                    411,
                    95
                ],
                [
                    358,
                    169
                ],
                [
                    291,
                    417
                ],
                [
                    280,
                    551
                ],
                [
                    310,
                    785
                ]
            ],
            "flags": {},
            "group_id": null
        },
        {
            "label": "mask",
            "lineType": [
                "LLLLLLLLLLLLLLLLLLLLLLLLLLLLLLLL"
            ],
            "shape_type": "polygon",
            "points": [
                [
                    302,
                    955
                ],
                [
                    627,
                    945
                ],
                [
                    751,
                    960
                ],
                [
                    805,
                    1030
                ],
                [
                    880,
                    1073
                ],
                [
                    1051,
                    1085
                ],
                [
                    1085,
                    1147
                ],
                [
                    1101,
                    1223
                ],
                [
                    1675,
                    1210
                ],
                [
                    1972,
                    1246
                ],
                [
                    2157,
                    1250
                ],
                [
                    2332,
                    1249
                ],
                [
                    2353,
                    1295
                ],
                [
                    2387,
                    1306
                ],
                [
                    2477,
                    1303
                ],
                [
                    2521,
                    1323
                ],
                [
                    2524,
                    1366
                ],
                [
                    2308,
                    1426
                ],
                [
                    1833,
                    1409
                ],
                [
                    1805,
                    1488
                ],
                [
                    1728,
                    1538
                ],
                [
                    1514,
                    1557
                ],
                [
                    1334,
                    1547
                ],
                [
                    1102,
                    1604
                ],
                [
                    922,
                    1605
                ],
                [
                    883,
                    1657
                ],
                [
                    839,
                    1667
                ],
                [
                    761,
                    1675
                ],
                [
                    382,
                    1678
                ],
                [
                    313,
                    1673
                ],
                [
                    326,
                    1635
                ],
                [
                    302,
                    955
                ]
            ],
            "flags": {},
            "group_id": null
        },
        {
            "label": "mask",
            "lineType": [
                "LLLLLLLLLLLLLL"
            ],
            "shape_type": "polygon",
            "points": [
                [
                    256,
                    1799
                ],
                [
                    577,
                    1788
                ],
                [
                    986,
                    1792
                ],
                [
                    1024,
                    1745
                ],
                [
                    1197,
                    1741
                ],
                [
                    1336,
                    1741
                ],
                [
                    1329,
                    1791
                ],
                [
                    1379,
                    1804
                ],
                [
                    1822,
                    1793
                ],
                [
                    2103,
                    1790
                ],
                [
                    2116,
                    1802
                ],
                [
                    2106,
                    2861
                ],
                [
                    261,
                    2858
                ],
                [
                    256,
                    1799
                ]
            ],
            "flags": {},
            "group_id": null
        },
        {
            "label": "Ns",
            "shape_type": "point",
            "points": [
                [
                    3027,
                    395
                ]
            ],
            "flags": {},
            "group_id": null
        },
        {
            "label": "Ne",
            "shape_type": "point",
            "points": [
                [
                    2968,
                    233
                ]
            ],
            "flags": {},
            "group_id": null
        },
        {
            "label": "wlb",
            "shape_type": "rectangle",
            "points": [
                [
                    274,
                    1753
                ],
                [
                    2098,
                    2854
                ]
            ],
            "flags": {},
            "group_id": null
        },
        {
            "label": "wz3",
            "shape_type": "rectangle",
            "points": [
                [
                    2743,
                    1968
                ],
                [
                    2894,
                    1992
                ]
            ],
            "flags": {},
            "group_id": null
        },
        {
            "label": "wz3",
            "shape_type": "rectangle",
            "points": [
                [
                    2843,
                    1904
                ],
                [
                    2968,
                    1939
                ]
            ],
            "flags": {},
            "group_id": null
        },
        {
            "label": "wz3",
            "shape_type": "rectangle",
            "points": [
                [
                    2851,
                    1687
                ],
                [
                    2948,
                    1719
                ]
            ],
            "flags": {},
            "group_id": null
        },
        {
            "label": "wz3",
            "shape_type": "rectangle",
            "points": [
                [
                    2763,
                    1540
                ],
                [
                    2912,
                    1562
                ]
            ],
            "flags": {},
            "group_id": null
        },
        {
            "label": "wz3",
            "shape_type": "rectangle",
            "points": [
                [
                    2576,
                    1456
                ],
                [
                    2701,
                    1491
                ]
            ],
            "flags": {},
            "group_id": null
        },
        {
            "label": "wz3",
            "shape_type": "rectangle",
            "points": [
                [
                    2227,
                    1720
                ],
                [
                    2381,
                    1744
                ]
            ],
            "flags": {},
            "group_id": null
        },
        {
            "label": "wz3",
            "shape_type": "rectangle",
            "points": [
                [
                    2238,
                    1851
                ],
                [
                    2362,
                    1884
                ]
            ],
            "flags": {},
            "group_id": null
        },
        {
            "label": "wz3-l",
            "lineType": "LL",
            "shape_type": "line",
            "points": [
                [
                    2375,
                    1842
                ],
                [
                    2358,
                    1866
                ]
            ],
            "flags": {},
            "group_id": null
        },
        {
            "label": "wz3-l",
            "lineType": "LL",
            "shape_type": "line",
            "points": [
                [
                    2342,
                    1758
                ],
                [
                    2321,
                    1727
                ]
            ],
            "flags": {},
            "group_id": null
        },
        {
            "label": "wz3-l",
            "lineType": "LL",
            "shape_type": "line",
            "points": [
                [
                    2765,
                    1982
                ],
                [
                    2808,
                    1953
                ]
            ],
            "flags": {},
            "group_id": null
        },
        {
            "label": "wz3-l",
            "lineType": "LL",
            "shape_type": "line",
            "points": [
                [
                    2861,
                    1923
                ],
                [
                    2833,
                    1892
                ]
            ],
            "flags": {},
            "group_id": null
        },
        {
            "label": "wz3-l",
            "lineType": "LL",
            "shape_type": "line",
            "points": [
                [
                    2826,
                    1712
                ],
                [
                    2875,
                    1708
                ]
            ],
            "flags": {},
            "group_id": null
        },
        {
            "label": "wz3-l",
            "lineType": "LL",
            "shape_type": "line",
            "points": [
                [
                    2742,
                    1542
                ],
                [
                    2780,
                    1548
                ]
            ],
            "flags": {},
            "group_id": null
        },
        {
            "label": "wz3-l",
            "lineType": "LL",
            "shape_type": "line",
            "points": [
                [
                    2662,
                    1471
                ],
                [
                    2655,
                    1503
                ]
            ],
            "flags": {},
            "group_id": null
        },
        {
            "label": "wz1",
            "shape_type": "rectangle",
            "points": [
                [
                    3189,
                    1652
                ],
                [
                    3371,
                    1696
                ]
            ],
            "flags": {},
            "group_id": null
        },
        {
            "label": "wz1-l",
            "lineType": "LL",
            "shape_type": "line",
            "points": [
                [
                    3341,
                    1675
                ],
                [
                    3529,
                    1807
                ]
            ],
            "flags": {},
            "group_id": null
        },
        {
            "label": "wz3",
            "shape_type": "rectangle",
            "points": [
                [
                    2345,
                    1060
                ],
                [
                    2523,
                    1131
                ]
            ],
            "flags": {},
            "group_id": null
        },
        {
            "label": "wz3",
            "shape_type": "rectangle",
            "points": [
                [
                    2468,
                    929
                ],
                [
                    2625,
                    993
                ]
            ],
            "flags": {},
            "group_id": null
        },
        {
            "label": "wz3",
            "shape_type": "rectangle",
            "points": [
                [
                    2365,
                    588
                ],
                [
                    2518,
                    662
                ]
            ],
            "flags": {},
            "group_id": null
        },
        {
            "label": "wz3",
            "shape_type": "rectangle",
            "points": [
                [
                    2252,
                    518
                ],
                [
                    2386,
                    581
                ]
            ],
            "flags": {},
            "group_id": null
        },
        {
            "label": "wz3",
            "shape_type": "rectangle",
            "points": [
                [
                    1752,
                    791
                ],
                [
                    1938,
                    861
                ]
            ],
            "flags": {},
            "group_id": null
        },
        {
            "label": "wz3",
            "shape_type": "rectangle",
            "points": [
                [
                    1815,
                    946
                ],
                [
                    1966,
                    1009
                ]
            ],
            "flags": {},
            "group_id": null
        },
        {
            "label": "wz3-l",
            "lineType": "LL",
            "shape_type": "line",
            "points": [
                [
                    1979,
                    927
                ],
                [
                    1940,
                    969
                ]
            ],
            "flags": {},
            "group_id": null
        },
        {
            "label": "wz3-l",
            "lineType": "LL",
            "shape_type": "line",
            "points": [
                [
                    1955,
                    871
                ],
                [
                    1914,
                    840
                ]
            ],
            "flags": {},
            "group_id": null
        },
        {
            "label": "wz3-l",
            "lineType": "LL",
            "shape_type": "line",
            "points": [
                [
                    2383,
                    1096
                ],
                [
                    2405,
                    1035
                ]
            ],
            "flags": {},
            "group_id": null
        },
        {
            "label": "wz3-l",
            "lineType": "LL",
            "shape_type": "line",
            "points": [
                [
                    2497,
                    969
                ],
                [
                    2445,
                    976
                ]
            ],
            "flags": {},
            "group_id": null
        },
        {
            "label": "wz3-l",
            "lineType": "LL",
            "shape_type": "line",
            "points": [
                [
                    2401,
                    616
                ],
                [
                    2338,
                    621
                ]
            ],
            "flags": {},
            "group_id": null
        },
        {
            "label": "wz3-l",
            "lineType": "LL",
            "shape_type": "line",
            "points": [
                [
                    2257,
                    593
                ],
                [
                    2273,
                    563
                ]
            ],
            "flags": {},
            "group_id": null
        },
        {
            "label": "wz1",
            "shape_type": "rectangle",
            "points": [
                [
                    3430,
                    585
                ],
                [
                    3523,
                    629
                ]
            ],
            "flags": {},
            "group_id": null
        },
        {
            "label": "wz1-l",
            "lineType": "LL",
            "shape_type": "line",
            "points": [
                [
                    3493,
                    618
                ],
                [
                    3559,
                    731
                ]
            ],
            "flags": {},
            "group_id": null
        },
        {
            "label": "wz1",
            "shape_type": "rectangle",
            "points": [
                [
                    3516,
                    819
                ],
                [
                    3548,
                    842
                ]
            ],
            "flags": {},
            "group_id": null
        },
        {
            "label": "wz1-l",
            "lineType": "LL",
            "shape_type": "line",
            "points": [
                [
                    3532,
                    837
                ],
                [
                    3585,
                    893
                ]
            ],
            "flags": {},
            "group_id": null
        },
        {
            "label": "wz3",
            "shape_type": "rectangle",
            "points": [
                [
                    3102,
                    886
                ],
                [
                    3236,
                    961
                ]
            ],
            "flags": {},
            "group_id": null
        },
        {
            "label": "wz3-l",
            "lineType": "LL",
            "shape_type": "line",
            "points": [
                [
                    3212,
                    937
                ],
                [
                    3301,
                    975
                ]
            ],
            "flags": {},
            "group_id": null
        },
        {
            "label": "wz3",
            "shape_type": "rectangle",
            "points": [
                [
                    3108,
                    1139
                ],
                [
                    3263,
                    1212
                ]
            ],
            "flags": {},
            "group_id": null
        },
        {
            "label": "wz3-l",
            "lineType": "LL",
            "shape_type": "line",
            "points": [
                [
                    3203,
                    1191
                ],
                [
                    3301,
                    1235
                ]
            ],
            "flags": {},
            "group_id": null
        }
    ],
    "flags": {},
    "imageData": null,
    "version": "4.5.7"
}