{
    "imageHeight": 2908,
    "imageWidth": 4205,
    "imagePath": "样本3_134_115.png",
    "shapes": [
        {
            "label": "d1",
            "shape_type": "rectangle",
            "points": [
                [
                    1035,
                    209
                ],
                [
                    1172,
                    293
                ]
            ],
            "flags": {},
            "group_id": null
        },
        {
            "label": "",
            "shape_type": "",
            "points": [],
            "flags": {},
            "group_id": null
        },
        {
            "label": "vt9",
            "shape_type": "rectangle",
            "points": [
                [
                    662,
                    257
                ],
                [
                    975,
                    568
                ]
            ],
            "flags": {},
            "group_id": null
        },
        {
            "label": "va1",
            "shape_type": "rectangle",
            "points": [
                [
                    793,
                    371
                ],
                [
                    846,
                    408
                ]
            ],
            "flags": {},
            "group_id": null
        },
        {
            "label": "va1",
            "shape_type": "rectangle",
            "points": [
                [
                    775,
                    403
                ],
                [
                    822,
                    454
                ]
            ],
            "flags": {},
            "group_id": null
        },
        {
            "label": "va1",
            "shape_type": "rectangle",
            "points": [
                [
                    822,
                    401
                ],
                [
                    865,
                    453
                ]
            ],
            "flags": {},
            "group_id": null
        },
        {
            "label": "vb1",
            "shape_type": "rectangle",
            "points": [
                [
                    772,
                    666
                ],
                [
                    864,
                    829
                ]
            ],
            "flags": {},
            "group_id": null
        },
        {
            "label": "d1",
            "shape_type": "rectangle",
            "points": [
                [
                    1035,
                    875
                ],
                [
                    1172,
                    963
                ]
            ],
            "flags": {},
            "group_id": null
        },
        {
            "label": "v1",
            "shape_type": "rectangle",
            "points": [
                [
                    770,
                    1105
                ],
                [
                    959,
                    1178
                ]
            ],
            "flags": {},
            "group_id": null
        },
        {
            "label": "vp1-1",
            "shape_type": "rectangle",
            "points": [
                [
                    1550,
                    795
                ],
                [
                    1861,
                    1108
                ]
            ],
            "flags": {},
            "group_id": null
        },
        {
            "label": "va1",
            "shape_type": "rectangle",
            "points": [
                [
                    1690,
                    896
                ],
                [
                    1743,
                    942
                ]
            ],
            "flags": {},
            "group_id": null
        },
        {
            "label": "va1",
            "shape_type": "rectangle",
            "points": [
                [
                    1655,
                    929
                ],
                [
                    1701,
                    982
                ]
            ],
            "flags": {},
            "group_id": null
        },
        {
            "label": "va1",
            "shape_type": "rectangle",
            "points": [
                [
                    1700,
                    939
                ],
                [
                    1749,
                    989
                ]
            ],
            "flags": {},
            "group_id": null
        },
        {
            "label": "v1",
            "shape_type": "rectangle",
            "points": [
                [
                    1557,
                    1252
                ],
                [
                    1889,
                    1345
                ]
            ],
            "flags": {},
            "group_id": null
        },
        {
            "label": "v1",
            "shape_type": "rectangle",
            "points": [
                [
                    2482,
                    1264
                ],
                [
                    2813,
                    1358
                ]
            ],
            "flags": {},
            "group_id": null
        },
        {
            "label": "vp1-1",
            "shape_type": "rectangle",
            "points": [
                [
                    2594,
                    909
                ],
                [
                    2761,
                    1075
                ]
            ],
            "flags": {},
            "group_id": null
        },
        {
            "label": "va1",
            "shape_type": "rectangle",
            "points": [
                [
                    2657,
                    815
                ],
                [
                    2700,
                    848
                ]
            ],
            "flags": {},
            "group_id": null
        },
        {
            "label": "va1",
            "shape_type": "rectangle",
            "points": [
                [
                    2522,
                    1046
                ],
                [
                    2555,
                    1090
                ]
            ],
            "flags": {},
            "group_id": null
        },
        {
            "label": "n1",
            "shape_type": "rectangle",
            "points": [
                [
                    1903,
                    90
                ],
                [
                    2333,
                    450
                ]
            ],
            "flags": {},
            "group_id": null
        },
        {
            "label": "d1",
            "shape_type": "rectangle",
            "points": [
                [
                    3351,
                    82
                ],
                [
                    3434,
                    222
                ]
            ],
            "flags": {},
            "group_id": null
        },
        {
            "label": "d1",
            "shape_type": "rectangle",
            "points": [
                [
                    3537,
                    83
                ],
                [
                    3621,
                    222
                ]
            ],
            "flags": {},
            "group_id": null
        },
        {
            "label": "h1",
            "shape_type": "rectangle",
            "points": [
                [
                    3744,
                    178
                ],
                [
                    3889,
                    248
                ]
            ],
            "flags": {},
            "group_id": null
        },
        {
            "label": "h1",
            "shape_type": "rectangle",
            "points": [
                [
                    3743,
                    327
                ],
                [
                    3887,
                    398
                ]
            ],
            "flags": {},
            "group_id": null
        },
        {
            "label": "h1",
            "shape_type": "rectangle",
            "points": [
                [
                    3743,
                    525
                ],
                [
                    3883,
                    596
                ]
            ],
            "flags": {},
            "group_id": null
        },
        {
            "label": "h1",
            "shape_type": "rectangle",
            "points": [
                [
                    3744,
                    972
                ],
                [
                    3882,
                    1043
                ]
            ],
            "flags": {},
            "group_id": null
        },
        {
            "label": "d1",
            "shape_type": "rectangle",
            "points": [
                [
                    3600,
                    891
                ],
                [
                    3684,
                    1028
                ]
            ],
            "flags": {},
            "group_id": null
        },
        {
            "label": "d1",
            "shape_type": "rectangle",
            "points": [
                [
                    3291,
                    890
                ],
                [
                    3375,
                    1029
                ]
            ],
            "flags": {},
            "group_id": null
        },
        {
            "label": "x1",
            "shape_type": "rectangle",
            "points": [
                [
                    3408,
                    1377
                ],
                [
                    3561,
                    1404
                ]
            ],
            "flags": {},
            "group_id": null
        },
        {
            "label": "h1",
            "shape_type": "rectangle",
            "points": [
                [
                    3689,
                    1951
                ],
                [
                    3839,
                    2022
                ]
            ],
            "flags": {},
            "group_id": null
        },
        {
            "label": "v1",
            "shape_type": "rectangle",
            "points": [
                [
                    3309,
                    2080
                ],
                [
                    3640,
                    2163
                ]
            ],
            "flags": {},
            "group_id": null
        },
        {
            "label": "b1",
            "shape_type": "rectangle",
            "points": [
                [
                    3227,
                    1874
                ],
                [
                    3388,
                    2021
                ]
            ],
            "flags": {},
            "group_id": null
        },
        {
            "label": "t9",
            "shape_type": "rectangle",
            "points": [
                [
                    3359,
                    175
                ],
                [
                    3604,
                    2022
                ]
            ],
            "flags": {},
            "group_id": null
        },
        {
            "label": "",
            "shape_type": "",
            "points": [],
            "flags": {},
            "group_id": null
        },
        {
            "label": "c1",
            "shape_type": "rectangle",
            "points": [
                [
                    3469,
                    175
                ],
                [
                    3499,
                    247
                ]
            ],
            "flags": {},
            "group_id": null
        },
        {
            "label": "z1",
            "shape_type": "rectangle",
            "points": [
                [
                    3453,
                    247
                ],
                [
                    3514,
                    395
                ]
            ],
            "flags": {},
            "group_id": null
        },
        {
            "label": "g1",
            "shape_type": "rectangle",
            "points": [
                [
                    3481,
                    260
                ],
                [
                    3485,
                    397
                ]
            ],
            "flags": {},
            "group_id": null
        },
        {
            "label": "a1-3",
            "shape_type": "rectangle",
            "points": [
                [
                    3461,
                    291
                ],
                [
                    3472,
                    357
                ]
            ],
            "flags": {},
            "group_id": null
        },
        {
            "label": "a1-3",
            "shape_type": "rectangle",
            "points": [
                [
                    3476,
                    291
                ],
                [
                    3491,
                    357
                ]
            ],
            "flags": {},
            "group_id": null
        },
        {
            "label": "a1-3",
            "shape_type": "rectangle",
            "points": [
                [
                    3495,
                    291
                ],
                [
                    3506,
                    357
                ]
            ],
            "flags": {},
            "group_id": null
        },
        {
            "label": "z1",
            "shape_type": "rectangle",
            "points": [
                [
                    3359,
                    436
                ],
                [
                    3605,
                    590
                ]
            ],
            "flags": {},
            "group_id": null
        },
        {
            "label": "g1",
            "shape_type": "rectangle",
            "points": [
                [
                    3436,
                    451
                ],
                [
                    3439,
                    589
                ]
            ],
            "flags": {},
            "group_id": null
        },
        {
            "label": "g1",
            "shape_type": "rectangle",
            "points": [
                [
                    3524,
                    453
                ],
                [
                    3527,
                    589
                ]
            ],
            "flags": {},
            "group_id": null
        },
        {
            "label": "p1-1",
            "shape_type": "rectangle",
            "points": [
                [
                    3435,
                    450
                ],
                [
                    3528,
                    590
                ]
            ],
            "flags": {},
            "group_id": null
        },
        {
            "label": "g1",
            "shape_type": "rectangle",
            "points": [
                [
                    3432,
                    910
                ],
                [
                    3437,
                    1101
                ]
            ],
            "flags": {},
            "group_id": null
        },
        {
            "label": "g1",
            "shape_type": "rectangle",
            "points": [
                [
                    3549,
                    910
                ],
                [
                    3553,
                    1101
                ]
            ],
            "flags": {},
            "group_id": null
        },
        {
            "label": "a1-1",
            "shape_type": "rectangle",
            "points": [
                [
                    3403,
                    931
                ],
                [
                    3430,
                    1044
                ]
            ],
            "flags": {},
            "group_id": null
        },
        {
            "label": "a1-2",
            "shape_type": "rectangle",
            "points": [
                [
                    3554,
                    937
                ],
                [
                    3583,
                    1048
                ]
            ],
            "flags": {},
            "group_id": null
        },
        {
            "label": "p1-1",
            "shape_type": "rectangle",
            "points": [
                [
                    3402,
                    910
                ],
                [
                    3583,
                    1102
                ]
            ],
            "flags": {},
            "group_id": null
        },
        {
            "label": "seven",
            "shape_type": "point",
            "points": [
                [
                    772,
                    667
                ]
            ],
            "flags": {},
            "group_id": null
        },
        {
            "label": "eight",
            "shape_type": "point",
            "points": [
                [
                    864,
                    666
                ]
            ],
            "flags": {},
            "group_id": null
        },
        {
            "label": "nine",
            "shape_type": "point",
            "points": [
                [
                    772,
                    828
                ]
            ],
            "flags": {},
            "group_id": null
        },
        {
            "label": "ten",
            "shape_type": "point",
            "points": [
                [
                    864,
                    828
                ]
            ],
            "flags": {},
            "group_id": null
        },
        {
            "label": "seven",
            "shape_type": "point",
            "points": [
                [
                    3242,
                    1877
                ]
            ],
            "flags": {},
            "group_id": null
        },
        {
            "label": "eight",
            "shape_type": "point",
            "points": [
                [
                    3373,
                    1877
                ]
            ],
            "flags": {},
            "group_id": null
        },
        {
            "label": "thirteen",
            "shape_type": "point",
            "points": [
                [
                    3308,
                    1877
                ]
            ],
            "flags": {},
            "group_id": null
        },
        {
            "label": "fourteen",
            "shape_type": "point",
            "points": [
                [
                    3242,
                    1990
                ]
            ],
            "flags": {},
            "group_id": null
        },
        {
            "label": "fourteen",
            "shape_type": "point",
            "points": [
                [
                    3308,
                    1990
                ]
            ],
            "flags": {},
            "group_id": null
        },
        {
            "label": "fourteen",
            "shape_type": "point",
            "points": [
                [
                    3374,
                    1991
                ]
            ],
            "flags": {},
            "group_id": null
        },
        {
            "label": "seven",
            "shape_type": "point",
            "points": [
                [
                    3228,
                    1991
                ]
            ],
            "flags": {},
            "group_id": null
        },
        {
            "label": "eight",
            "shape_type": "point",
            "points": [
                [
                    3388,
                    1991
                ]
            ],
            "flags": {},
            "group_id": null
        },
        {
            "label": "fourteen",
            "shape_type": "point",
            "points": [
                [
                    3228,
                    2021
                ]
            ],
            "flags": {},
            "group_id": null
        },
        {
            "label": "fourteen",
            "shape_type": "point",
            "points": [
                [
                    3389,
                    2021
                ]
            ],
            "flags": {},
            "group_id": null
        },
        {
            "label": "",
            "shape_type": "",
            "points": [],
            "flags": {},
            "group_id": null
        },
        {
            "label": "sm",
            "shape_type": "rectangle",
            "points": [
                [
                    2158,
                    1853
                ],
                [
                    3646,
                    2533
                ]
            ],
            "flags": {},
            "group_id": null
        },
        {
            "label": "btl",
            "shape_type": "rectangle",
            "points": [
                [
                    2344,
                    2569
                ],
                [
                    4154,
                    2871
                ]
            ],
            "flags": {},
            "group_id": null
        },
        {
            "label": "j1",
            "shape_type": "rectangle",
            "points": [
                [
                    1903,
                    368
                ],
                [
                    2014,
                    448
                ]
            ],
            "flags": {},
            "group_id": null
        },
        {
            "label": "j1",
            "shape_type": "rectangle",
            "points": [
                [
                    2266,
                    170
                ],
                [
                    2332,
                    247
                ]
            ],
            "flags": {},
            "group_id": null
        },
        {
            "label": "j1",
            "shape_type": "rectangle",
            "points": [
                [
                    2230,
                    91
                ],
                [
                    2264,
                    139
                ]
            ],
            "flags": {},
            "group_id": null
        },
        {
            "label": "mask",
            "lineType": [
                "LLLLLLLLLLLLLLLLLLLLLLLLLLLLLLLLLLLLLLLLLLLL"
            ],
            "shape_type": "polygon",
            "points": [
                [
                    2958,
                    953
                ],
                [
                    2957,
                    783
                ],
                [
                    3288,
                    597
                ],
                [
                    3283,
                    449
                ],
                [
                    3216,
                    261
                ],
                [
                    3004,
                    230
                ],
                [
                    3001,
                    111
                ],
                [
                    3172,
                    97
                ],
                [
                    3343,
                    82
                ],
                [
                    3455,
                    71
                ],
                [
                    3636,
                    71
                ],
                [
                    3789,
                    90
                ],
                [
                    3952,
                    118
                ],
                [
                    3938,
                    540
                ],
                [
                    3905,
                    692
                ],
                [
                    3896,
                    840
                ],
                [
                    3924,
                    1069
                ],
                [
                    3723,
                    1130
                ],
                [
                    3617,
                    1585
                ],
                [
                    3648,
                    1859
                ],
                [
                    3637,
                    1934
                ],
                [
                    3844,
                    1919
                ],
                [
                    3931,
                    1969
                ],
                [
                    3979,
                    1997
                ],
                [
                    3980,
                    2055
                ],
                [
                    3896,
                    2101
                ],
                [
                    3791,
                    2105
                ],
                [
                    3668,
                    2152
                ],
                [
                    3662,
                    2206
                ],
                [
                    3520,
                    2214
                ],
                [
                    3309,
                    2207
                ],
                [
                    3167,
                    2098
                ],
                [
                    3078,
                    2088
                ],
                [
                    2969,
                    2069
                ],
                [
                    2953,
                    2023
                ],
                [
                    2951,
                    1918
                ],
                [
                    2924,
                    1848
                ],
                [
                    2896,
                    1810
                ],
                [
                    2898,
                    1701
                ],
                [
                    3208,
                    1702
                ],
                [
                    3260,
                    1330
                ],
                [
                    3240,
                    1028
                ],
                [
                    3237,
                    977
                ],
                [
                    2958,
                    953
                ]
            ],
            "flags": {},
            "group_id": null
        },
        {
            "label": "mask",
            "lineType": [
                "LLLLL"
            ],
            "shape_type": "polygon",
            "points": [
                [
                    2345,
                    2555
                ],
                [
                    2344,
                    2871
                ],
                [
                    4151,
                    2871
                ],
                [
                    4148,
                    2564
                ],
                [
                    2345,
                    2555
                ]
            ],
            "flags": {},
            "group_id": null
        },
        {
            "label": "mask",
            "lineType": [
                "LLLLLLLLLLLLLLLLLLLLLLLLL"
            ],
            "shape_type": "polygon",
            "points": [
                [
                    2200,
                    2511
                ],
                [
                    2396,
                    2510
                ],
                [
                    2504,
                    2520
                ],
                [
                    2742,
                    2527
                ],
                [
                    2850,
                    2527
                ],
                [
                    2863,
                    2478
                ],
                [
                    3084,
                    2465
                ],
                [
                    3208,
                    2406
                ],
                [
                    3595,
                    2380
                ],
                [
                    3678,
                    2385
                ],
                [
                    3678,
                    2348
                ],
                [
                    3648,
                    2308
                ],
                [
                    3390,
                    2289
                ],
                [
                    3107,
                    2272
                ],
                [
                    3050,
                    2243
                ],
                [
                    3044,
                    2146
                ],
                [
                    2981,
                    2108
                ],
                [
                    2940,
                    2073
                ],
                [
                    2940,
                    2031
                ],
                [
                    2923,
                    1993
                ],
                [
                    2749,
                    1883
                ],
                [
                    2539,
                    1820
                ],
                [
                    2413,
                    1830
                ],
                [
                    2140,
                    1837
                ],
                [
                    2200,
                    2511
                ]
            ],
            "flags": {},
            "group_id": null
        },
        {
            "label": "mask",
            "lineType": [
                "LLLLLLLLLLLLLLLLLLL"
            ],
            "shape_type": "polygon",
            "points": [
                [
                    2415,
                    1400
                ],
                [
                    2600,
                    1387
                ],
                [
                    2842,
                    1404
                ],
                [
                    2852,
                    1342
                ],
                [
                    2849,
                    1258
                ],
                [
                    2872,
                    1029
                ],
                [
                    2839,
                    887
                ],
                [
                    2761,
                    806
                ],
                [
                    2646,
                    710
                ],
                [
                    2483,
                    697
                ],
                [
                    2347,
                    692
                ],
                [
                    2358,
                    890
                ],
                [
                    2370,
                    959
                ],
                [
                    2335,
                    1023
                ],
                [
                    2246,
                    1037
                ],
                [
                    2190,
                    1086
                ],
                [
                    2180,
                    1188
                ],
                [
                    2178,
                    1255
                ],
                [
                    2415,
                    1400
                ]
            ],
            "flags": {},
            "group_id": null
        },
        {
            "label": "mask",
            "lineType": [
                "LLLLLLLLLLLLLLLLLLL"
            ],
            "shape_type": "polygon",
            "points": [
                [
                    1532,
                    1363
                ],
                [
                    1701,
                    1381
                ],
                [
                    1886,
                    1386
                ],
                [
                    1923,
                    1360
                ],
                [
                    1931,
                    1170
                ],
                [
                    2132,
                    1117
                ],
                [
                    2061,
                    1002
                ],
                [
                    2024,
                    877
                ],
                [
                    2127,
                    844
                ],
                [
                    2146,
                    804
                ],
                [
                    2122,
                    762
                ],
                [
                    1891,
                    737
                ],
                [
                    1559,
                    759
                ],
                [
                    1481,
                    804
                ],
                [
                    1390,
                    893
                ],
                [
                    1264,
                    898
                ],
                [
                    1220,
                    923
                ],
                [
                    1272,
                    1052
                ],
                [
                    1532,
                    1363
                ]
            ],
            "flags": {},
            "group_id": null
        },
        {
            "label": "mask",
            "lineType": [
                "LLLLLLLLLLLLLLL"
            ],
            "shape_type": "polygon",
            "points": [
                [
                    715,
                    1201
                ],
                [
                    1053,
                    1195
                ],
                [
                    1038,
                    1098
                ],
                [
                    1185,
                    992
                ],
                [
                    1197,
                    942
                ],
                [
                    1189,
                    855
                ],
                [
                    1085,
                    477
                ],
                [
                    1190,
                    308
                ],
                [
                    1227,
                    228
                ],
                [
                    1204,
                    187
                ],
                [
                    764,
                    183
                ],
                [
                    629,
                    219
                ],
                [
                    617,
                    725
                ],
                [
                    646,
                    987
                ],
                [
                    715,
                    1201
                ]
            ],
            "flags": {},
            "group_id": null
        },
        {
            "label": "mask",
            "lineType": [
                "LLLLLLLLLLLLL"
            ],
            "shape_type": "polygon",
            "points": [
                [
                    1853,
                    484
                ],
                [
                    2069,
                    482
                ],
                [
                    2279,
                    416
                ],
                [
                    2403,
                    263
                ],
                [
                    2377,
                    171
                ],
                [
                    2330,
                    100
                ],
                [
                    2269,
                    69
                ],
                [
                    2178,
                    68
                ],
                [
                    2137,
                    81
                ],
                [
                    2135,
                    308
                ],
                [
                    1971,
                    327
                ],
                [
                    1884,
                    352
                ],
                [
                    1853,
                    484
                ]
            ],
            "flags": {},
            "group_id": null
        },
        {
            "label": "mask",
            "lineType": [
                "LLLLLLL"
            ],
            "shape_type": "polygon",
            "points": [
                [
                    360,
                    1864
                ],
                [
                    364,
                    2790
                ],
                [
                    1812,
                    2793
                ],
                [
                    1809,
                    1919
                ],
                [
                    1298,
                    1846
                ],
                [
                    1043,
                    1853
                ],
                [
                    360,
                    1864
                ]
            ],
            "flags": {},
            "group_id": null
        },
        {
            "label": "Ns",
            "shape_type": "point",
            "points": [
                [
                    2208,
                    393
                ]
            ],
            "flags": {},
            "group_id": null
        },
        {
            "label": "Ne",
            "shape_type": "point",
            "points": [
                [
                    2208,
                    213
                ]
            ],
            "flags": {},
            "group_id": null
        },
        {
            "label": "wlb",
            "shape_type": "rectangle",
            "points": [
                [
                    390,
                    1868
                ],
                [
                    1791,
                    2767
                ]
            ],
            "flags": {},
            "group_id": null
        },
        {
            "label": "wz1",
            "shape_type": "rectangle",
            "points": [
                [
                    3236,
                    2060
                ],
                [
                    3368,
                    2111
                ]
            ],
            "flags": {},
            "group_id": null
        },
        {
            "label": "wz1",
            "shape_type": "rectangle",
            "points": [
                [
                    2921,
                    1758
                ],
                [
                    3154,
                    1813
                ]
            ],
            "flags": {},
            "group_id": null
        },
        {
            "label": "wz1-l",
            "lineType": "LL",
            "shape_type": "line",
            "points": [
                [
                    3329,
                    2087
                ],
                [
                    3387,
                    2051
                ]
            ],
            "flags": {},
            "group_id": null
        },
        {
            "label": "wz1-l",
            "lineType": "LL",
            "shape_type": "line",
            "points": [
                [
                    3136,
                    1777
                ],
                [
                    3277,
                    1894
                ]
            ],
            "flags": {},
            "group_id": null
        },
        {
            "label": "wz1",
            "shape_type": "rectangle",
            "points": [
                [
                    3555,
                    1254
                ],
                [
                    3585,
                    1292
                ]
            ],
            "flags": {},
            "group_id": null
        },
        {
            "label": "wz1",
            "shape_type": "rectangle",
            "points": [
                [
                    3577,
                    1051
                ],
                [
                    3641,
                    1089
                ]
            ],
            "flags": {},
            "group_id": null
        },
        {
            "label": "wz1",
            "shape_type": "rectangle",
            "points": [
                [
                    3344,
                    1083
                ],
                [
                    3412,
                    1124
                ]
            ],
            "flags": {},
            "group_id": null
        },
        {
            "label": "wz1",
            "shape_type": "rectangle",
            "points": [
                [
                    3022,
                    806
                ],
                [
                    3271,
                    855
                ]
            ],
            "flags": {},
            "group_id": null
        },
        {
            "label": "wz1",
            "shape_type": "rectangle",
            "points": [
                [
                    3065,
                    128
                ],
                [
                    3321,
                    184
                ]
            ],
            "flags": {},
            "group_id": null
        },
        {
            "label": "wz1-l",
            "lineType": "LL",
            "shape_type": "line",
            "points": [
                [
                    3282,
                    174
                ],
                [
                    3457,
                    323
                ]
            ],
            "flags": {},
            "group_id": null
        },
        {
            "label": "wz1-l",
            "lineType": "LL",
            "shape_type": "line",
            "points": [
                [
                    3257,
                    844
                ],
                [
                    3410,
                    966
                ]
            ],
            "flags": {},
            "group_id": null
        },
        {
            "label": "wz1-l",
            "lineType": "LL",
            "shape_type": "line",
            "points": [
                [
                    3400,
                    1108
                ],
                [
                    3427,
                    1079
                ]
            ],
            "flags": {},
            "group_id": null
        },
        {
            "label": "wz1-l",
            "lineType": "LL",
            "shape_type": "line",
            "points": [
                [
                    3604,
                    1069
                ],
                [
                    3561,
                    1060
                ]
            ],
            "flags": {},
            "group_id": null
        },
        {
            "label": "wz1-l",
            "lineType": "LL",
            "shape_type": "line",
            "points": [
                [
                    3572,
                    1279
                ],
                [
                    3482,
                    1331
                ]
            ],
            "flags": {},
            "group_id": null
        },
        {
            "label": "wz1",
            "shape_type": "rectangle",
            "points": [
                [
                    2200,
                    1096
                ],
                [
                    2445,
                    1189
                ]
            ],
            "flags": {},
            "group_id": null
        },
        {
            "label": "wz1",
            "shape_type": "rectangle",
            "points": [
                [
                    2358,
                    717
                ],
                [
                    2607,
                    808
                ]
            ],
            "flags": {},
            "group_id": null
        },
        {
            "label": "wz1",
            "shape_type": "rectangle",
            "points": [
                [
                    1831,
                    767
                ],
                [
                    2098,
                    814
                ]
            ],
            "flags": {},
            "group_id": null
        },
        {
            "label": "wz1",
            "shape_type": "rectangle",
            "points": [
                [
                    1839,
                    1060
                ],
                [
                    2103,
                    1104
                ]
            ],
            "flags": {},
            "group_id": null
        },
        {
            "label": "wz1",
            "shape_type": "rectangle",
            "points": [
                [
                    1254,
                    920
                ],
                [
                    1522,
                    973
                ]
            ],
            "flags": {},
            "group_id": null
        },
        {
            "label": "wz1-l",
            "lineType": "LL",
            "shape_type": "line",
            "points": [
                [
                    1479,
                    947
                ],
                [
                    1668,
                    955
                ]
            ],
            "flags": {},
            "group_id": null
        },
        {
            "label": "wz1-l",
            "lineType": "LL",
            "shape_type": "line",
            "points": [
                [
                    1897,
                    1085
                ],
                [
                    1731,
                    970
                ]
            ],
            "flags": {},
            "group_id": null
        },
        {
            "label": "wz1-l",
            "lineType": "LL",
            "shape_type": "line",
            "points": [
                [
                    1871,
                    782
                ],
                [
                    1710,
                    908
                ]
            ],
            "flags": {},
            "group_id": null
        },
        {
            "label": "wz1-l",
            "lineType": "LL",
            "shape_type": "line",
            "points": [
                [
                    2554,
                    750
                ],
                [
                    2671,
                    823
                ]
            ],
            "flags": {},
            "group_id": null
        },
        {
            "label": "wz1-l",
            "lineType": "LL",
            "shape_type": "line",
            "points": [
                [
                    2415,
                    1123
                ],
                [
                    2533,
                    1073
                ]
            ],
            "flags": {},
            "group_id": null
        },
        {
            "label": "wz1",
            "shape_type": "rectangle",
            "points": [
                [
                    692,
                    655
                ],
                [
                    719,
                    687
                ]
            ],
            "flags": {},
            "group_id": null
        },
        {
            "label": "wz1-l",
            "lineType": "LL",
            "shape_type": "line",
            "points": [
                [
                    709,
                    675
                ],
                [
                    774,
                    722
                ]
            ],
            "flags": {},
            "group_id": null
        },
        {
            "label": "wz1-l",
            "lineType": "LL",
            "shape_type": "line",
            "points": [
                [
                    3254,
                    821
                ],
                [
                    3574,
                    974
                ]
            ],
            "flags": {},
            "group_id": null
        },
        {
            "label": "wz1-l",
            "lineType": "LL",
            "shape_type": "line",
            "points": [
                [
                    708,
                    678
                ],
                [
                    781,
                    777
                ]
            ],
            "flags": {},
            "group_id": null
        }
    ],
    "flags": {},
    "imageData": null,
    "version": "4.5.7"
}