{
    "imageHeight": 3112,
    "imageWidth": 4205,
    "imagePath": "样本4_96_40.png",
    "shapes": [
        {
            "label": "v1",
            "shape_type": "rectangle",
            "points": [
                [
                    327,
                    1528
                ],
                [
                    678,
                    1628
                ]
            ],
            "flags": {},
            "group_id": null
        },
        {
            "label": "vp1-1",
            "shape_type": "rectangle",
            "points": [
                [
                    338,
                    1092
                ],
                [
                    668,
                    1419
                ]
            ],
            "flags": {},
            "group_id": null
        },
        {
            "label": "v1",
            "shape_type": "rectangle",
            "points": [
                [
                    596,
                    735
                ],
                [
                    797,
                    812
                ]
            ],
            "flags": {},
            "group_id": null
        },
        {
            "label": "d1",
            "shape_type": "rectangle",
            "points": [
                [
                    196,
                    554
                ],
                [
                    287,
                    701
                ]
            ],
            "flags": {},
            "group_id": null
        },
        {
            "label": "vt9",
            "shape_type": "rectangle",
            "points": [
                [
                    368,
                    221
                ],
                [
                    697,
                    551
                ]
            ],
            "flags": {},
            "group_id": null
        },
        {
            "label": "vb1",
            "shape_type": "rectangle",
            "points": [
                [
                    802,
                    351
                ],
                [
                    972,
                    446
                ]
            ],
            "flags": {},
            "group_id": null
        },
        {
            "label": "seven",
            "shape_type": "point",
            "points": [
                [
                    802,
                    351
                ]
            ],
            "flags": {},
            "group_id": null
        },
        {
            "label": "seven",
            "shape_type": "point",
            "points": [
                [
                    813,
                    360
                ]
            ],
            "flags": {},
            "group_id": null
        },
        {
            "label": "eight",
            "shape_type": "point",
            "points": [
                [
                    972,
                    351
                ]
            ],
            "flags": {},
            "group_id": null
        },
        {
            "label": "eight",
            "shape_type": "point",
            "points": [
                [
                    960,
                    360
                ]
            ],
            "flags": {},
            "group_id": null
        },
        {
            "label": "nine",
            "shape_type": "point",
            "points": [
                [
                    802,
                    445
                ]
            ],
            "flags": {},
            "group_id": null
        },
        {
            "label": "ten",
            "shape_type": "point",
            "points": [
                [
                    971,
                    446
                ]
            ],
            "flags": {},
            "group_id": null
        },
        {
            "label": "thirteen",
            "shape_type": "point",
            "points": [
                [
                    887,
                    360
                ]
            ],
            "flags": {},
            "group_id": null
        },
        {
            "label": "fifteen",
            "shape_type": "point",
            "points": [
                [
                    887,
                    422
                ]
            ],
            "flags": {},
            "group_id": null
        },
        {
            "label": "fourteen",
            "shape_type": "point",
            "points": [
                [
                    887,
                    433
                ]
            ],
            "flags": {},
            "group_id": null
        },
        {
            "label": "eleven",
            "shape_type": "point",
            "points": [
                [
                    812,
                    422
                ]
            ],
            "flags": {},
            "group_id": null
        },
        {
            "label": "twelve",
            "shape_type": "point",
            "points": [
                [
                    961,
                    422
                ]
            ],
            "flags": {},
            "group_id": null
        },
        {
            "label": "nine",
            "shape_type": "point",
            "points": [
                [
                    813,
                    434
                ]
            ],
            "flags": {},
            "group_id": null
        },
        {
            "label": "ten",
            "shape_type": "point",
            "points": [
                [
                    960,
                    434
                ]
            ],
            "flags": {},
            "group_id": null
        },
        {
            "label": "d1",
            "shape_type": "rectangle",
            "points": [
                [
                    1049,
                    554
                ],
                [
                    1139,
                    699
                ]
            ],
            "flags": {},
            "group_id": null
        },
        {
            "label": "n1",
            "shape_type": "rectangle",
            "points": [
                [
                    1530,
                    91
                ],
                [
                    2062,
                    544
                ]
            ],
            "flags": {},
            "group_id": null
        },
        {
            "label": "v1",
            "shape_type": "rectangle",
            "points": [
                [
                    1094,
                    1453
                ],
                [
                    1444,
                    1550
                ]
            ],
            "flags": {},
            "group_id": null
        },
        {
            "label": "vp1-1",
            "shape_type": "rectangle",
            "points": [
                [
                    1096,
                    1054
                ],
                [
                    1425,
                    1386
                ]
            ],
            "flags": {},
            "group_id": null
        },
        {
            "label": "va1",
            "shape_type": "rectangle",
            "points": [
                [
                    1309,
                    1098
                ],
                [
                    1354,
                    1134
                ]
            ],
            "flags": {},
            "group_id": null
        },
        {
            "label": "va1",
            "shape_type": "rectangle",
            "points": [
                [
                    1113,
                    1244
                ],
                [
                    1152,
                    1289
                ]
            ],
            "flags": {},
            "group_id": null
        },
        {
            "label": "va1",
            "shape_type": "rectangle",
            "points": [
                [
                    1343,
                    1280
                ],
                [
                    1385,
                    1323
                ]
            ],
            "flags": {},
            "group_id": null
        },
        {
            "label": "v1",
            "shape_type": "rectangle",
            "points": [
                [
                    1948,
                    1479
                ],
                [
                    2297,
                    1579
                ]
            ],
            "flags": {},
            "group_id": null
        },
        {
            "label": "vp1-1",
            "shape_type": "rectangle",
            "points": [
                [
                    1960,
                    1054
                ],
                [
                    2289,
                    1385
                ]
            ],
            "flags": {},
            "group_id": null
        },
        {
            "label": "va1",
            "shape_type": "rectangle",
            "points": [
                [
                    2177,
                    1093
                ],
                [
                    2223,
                    1135
                ]
            ],
            "flags": {},
            "group_id": null
        },
        {
            "label": "va1",
            "shape_type": "rectangle",
            "points": [
                [
                    2207,
                    1282
                ],
                [
                    2248,
                    1324
                ]
            ],
            "flags": {},
            "group_id": null
        },
        {
            "label": "va1",
            "shape_type": "rectangle",
            "points": [
                [
                    1974,
                    1248
                ],
                [
                    2016,
                    1294
                ]
            ],
            "flags": {},
            "group_id": null
        },
        {
            "label": "vp2-1",
            "shape_type": "rectangle",
            "points": [
                [
                    2607,
                    1132
                ],
                [
                    2783,
                    1308
                ]
            ],
            "flags": {},
            "group_id": null
        },
        {
            "label": "v1",
            "shape_type": "rectangle",
            "points": [
                [
                    2504,
                    1480
                ],
                [
                    2853,
                    1578
                ]
            ],
            "flags": {},
            "group_id": null
        },
        {
            "label": "v1",
            "shape_type": "rectangle",
            "points": [
                [
                    3350,
                    2091
                ],
                [
                    3699,
                    2188
                ]
            ],
            "flags": {},
            "group_id": null
        },
        {
            "label": "h1",
            "shape_type": "rectangle",
            "points": [
                [
                    3912,
                    1973
                ],
                [
                    4067,
                    2047
                ]
            ],
            "flags": {},
            "group_id": null
        },
        {
            "label": "b1",
            "shape_type": "rectangle",
            "points": [
                [
                    3609,
                    1895
                ],
                [
                    3849,
                    2046
                ]
            ],
            "flags": {},
            "group_id": null
        },
        {
            "label": "seven",
            "shape_type": "point",
            "points": [
                [
                    3647,
                    1896
                ]
            ],
            "flags": {},
            "group_id": null
        },
        {
            "label": "thirteen",
            "shape_type": "point",
            "points": [
                [
                    3717,
                    1896
                ]
            ],
            "flags": {},
            "group_id": null
        },
        {
            "label": "fourteen",
            "shape_type": "point",
            "points": [
                [
                    3716,
                    2014
                ]
            ],
            "flags": {},
            "group_id": null
        },
        {
            "label": "eight",
            "shape_type": "point",
            "points": [
                [
                    3785,
                    1896
                ]
            ],
            "flags": {},
            "group_id": null
        },
        {
            "label": "fourteen",
            "shape_type": "point",
            "points": [
                [
                    3647,
                    2015
                ]
            ],
            "flags": {},
            "group_id": null
        },
        {
            "label": "fourteen",
            "shape_type": "point",
            "points": [
                [
                    3786,
                    2014
                ]
            ],
            "flags": {},
            "group_id": null
        },
        {
            "label": "eight",
            "shape_type": "point",
            "points": [
                [
                    3848,
                    2015
                ]
            ],
            "flags": {},
            "group_id": null
        },
        {
            "label": "seven",
            "shape_type": "point",
            "points": [
                [
                    3609,
                    2015
                ]
            ],
            "flags": {},
            "group_id": null
        },
        {
            "label": "fourteen",
            "shape_type": "point",
            "points": [
                [
                    3609,
                    2046
                ]
            ],
            "flags": {},
            "group_id": null
        },
        {
            "label": "fourteen",
            "shape_type": "point",
            "points": [
                [
                    3849,
                    2046
                ]
            ],
            "flags": {},
            "group_id": null
        },
        {
            "label": "d1",
            "shape_type": "rectangle",
            "points": [
                [
                    3287,
                    864
                ],
                [
                    3367,
                    1011
                ]
            ],
            "flags": {},
            "group_id": null
        },
        {
            "label": "d1",
            "shape_type": "rectangle",
            "points": [
                [
                    3657,
                    864
                ],
                [
                    3747,
                    1011
                ]
            ],
            "flags": {},
            "group_id": null
        },
        {
            "label": "g1",
            "shape_type": "rectangle",
            "points": [
                [
                    3460,
                    844
                ],
                [
                    3465,
                    1002
                ]
            ],
            "flags": {},
            "group_id": null
        },
        {
            "label": "g1",
            "shape_type": "rectangle",
            "points": [
                [
                    3556,
                    845
                ],
                [
                    3561,
                    1001
                ]
            ],
            "flags": {},
            "group_id": null
        },
        {
            "label": "p1-1",
            "shape_type": "rectangle",
            "points": [
                [
                    3459,
                    845
                ],
                [
                    3563,
                    1002
                ]
            ],
            "flags": {},
            "group_id": null
        },
        {
            "label": "h1",
            "shape_type": "rectangle",
            "points": [
                [
                    3790,
                    900
                ],
                [
                    3945,
                    974
                ]
            ],
            "flags": {},
            "group_id": null
        },
        {
            "label": "d1",
            "shape_type": "rectangle",
            "points": [
                [
                    3285,
                    628
                ],
                [
                    3368,
                    774
                ]
            ],
            "flags": {},
            "group_id": null
        },
        {
            "label": "d1",
            "shape_type": "rectangle",
            "points": [
                [
                    3656,
                    627
                ],
                [
                    3747,
                    774
                ]
            ],
            "flags": {},
            "group_id": null
        },
        {
            "label": "h1",
            "shape_type": "rectangle",
            "points": [
                [
                    3792,
                    666
                ],
                [
                    3946,
                    738
                ]
            ],
            "flags": {},
            "group_id": null
        },
        {
            "label": "g1",
            "shape_type": "rectangle",
            "points": [
                [
                    3461,
                    617
                ],
                [
                    3467,
                    774
                ]
            ],
            "flags": {},
            "group_id": null
        },
        {
            "label": "g1",
            "shape_type": "rectangle",
            "points": [
                [
                    3559,
                    617
                ],
                [
                    3563,
                    774
                ]
            ],
            "flags": {},
            "group_id": null
        },
        {
            "label": "a1-1",
            "shape_type": "rectangle",
            "points": [
                [
                    3414,
                    643
                ],
                [
                    3461,
                    758
                ]
            ],
            "flags": {},
            "group_id": null
        },
        {
            "label": "a1-2",
            "shape_type": "rectangle",
            "points": [
                [
                    3564,
                    644
                ],
                [
                    3610,
                    758
                ]
            ],
            "flags": {},
            "group_id": null
        },
        {
            "label": "p1-1",
            "shape_type": "rectangle",
            "points": [
                [
                    3413,
                    617
                ],
                [
                    3611,
                    774
                ]
            ],
            "flags": {},
            "group_id": null
        },
        {
            "label": "d1",
            "shape_type": "rectangle",
            "points": [
                [
                    3283,
                    392
                ],
                [
                    3366,
                    539
                ]
            ],
            "flags": {},
            "group_id": null
        },
        {
            "label": "d1",
            "shape_type": "rectangle",
            "points": [
                [
                    3655,
                    391
                ],
                [
                    3745,
                    538
                ]
            ],
            "flags": {},
            "group_id": null
        },
        {
            "label": "h1",
            "shape_type": "rectangle",
            "points": [
                [
                    3791,
                    480
                ],
                [
                    3944,
                    551
                ]
            ],
            "flags": {},
            "group_id": null
        },
        {
            "label": "a1-1",
            "shape_type": "rectangle",
            "points": [
                [
                    3434,
                    419
                ],
                [
                    3463,
                    536
                ]
            ],
            "flags": {},
            "group_id": null
        },
        {
            "label": "a1-2",
            "shape_type": "rectangle",
            "points": [
                [
                    3567,
                    420
                ],
                [
                    3595,
                    538
                ]
            ],
            "flags": {},
            "group_id": null
        },
        {
            "label": "g1",
            "shape_type": "rectangle",
            "points": [
                [
                    3464,
                    389
                ],
                [
                    3469,
                    546
                ]
            ],
            "flags": {},
            "group_id": null
        },
        {
            "label": "g1",
            "shape_type": "rectangle",
            "points": [
                [
                    3561,
                    389
                ],
                [
                    3565,
                    548
                ]
            ],
            "flags": {},
            "group_id": null
        },
        {
            "label": "p1-1",
            "shape_type": "rectangle",
            "points": [
                [
                    3434,
                    389
                ],
                [
                    3595,
                    548
                ]
            ],
            "flags": {},
            "group_id": null
        },
        {
            "label": "d1",
            "shape_type": "rectangle",
            "points": [
                [
                    3291,
                    197
                ],
                [
                    3378,
                    342
                ]
            ],
            "flags": {},
            "group_id": null
        },
        {
            "label": "d1",
            "shape_type": "rectangle",
            "points": [
                [
                    3654,
                    190
                ],
                [
                    3744,
                    335
                ]
            ],
            "flags": {},
            "group_id": null
        },
        {
            "label": "a1-1",
            "shape_type": "rectangle",
            "points": [
                [
                    3436,
                    249
                ],
                [
                    3463,
                    366
                ]
            ],
            "flags": {},
            "group_id": null
        },
        {
            "label": "a1-2",
            "shape_type": "rectangle",
            "points": [
                [
                    3568,
                    249
                ],
                [
                    3596,
                    365
                ]
            ],
            "flags": {},
            "group_id": null
        },
        {
            "label": "g1",
            "shape_type": "rectangle",
            "points": [
                [
                    3463,
                    219
                ],
                [
                    3469,
                    376
                ]
            ],
            "flags": {},
            "group_id": null
        },
        {
            "label": "g1",
            "shape_type": "rectangle",
            "points": [
                [
                    3561,
                    219
                ],
                [
                    3565,
                    376
                ]
            ],
            "flags": {},
            "group_id": null
        },
        {
            "label": "p1-1",
            "shape_type": "rectangle",
            "points": [
                [
                    3435,
                    219
                ],
                [
                    3597,
                    377
                ]
            ],
            "flags": {},
            "group_id": null
        },
        {
            "label": "z1",
            "shape_type": "rectangle",
            "points": [
                [
                    3383,
                    183
                ],
                [
                    3646,
                    775
                ]
            ],
            "flags": {},
            "group_id": null
        },
        {
            "label": "h1",
            "shape_type": "rectangle",
            "points": [
                [
                    3788,
                    267
                ],
                [
                    3945,
                    343
                ]
            ],
            "flags": {},
            "group_id": null
        },
        {
            "label": "h1",
            "shape_type": "rectangle",
            "points": [
                [
                    3790,
                    98
                ],
                [
                    3943,
                    175
                ]
            ],
            "flags": {},
            "group_id": null
        },
        {
            "label": "c1",
            "shape_type": "rectangle",
            "points": [
                [
                    3500,
                    97
                ],
                [
                    3531,
                    174
                ]
            ],
            "flags": {},
            "group_id": null
        },
        {
            "label": "",
            "shape_type": "",
            "points": [],
            "flags": {},
            "group_id": null
        },
        {
            "label": "x1",
            "shape_type": "rectangle",
            "points": [
                [
                    3435,
                    1368
                ],
                [
                    3600,
                    1395
                ]
            ],
            "flags": {},
            "group_id": null
        },
        {
            "label": "t9",
            "shape_type": "rectangle",
            "points": [
                [
                    3383,
                    96
                ],
                [
                    3646,
                    2046
                ]
            ],
            "flags": {},
            "group_id": null
        },
        {
            "label": "va1",
            "shape_type": "rectangle",
            "points": [
                [
                    574,
                    1156
                ],
                [
                    618,
                    1191
                ]
            ],
            "flags": {},
            "group_id": null
        },
        {
            "label": "va1",
            "shape_type": "rectangle",
            "points": [
                [
                    557,
                    1336
                ],
                [
                    600,
                    1380
                ]
            ],
            "flags": {},
            "group_id": null
        },
        {
            "label": "va1",
            "shape_type": "rectangle",
            "points": [
                [
                    350,
                    1197
                ],
                [
                    393,
                    1240
                ]
            ],
            "flags": {},
            "group_id": null
        },
        {
            "label": "",
            "shape_type": "",
            "points": [],
            "flags": {},
            "group_id": null
        },
        {
            "label": "sm",
            "shape_type": "rectangle",
            "points": [
                [
                    1770,
                    1925
                ],
                [
                    3948,
                    2627
                ]
            ],
            "flags": {},
            "group_id": null
        },
        {
            "label": "btl",
            "shape_type": "rectangle",
            "points": [
                [
                    2246,
                    2752
                ],
                [
                    4153,
                    3074
                ]
            ],
            "flags": {},
            "group_id": null
        },
        {
            "label": "j1",
            "shape_type": "rectangle",
            "points": [
                [
                    1947,
                    455
                ],
                [
                    2061,
                    542
                ]
            ],
            "flags": {},
            "group_id": null
        },
        {
            "label": "j1",
            "shape_type": "rectangle",
            "points": [
                [
                    1532,
                    443
                ],
                [
                    1650,
                    524
                ]
            ],
            "flags": {},
            "group_id": null
        },
        {
            "label": "j1",
            "shape_type": "rectangle",
            "points": [
                [
                    1890,
                    150
                ],
                [
                    1981,
                    232
                ]
            ],
            "flags": {},
            "group_id": null
        },
        {
            "label": "j1",
            "shape_type": "rectangle",
            "points": [
                [
                    1843,
                    102
                ],
                [
                    1874,
                    149
                ]
            ],
            "flags": {},
            "group_id": null
        },
        {
            "label": "mask",
            "lineType": [
                "LLLLLLLLLLLLLLLLLLLLLLLLLLLLLLLLLLLL"
            ],
            "shape_type": "polygon",
            "points": [
                [
                    3168,
                    795
                ],
                [
                    3051,
                    785
                ],
                [
                    3039,
                    614
                ],
                [
                    2995,
                    232
                ],
                [
                    3035,
                    166
                ],
                [
                    3389,
                    113
                ],
                [
                    3469,
                    81
                ],
                [
                    3683,
                    76
                ],
                [
                    3905,
                    76
                ],
                [
                    3979,
                    85
                ],
                [
                    3971,
                    163
                ],
                [
                    3971,
                    309
                ],
                [
                    3984,
                    472
                ],
                [
                    3976,
                    761
                ],
                [
                    3952,
                    1037
                ],
                [
                    3640,
                    1053
                ],
                [
                    3618,
                    1334
                ],
                [
                    3639,
                    1441
                ],
                [
                    3638,
                    1553
                ],
                [
                    3688,
                    1834
                ],
                [
                    3895,
                    1756
                ],
                [
                    4115,
                    1760
                ],
                [
                    4089,
                    2066
                ],
                [
                    3881,
                    2154
                ],
                [
                    3742,
                    2209
                ],
                [
                    3634,
                    2201
                ],
                [
                    3340,
                    2196
                ],
                [
                    3311,
                    2159
                ],
                [
                    3191,
                    2094
                ],
                [
                    3191,
                    2014
                ],
                [
                    3355,
                    1982
                ],
                [
                    3401,
                    1432
                ],
                [
                    3354,
                    1074
                ],
                [
                    3238,
                    1019
                ],
                [
                    3207,
                    906
                ],
                [
                    3168,
                    795
                ]
            ],
            "flags": {},
            "group_id": null
        },
        {
            "label": "mask",
            "lineType": [
                "LLLLLLLLLLLLLLLLLLLLLLLLLLLLL"
            ],
            "shape_type": "polygon",
            "points": [
                [
                    1737,
                    1908
                ],
                [
                    2159,
                    1905
                ],
                [
                    2236,
                    1965
                ],
                [
                    2531,
                    1988
                ],
                [
                    2619,
                    2096
                ],
                [
                    2621,
                    2186
                ],
                [
                    3038,
                    2186
                ],
                [
                    3318,
                    2204
                ],
                [
                    3716,
                    2214
                ],
                [
                    3802,
                    2210
                ],
                [
                    3923,
                    2212
                ],
                [
                    3957,
                    2233
                ],
                [
                    3962,
                    2268
                ],
                [
                    3932,
                    2297
                ],
                [
                    3526,
                    2333
                ],
                [
                    3475,
                    2351
                ],
                [
                    3473,
                    2460
                ],
                [
                    3461,
                    2527
                ],
                [
                    3290,
                    2529
                ],
                [
                    2853,
                    2526
                ],
                [
                    2767,
                    2581
                ],
                [
                    2692,
                    2588
                ],
                [
                    2317,
                    2645
                ],
                [
                    2230,
                    2656
                ],
                [
                    2073,
                    2656
                ],
                [
                    1862,
                    2655
                ],
                [
                    1765,
                    2627
                ],
                [
                    1750,
                    2603
                ],
                [
                    1737,
                    1908
                ]
            ],
            "flags": {},
            "group_id": null
        },
        {
            "label": "mask",
            "lineType": [
                "LLLLL"
            ],
            "shape_type": "polygon",
            "points": [
                [
                    2231,
                    2731
                ],
                [
                    2232,
                    3073
                ],
                [
                    4155,
                    3076
                ],
                [
                    4151,
                    2744
                ],
                [
                    2231,
                    2731
                ]
            ],
            "flags": {},
            "group_id": null
        },
        {
            "label": "mask",
            "lineType": [
                "LLLLLLLLLLLLLL"
            ],
            "shape_type": "polygon",
            "points": [
                [
                    2473,
                    1593
                ],
                [
                    2674,
                    1599
                ],
                [
                    2836,
                    1597
                ],
                [
                    2873,
                    1591
                ],
                [
                    2878,
                    1551
                ],
                [
                    2847,
                    1480
                ],
                [
                    2820,
                    1177
                ],
                [
                    2796,
                    1108
                ],
                [
                    2747,
                    1096
                ],
                [
                    2661,
                    1107
                ],
                [
                    2553,
                    1182
                ],
                [
                    2548,
                    1273
                ],
                [
                    2573,
                    1368
                ],
                [
                    2473,
                    1593
                ]
            ],
            "flags": {},
            "group_id": null
        },
        {
            "label": "mask",
            "lineType": [
                "LLLLLLLLLLLLLLLLLLLLLLLLL"
            ],
            "shape_type": "polygon",
            "points": [
                [
                    1917,
                    1594
                ],
                [
                    2095,
                    1593
                ],
                [
                    2266,
                    1603
                ],
                [
                    2314,
                    1598
                ],
                [
                    2317,
                    1532
                ],
                [
                    2313,
                    1464
                ],
                [
                    2375,
                    1422
                ],
                [
                    2447,
                    1395
                ],
                [
                    2480,
                    1352
                ],
                [
                    2478,
                    1298
                ],
                [
                    2423,
                    1230
                ],
                [
                    2379,
                    1102
                ],
                [
                    2411,
                    1051
                ],
                [
                    2403,
                    1002
                ],
                [
                    2334,
                    963
                ],
                [
                    2245,
                    963
                ],
                [
                    2010,
                    1039
                ],
                [
                    1940,
                    1096
                ],
                [
                    1892,
                    1192
                ],
                [
                    1808,
                    1228
                ],
                [
                    1759,
                    1286
                ],
                [
                    1770,
                    1353
                ],
                [
                    1851,
                    1415
                ],
                [
                    1903,
                    1418
                ],
                [
                    1917,
                    1594
                ]
            ],
            "flags": {},
            "group_id": null
        },
        {
            "label": "mask",
            "lineType": [
                "LLLLLLLLLLLLLLLLLLLLLLL"
            ],
            "shape_type": "polygon",
            "points": [
                [
                    1031,
                    1553
                ],
                [
                    1116,
                    1572
                ],
                [
                    1319,
                    1572
                ],
                [
                    1432,
                    1573
                ],
                [
                    1465,
                    1557
                ],
                [
                    1468,
                    1500
                ],
                [
                    1443,
                    1423
                ],
                [
                    1453,
                    1375
                ],
                [
                    1574,
                    1371
                ],
                [
                    1603,
                    1322
                ],
                [
                    1594,
                    1274
                ],
                [
                    1560,
                    1087
                ],
                [
                    1511,
                    1069
                ],
                [
                    1339,
                    1022
                ],
                [
                    1170,
                    1022
                ],
                [
                    1078,
                    1062
                ],
                [
                    1035,
                    1201
                ],
                [
                    960,
                    1233
                ],
                [
                    911,
                    1306
                ],
                [
                    923,
                    1355
                ],
                [
                    1042,
                    1342
                ],
                [
                    1056,
                    1390
                ],
                [
                    1031,
                    1553
                ]
            ],
            "flags": {},
            "group_id": null
        },
        {
            "label": "mask",
            "lineType": [
                "LLLLLLLLLLLLLLLLLLLL"
            ],
            "shape_type": "polygon",
            "points": [
                [
                    300,
                    1635
                ],
                [
                    376,
                    1652
                ],
                [
                    590,
                    1652
                ],
                [
                    698,
                    1645
                ],
                [
                    699,
                    1607
                ],
                [
                    718,
                    1419
                ],
                [
                    721,
                    1256
                ],
                [
                    731,
                    1177
                ],
                [
                    801,
                    1165
                ],
                [
                    816,
                    1127
                ],
                [
                    807,
                    1095
                ],
                [
                    761,
                    1079
                ],
                [
                    414,
                    1069
                ],
                [
                    366,
                    1089
                ],
                [
                    182,
                    1113
                ],
                [
                    126,
                    1148
                ],
                [
                    171,
                    1244
                ],
                [
                    253,
                    1252
                ],
                [
                    283,
                    1343
                ],
                [
                    300,
                    1635
                ]
            ],
            "flags": {},
            "group_id": null
        },
        {
            "label": "mask",
            "lineType": [
                "LLLLLLLLLLLLLLLLLLLLLL"
            ],
            "shape_type": "polygon",
            "points": [
                [
                    148,
                    561
                ],
                [
                    150,
                    708
                ],
                [
                    243,
                    735
                ],
                [
                    413,
                    721
                ],
                [
                    586,
                    838
                ],
                [
                    686,
                    832
                ],
                [
                    802,
                    821
                ],
                [
                    835,
                    816
                ],
                [
                    840,
                    757
                ],
                [
                    1128,
                    728
                ],
                [
                    1158,
                    692
                ],
                [
                    1164,
                    500
                ],
                [
                    1167,
                    380
                ],
                [
                    1232,
                    276
                ],
                [
                    1227,
                    242
                ],
                [
                    1114,
                    228
                ],
                [
                    827,
                    232
                ],
                [
                    633,
                    193
                ],
                [
                    505,
                    191
                ],
                [
                    370,
                    219
                ],
                [
                    282,
                    304
                ],
                [
                    148,
                    561
                ]
            ],
            "flags": {},
            "group_id": null
        },
        {
            "label": "mask",
            "lineType": [
                "LLLLLLLLLLLLLLLLLLLL"
            ],
            "shape_type": "polygon",
            "points": [
                [
                    1494,
                    524
                ],
                [
                    1553,
                    555
                ],
                [
                    1677,
                    555
                ],
                [
                    1812,
                    547
                ],
                [
                    1956,
                    572
                ],
                [
                    2044,
                    568
                ],
                [
                    2079,
                    551
                ],
                [
                    2089,
                    518
                ],
                [
                    2072,
                    454
                ],
                [
                    2012,
                    398
                ],
                [
                    1986,
                    324
                ],
                [
                    2008,
                    219
                ],
                [
                    2002,
                    185
                ],
                [
                    1975,
                    122
                ],
                [
                    1901,
                    84
                ],
                [
                    1778,
                    76
                ],
                [
                    1682,
                    76
                ],
                [
                    1668,
                    132
                ],
                [
                    1543,
                    408
                ],
                [
                    1494,
                    524
                ]
            ],
            "flags": {},
            "group_id": null
        },
        {
            "label": "mask",
            "lineType": [
                "LLLLLLLLL"
            ],
            "shape_type": "polygon",
            "points": [
                [
                    147,
                    1943
                ],
                [
                    766,
                    1936
                ],
                [
                    775,
                    1886
                ],
                [
                    1017,
                    1888
                ],
                [
                    1022,
                    1938
                ],
                [
                    1651,
                    1938
                ],
                [
                    1641,
                    2945
                ],
                [
                    163,
                    2919
                ],
                [
                    147,
                    1943
                ]
            ],
            "flags": {},
            "group_id": null
        },
        {
            "label": "Ns",
            "shape_type": "point",
            "points": [
                [
                    1808,
                    347
                ]
            ],
            "flags": {},
            "group_id": null
        },
        {
            "label": "Ne",
            "shape_type": "point",
            "points": [
                [
                    1808,
                    155
                ]
            ],
            "flags": {},
            "group_id": null
        },
        {
            "label": "wlb",
            "shape_type": "rectangle",
            "points": [
                [
                    186,
                    1905
                ],
                [
                    1630,
                    2906
                ]
            ],
            "flags": {},
            "group_id": null
        },
        {
            "label": "wz1",
            "shape_type": "rectangle",
            "points": [
                [
                    962,
                    248
                ],
                [
                    1200,
                    296
                ]
            ],
            "flags": {},
            "group_id": null
        },
        {
            "label": "wz1-l",
            "lineType": "LL",
            "shape_type": "line",
            "points": [
                [
                    1010,
                    271
                ],
                [
                    930,
                    363
                ]
            ],
            "flags": {},
            "group_id": null
        },
        {
            "label": "wz3",
            "shape_type": "rectangle",
            "points": [
                [
                    554,
                    1422
                ],
                [
                    691,
                    1469
                ]
            ],
            "flags": {},
            "group_id": null
        },
        {
            "label": "wz3",
            "shape_type": "rectangle",
            "points": [
                [
                    654,
                    1102
                ],
                [
                    791,
                    1146
                ]
            ],
            "flags": {},
            "group_id": null
        },
        {
            "label": "wz3",
            "shape_type": "rectangle",
            "points": [
                [
                    177,
                    1162
                ],
                [
                    314,
                    1211
                ]
            ],
            "flags": {},
            "group_id": null
        },
        {
            "label": "wz3",
            "shape_type": "rectangle",
            "points": [
                [
                    937,
                    1274
                ],
                [
                    1074,
                    1322
                ]
            ],
            "flags": {},
            "group_id": null
        },
        {
            "label": "wz3",
            "shape_type": "rectangle",
            "points": [
                [
                    1441,
                    1285
                ],
                [
                    1577,
                    1331
                ]
            ],
            "flags": {},
            "group_id": null
        },
        {
            "label": "wz3",
            "shape_type": "rectangle",
            "points": [
                [
                    1407,
                    1093
                ],
                [
                    1541,
                    1139
                ]
            ],
            "flags": {},
            "group_id": null
        },
        {
            "label": "wz3",
            "shape_type": "rectangle",
            "points": [
                [
                    1785,
                    1246
                ],
                [
                    1971,
                    1335
                ]
            ],
            "flags": {},
            "group_id": null
        },
        {
            "label": "wz3",
            "shape_type": "rectangle",
            "points": [
                [
                    2287,
                    1275
                ],
                [
                    2468,
                    1368
                ]
            ],
            "flags": {},
            "group_id": null
        },
        {
            "label": "wz3",
            "shape_type": "rectangle",
            "points": [
                [
                    2250,
                    995
                ],
                [
                    2387,
                    1081
                ]
            ],
            "flags": {},
            "group_id": null
        },
        {
            "label": "wz3-l",
            "lineType": "LL",
            "shape_type": "line",
            "points": [
                [
                    2327,
                    1329
                ],
                [
                    2218,
                    1305
                ]
            ],
            "flags": {},
            "group_id": null
        },
        {
            "label": "wz3-l",
            "lineType": "LL",
            "shape_type": "line",
            "points": [
                [
                    2284,
                    1062
                ],
                [
                    2208,
                    1109
                ]
            ],
            "flags": {},
            "group_id": null
        },
        {
            "label": "wz3-l",
            "lineType": "LL",
            "shape_type": "line",
            "points": [
                [
                    2000,
                    1276
                ],
                [
                    1932,
                    1296
                ]
            ],
            "flags": {},
            "group_id": null
        },
        {
            "label": "wz3-l",
            "lineType": "LL",
            "shape_type": "line",
            "points": [
                [
                    1461,
                    1312
                ],
                [
                    1368,
                    1299
                ]
            ],
            "flags": {},
            "group_id": null
        },
        {
            "label": "wz3-l",
            "lineType": "LL",
            "shape_type": "line",
            "points": [
                [
                    1441,
                    1132
                ],
                [
                    1337,
                    1115
                ]
            ],
            "flags": {},
            "group_id": null
        },
        {
            "label": "wz3-l",
            "lineType": "LL",
            "shape_type": "line",
            "points": [
                [
                    1143,
                    1275
                ],
                [
                    1061,
                    1299
                ]
            ],
            "flags": {},
            "group_id": null
        },
        {
            "label": "wz3-l",
            "lineType": "LL",
            "shape_type": "line",
            "points": [
                [
                    714,
                    1123
                ],
                [
                    596,
                    1169
                ]
            ],
            "flags": {},
            "group_id": null
        },
        {
            "label": "wz3-l",
            "lineType": "LL",
            "shape_type": "line",
            "points": [
                [
                    627,
                    1445
                ],
                [
                    573,
                    1359
                ]
            ],
            "flags": {},
            "group_id": null
        },
        {
            "label": "wz3-l",
            "lineType": "LL",
            "shape_type": "line",
            "points": [
                [
                    368,
                    1218
                ],
                [
                    285,
                    1195
                ]
            ],
            "flags": {},
            "group_id": null
        },
        {
            "label": "wz1",
            "shape_type": "rectangle",
            "points": [
                [
                    3678,
                    2092
                ],
                [
                    3815,
                    2142
                ]
            ],
            "flags": {},
            "group_id": null
        },
        {
            "label": "wz1",
            "shape_type": "rectangle",
            "points": [
                [
                    3834,
                    1818
                ],
                [
                    4074,
                    1864
                ]
            ],
            "flags": {},
            "group_id": null
        },
        {
            "label": "wz1-l",
            "lineType": "LL",
            "shape_type": "line",
            "points": [
                [
                    3718,
                    2114
                ],
                [
                    3632,
                    2080
                ]
            ],
            "flags": {},
            "group_id": null
        },
        {
            "label": "wz1-l",
            "lineType": "LL",
            "shape_type": "line",
            "points": [
                [
                    3858,
                    1854
                ],
                [
                    3792,
                    1898
                ]
            ],
            "flags": {},
            "group_id": null
        },
        {
            "label": "wz3",
            "shape_type": "rectangle",
            "points": [
                [
                    3098,
                    693
                ],
                [
                    3154,
                    727
                ]
            ],
            "flags": {},
            "group_id": null
        },
        {
            "label": "wz3",
            "shape_type": "rectangle",
            "points": [
                [
                    3046,
                    439
                ],
                [
                    3181,
                    485
                ]
            ],
            "flags": {},
            "group_id": null
        },
        {
            "label": "wz3",
            "shape_type": "rectangle",
            "points": [
                [
                    3038,
                    267
                ],
                [
                    3174,
                    315
                ]
            ],
            "flags": {},
            "group_id": null
        },
        {
            "label": "wz3-l",
            "lineType": "LL",
            "shape_type": "line",
            "points": [
                [
                    3143,
                    293
                ],
                [
                    3436,
                    355
                ]
            ],
            "flags": {},
            "group_id": null
        },
        {
            "label": "wz3-l",
            "lineType": "LL",
            "shape_type": "line",
            "points": [
                [
                    3158,
                    475
                ],
                [
                    3433,
                    546
                ]
            ],
            "flags": {},
            "group_id": null
        },
        {
            "label": "wz3-l",
            "lineType": "LL",
            "shape_type": "line",
            "points": [
                [
                    3132,
                    712
                ],
                [
                    3432,
                    755
                ]
            ],
            "flags": {},
            "group_id": null
        },
        {
            "label": "wz3",
            "shape_type": "rectangle",
            "points": [
                [
                    1694,
                    446
                ],
                [
                    1868,
                    515
                ]
            ],
            "flags": {},
            "group_id": null
        },
        {
            "label": "wz3-l",
            "lineType": "LL",
            "shape_type": "line",
            "points": [
                [
                    1779,
                    488
                ],
                [
                    1806,
                    346
                ]
            ],
            "flags": {},
            "group_id": null
        }
    ],
    "flags": {},
    "imageData": null,
    "version": "4.5.7"
}